%!PS-Adobe-3.0 EPSF-3.0
%%Creator: (MATLAB, The Mathworks, Inc. Version 9.5.0.1033004 \(R2018b\) Update 2. Operating System: Mac OS X)
%%Title: ./Nyquist.eps
%%CreationDate: 2019-11-05T09:30:03
%%Pages: (atend)
%%BoundingBox:    93     3   433   369
%%LanguageLevel: 2
%%EndComments
%%BeginProlog
%%BeginResource: procset (Apache XML Graphics Std ProcSet) 1.2 0
%%Version: 1.2 0
%%Copyright: (Copyright 2001-2003,2010 The Apache Software Foundation. License terms: http://www.apache.org/licenses/LICENSE-2.0)
/bd{bind def}bind def
/ld{load def}bd
/GR/grestore ld
/GS/gsave ld
/RM/rmoveto ld
/C/curveto ld
/t/show ld
/L/lineto ld
/ML/setmiterlimit ld
/CT/concat ld
/f/fill ld
/N/newpath ld
/S/stroke ld
/CC/setcmykcolor ld
/A/ashow ld
/cp/closepath ld
/RC/setrgbcolor ld
/LJ/setlinejoin ld
/GC/setgray ld
/LW/setlinewidth ld
/M/moveto ld
/re {4 2 roll M
1 index 0 rlineto
0 exch rlineto
neg 0 rlineto
cp } bd
/_ctm matrix def
/_tm matrix def
/BT { _ctm currentmatrix pop matrix _tm copy pop 0 0 moveto } bd
/ET { _ctm setmatrix } bd
/iTm { _ctm setmatrix _tm concat } bd
/Tm { _tm astore pop iTm 0 0 moveto } bd
/ux 0.0 def
/uy 0.0 def
/F {
  /Tp exch def
  /Tf exch def
  Tf findfont Tp scalefont setfont
  /cf Tf def  /cs Tp def
} bd
/ULS {currentpoint /uy exch def /ux exch def} bd
/ULE {
  /Tcx currentpoint pop def
  gsave
  newpath
  cf findfont cs scalefont dup
  /FontMatrix get 0 get /Ts exch def /FontInfo get dup
  /UnderlinePosition get Ts mul /To exch def
  /UnderlineThickness get Ts mul /Tt exch def
  ux uy To add moveto  Tcx uy To add lineto
  Tt setlinewidth stroke
  grestore
} bd
/OLE {
  /Tcx currentpoint pop def
  gsave
  newpath
  cf findfont cs scalefont dup
  /FontMatrix get 0 get /Ts exch def /FontInfo get dup
  /UnderlinePosition get Ts mul /To exch def
  /UnderlineThickness get Ts mul /Tt exch def
  ux uy To add cs add moveto Tcx uy To add cs add lineto
  Tt setlinewidth stroke
  grestore
} bd
/SOE {
  /Tcx currentpoint pop def
  gsave
  newpath
  cf findfont cs scalefont dup
  /FontMatrix get 0 get /Ts exch def /FontInfo get dup
  /UnderlinePosition get Ts mul /To exch def
  /UnderlineThickness get Ts mul /Tt exch def
  ux uy To add cs 10 mul 26 idiv add moveto Tcx uy To add cs 10 mul 26 idiv add lineto
  Tt setlinewidth stroke
  grestore
} bd
/QT {
/Y22 exch store
/X22 exch store
/Y21 exch store
/X21 exch store
currentpoint
/Y21 load 2 mul add 3 div exch
/X21 load 2 mul add 3 div exch
/X21 load 2 mul /X22 load add 3 div
/Y21 load 2 mul /Y22 load add 3 div
/X22 load /Y22 load curveto
} bd
/SSPD {
dup length /d exch dict def
{
/v exch def
/k exch def
currentpagedevice k known {
/cpdv currentpagedevice k get def
v cpdv ne {
/upd false def
/nullv v type /nulltype eq def
/nullcpdv cpdv type /nulltype eq def
nullv nullcpdv or
{
/upd true def
} {
/sametype v type cpdv type eq def
sametype {
v type /arraytype eq {
/vlen v length def
/cpdvlen cpdv length def
vlen cpdvlen eq {
0 1 vlen 1 sub {
/i exch def
/obj v i get def
/cpdobj cpdv i get def
obj cpdobj ne {
/upd true def
exit
} if
} for
} {
/upd true def
} ifelse
} {
v type /dicttype eq {
v {
/dv exch def
/dk exch def
/cpddv cpdv dk get def
dv cpddv ne {
/upd true def
exit
} if
} forall
} {
/upd true def
} ifelse
} ifelse
} if
} ifelse
upd true eq {
d k v put
} if
} if
} if
} forall
d length 0 gt {
d setpagedevice
} if
} bd
/RE { % /NewFontName [NewEncodingArray] /FontName RE -
  findfont dup length dict begin
  {
    1 index /FID ne
    {def} {pop pop} ifelse
  } forall
  /Encoding exch def
  /FontName 1 index def
  currentdict definefont pop
  end
} bind def
%%EndResource
%%BeginResource: procset (Apache XML Graphics EPS ProcSet) 1.0 0
%%Version: 1.0 0
%%Copyright: (Copyright 2002-2003 The Apache Software Foundation. License terms: http://www.apache.org/licenses/LICENSE-2.0)
/BeginEPSF { %def
/b4_Inc_state save def         % Save state for cleanup
/dict_count countdictstack def % Count objects on dict stack
/op_count count 1 sub def      % Count objects on operand stack
userdict begin                 % Push userdict on dict stack
/showpage { } def              % Redefine showpage, { } = null proc
0 setgray 0 setlinecap         % Prepare graphics state
1 setlinewidth 0 setlinejoin
10 setmiterlimit [ ] 0 setdash newpath
/languagelevel where           % If level not equal to 1 then
{pop languagelevel             % set strokeadjust and
1 ne                           % overprint to their defaults.
{false setstrokeadjust false setoverprint
} if
} if
} bd
/EndEPSF { %def
count op_count sub {pop} repeat            % Clean up stacks
countdictstack dict_count sub {end} repeat
b4_Inc_state restore
} bd
%%EndResource
%FOPBeginFontDict
%%IncludeResource: font Courier-Oblique
%%IncludeResource: font Courier-BoldOblique
%%IncludeResource: font Courier-Bold
%%IncludeResource: font ZapfDingbats
%%IncludeResource: font Symbol
%%IncludeResource: font Helvetica
%%IncludeResource: font Helvetica-Oblique
%%IncludeResource: font Helvetica-Bold
%%IncludeResource: font Helvetica-BoldOblique
%%IncludeResource: font Times-Roman
%%IncludeResource: font Times-Italic
%%IncludeResource: font Times-Bold
%%IncludeResource: font Times-BoldItalic
%%IncludeResource: font Courier
%FOPEndFontDict
%%BeginResource: encoding WinAnsiEncoding
/WinAnsiEncoding [
/.notdef /.notdef /.notdef /.notdef /.notdef
/.notdef /.notdef /.notdef /.notdef /.notdef
/.notdef /.notdef /.notdef /.notdef /.notdef
/.notdef /.notdef /.notdef /.notdef /.notdef
/.notdef /.notdef /.notdef /.notdef /.notdef
/.notdef /.notdef /.notdef /.notdef /.notdef
/.notdef /.notdef /space /exclam /quotedbl
/numbersign /dollar /percent /ampersand /quotesingle
/parenleft /parenright /asterisk /plus /comma
/hyphen /period /slash /zero /one
/two /three /four /five /six
/seven /eight /nine /colon /semicolon
/less /equal /greater /question /at
/A /B /C /D /E
/F /G /H /I /J
/K /L /M /N /O
/P /Q /R /S /T
/U /V /W /X /Y
/Z /bracketleft /backslash /bracketright /asciicircum
/underscore /quoteleft /a /b /c
/d /e /f /g /h
/i /j /k /l /m
/n /o /p /q /r
/s /t /u /v /w
/x /y /z /braceleft /bar
/braceright /asciitilde /bullet /Euro /bullet
/quotesinglbase /florin /quotedblbase /ellipsis /dagger
/daggerdbl /circumflex /perthousand /Scaron /guilsinglleft
/OE /bullet /Zcaron /bullet /bullet
/quoteleft /quoteright /quotedblleft /quotedblright /bullet
/endash /emdash /asciitilde /trademark /scaron
/guilsinglright /oe /bullet /zcaron /Ydieresis
/space /exclamdown /cent /sterling /currency
/yen /brokenbar /section /dieresis /copyright
/ordfeminine /guillemotleft /logicalnot /sfthyphen /registered
/macron /degree /plusminus /twosuperior /threesuperior
/acute /mu /paragraph /middot /cedilla
/onesuperior /ordmasculine /guillemotright /onequarter /onehalf
/threequarters /questiondown /Agrave /Aacute /Acircumflex
/Atilde /Adieresis /Aring /AE /Ccedilla
/Egrave /Eacute /Ecircumflex /Edieresis /Igrave
/Iacute /Icircumflex /Idieresis /Eth /Ntilde
/Ograve /Oacute /Ocircumflex /Otilde /Odieresis
/multiply /Oslash /Ugrave /Uacute /Ucircumflex
/Udieresis /Yacute /Thorn /germandbls /agrave
/aacute /acircumflex /atilde /adieresis /aring
/ae /ccedilla /egrave /eacute /ecircumflex
/edieresis /igrave /iacute /icircumflex /idieresis
/eth /ntilde /ograve /oacute /ocircumflex
/otilde /odieresis /divide /oslash /ugrave
/uacute /ucircumflex /udieresis /yacute /thorn
/ydieresis
] def
%%EndResource
%FOPBeginFontReencode
/Courier-Oblique findfont
dup length dict begin
  {1 index /FID ne {def} {pop pop} ifelse} forall
  /Encoding WinAnsiEncoding def
  currentdict
end
/Courier-Oblique exch definefont pop
/Courier-BoldOblique findfont
dup length dict begin
  {1 index /FID ne {def} {pop pop} ifelse} forall
  /Encoding WinAnsiEncoding def
  currentdict
end
/Courier-BoldOblique exch definefont pop
/Courier-Bold findfont
dup length dict begin
  {1 index /FID ne {def} {pop pop} ifelse} forall
  /Encoding WinAnsiEncoding def
  currentdict
end
/Courier-Bold exch definefont pop
/Helvetica findfont
dup length dict begin
  {1 index /FID ne {def} {pop pop} ifelse} forall
  /Encoding WinAnsiEncoding def
  currentdict
end
/Helvetica exch definefont pop
/Helvetica-Oblique findfont
dup length dict begin
  {1 index /FID ne {def} {pop pop} ifelse} forall
  /Encoding WinAnsiEncoding def
  currentdict
end
/Helvetica-Oblique exch definefont pop
/Helvetica-Bold findfont
dup length dict begin
  {1 index /FID ne {def} {pop pop} ifelse} forall
  /Encoding WinAnsiEncoding def
  currentdict
end
/Helvetica-Bold exch definefont pop
/Helvetica-BoldOblique findfont
dup length dict begin
  {1 index /FID ne {def} {pop pop} ifelse} forall
  /Encoding WinAnsiEncoding def
  currentdict
end
/Helvetica-BoldOblique exch definefont pop
/Times-Roman findfont
dup length dict begin
  {1 index /FID ne {def} {pop pop} ifelse} forall
  /Encoding WinAnsiEncoding def
  currentdict
end
/Times-Roman exch definefont pop
/Times-Italic findfont
dup length dict begin
  {1 index /FID ne {def} {pop pop} ifelse} forall
  /Encoding WinAnsiEncoding def
  currentdict
end
/Times-Italic exch definefont pop
/Times-Bold findfont
dup length dict begin
  {1 index /FID ne {def} {pop pop} ifelse} forall
  /Encoding WinAnsiEncoding def
  currentdict
end
/Times-Bold exch definefont pop
/Times-BoldItalic findfont
dup length dict begin
  {1 index /FID ne {def} {pop pop} ifelse} forall
  /Encoding WinAnsiEncoding def
  currentdict
end
/Times-BoldItalic exch definefont pop
/Courier findfont
dup length dict begin
  {1 index /FID ne {def} {pop pop} ifelse} forall
  /Encoding WinAnsiEncoding def
  currentdict
end
/Courier exch definefont pop
%FOPEndFontReencode
%%EndProlog
%%Page: 1 1
%%PageBoundingBox: 0 0 531 370
%%BeginPageSetup
[1 0 0 -1 0 370] CT
%%EndPageSetup
GS
[0.99977 0 0 0.9996 0 0.14755] CT
1 GC
N
0 0 531 370 re
f
GR
GS
[0.99977 0 0 0.9996 0 0.14755] CT
1 GC
N
0 0 531 370 re
f
GR
GS
[0.99977 0 0 0.9996 0 0.14755] CT
1 GC
N
143.75 317.5 M
431.75 317.5 L
431.75 29.5 L
143.75 29.5 L
cp
f
GR
GS
[0.99977 0 0 0.9996 0 0.14755] CT
0.873 GC
1 LJ
1.225 LW
N
143.75 317.5 M
143.75 29.5 L
S
GR
GS
[0.99977 0 0 0.9996 0 0.14755] CT
0.873 GC
1 LJ
1.225 LW
N
223.75 317.5 M
223.75 29.5 L
S
GR
GS
[0.99977 0 0 0.9996 0 0.14755] CT
0.873 GC
1 LJ
1.225 LW
N
303.75 317.5 M
303.75 29.5 L
S
GR
GS
[0.99977 0 0 0.9996 0 0.14755] CT
0.873 GC
1 LJ
1.225 LW
N
383.75 317.5 M
383.75 29.5 L
S
GR
GS
[0.99977 0 0 0.9996 0 0.14755] CT
0.873 GC
1 LJ
1.225 LW
N
431.75 317.5 M
143.75 317.5 L
S
GR
GS
[0.99977 0 0 0.9996 0 0.14755] CT
0.873 GC
1 LJ
1.225 LW
N
431.75 237.5 M
143.75 237.5 L
S
GR
GS
[0.99977 0 0 0.9996 0 0.14755] CT
0.873 GC
1 LJ
1.225 LW
N
431.75 157.5 M
143.75 157.5 L
S
GR
GS
[0.99977 0 0 0.9996 0 0.14755] CT
0.873 GC
1 LJ
1.225 LW
N
431.75 77.5 M
143.75 77.5 L
S
GR
GS
[0.99977 0 0 0.9996 0 0.14755] CT
0.149 GC
2 setlinecap
1 LJ
1.225 LW
N
143.75 317.5 M
431.75 317.5 L
S
GR
GS
[0.99977 0 0 0.9996 0 0.14755] CT
0.149 GC
2 setlinecap
1 LJ
1.225 LW
N
143.75 29.5 M
431.75 29.5 L
S
GR
GS
[0.99977 0 0 0.9996 0 0.14755] CT
0.149 GC
2 setlinecap
1 LJ
1.225 LW
N
143.75 317.5 M
143.75 314.62 L
S
GR
GS
[0.99977 0 0 0.9996 0 0.14755] CT
0.149 GC
2 setlinecap
1 LJ
1.225 LW
N
223.75 317.5 M
223.75 314.62 L
S
GR
GS
[0.99977 0 0 0.9996 0 0.14755] CT
0.149 GC
2 setlinecap
1 LJ
1.225 LW
N
303.75 317.5 M
303.75 314.62 L
S
GR
GS
[0.99977 0 0 0.9996 0 0.14755] CT
0.149 GC
2 setlinecap
1 LJ
1.225 LW
N
383.75 317.5 M
383.75 314.62 L
S
GR
GS
[0.99977 0 0 0.9996 0 0.14755] CT
0.149 GC
2 setlinecap
1 LJ
1.225 LW
N
143.75 29.5 M
143.75 32.38 L
S
GR
GS
[0.99977 0 0 0.9996 0 0.14755] CT
0.149 GC
2 setlinecap
1 LJ
1.225 LW
N
223.75 29.5 M
223.75 32.38 L
S
GR
GS
[0.99977 0 0 0.9996 0 0.14755] CT
0.149 GC
2 setlinecap
1 LJ
1.225 LW
N
303.75 29.5 M
303.75 32.38 L
S
GR
GS
[0.99977 0 0 0.9996 0 0.14755] CT
0.149 GC
2 setlinecap
1 LJ
1.225 LW
N
383.75 29.5 M
383.75 32.38 L
S
GR
GS
[0.99977 0 0 0.9996 0 0.14755] CT
0.149 GC
2 setlinecap
1 LJ
1.225 LW
N
159.75 317.5 M
159.75 316.06 L
S
GR
GS
[0.99977 0 0 0.9996 0 0.14755] CT
0.149 GC
2 setlinecap
1 LJ
1.225 LW
N
175.75 317.5 M
175.75 316.06 L
S
GR
GS
[0.99977 0 0 0.9996 0 0.14755] CT
0.149 GC
2 setlinecap
1 LJ
1.225 LW
N
191.75 317.5 M
191.75 316.06 L
S
GR
GS
[0.99977 0 0 0.9996 0 0.14755] CT
0.149 GC
2 setlinecap
1 LJ
1.225 LW
N
207.75 317.5 M
207.75 316.06 L
S
GR
GS
[0.99977 0 0 0.9996 0 0.14755] CT
0.149 GC
2 setlinecap
1 LJ
1.225 LW
N
239.75 317.5 M
239.75 316.06 L
S
GR
GS
[0.99977 0 0 0.9996 0 0.14755] CT
0.149 GC
2 setlinecap
1 LJ
1.225 LW
N
255.75 317.5 M
255.75 316.06 L
S
GR
GS
[0.99977 0 0 0.9996 0 0.14755] CT
0.149 GC
2 setlinecap
1 LJ
1.225 LW
N
271.75 317.5 M
271.75 316.06 L
S
GR
GS
[0.99977 0 0 0.9996 0 0.14755] CT
0.149 GC
2 setlinecap
1 LJ
1.225 LW
N
287.75 317.5 M
287.75 316.06 L
S
GR
GS
[0.99977 0 0 0.9996 0 0.14755] CT
0.149 GC
2 setlinecap
1 LJ
1.225 LW
N
319.75 317.5 M
319.75 316.06 L
S
GR
GS
[0.99977 0 0 0.9996 0 0.14755] CT
0.149 GC
2 setlinecap
1 LJ
1.225 LW
N
335.75 317.5 M
335.75 316.06 L
S
GR
GS
[0.99977 0 0 0.9996 0 0.14755] CT
0.149 GC
2 setlinecap
1 LJ
1.225 LW
N
351.75 317.5 M
351.75 316.06 L
S
GR
GS
[0.99977 0 0 0.9996 0 0.14755] CT
0.149 GC
2 setlinecap
1 LJ
1.225 LW
N
367.75 317.5 M
367.75 316.06 L
S
GR
GS
[0.99977 0 0 0.9996 0 0.14755] CT
0.149 GC
2 setlinecap
1 LJ
1.225 LW
N
399.75 317.5 M
399.75 316.06 L
S
GR
GS
[0.99977 0 0 0.9996 0 0.14755] CT
0.149 GC
2 setlinecap
1 LJ
1.225 LW
N
415.75 317.5 M
415.75 316.06 L
S
GR
GS
[0.99977 0 0 0.9996 0 0.14755] CT
0.149 GC
2 setlinecap
1 LJ
1.225 LW
N
431.75 317.5 M
431.75 316.06 L
S
GR
GS
[0.99977 0 0 0.9996 0 0.14755] CT
0.149 GC
2 setlinecap
1 LJ
1.225 LW
N
159.75 29.5 M
159.75 30.94 L
S
GR
GS
[0.99977 0 0 0.9996 0 0.14755] CT
0.149 GC
2 setlinecap
1 LJ
1.225 LW
N
175.75 29.5 M
175.75 30.94 L
S
GR
GS
[0.99977 0 0 0.9996 0 0.14755] CT
0.149 GC
2 setlinecap
1 LJ
1.225 LW
N
191.75 29.5 M
191.75 30.94 L
S
GR
GS
[0.99977 0 0 0.9996 0 0.14755] CT
0.149 GC
2 setlinecap
1 LJ
1.225 LW
N
207.75 29.5 M
207.75 30.94 L
S
GR
GS
[0.99977 0 0 0.9996 0 0.14755] CT
0.149 GC
2 setlinecap
1 LJ
1.225 LW
N
239.75 29.5 M
239.75 30.94 L
S
GR
GS
[0.99977 0 0 0.9996 0 0.14755] CT
0.149 GC
2 setlinecap
1 LJ
1.225 LW
N
255.75 29.5 M
255.75 30.94 L
S
GR
GS
[0.99977 0 0 0.9996 0 0.14755] CT
0.149 GC
2 setlinecap
1 LJ
1.225 LW
N
271.75 29.5 M
271.75 30.94 L
S
GR
GS
[0.99977 0 0 0.9996 0 0.14755] CT
0.149 GC
2 setlinecap
1 LJ
1.225 LW
N
287.75 29.5 M
287.75 30.94 L
S
GR
GS
[0.99977 0 0 0.9996 0 0.14755] CT
0.149 GC
2 setlinecap
1 LJ
1.225 LW
N
319.75 29.5 M
319.75 30.94 L
S
GR
GS
[0.99977 0 0 0.9996 0 0.14755] CT
0.149 GC
2 setlinecap
1 LJ
1.225 LW
N
335.75 29.5 M
335.75 30.94 L
S
GR
GS
[0.99977 0 0 0.9996 0 0.14755] CT
0.149 GC
2 setlinecap
1 LJ
1.225 LW
N
351.75 29.5 M
351.75 30.94 L
S
GR
GS
[0.99977 0 0 0.9996 0 0.14755] CT
0.149 GC
2 setlinecap
1 LJ
1.225 LW
N
367.75 29.5 M
367.75 30.94 L
S
GR
GS
[0.99977 0 0 0.9996 0 0.14755] CT
0.149 GC
2 setlinecap
1 LJ
1.225 LW
N
399.75 29.5 M
399.75 30.94 L
S
GR
GS
[0.99977 0 0 0.9996 0 0.14755] CT
0.149 GC
2 setlinecap
1 LJ
1.225 LW
N
415.75 29.5 M
415.75 30.94 L
S
GR
GS
[0.99977 0 0 0.9996 0 0.14755] CT
0.149 GC
2 setlinecap
1 LJ
1.225 LW
N
431.75 29.5 M
431.75 30.94 L
S
GR
GS
[0.99977 0 0 0.9996 143.71752 323.36861] CT
0.149 GC
/Times-Roman 19.25 F
GS
[1 0 0 1 0 0] CT
-5 18 moveto 
1 -1 scale
(0) t 
GR
GR
GS
[0.99977 0 0 0.9996 223.69944 323.36861] CT
0.149 GC
/Times-Roman 19.25 F
GS
[1 0 0 1 0 0] CT
-12.5 18 moveto 
1 -1 scale
(0.5) t 
GR
GR
GS
[0.99977 0 0 0.9996 303.68136 323.36861] CT
0.149 GC
/Times-Roman 19.25 F
GS
[1 0 0 1 0 0] CT
-5 18 moveto 
1 -1 scale
(1) t 
GR
GR
GS
[0.99977 0 0 0.9996 383.66328 323.36861] CT
0.149 GC
/Times-Roman 19.25 F
GS
[1 0 0 1 0 0] CT
-12.5 18 moveto 
1 -1 scale
(1.5) t 
GR
GR
GS
[0.99977 0 0 0.9996 232.94735 363.00279] CT
0.149 GC
/Times-Roman 21 F
GS
[1 0 0 1 0 0] CT
0 0 moveto 
1 -1 scale
(Real Z \(m) t 
GR
GR
GS
[0.99977 0 0 0.9996 318.92791 363.00279] CT
0.149 GC
N
1.625 0 M
0.922 -3.484 L
1.531 -3.484 L
1.656 -2.875 1.742 -2.414 QT
1.828 -1.953 1.984 -1.758 QT
2.141 -1.563 2.469 -1.508 QT
2.797 -1.453 3.547 -1.453 QT
4.828 -1.453 L
4.516 -2.641 3.297 -4.547 QT
2.078 -6.453 1.625 -7.32 QT
1.172 -8.188 1.172 -9.563 QT
1.172 -11.141 2.117 -12.336 QT
3.063 -13.531 4.555 -14.172 QT
6.047 -14.813 7.578 -14.813 QT
9.094 -14.813 10.586 -14.172 QT
12.078 -13.531 13.023 -12.328 QT
13.969 -11.125 13.969 -9.563 QT
13.969 -8.484 13.578 -7.547 QT
13.188 -6.609 12.586 -5.664 QT
11.984 -4.719 11.281 -3.563 QT
10.578 -2.406 10.313 -1.453 QT
11.594 -1.453 L
12.359 -1.453 12.695 -1.508 QT
13.031 -1.563 13.172 -1.758 QT
13.313 -1.953 13.406 -2.414 QT
13.5 -2.875 13.609 -3.484 QT
14.219 -3.484 L
13.531 0 L
9.797 0 L
9.594 0 9.594 -0.281 QT
9.594 -1.344 9.859 -2.367 QT
10.125 -3.391 10.633 -4.852 QT
11.141 -6.313 11.43 -7.422 QT
11.719 -8.531 11.719 -9.563 QT
11.719 -10.813 11.227 -11.891 QT
10.734 -12.969 9.789 -13.617 QT
8.844 -14.266 7.578 -14.266 QT
5.656 -14.266 4.539 -12.898 QT
3.422 -11.531 3.422 -9.563 QT
3.438 -8.484 3.68 -7.531 QT
3.922 -6.578 4.477 -4.984 QT
5.031 -3.391 5.289 -2.367 QT
5.547 -1.344 5.547 -0.281 QT
5.547 0 5.328 0 QT
1.625 0 L
cp
f
GR
GS
[0.99977 0 0 0.9996 334.9243 363.00279] CT
0.149 GC
/Times-Roman 21 F
GS
[1 0 0 1 0 0] CT
0 0 moveto 
1 -1 scale
(\)) t 
GR
GR
GS
[0.99977 0 0 0.9996 0 0.14755] CT
0.149 GC
2 setlinecap
1 LJ
1.225 LW
N
143.75 317.5 M
143.75 29.5 L
S
GR
GS
[0.99977 0 0 0.9996 0 0.14755] CT
0.149 GC
2 setlinecap
1 LJ
1.225 LW
N
431.75 317.5 M
431.75 29.5 L
S
GR
GS
[0.99977 0 0 0.9996 0 0.14755] CT
0.149 GC
2 setlinecap
1 LJ
1.225 LW
N
143.75 317.5 M
146.63 317.5 L
S
GR
GS
[0.99977 0 0 0.9996 0 0.14755] CT
0.149 GC
2 setlinecap
1 LJ
1.225 LW
N
143.75 237.5 M
146.63 237.5 L
S
GR
GS
[0.99977 0 0 0.9996 0 0.14755] CT
0.149 GC
2 setlinecap
1 LJ
1.225 LW
N
143.75 157.5 M
146.63 157.5 L
S
GR
GS
[0.99977 0 0 0.9996 0 0.14755] CT
0.149 GC
2 setlinecap
1 LJ
1.225 LW
N
143.75 77.5 M
146.63 77.5 L
S
GR
GS
[0.99977 0 0 0.9996 0 0.14755] CT
0.149 GC
2 setlinecap
1 LJ
1.225 LW
N
431.75 317.5 M
428.87 317.5 L
S
GR
GS
[0.99977 0 0 0.9996 0 0.14755] CT
0.149 GC
2 setlinecap
1 LJ
1.225 LW
N
431.75 237.5 M
428.87 237.5 L
S
GR
GS
[0.99977 0 0 0.9996 0 0.14755] CT
0.149 GC
2 setlinecap
1 LJ
1.225 LW
N
431.75 157.5 M
428.87 157.5 L
S
GR
GS
[0.99977 0 0 0.9996 0 0.14755] CT
0.149 GC
2 setlinecap
1 LJ
1.225 LW
N
431.75 77.5 M
428.87 77.5 L
S
GR
GS
[0.99977 0 0 0.9996 0 0.14755] CT
0.149 GC
2 setlinecap
1 LJ
1.225 LW
N
143.75 301.5 M
145.19 301.5 L
S
GR
GS
[0.99977 0 0 0.9996 0 0.14755] CT
0.149 GC
2 setlinecap
1 LJ
1.225 LW
N
143.75 285.5 M
145.19 285.5 L
S
GR
GS
[0.99977 0 0 0.9996 0 0.14755] CT
0.149 GC
2 setlinecap
1 LJ
1.225 LW
N
143.75 269.5 M
145.19 269.5 L
S
GR
GS
[0.99977 0 0 0.9996 0 0.14755] CT
0.149 GC
2 setlinecap
1 LJ
1.225 LW
N
143.75 253.5 M
145.19 253.5 L
S
GR
GS
[0.99977 0 0 0.9996 0 0.14755] CT
0.149 GC
2 setlinecap
1 LJ
1.225 LW
N
143.75 221.5 M
145.19 221.5 L
S
GR
GS
[0.99977 0 0 0.9996 0 0.14755] CT
0.149 GC
2 setlinecap
1 LJ
1.225 LW
N
143.75 205.5 M
145.19 205.5 L
S
GR
GS
[0.99977 0 0 0.9996 0 0.14755] CT
0.149 GC
2 setlinecap
1 LJ
1.225 LW
N
143.75 189.5 M
145.19 189.5 L
S
GR
GS
[0.99977 0 0 0.9996 0 0.14755] CT
0.149 GC
2 setlinecap
1 LJ
1.225 LW
N
143.75 173.5 M
145.19 173.5 L
S
GR
GS
[0.99977 0 0 0.9996 0 0.14755] CT
0.149 GC
2 setlinecap
1 LJ
1.225 LW
N
143.75 141.5 M
145.19 141.5 L
S
GR
GS
[0.99977 0 0 0.9996 0 0.14755] CT
0.149 GC
2 setlinecap
1 LJ
1.225 LW
N
143.75 125.5 M
145.19 125.5 L
S
GR
GS
[0.99977 0 0 0.9996 0 0.14755] CT
0.149 GC
2 setlinecap
1 LJ
1.225 LW
N
143.75 109.5 M
145.19 109.5 L
S
GR
GS
[0.99977 0 0 0.9996 0 0.14755] CT
0.149 GC
2 setlinecap
1 LJ
1.225 LW
N
143.75 93.5 M
145.19 93.5 L
S
GR
GS
[0.99977 0 0 0.9996 0 0.14755] CT
0.149 GC
2 setlinecap
1 LJ
1.225 LW
N
143.75 61.5 M
145.19 61.5 L
S
GR
GS
[0.99977 0 0 0.9996 0 0.14755] CT
0.149 GC
2 setlinecap
1 LJ
1.225 LW
N
143.75 45.5 M
145.19 45.5 L
S
GR
GS
[0.99977 0 0 0.9996 0 0.14755] CT
0.149 GC
2 setlinecap
1 LJ
1.225 LW
N
143.75 29.5 M
145.19 29.5 L
S
GR
GS
[0.99977 0 0 0.9996 0 0.14755] CT
0.149 GC
2 setlinecap
1 LJ
1.225 LW
N
431.75 301.5 M
430.31 301.5 L
S
GR
GS
[0.99977 0 0 0.9996 0 0.14755] CT
0.149 GC
2 setlinecap
1 LJ
1.225 LW
N
431.75 285.5 M
430.31 285.5 L
S
GR
GS
[0.99977 0 0 0.9996 0 0.14755] CT
0.149 GC
2 setlinecap
1 LJ
1.225 LW
N
431.75 269.5 M
430.31 269.5 L
S
GR
GS
[0.99977 0 0 0.9996 0 0.14755] CT
0.149 GC
2 setlinecap
1 LJ
1.225 LW
N
431.75 253.5 M
430.31 253.5 L
S
GR
GS
[0.99977 0 0 0.9996 0 0.14755] CT
0.149 GC
2 setlinecap
1 LJ
1.225 LW
N
431.75 221.5 M
430.31 221.5 L
S
GR
GS
[0.99977 0 0 0.9996 0 0.14755] CT
0.149 GC
2 setlinecap
1 LJ
1.225 LW
N
431.75 205.5 M
430.31 205.5 L
S
GR
GS
[0.99977 0 0 0.9996 0 0.14755] CT
0.149 GC
2 setlinecap
1 LJ
1.225 LW
N
431.75 189.5 M
430.31 189.5 L
S
GR
GS
[0.99977 0 0 0.9996 0 0.14755] CT
0.149 GC
2 setlinecap
1 LJ
1.225 LW
N
431.75 173.5 M
430.31 173.5 L
S
GR
GS
[0.99977 0 0 0.9996 0 0.14755] CT
0.149 GC
2 setlinecap
1 LJ
1.225 LW
N
431.75 141.5 M
430.31 141.5 L
S
GR
GS
[0.99977 0 0 0.9996 0 0.14755] CT
0.149 GC
2 setlinecap
1 LJ
1.225 LW
N
431.75 125.5 M
430.31 125.5 L
S
GR
GS
[0.99977 0 0 0.9996 0 0.14755] CT
0.149 GC
2 setlinecap
1 LJ
1.225 LW
N
431.75 109.5 M
430.31 109.5 L
S
GR
GS
[0.99977 0 0 0.9996 0 0.14755] CT
0.149 GC
2 setlinecap
1 LJ
1.225 LW
N
431.75 93.5 M
430.31 93.5 L
S
GR
GS
[0.99977 0 0 0.9996 0 0.14755] CT
0.149 GC
2 setlinecap
1 LJ
1.225 LW
N
431.75 61.5 M
430.31 61.5 L
S
GR
GS
[0.99977 0 0 0.9996 0 0.14755] CT
0.149 GC
2 setlinecap
1 LJ
1.225 LW
N
431.75 45.5 M
430.31 45.5 L
S
GR
GS
[0.99977 0 0 0.9996 0 0.14755] CT
0.149 GC
2 setlinecap
1 LJ
1.225 LW
N
431.75 29.5 M
430.31 29.5 L
S
GR
GS
[0.99977 0 0 0.9996 137.86883 317.52094] CT
0.149 GC
/Times-Roman 19.25 F
GS
[1 0 0 1 0 0] CT
-10 6.5 moveto 
1 -1 scale
(0) t 
GR
GR
GS
[0.99977 0 0 0.9996 137.86883 237.55284] CT
0.149 GC
/Times-Roman 19.25 F
GS
[1 0 0 1 0 0] CT
-25 6.5 moveto 
1 -1 scale
(0.5) t 
GR
GR
GS
[0.99977 0 0 0.9996 137.86883 157.58474] CT
0.149 GC
/Times-Roman 19.25 F
GS
[1 0 0 1 0 0] CT
-10 6.5 moveto 
1 -1 scale
(1) t 
GR
GR
GS
[0.99977 0 0 0.9996 137.86883 77.61665] CT
0.149 GC
/Times-Roman 19.25 F
GS
[1 0 0 1 0 0] CT
-25 6.5 moveto 
1 -1 scale
(1.5) t 
GR
GR
GS
[0 -0.9996 0.99977 0 107.97559 233.05463] CT
0.149 GC
/Times-Roman 21 F
GS
[1 0 0 1 0 0] CT
0 0 moveto 
1 -1 scale
(-Imag Z \(m) t 
GR
GR
GS
[0 -0.9996 0.99977 0 107.97559 136.09332] CT
0.149 GC
N
/f-1360422069{1.625 0 M
0.922 -3.484 L
1.531 -3.484 L
1.656 -2.875 1.742 -2.414 QT
1.828 -1.953 1.984 -1.758 QT
2.141 -1.563 2.469 -1.508 QT
2.797 -1.453 3.547 -1.453 QT
4.828 -1.453 L
4.516 -2.641 3.297 -4.547 QT
2.078 -6.453 1.625 -7.32 QT
1.172 -8.188 1.172 -9.563 QT
1.172 -11.141 2.117 -12.336 QT
3.063 -13.531 4.555 -14.172 QT
6.047 -14.813 7.578 -14.813 QT
9.094 -14.813 10.586 -14.172 QT
12.078 -13.531 13.023 -12.328 QT
13.969 -11.125 13.969 -9.563 QT
13.969 -8.484 13.578 -7.547 QT
13.188 -6.609 12.586 -5.664 QT
11.984 -4.719 11.281 -3.563 QT
10.578 -2.406 10.313 -1.453 QT
11.594 -1.453 L
12.359 -1.453 12.695 -1.508 QT
13.031 -1.563 13.172 -1.758 QT
13.313 -1.953 13.406 -2.414 QT
13.5 -2.875 13.609 -3.484 QT
14.219 -3.484 L
13.531 0 L
9.797 0 L
9.594 0 9.594 -0.281 QT
9.594 -1.344 9.859 -2.367 QT
10.125 -3.391 10.633 -4.852 QT
11.141 -6.313 11.43 -7.422 QT
11.719 -8.531 11.719 -9.563 QT
11.719 -10.813 11.227 -11.891 QT
10.734 -12.969 9.789 -13.617 QT
8.844 -14.266 7.578 -14.266 QT
5.656 -14.266 4.539 -12.898 QT
3.422 -11.531 3.422 -9.563 QT
3.438 -8.484 3.68 -7.531 QT
3.922 -6.578 4.477 -4.984 QT
5.031 -3.391 5.289 -2.367 QT
5.547 -1.344 5.547 -0.281 QT
5.547 0 5.328 0 QT
1.625 0 L
cp}def
f-1360422069
f
GR
GS
[0 -0.9996 0.99977 0 107.97559 120.0997] CT
0.149 GC
/Times-Roman 21 F
GS
[1 0 0 1 0 0] CT
0 0 moveto 
1 -1 scale
(\)) t 
GR
GR
GS
[0.99977 0 0 0.9996 287.68525 24.61035] CT
/Times-Roman 24.5 F
GS
[1 0 0 1 0 0] CT
-132.5 -6 moveto 
1 -1 scale
(Nyquist plot for 25 Ah cell) t 
GR
GR
GS
[0.99977 0 0 0.9996 209.18467 313.17565] CT
0 0 1 RC
N
1.667 0 M
1.667 0.92 0.92 1.667 0 1.667 C
-0.92 1.667 -1.667 0.92 -1.667 0 C
-1.667 -0.92 -0.92 -1.667 0 -1.667 C
0.92 -1.667 1.667 -0.92 1.667 0 C
cp
f
GR
GS
[0.99977 0 0 0.9996 209.46697 310.82805] CT
0 0 1 RC
N
/f954680962{1.667 0 M
1.667 0.92 0.92 1.667 0 1.667 C
-0.92 1.667 -1.667 0.92 -1.667 0 C
-1.667 -0.92 -0.92 -1.667 0 -1.667 C
0.92 -1.667 1.667 -0.92 1.667 0 C
cp}def
f954680962
f
GR
GS
[0.99977 0 0 0.9996 210.17349 307.49158] CT
0 0 1 RC
N
f954680962
f
GR
GS
[0.99977 0 0 0.9996 211.69615 302.02407] CT
0 0 1 RC
N
f954680962
f
GR
GS
[0.99977 0 0 0.9996 214.2445 293.72705] CT
0 0 1 RC
N
f954680962
f
GR
GS
[0.99977 0 0 0.9996 222.42165 281.16462] CT
0 0 1 RC
N
f954680962
f
GR
GS
[0.99977 0 0 0.9996 238.08737 271.79827] CT
0 0 1 RC
N
f954680962
f
GR
GS
[0.99977 0 0 0.9996 258.64094 264.10731] CT
0 0 1 RC
N
f954680962
f
GR
GS
[0.99977 0 0 0.9996 280.64534 267.74697] CT
0 0 1 RC
N
f954680962
f
GR
GS
[0.99977 0 0 0.9996 297.95426 276.98236] CT
0 0 1 RC
N
f954680962
f
GR
GS
[0.99977 0 0 0.9996 308.25479 286.94659] CT
0 0 1 RC
N
f954680962
f
GR
GS
[0.99977 0 0 0.9996 315.36365 295.81445] CT
0 0 1 RC
N
f954680962
f
GR
GS
[0.99977 0 0 0.9996 319.15281 302.19944] CT
0 0 1 RC
N
f954680962
f
GR
GS
[0.99977 0 0 0.9996 321.49151 306.5173] CT
0 0 1 RC
N
f954680962
f
GR
GS
[0.99977 0 0 0.9996 320.85213 309.62324] CT
0 0 1 RC
N
f954680962
f
GR
GS
[0.99977 0 0 0.9996 323.5058 312.10458] CT
0 0 1 RC
N
f954680962
f
GR
GS
[0.99977 0 0 0.9996 323.3184 313.22251] CT
0 0 1 RC
N
f954680962
f
GR
GS
[0.99977 0 0 0.9996 323.63019 313.07441] CT
0 0 1 RC
N
f954680962
f
GR
GS
[0.99977 0 0 0.9996 325.65103 314.09829] CT
0 0 1 RC
N
f954680962
f
GR
GS
[0.99977 0 0 0.9996 325.36841 312.08548] CT
0 0 1 RC
N
f954680962
f
GR
GS
[0.99977 0 0 0.9996 326.63119 311.5068] CT
0 0 1 RC
N
f954680962
f
GR
GS
[0.99977 0 0 0.9996 327.43417 310.51323] CT
0 0 1 RC
N
f954680962
f
GR
GS
[0.99977 0 0 0.9996 328.99064 309.29088] CT
0 0 1 RC
N
f954680962
f
GR
GS
[0.99977 0 0 0.9996 329.96021 304.9388] CT
0 0 1 RC
N
f954680962
f
GR
GS
[0.99977 0 0 0.9996 333.09033 301.905] CT
0 0 1 RC
N
f954680962
f
GR
GS
[0.99977 0 0 0.9996 337.56329 296.66927] CT
0 0 1 RC
N
f954680962
f
GR
GS
[0.99977 0 0 0.9996 343.05893 289.8655] CT
0 0 1 RC
N
f954680962
f
GR
GS
[0.99977 0 0 0.9996 345.37341 280.77238] CT
0 0 1 RC
N
f954680962
f
GR
GS
[0.99977 0 0 0.9996 352.22388 264.49189] CT
0 0 1 RC
N
f954680962
f
GR
GS
[0.99977 0 0 0.9996 364.62101 244.72954] CT
0 0 1 RC
N
f954680962
f
GR
GS
[0.99977 0 0 0.9996 379.95391 217.26712] CT
0 0 1 RC
N
f954680962
f
GR
GS
[0.99977 0 0 0.9996 209.15359 312.91041] CT
N
f954680962
f
GR
GS
[0.99977 0 0 0.9996 209.47852 310.47547] CT
N
f954680962
f
GR
GS
[0.99977 0 0 0.9996 210.27407 306.72916] CT
N
f954680962
f
GR
GS
[0.99977 0 0 0.9996 211.86296 301.17626] CT
N
f954680962
f
GR
GS
[0.99977 0 0 0.9996 215.7407 292.33967] CT
N
f954680962
f
GR
GS
[0.99977 0 0 0.9996 223.26457 279.723] CT
N
f954680962
f
GR
GS
[0.99977 0 0 0.9996 239.78285 269.21373] CT
N
f954680962
f
GR
GS
[0.99977 0 0 0.9996 261.5458 262.58695] CT
N
f954680962
f
GR
GS
[0.99977 0 0 0.9996 284.44739 266.05508] CT
N
f954680962
f
GR
GS
[0.99977 0 0 0.9996 301.72099 275.68759] CT
N
f954680962
f
GR
GS
[0.99977 0 0 0.9996 313.29265 286.21571] CT
N
f954680962
f
GR
GS
[0.99977 0 0 0.9996 320.11618 295.64831] CT
N
f954680962
f
GR
GS
[0.99977 0 0 0.9996 323.55046 301.60395] CT
N
f954680962
f
GR
GS
[0.99977 0 0 0.9996 325.09794 306.7683] CT
N
f954680962
f
GR
GS
[0.99977 0 0 0.9996 324.91954 308.46959] CT
N
f954680962
f
GR
GS
[0.99977 0 0 0.9996 327.94968 311.66298] CT
N
f954680962
f
GR
GS
[0.99977 0 0 0.9996 328.36883 314.20289] CT
N
f954680962
f
GR
GS
[0.99977 0 0 0.9996 328.6001 313.26296] CT
N
f954680962
f
GR
GS
[0.99977 0 0 0.9996 330.6377 313.81633] CT
N
f954680962
f
GR
GS
[0.99977 0 0 0.9996 329.75621 312.40628] CT
N
f954680962
f
GR
GS
[0.99977 0 0 0.9996 330.96581 310.99043] CT
N
f954680962
f
GR
GS
[0.99977 0 0 0.9996 332.32369 310.23161] CT
N
f954680962
f
GR
GS
[0.99977 0 0 0.9996 334.42395 308.4076] CT
N
f954680962
f
GR
GS
[0.99977 0 0 0.9996 335.9947 303.65135] CT
N
f954680962
f
GR
GS
[0.99977 0 0 0.9996 337.13422 299.61072] CT
N
f954680962
f
GR
GS
[0.99977 0 0 0.9996 342.6093 293.17741] CT
N
f954680962
f
GR
GS
[0.99977 0 0 0.9996 347.22999 285.01617] CT
N
f954680962
f
GR
GS
[0.99977 0 0 0.9996 351.86349 272.51286] CT
N
f954680962
f
GR
GS
[0.99977 0 0 0.9996 359.23991 252.13949] CT
N
f954680962
f
GR
GS
[0.99977 0 0 0.9996 373.56373 224.54144] CT
N
f954680962
f
GR
GS
[0.99977 0 0 0.9996 390.38237 187.70046] CT
N
f954680962
f
GR
GS
[0.99977 0 0 0.9996 209.09478 312.60237] CT
1 0 0 RC
N
f954680962
f
GR
GS
[0.99977 0 0 0.9996 209.44782 309.9271] CT
1 0 0 RC
N
f954680962
f
GR
GS
[0.99977 0 0 0.9996 210.35307 305.81897] CT
1 0 0 RC
N
f954680962
f
GR
GS
[0.99977 0 0 0.9996 212.02542 299.67289] CT
1 0 0 RC
N
f954680962
f
GR
GS
[0.99977 0 0 0.9996 215.76606 290.18403] CT
1 0 0 RC
N
f954680962
f
GR
GS
[0.99977 0 0 0.9996 224.2502 277.40279] CT
1 0 0 RC
N
f954680962
f
GR
GS
[0.99977 0 0 0.9996 241.14209 265.74716] CT
1 0 0 RC
N
f954680962
f
GR
GS
[0.99977 0 0 0.9996 264.70985 257.59309] CT
1 0 0 RC
N
f954680962
f
GR
GS
[0.99977 0 0 0.9996 289.11132 260.5746] CT
1 0 0 RC
N
f954680962
f
GR
GS
[0.99977 0 0 0.9996 308.00396 268.6431] CT
1 0 0 RC
N
f954680962
f
GR
GS
[0.99977 0 0 0.9996 321.12343 277.16311] CT
1 0 0 RC
N
f954680962
f
GR
GS
[0.99977 0 0 0.9996 330.94528 284.94574] CT
1 0 0 RC
N
f954680962
f
GR
GS
[0.99977 0 0 0.9996 338.73105 290.75067] CT
1 0 0 RC
N
f954680962
f
GR
GS
[0.99977 0 0 0.9996 344.45269 294.19061] CT
1 0 0 RC
N
f954680962
f
GR
GS
[0.99977 0 0 0.9996 349.49245 296.6682] CT
1 0 0 RC
N
f954680962
f
GR
GS
[0.99977 0 0 0.9996 354.26239 301.30063] CT
1 0 0 RC
N
f954680962
f
GR
GS
[0.99977 0 0 0.9996 358.64089 305.44897] CT
1 0 0 RC
N
f954680962
f
GR
GS
[0.99977 0 0 0.9996 359.91749 306.74057] CT
1 0 0 RC
N
f954680962
f
GR
GS
[0.99977 0 0 0.9996 363.32089 308.86911] CT
1 0 0 RC
N
f954680962
f
GR
GS
[0.99977 0 0 0.9996 363.52251 307.26938] CT
1 0 0 RC
N
f954680962
f
GR
GS
[0.99977 0 0 0.9996 365.47898 306.11338] CT
1 0 0 RC
N
f954680962
f
GR
GS
[0.99977 0 0 0.9996 367.22632 304.50285] CT
1 0 0 RC
N
f954680962
f
GR
GS
[0.99977 0 0 0.9996 370.32529 301.68048] CT
1 0 0 RC
N
f954680962
f
GR
GS
[0.99977 0 0 0.9996 372.43047 297.79007] CT
1 0 0 RC
N
f954680962
f
GR
GS
[0.99977 0 0 0.9996 376.70706 291.50211] CT
1 0 0 RC
N
f954680962
f
GR
GS
[0.99977 0 0 0.9996 380.92827 283.48968] CT
1 0 0 RC
N
f954680962
f
GR
GS
[0.99977 0 0 0.9996 385.65865 272.28977] CT
1 0 0 RC
N
f954680962
f
GR
GS
[0.99977 0 0 0.9996 388.85592 253.38237] CT
1 0 0 RC
N
f954680962
f
GR
GS
[0.99977 0 0 0.9996 394.40926 225.52825] CT
1 0 0 RC
N
f954680962
f
GR
GS
[0.99977 0 0 0.9996 403.84756 185.52997] CT
1 0 0 RC
N
f954680962
f
GR
GS
[0.99977 0 0 0.9996 412.17869 128.08411] CT
1 0 0 RC
N
f954680962
f
GR
GS
[0.99977 0 0 0.9996 0 0.14755] CT
0 0 1 RC
1 LJ
3.15 LW
N
204.917 306.053 M
207.928 302.966 L
211.795 299.092 L
216.739 294.331 L
223.53 288.312 L
232.06 281.407 L
243.846 272.486 L
262.477 263.869 L
287.145 263.504 L
308.024 273.992 L
319.069 286.69 L
324.26 296.785 L
326.606 303.772 L
327.67 308.145 L
328.29 310.614 L
328.878 311.909 L
329.556 312.351 L
330.453 312.216 L
331.559 311.647 L
332.959 310.713 L
334.716 309.433 L
336.846 307.839 L
339.426 305.886 L
342.492 303.5 L
345.911 300.576 L
349.461 296.703 L
352.857 290.851 L
356.511 281.035 L
362.366 265.174 L
373.409 242.258 L
392.873 212.574 L
S
GR
GS
[0.99977 0 0 0.9996 0 0.14755] CT
1 LJ
3.15 LW
N
204.814 306.071 M
207.82 302.981 L
211.682 299.103 L
216.621 294.339 L
223.406 288.314 L
231.925 281.398 L
243.698 272.456 L
262.31 263.8 L
286.954 263.346 L
307.875 273.658 L
319.123 286.181 L
324.626 296.268 L
327.201 303.42 L
328.355 307.995 L
328.974 310.632 L
329.514 312.068 L
330.116 312.627 L
330.908 312.606 L
331.888 312.147 L
333.133 311.329 L
334.701 310.174 L
336.609 308.714 L
338.928 306.908 L
341.689 304.682 L
344.762 301.936 L
347.925 298.263 L
350.898 292.646 L
354.098 283.12 L
359.487 267.641 L
370.058 245.238 L
389.25 216.108 L
S
GR
GS
[0.99977 0 0 0.9996 0 0.14755] CT
1 0 0 RC
1 LJ
3.15 LW
N
205.538 306.03 M
208.546 302.943 L
212.399 299.06 L
217.314 294.277 L
224.034 288.205 L
232.433 281.151 L
244.034 271.931 L
262.314 262.741 L
286.468 261.046 L
307.3 268.736 L
320.246 277.354 L
330.56 283.943 L
339.695 290.709 L
345.914 297.792 L
349.133 303.425 L
350.823 307.213 L
351.902 309.21 L
352.97 310.007 L
354.182 309.876 L
355.699 309.047 L
357.621 307.598 L
359.982 305.575 L
362.886 302.895 L
366.399 299.394 L
370.399 294.842 L
374.679 288.594 L
378.899 279.3 L
383.145 264.287 L
388.942 239.844 L
399.401 201.898 L
419.936 145.793 L
S
GR
GS
[0.99977 0 0 0.9996 0 0.14755] CT
1 GC
N
311.5 161 M
311.5 37.5 L
152 37.5 L
152 161 L
cp
f
GR
GS
[0.99977 0 0 0.9996 188.95729 49.37791] CT
/Times-Roman 17.325 F
GS
[1 0 0 1 0 0] CT
0 6 moveto 
1 -1 scale
(100% SOC meas) t 
GR
GR
GS
[0.99977 0 0 0.9996 170.96136 49.37791] CT
0 0 1 RC
N
f954680962
f
GR
GS
[0.99977 0 0 0.9996 188.95729 69.36994] CT
/Times-Roman 17.325 F
GS
[1 0 0 1 0 0] CT
0 6 moveto 
1 -1 scale
(50% SOC meas) t 
GR
GR
GS
[0.99977 0 0 0.9996 170.96136 69.36994] CT
N
f954680962
f
GR
GS
[0.99977 0 0 0.9996 188.95729 89.36196] CT
/Times-Roman 17.325 F
GS
[1 0 0 1 0 0] CT
0 6 moveto 
1 -1 scale
(10% SOC meas) t 
GR
GR
GS
[0.99977 0 0 0.9996 170.96136 89.36196] CT
1 0 0 RC
N
f954680962
f
GR
GS
[0.99977 0 0 0.9996 188.95729 109.35398] CT
/Times-Roman 17.325 F
GS
[1 0 0 1 0 0] CT
0 6 moveto 
1 -1 scale
(100% SOC est) t 
GR
GR
GS
[0.99977 0 0 0.9996 0 0.14755] CT
0 0 1 RC
1 LJ
3.15 LW
N
156 109.25 M
186 109.25 L
S
GR
GS
[0.99977 0 0 0.9996 188.95729 129.34601] CT
/Times-Roman 17.325 F
GS
[1 0 0 1 0 0] CT
0 6 moveto 
1 -1 scale
(50% SOC est) t 
GR
GR
GS
[0.99977 0 0 0.9996 0 0.14755] CT
1 LJ
3.15 LW
N
156 129.25 M
186 129.25 L
S
GR
GS
[0.99977 0 0 0.9996 188.95729 149.33803] CT
/Times-Roman 17.325 F
GS
[1 0 0 1 0 0] CT
0 6 moveto 
1 -1 scale
(10% SOC est) t 
GR
GR
GS
[0.99977 0 0 0.9996 0 0.14755] CT
1 0 0 RC
1 LJ
3.15 LW
N
156 149.25 M
186 149.25 L
S
GR
GS
[0.99977 0 0 0.9996 0 0.14755] CT
0.149 GC
10.0 ML
1.225 LW
N
152 161 M
152 37.5 L
311.5 37.5 L
311.5 161 L
cp
S
GR
%%Trailer
%%Pages: 1
%%EOF
