%!PS-Adobe-3.0 EPSF-3.0
%%Creator: (MATLAB, The Mathworks, Inc. Version 9.5.0.1033004 \(R2018b\) Update 2. Operating System: Mac OS X)
%%Title: ./UDDSmatch.eps
%%CreationDate: 2019-11-05T09:32:55
%%Pages: (atend)
%%BoundingBox:     4     3   535   369
%%LanguageLevel: 2
%%EndComments
%%BeginProlog
%%BeginResource: procset (Apache XML Graphics Std ProcSet) 1.2 0
%%Version: 1.2 0
%%Copyright: (Copyright 2001-2003,2010 The Apache Software Foundation. License terms: http://www.apache.org/licenses/LICENSE-2.0)
/bd{bind def}bind def
/ld{load def}bd
/GR/grestore ld
/GS/gsave ld
/RM/rmoveto ld
/C/curveto ld
/t/show ld
/L/lineto ld
/ML/setmiterlimit ld
/CT/concat ld
/f/fill ld
/N/newpath ld
/S/stroke ld
/CC/setcmykcolor ld
/A/ashow ld
/cp/closepath ld
/RC/setrgbcolor ld
/LJ/setlinejoin ld
/GC/setgray ld
/LW/setlinewidth ld
/M/moveto ld
/re {4 2 roll M
1 index 0 rlineto
0 exch rlineto
neg 0 rlineto
cp } bd
/_ctm matrix def
/_tm matrix def
/BT { _ctm currentmatrix pop matrix _tm copy pop 0 0 moveto } bd
/ET { _ctm setmatrix } bd
/iTm { _ctm setmatrix _tm concat } bd
/Tm { _tm astore pop iTm 0 0 moveto } bd
/ux 0.0 def
/uy 0.0 def
/F {
  /Tp exch def
  /Tf exch def
  Tf findfont Tp scalefont setfont
  /cf Tf def  /cs Tp def
} bd
/ULS {currentpoint /uy exch def /ux exch def} bd
/ULE {
  /Tcx currentpoint pop def
  gsave
  newpath
  cf findfont cs scalefont dup
  /FontMatrix get 0 get /Ts exch def /FontInfo get dup
  /UnderlinePosition get Ts mul /To exch def
  /UnderlineThickness get Ts mul /Tt exch def
  ux uy To add moveto  Tcx uy To add lineto
  Tt setlinewidth stroke
  grestore
} bd
/OLE {
  /Tcx currentpoint pop def
  gsave
  newpath
  cf findfont cs scalefont dup
  /FontMatrix get 0 get /Ts exch def /FontInfo get dup
  /UnderlinePosition get Ts mul /To exch def
  /UnderlineThickness get Ts mul /Tt exch def
  ux uy To add cs add moveto Tcx uy To add cs add lineto
  Tt setlinewidth stroke
  grestore
} bd
/SOE {
  /Tcx currentpoint pop def
  gsave
  newpath
  cf findfont cs scalefont dup
  /FontMatrix get 0 get /Ts exch def /FontInfo get dup
  /UnderlinePosition get Ts mul /To exch def
  /UnderlineThickness get Ts mul /Tt exch def
  ux uy To add cs 10 mul 26 idiv add moveto Tcx uy To add cs 10 mul 26 idiv add lineto
  Tt setlinewidth stroke
  grestore
} bd
/QT {
/Y22 exch store
/X22 exch store
/Y21 exch store
/X21 exch store
currentpoint
/Y21 load 2 mul add 3 div exch
/X21 load 2 mul add 3 div exch
/X21 load 2 mul /X22 load add 3 div
/Y21 load 2 mul /Y22 load add 3 div
/X22 load /Y22 load curveto
} bd
/SSPD {
dup length /d exch dict def
{
/v exch def
/k exch def
currentpagedevice k known {
/cpdv currentpagedevice k get def
v cpdv ne {
/upd false def
/nullv v type /nulltype eq def
/nullcpdv cpdv type /nulltype eq def
nullv nullcpdv or
{
/upd true def
} {
/sametype v type cpdv type eq def
sametype {
v type /arraytype eq {
/vlen v length def
/cpdvlen cpdv length def
vlen cpdvlen eq {
0 1 vlen 1 sub {
/i exch def
/obj v i get def
/cpdobj cpdv i get def
obj cpdobj ne {
/upd true def
exit
} if
} for
} {
/upd true def
} ifelse
} {
v type /dicttype eq {
v {
/dv exch def
/dk exch def
/cpddv cpdv dk get def
dv cpddv ne {
/upd true def
exit
} if
} forall
} {
/upd true def
} ifelse
} ifelse
} if
} ifelse
upd true eq {
d k v put
} if
} if
} if
} forall
d length 0 gt {
d setpagedevice
} if
} bd
/RE { % /NewFontName [NewEncodingArray] /FontName RE -
  findfont dup length dict begin
  {
    1 index /FID ne
    {def} {pop pop} ifelse
  } forall
  /Encoding exch def
  /FontName 1 index def
  currentdict definefont pop
  end
} bind def
%%EndResource
%%BeginResource: procset (Apache XML Graphics EPS ProcSet) 1.0 0
%%Version: 1.0 0
%%Copyright: (Copyright 2002-2003 The Apache Software Foundation. License terms: http://www.apache.org/licenses/LICENSE-2.0)
/BeginEPSF { %def
/b4_Inc_state save def         % Save state for cleanup
/dict_count countdictstack def % Count objects on dict stack
/op_count count 1 sub def      % Count objects on operand stack
userdict begin                 % Push userdict on dict stack
/showpage { } def              % Redefine showpage, { } = null proc
0 setgray 0 setlinecap         % Prepare graphics state
1 setlinewidth 0 setlinejoin
10 setmiterlimit [ ] 0 setdash newpath
/languagelevel where           % If level not equal to 1 then
{pop languagelevel             % set strokeadjust and
1 ne                           % overprint to their defaults.
{false setstrokeadjust false setoverprint
} if
} if
} bd
/EndEPSF { %def
count op_count sub {pop} repeat            % Clean up stacks
countdictstack dict_count sub {end} repeat
b4_Inc_state restore
} bd
%%EndResource
%FOPBeginFontDict
%%IncludeResource: font Courier-Oblique
%%IncludeResource: font Courier-BoldOblique
%%IncludeResource: font Courier-Bold
%%IncludeResource: font ZapfDingbats
%%IncludeResource: font Symbol
%%IncludeResource: font Helvetica
%%IncludeResource: font Helvetica-Oblique
%%IncludeResource: font Helvetica-Bold
%%IncludeResource: font Helvetica-BoldOblique
%%IncludeResource: font Times-Roman
%%IncludeResource: font Times-Italic
%%IncludeResource: font Times-Bold
%%IncludeResource: font Times-BoldItalic
%%IncludeResource: font Courier
%FOPEndFontDict
%%BeginResource: encoding WinAnsiEncoding
/WinAnsiEncoding [
/.notdef /.notdef /.notdef /.notdef /.notdef
/.notdef /.notdef /.notdef /.notdef /.notdef
/.notdef /.notdef /.notdef /.notdef /.notdef
/.notdef /.notdef /.notdef /.notdef /.notdef
/.notdef /.notdef /.notdef /.notdef /.notdef
/.notdef /.notdef /.notdef /.notdef /.notdef
/.notdef /.notdef /space /exclam /quotedbl
/numbersign /dollar /percent /ampersand /quotesingle
/parenleft /parenright /asterisk /plus /comma
/hyphen /period /slash /zero /one
/two /three /four /five /six
/seven /eight /nine /colon /semicolon
/less /equal /greater /question /at
/A /B /C /D /E
/F /G /H /I /J
/K /L /M /N /O
/P /Q /R /S /T
/U /V /W /X /Y
/Z /bracketleft /backslash /bracketright /asciicircum
/underscore /quoteleft /a /b /c
/d /e /f /g /h
/i /j /k /l /m
/n /o /p /q /r
/s /t /u /v /w
/x /y /z /braceleft /bar
/braceright /asciitilde /bullet /Euro /bullet
/quotesinglbase /florin /quotedblbase /ellipsis /dagger
/daggerdbl /circumflex /perthousand /Scaron /guilsinglleft
/OE /bullet /Zcaron /bullet /bullet
/quoteleft /quoteright /quotedblleft /quotedblright /bullet
/endash /emdash /asciitilde /trademark /scaron
/guilsinglright /oe /bullet /zcaron /Ydieresis
/space /exclamdown /cent /sterling /currency
/yen /brokenbar /section /dieresis /copyright
/ordfeminine /guillemotleft /logicalnot /sfthyphen /registered
/macron /degree /plusminus /twosuperior /threesuperior
/acute /mu /paragraph /middot /cedilla
/onesuperior /ordmasculine /guillemotright /onequarter /onehalf
/threequarters /questiondown /Agrave /Aacute /Acircumflex
/Atilde /Adieresis /Aring /AE /Ccedilla
/Egrave /Eacute /Ecircumflex /Edieresis /Igrave
/Iacute /Icircumflex /Idieresis /Eth /Ntilde
/Ograve /Oacute /Ocircumflex /Otilde /Odieresis
/multiply /Oslash /Ugrave /Uacute /Ucircumflex
/Udieresis /Yacute /Thorn /germandbls /agrave
/aacute /acircumflex /atilde /adieresis /aring
/ae /ccedilla /egrave /eacute /ecircumflex
/edieresis /igrave /iacute /icircumflex /idieresis
/eth /ntilde /ograve /oacute /ocircumflex
/otilde /odieresis /divide /oslash /ugrave
/uacute /ucircumflex /udieresis /yacute /thorn
/ydieresis
] def
%%EndResource
%FOPBeginFontReencode
/Courier-Oblique findfont
dup length dict begin
  {1 index /FID ne {def} {pop pop} ifelse} forall
  /Encoding WinAnsiEncoding def
  currentdict
end
/Courier-Oblique exch definefont pop
/Courier-BoldOblique findfont
dup length dict begin
  {1 index /FID ne {def} {pop pop} ifelse} forall
  /Encoding WinAnsiEncoding def
  currentdict
end
/Courier-BoldOblique exch definefont pop
/Courier-Bold findfont
dup length dict begin
  {1 index /FID ne {def} {pop pop} ifelse} forall
  /Encoding WinAnsiEncoding def
  currentdict
end
/Courier-Bold exch definefont pop
/Helvetica findfont
dup length dict begin
  {1 index /FID ne {def} {pop pop} ifelse} forall
  /Encoding WinAnsiEncoding def
  currentdict
end
/Helvetica exch definefont pop
/Helvetica-Oblique findfont
dup length dict begin
  {1 index /FID ne {def} {pop pop} ifelse} forall
  /Encoding WinAnsiEncoding def
  currentdict
end
/Helvetica-Oblique exch definefont pop
/Helvetica-Bold findfont
dup length dict begin
  {1 index /FID ne {def} {pop pop} ifelse} forall
  /Encoding WinAnsiEncoding def
  currentdict
end
/Helvetica-Bold exch definefont pop
/Helvetica-BoldOblique findfont
dup length dict begin
  {1 index /FID ne {def} {pop pop} ifelse} forall
  /Encoding WinAnsiEncoding def
  currentdict
end
/Helvetica-BoldOblique exch definefont pop
/Times-Roman findfont
dup length dict begin
  {1 index /FID ne {def} {pop pop} ifelse} forall
  /Encoding WinAnsiEncoding def
  currentdict
end
/Times-Roman exch definefont pop
/Times-Italic findfont
dup length dict begin
  {1 index /FID ne {def} {pop pop} ifelse} forall
  /Encoding WinAnsiEncoding def
  currentdict
end
/Times-Italic exch definefont pop
/Times-Bold findfont
dup length dict begin
  {1 index /FID ne {def} {pop pop} ifelse} forall
  /Encoding WinAnsiEncoding def
  currentdict
end
/Times-Bold exch definefont pop
/Times-BoldItalic findfont
dup length dict begin
  {1 index /FID ne {def} {pop pop} ifelse} forall
  /Encoding WinAnsiEncoding def
  currentdict
end
/Times-BoldItalic exch definefont pop
/Courier findfont
dup length dict begin
  {1 index /FID ne {def} {pop pop} ifelse} forall
  /Encoding WinAnsiEncoding def
  currentdict
end
/Courier exch definefont pop
%FOPEndFontReencode
%%EndProlog
%%Page: 1 1
%%PageBoundingBox: 0 0 543 370
%%BeginPageSetup
[1 0 0 -1 0 370] CT
%%EndPageSetup
GS
[1.00088 0 0 0.9996 0 0.14755] CT
1 GC
N
0 0 543 370 re
f
GR
GS
[1.00088 0 0 0.9996 0 0.14755] CT
1 GC
N
0 0 543 370 re
f
GR
GS
[1.00088 0 0 0.9996 0 0.14755] CT
1 GC
N
67 317.5 M
533.5 317.5 L
533.5 29.5 L
67 29.5 L
cp
f
GR
GS
[1.00088 0 0 0.9996 0 0.14755] CT
0.873 GC
1 LJ
1.225 LW
N
67 317.5 M
67 29.5 L
S
GR
GS
[1.00088 0 0 0.9996 0 0.14755] CT
0.873 GC
1 LJ
1.225 LW
N
158.024 317.5 M
158.024 29.5 L
S
GR
GS
[1.00088 0 0 0.9996 0 0.14755] CT
0.873 GC
1 LJ
1.225 LW
N
249.049 317.5 M
249.049 29.5 L
S
GR
GS
[1.00088 0 0 0.9996 0 0.14755] CT
0.873 GC
1 LJ
1.225 LW
N
340.073 317.5 M
340.073 29.5 L
S
GR
GS
[1.00088 0 0 0.9996 0 0.14755] CT
0.873 GC
1 LJ
1.225 LW
N
431.098 317.5 M
431.098 29.5 L
S
GR
GS
[1.00088 0 0 0.9996 0 0.14755] CT
0.873 GC
1 LJ
1.225 LW
N
522.122 317.5 M
522.122 29.5 L
S
GR
GS
[1.00088 0 0 0.9996 0 0.14755] CT
0.873 GC
1 LJ
1.225 LW
N
533.5 317.5 M
67 317.5 L
S
GR
GS
[1.00088 0 0 0.9996 0 0.14755] CT
0.873 GC
1 LJ
1.225 LW
N
533.5 253.5 M
67 253.5 L
S
GR
GS
[1.00088 0 0 0.9996 0 0.14755] CT
0.873 GC
1 LJ
1.225 LW
N
533.5 189.5 M
67 189.5 L
S
GR
GS
[1.00088 0 0 0.9996 0 0.14755] CT
0.873 GC
1 LJ
1.225 LW
N
533.5 125.5 M
67 125.5 L
S
GR
GS
[1.00088 0 0 0.9996 0 0.14755] CT
0.873 GC
1 LJ
1.225 LW
N
533.5 61.5 M
67 61.5 L
S
GR
GS
[1.00088 0 0 0.9996 0 0.14755] CT
0.149 GC
2 setlinecap
1 LJ
1.225 LW
N
67 317.5 M
533.5 317.5 L
S
GR
GS
[1.00088 0 0 0.9996 0 0.14755] CT
0.149 GC
2 setlinecap
1 LJ
1.225 LW
N
67 29.5 M
533.5 29.5 L
S
GR
GS
[1.00088 0 0 0.9996 0 0.14755] CT
0.149 GC
2 setlinecap
1 LJ
1.225 LW
N
67 317.5 M
67 312.835 L
S
GR
GS
[1.00088 0 0 0.9996 0 0.14755] CT
0.149 GC
2 setlinecap
1 LJ
1.225 LW
N
158.024 317.5 M
158.024 312.835 L
S
GR
GS
[1.00088 0 0 0.9996 0 0.14755] CT
0.149 GC
2 setlinecap
1 LJ
1.225 LW
N
249.049 317.5 M
249.049 312.835 L
S
GR
GS
[1.00088 0 0 0.9996 0 0.14755] CT
0.149 GC
2 setlinecap
1 LJ
1.225 LW
N
340.073 317.5 M
340.073 312.835 L
S
GR
GS
[1.00088 0 0 0.9996 0 0.14755] CT
0.149 GC
2 setlinecap
1 LJ
1.225 LW
N
431.098 317.5 M
431.098 312.835 L
S
GR
GS
[1.00088 0 0 0.9996 0 0.14755] CT
0.149 GC
2 setlinecap
1 LJ
1.225 LW
N
522.122 317.5 M
522.122 312.835 L
S
GR
GS
[1.00088 0 0 0.9996 0 0.14755] CT
0.149 GC
2 setlinecap
1 LJ
1.225 LW
N
67 29.5 M
67 34.165 L
S
GR
GS
[1.00088 0 0 0.9996 0 0.14755] CT
0.149 GC
2 setlinecap
1 LJ
1.225 LW
N
158.024 29.5 M
158.024 34.165 L
S
GR
GS
[1.00088 0 0 0.9996 0 0.14755] CT
0.149 GC
2 setlinecap
1 LJ
1.225 LW
N
249.049 29.5 M
249.049 34.165 L
S
GR
GS
[1.00088 0 0 0.9996 0 0.14755] CT
0.149 GC
2 setlinecap
1 LJ
1.225 LW
N
340.073 29.5 M
340.073 34.165 L
S
GR
GS
[1.00088 0 0 0.9996 0 0.14755] CT
0.149 GC
2 setlinecap
1 LJ
1.225 LW
N
431.098 29.5 M
431.098 34.165 L
S
GR
GS
[1.00088 0 0 0.9996 0 0.14755] CT
0.149 GC
2 setlinecap
1 LJ
1.225 LW
N
522.122 29.5 M
522.122 34.165 L
S
GR
GS
[1.00088 0 0 0.9996 0 0.14755] CT
0.149 GC
2 setlinecap
1 LJ
1.225 LW
N
89.756 317.5 M
89.756 315.167 L
S
GR
GS
[1.00088 0 0 0.9996 0 0.14755] CT
0.149 GC
2 setlinecap
1 LJ
1.225 LW
N
112.512 317.5 M
112.512 315.167 L
S
GR
GS
[1.00088 0 0 0.9996 0 0.14755] CT
0.149 GC
2 setlinecap
1 LJ
1.225 LW
N
135.268 317.5 M
135.268 315.167 L
S
GR
GS
[1.00088 0 0 0.9996 0 0.14755] CT
0.149 GC
2 setlinecap
1 LJ
1.225 LW
N
180.78 317.5 M
180.78 315.167 L
S
GR
GS
[1.00088 0 0 0.9996 0 0.14755] CT
0.149 GC
2 setlinecap
1 LJ
1.225 LW
N
203.537 317.5 M
203.537 315.167 L
S
GR
GS
[1.00088 0 0 0.9996 0 0.14755] CT
0.149 GC
2 setlinecap
1 LJ
1.225 LW
N
226.293 317.5 M
226.293 315.167 L
S
GR
GS
[1.00088 0 0 0.9996 0 0.14755] CT
0.149 GC
2 setlinecap
1 LJ
1.225 LW
N
271.805 317.5 M
271.805 315.167 L
S
GR
GS
[1.00088 0 0 0.9996 0 0.14755] CT
0.149 GC
2 setlinecap
1 LJ
1.225 LW
N
294.561 317.5 M
294.561 315.167 L
S
GR
GS
[1.00088 0 0 0.9996 0 0.14755] CT
0.149 GC
2 setlinecap
1 LJ
1.225 LW
N
317.317 317.5 M
317.317 315.167 L
S
GR
GS
[1.00088 0 0 0.9996 0 0.14755] CT
0.149 GC
2 setlinecap
1 LJ
1.225 LW
N
362.829 317.5 M
362.829 315.167 L
S
GR
GS
[1.00088 0 0 0.9996 0 0.14755] CT
0.149 GC
2 setlinecap
1 LJ
1.225 LW
N
385.585 317.5 M
385.585 315.167 L
S
GR
GS
[1.00088 0 0 0.9996 0 0.14755] CT
0.149 GC
2 setlinecap
1 LJ
1.225 LW
N
408.341 317.5 M
408.341 315.167 L
S
GR
GS
[1.00088 0 0 0.9996 0 0.14755] CT
0.149 GC
2 setlinecap
1 LJ
1.225 LW
N
453.854 317.5 M
453.854 315.167 L
S
GR
GS
[1.00088 0 0 0.9996 0 0.14755] CT
0.149 GC
2 setlinecap
1 LJ
1.225 LW
N
476.61 317.5 M
476.61 315.167 L
S
GR
GS
[1.00088 0 0 0.9996 0 0.14755] CT
0.149 GC
2 setlinecap
1 LJ
1.225 LW
N
499.366 317.5 M
499.366 315.167 L
S
GR
GS
[1.00088 0 0 0.9996 0 0.14755] CT
0.149 GC
2 setlinecap
1 LJ
1.225 LW
N
89.756 29.5 M
89.756 31.832 L
S
GR
GS
[1.00088 0 0 0.9996 0 0.14755] CT
0.149 GC
2 setlinecap
1 LJ
1.225 LW
N
112.512 29.5 M
112.512 31.832 L
S
GR
GS
[1.00088 0 0 0.9996 0 0.14755] CT
0.149 GC
2 setlinecap
1 LJ
1.225 LW
N
135.268 29.5 M
135.268 31.832 L
S
GR
GS
[1.00088 0 0 0.9996 0 0.14755] CT
0.149 GC
2 setlinecap
1 LJ
1.225 LW
N
180.78 29.5 M
180.78 31.832 L
S
GR
GS
[1.00088 0 0 0.9996 0 0.14755] CT
0.149 GC
2 setlinecap
1 LJ
1.225 LW
N
203.537 29.5 M
203.537 31.832 L
S
GR
GS
[1.00088 0 0 0.9996 0 0.14755] CT
0.149 GC
2 setlinecap
1 LJ
1.225 LW
N
226.293 29.5 M
226.293 31.832 L
S
GR
GS
[1.00088 0 0 0.9996 0 0.14755] CT
0.149 GC
2 setlinecap
1 LJ
1.225 LW
N
271.805 29.5 M
271.805 31.832 L
S
GR
GS
[1.00088 0 0 0.9996 0 0.14755] CT
0.149 GC
2 setlinecap
1 LJ
1.225 LW
N
294.561 29.5 M
294.561 31.832 L
S
GR
GS
[1.00088 0 0 0.9996 0 0.14755] CT
0.149 GC
2 setlinecap
1 LJ
1.225 LW
N
317.317 29.5 M
317.317 31.832 L
S
GR
GS
[1.00088 0 0 0.9996 0 0.14755] CT
0.149 GC
2 setlinecap
1 LJ
1.225 LW
N
362.829 29.5 M
362.829 31.832 L
S
GR
GS
[1.00088 0 0 0.9996 0 0.14755] CT
0.149 GC
2 setlinecap
1 LJ
1.225 LW
N
385.585 29.5 M
385.585 31.832 L
S
GR
GS
[1.00088 0 0 0.9996 0 0.14755] CT
0.149 GC
2 setlinecap
1 LJ
1.225 LW
N
408.341 29.5 M
408.341 31.832 L
S
GR
GS
[1.00088 0 0 0.9996 0 0.14755] CT
0.149 GC
2 setlinecap
1 LJ
1.225 LW
N
453.854 29.5 M
453.854 31.832 L
S
GR
GS
[1.00088 0 0 0.9996 0 0.14755] CT
0.149 GC
2 setlinecap
1 LJ
1.225 LW
N
476.61 29.5 M
476.61 31.832 L
S
GR
GS
[1.00088 0 0 0.9996 0 0.14755] CT
0.149 GC
2 setlinecap
1 LJ
1.225 LW
N
499.366 29.5 M
499.366 31.832 L
S
GR
GS
[1.00088 0 0 0.9996 67.05922 323.36858] CT
0.149 GC
/Times-Roman 19.25 F
GS
[1 0 0 1 0 0] CT
-5 18 moveto 
1 -1 scale
(0) t 
GR
GR
GS
[1.00088 0 0 0.9996 158.16407 323.36858] CT
0.149 GC
/Times-Roman 19.25 F
GS
[1 0 0 1 0 0] CT
-5 18 moveto 
1 -1 scale
(2) t 
GR
GR
GS
[1.00088 0 0 0.9996 249.26893 323.36858] CT
0.149 GC
/Times-Roman 19.25 F
GS
[1 0 0 1 0 0] CT
-5 18 moveto 
1 -1 scale
(4) t 
GR
GR
GS
[1.00088 0 0 0.9996 340.37379 323.36858] CT
0.149 GC
/Times-Roman 19.25 F
GS
[1 0 0 1 0 0] CT
-5 18 moveto 
1 -1 scale
(6) t 
GR
GR
GS
[1.00088 0 0 0.9996 431.47863 323.36858] CT
0.149 GC
/Times-Roman 19.25 F
GS
[1 0 0 1 0 0] CT
-5 18 moveto 
1 -1 scale
(8) t 
GR
GR
GS
[1.00088 0 0 0.9996 522.58347 323.36858] CT
0.149 GC
/Times-Roman 19.25 F
GS
[1 0 0 1 0 0] CT
-10 18 moveto 
1 -1 scale
(10) t 
GR
GR
GS
[1.00088 0 0 0.9996 300.51562 367.81337] CT
0.149 GC
/Times-Roman 21 F
GS
[1 0 0 1 0 0] CT
-37.5 -5 moveto 
1 -1 scale
(Time \(h\)) t 
GR
GR
GS
[1.00088 0 0 0.9996 0 0.14755] CT
0.149 GC
2 setlinecap
1 LJ
1.225 LW
N
67 317.5 M
67 29.5 L
S
GR
GS
[1.00088 0 0 0.9996 0 0.14755] CT
0.149 GC
2 setlinecap
1 LJ
1.225 LW
N
533.5 317.5 M
533.5 29.5 L
S
GR
GS
[1.00088 0 0 0.9996 0 0.14755] CT
0.149 GC
2 setlinecap
1 LJ
1.225 LW
N
67 317.5 M
71.665 317.5 L
S
GR
GS
[1.00088 0 0 0.9996 0 0.14755] CT
0.149 GC
2 setlinecap
1 LJ
1.225 LW
N
67 253.5 M
71.665 253.5 L
S
GR
GS
[1.00088 0 0 0.9996 0 0.14755] CT
0.149 GC
2 setlinecap
1 LJ
1.225 LW
N
67 189.5 M
71.665 189.5 L
S
GR
GS
[1.00088 0 0 0.9996 0 0.14755] CT
0.149 GC
2 setlinecap
1 LJ
1.225 LW
N
67 125.5 M
71.665 125.5 L
S
GR
GS
[1.00088 0 0 0.9996 0 0.14755] CT
0.149 GC
2 setlinecap
1 LJ
1.225 LW
N
67 61.5 M
71.665 61.5 L
S
GR
GS
[1.00088 0 0 0.9996 0 0.14755] CT
0.149 GC
2 setlinecap
1 LJ
1.225 LW
N
533.5 317.5 M
528.835 317.5 L
S
GR
GS
[1.00088 0 0 0.9996 0 0.14755] CT
0.149 GC
2 setlinecap
1 LJ
1.225 LW
N
533.5 253.5 M
528.835 253.5 L
S
GR
GS
[1.00088 0 0 0.9996 0 0.14755] CT
0.149 GC
2 setlinecap
1 LJ
1.225 LW
N
533.5 189.5 M
528.835 189.5 L
S
GR
GS
[1.00088 0 0 0.9996 0 0.14755] CT
0.149 GC
2 setlinecap
1 LJ
1.225 LW
N
533.5 125.5 M
528.835 125.5 L
S
GR
GS
[1.00088 0 0 0.9996 0 0.14755] CT
0.149 GC
2 setlinecap
1 LJ
1.225 LW
N
533.5 61.5 M
528.835 61.5 L
S
GR
GS
[1.00088 0 0 0.9996 0 0.14755] CT
0.149 GC
2 setlinecap
1 LJ
1.225 LW
N
67 301.5 M
69.332 301.5 L
S
GR
GS
[1.00088 0 0 0.9996 0 0.14755] CT
0.149 GC
2 setlinecap
1 LJ
1.225 LW
N
67 285.5 M
69.332 285.5 L
S
GR
GS
[1.00088 0 0 0.9996 0 0.14755] CT
0.149 GC
2 setlinecap
1 LJ
1.225 LW
N
67 269.5 M
69.332 269.5 L
S
GR
GS
[1.00088 0 0 0.9996 0 0.14755] CT
0.149 GC
2 setlinecap
1 LJ
1.225 LW
N
67 237.5 M
69.332 237.5 L
S
GR
GS
[1.00088 0 0 0.9996 0 0.14755] CT
0.149 GC
2 setlinecap
1 LJ
1.225 LW
N
67 221.5 M
69.332 221.5 L
S
GR
GS
[1.00088 0 0 0.9996 0 0.14755] CT
0.149 GC
2 setlinecap
1 LJ
1.225 LW
N
67 205.5 M
69.332 205.5 L
S
GR
GS
[1.00088 0 0 0.9996 0 0.14755] CT
0.149 GC
2 setlinecap
1 LJ
1.225 LW
N
67 173.5 M
69.332 173.5 L
S
GR
GS
[1.00088 0 0 0.9996 0 0.14755] CT
0.149 GC
2 setlinecap
1 LJ
1.225 LW
N
67 157.5 M
69.332 157.5 L
S
GR
GS
[1.00088 0 0 0.9996 0 0.14755] CT
0.149 GC
2 setlinecap
1 LJ
1.225 LW
N
67 141.5 M
69.332 141.5 L
S
GR
GS
[1.00088 0 0 0.9996 0 0.14755] CT
0.149 GC
2 setlinecap
1 LJ
1.225 LW
N
67 109.5 M
69.332 109.5 L
S
GR
GS
[1.00088 0 0 0.9996 0 0.14755] CT
0.149 GC
2 setlinecap
1 LJ
1.225 LW
N
67 93.5 M
69.332 93.5 L
S
GR
GS
[1.00088 0 0 0.9996 0 0.14755] CT
0.149 GC
2 setlinecap
1 LJ
1.225 LW
N
67 77.5 M
69.332 77.5 L
S
GR
GS
[1.00088 0 0 0.9996 0 0.14755] CT
0.149 GC
2 setlinecap
1 LJ
1.225 LW
N
67 45.5 M
69.332 45.5 L
S
GR
GS
[1.00088 0 0 0.9996 0 0.14755] CT
0.149 GC
2 setlinecap
1 LJ
1.225 LW
N
67 29.5 M
69.332 29.5 L
S
GR
GS
[1.00088 0 0 0.9996 0 0.14755] CT
0.149 GC
2 setlinecap
1 LJ
1.225 LW
N
533.5 301.5 M
531.167 301.5 L
S
GR
GS
[1.00088 0 0 0.9996 0 0.14755] CT
0.149 GC
2 setlinecap
1 LJ
1.225 LW
N
533.5 285.5 M
531.167 285.5 L
S
GR
GS
[1.00088 0 0 0.9996 0 0.14755] CT
0.149 GC
2 setlinecap
1 LJ
1.225 LW
N
533.5 269.5 M
531.167 269.5 L
S
GR
GS
[1.00088 0 0 0.9996 0 0.14755] CT
0.149 GC
2 setlinecap
1 LJ
1.225 LW
N
533.5 237.5 M
531.167 237.5 L
S
GR
GS
[1.00088 0 0 0.9996 0 0.14755] CT
0.149 GC
2 setlinecap
1 LJ
1.225 LW
N
533.5 221.5 M
531.167 221.5 L
S
GR
GS
[1.00088 0 0 0.9996 0 0.14755] CT
0.149 GC
2 setlinecap
1 LJ
1.225 LW
N
533.5 205.5 M
531.167 205.5 L
S
GR
GS
[1.00088 0 0 0.9996 0 0.14755] CT
0.149 GC
2 setlinecap
1 LJ
1.225 LW
N
533.5 173.5 M
531.167 173.5 L
S
GR
GS
[1.00088 0 0 0.9996 0 0.14755] CT
0.149 GC
2 setlinecap
1 LJ
1.225 LW
N
533.5 157.5 M
531.167 157.5 L
S
GR
GS
[1.00088 0 0 0.9996 0 0.14755] CT
0.149 GC
2 setlinecap
1 LJ
1.225 LW
N
533.5 141.5 M
531.167 141.5 L
S
GR
GS
[1.00088 0 0 0.9996 0 0.14755] CT
0.149 GC
2 setlinecap
1 LJ
1.225 LW
N
533.5 109.5 M
531.167 109.5 L
S
GR
GS
[1.00088 0 0 0.9996 0 0.14755] CT
0.149 GC
2 setlinecap
1 LJ
1.225 LW
N
533.5 93.5 M
531.167 93.5 L
S
GR
GS
[1.00088 0 0 0.9996 0 0.14755] CT
0.149 GC
2 setlinecap
1 LJ
1.225 LW
N
533.5 77.5 M
531.167 77.5 L
S
GR
GS
[1.00088 0 0 0.9996 0 0.14755] CT
0.149 GC
2 setlinecap
1 LJ
1.225 LW
N
533.5 45.5 M
531.167 45.5 L
S
GR
GS
[1.00088 0 0 0.9996 0 0.14755] CT
0.149 GC
2 setlinecap
1 LJ
1.225 LW
N
533.5 29.5 M
531.167 29.5 L
S
GR
GS
[1.00088 0 0 0.9996 61.20405 317.52094] CT
0.149 GC
/Times-Roman 19.25 F
GS
[1 0 0 1 0 0] CT
-25 6.5 moveto 
1 -1 scale
(3.2) t 
GR
GR
GS
[1.00088 0 0 0.9996 61.20405 253.54643] CT
0.149 GC
/Times-Roman 19.25 F
GS
[1 0 0 1 0 0] CT
-25 6.5 moveto 
1 -1 scale
(3.4) t 
GR
GR
GS
[1.00088 0 0 0.9996 61.20405 189.57201] CT
0.149 GC
/Times-Roman 19.25 F
GS
[1 0 0 1 0 0] CT
-25 6.5 moveto 
1 -1 scale
(3.6) t 
GR
GR
GS
[1.00088 0 0 0.9996 61.20405 125.59752] CT
0.149 GC
/Times-Roman 19.25 F
GS
[1 0 0 1 0 0] CT
-25 6.5 moveto 
1 -1 scale
(3.8) t 
GR
GR
GS
[1.00088 0 0 0.9996 61.20405 61.62303] CT
0.149 GC
/Times-Roman 19.25 F
GS
[1 0 0 1 0 0] CT
-10 6.5 moveto 
1 -1 scale
(4) t 
GR
GR
GS
[0 -0.9996 1.00088 0 -0.20018 173.57826] CT
0.149 GC
/Times-Roman 21 F
GS
[1 0 0 1 0 0] CT
-50.5 19 moveto 
1 -1 scale
(Voltage \(V\)) t 
GR
GR
GS
[1.00088 0 0 0.9996 300.51568 24.61036] CT
/Times-Roman 24.5 F
GS
[1 0 0 1 0 0] CT
-93.5 -6 moveto 
1 -1 scale
(UDDS cell voltage) t 
GR
GR
GS
[1.00088 0 0 0.9996 0 0.14755] CT
0 0.447 0.741 RC
1 LJ
3.15 LW
N
67.013 30.208 M
67.076 30.208 L
67.088 30.208 L
67.872 30.208 L
67.885 30.208 L
68.656 30.208 L
68.669 30.208 L
69.453 30.208 L
69.465 30.208 L
70.236 30.208 L
70.249 30.208 L
71.02 30.208 L
71.033 30.208 L
71.817 30.208 L
71.829 30.208 L
72.601 30.208 L
72.613 30.208 L
73.397 30.208 L
73.41 30.208 L
74.181 30.208 L
74.193 30.208 L
74.977 30.208 L
74.99 30.208 L
75.761 30.208 L
75.774 30.208 L
76.545 30.208 L
76.558 30.208 L
77.341 30.208 L
77.354 30.208 L
78.125 30.208 L
78.138 30.208 L
78.922 30.208 L
78.934 30.208 L
79.705 30.208 L
79.718 30.208 L
80.502 30.208 L
80.515 30.208 L
81.286 30.208 L
81.298 30.208 L
82.07 30.208 L
82.082 30.208 L
82.866 38.432 L
82.879 38.522 L
83.65 42.878 L
83.663 42.939 L
84.446 46.637 L
84.459 46.692 L
85.23 50.103 L
85.243 50.158 L
86.027 53.28 L
86.039 53.33 L
86.81 56.326 L
86.823 56.372 L
87.594 59.287 L
87.607 59.334 L
88.391 62.262 L
88.403 62.309 L
89.175 65.144 L
89.187 65.191 L
89.971 68.015 L
89.984 68.06 L
90.755 70.84 L
90.767 70.885 L
91.551 73.737 L
91.564 73.779 L
91.652 74.088 L
92.335 66.56 L
92.348 66.553 L
93.119 66.405 L
93.132 66.404 L
93.915 66.365 L
93.928 66.364 L
94.699 66.34 L
94.712 66.339 L
95.496 66.322 L
95.508 66.321 L
96.28 66.309 L
96.292 66.309 L
97.076 66.299 L
97.089 66.299 L
97.86 66.293 L
97.872 66.292 L
98.644 66.288 L
98.656 66.288 L
99.44 66.284 L
99.453 66.284 L
100.224 66.281 L
100.237 66.281 L
101.02 66.28 L
101.033 66.28 L
101.804 66.278 L
101.817 66.278 L
102.601 66.277 L
102.613 66.277 L
103.309 66.377 L
103.372 60.048 L
103.384 62.225 L
103.397 64.966 L
103.422 50.954 L
103.536 91.389 L
104.168 64.926 L
104.181 65.087 L
104.56 107.578 L
104.965 68.405 L
104.977 68.337 L
105.395 98.321 L
105.559 34.607 L
105.749 61.846 L
105.761 62.183 L
105.9 43.918 L
106.229 69.943 L
106.545 65.518 L
106.558 63.576 L
106.57 46.02 L
107.114 110.89 L
107.329 72.772 L
107.342 72.466 L
107.594 49.257 L
107.961 110.105 L
108.125 75.789 L
108.138 75.976 L
108.403 109.863 L
108.795 47.929 L
108.909 66.106 L
108.922 66.58 L
109.364 113.845 L
109.693 59.154 L
109.706 58.646 L
109.958 109.363 L
110.489 74.616 L
110.502 73.896 L
110.742 62.687 L
110.818 110.101 L
111.273 71.283 L
111.286 71.112 L
111.362 57.977 L
111.539 105.742 L
112.07 72.469 L
112.082 72.42 L
112.386 58.115 L
112.613 104.661 L
112.854 63.37 L
112.866 61.774 L
112.891 58.28 L
113.637 96.436 L
113.65 94.653 L
113.663 90.705 L
113.789 65.583 L
114.434 81.477 L
114.446 78.003 L
114.699 68.825 L
115.079 110.822 L
115.218 77.822 L
115.23 75.328 L
115.319 62.39 L
115.913 111.101 L
116.014 81.073 L
116.027 80.786 L
116.469 62.165 L
116.722 109.954 L
116.798 83.412 L
116.811 82.919 L
117.101 65.472 L
117.544 105.75 L
117.594 84.425 L
117.607 83.818 L
117.91 62.623 L
117.974 112.225 L
118.378 68.822 L
118.391 68.575 L
118.694 100.42 L
119.137 65.527 L
119.175 77.98 L
119.187 78.175 L
119.478 70.318 L
119.567 119.123 L
119.958 81.684 L
119.971 82.155 L
120.06 69.588 L
120.275 104.241 L
120.742 82.168 L
120.755 82.154 L
121.539 81.933 L
121.551 81.933 L
122.247 81.915 L
122.323 81.916 L
122.335 81.915 L
123.106 81.908 L
123.119 81.909 L
123.132 81.909 L
123.296 81.91 L
123.865 81.904 L
123.903 81.905 L
123.916 81.905 L
124.257 81.906 L
124.548 81.901 L
124.699 81.903 L
124.712 81.902 L
124.788 81.904 L
125.483 81.9 L
125.496 81.899 L
125.66 81.899 L
126.014 81.901 L
126.267 81.901 L
126.28 81.901 L
127.063 81.901 L
127.076 81.901 L
127.847 81.9 L
127.86 81.9 L
128.644 81.9 L
128.656 81.9 L
129.428 81.9 L
129.44 81.9 L
129.971 66.398 L
130.085 107.59 L
130.224 81.11 L
130.237 82.604 L
130.262 105.117 L
130.35 66.715 L
131.008 82.701 L
131.02 82.673 L
131.109 123.59 L
131.754 64.971 L
131.792 82.202 L
131.804 93.068 L
131.943 114.878 L
132.108 49.925 L
132.588 79.2 L
132.601 79.353 L
133.119 61.592 L
133.233 93.77 L
133.372 82.222 L
133.385 82.21 L
133.663 126.482 L
134.143 64.854 L
134.168 68.128 L
134.181 78.196 L
134.522 125.88 L
134.775 67.632 L
134.952 125.706 L
134.965 122.854 L
135.344 63.41 L
135.749 85.574 L
135.761 85.566 L
135.913 129.904 L
136.254 73.922 L
136.533 114.669 L
136.545 109.154 L
137.291 77.56 L
137.316 82.004 L
137.329 88.545 L
137.367 125.668 L
137.911 73.154 L
138.113 110.533 L
138.125 108.899 L
138.568 75.394 L
138.707 118.761 L
138.897 77.771 L
138.909 75.49 L
139.162 120.186 L
139.44 72.975 L
139.693 89.937 L
139.706 89.894 L
139.769 74.122 L
140.186 111.81 L
140.477 90.873 L
140.49 90.891 L
140.553 103.778 L
141.248 83.432 L
141.273 91.979 L
141.286 92.017 L
141.627 126.305 L
141.868 77.472 L
142.057 94.678 L
142.07 98.804 L
142.272 92.778 L
142.462 126.317 L
142.841 93.273 L
142.854 93.229 L
143.018 76.996 L
143.271 125.226 L
143.637 85.98 L
143.65 80.444 L
144.093 121.521 L
144.421 90.247 L
144.434 87.029 L
144.459 77.466 L
144.535 127.549 L
145.218 114.016 L
145.23 109.529 L
145.243 115.082 L
145.686 80.248 L
146.002 95.693 L
146.014 95.576 L
146.115 134.102 L
146.608 84.393 L
146.798 99.472 L
146.811 101.462 L
146.823 119.256 L
147.582 96.824 L
147.595 96.82 L
148.366 96.739 L
148.378 96.739 L
149.086 96.73 L
149.162 96.73 L
149.175 96.73 L
149.2 96.732 L
149.895 96.725 L
149.946 96.727 L
149.959 96.727 L
150.426 96.727 L
150.616 96.724 L
150.742 96.725 L
150.755 96.726 L
151.286 96.721 L
151.526 96.723 L
151.539 96.725 L
152.196 96.72 L
152.323 96.722 L
152.335 96.721 L
152.904 96.724 L
153.107 96.724 L
153.119 96.724 L
153.89 96.724 L
153.903 96.724 L
154.687 96.724 L
154.699 96.724 L
155.471 96.724 L
155.483 96.724 L
156.267 95.915 L
156.28 95.898 L
156.52 80.996 L
156.634 122.966 L
157.051 96.085 L
157.064 99.702 L
157.215 84.537 L
157.658 138.825 L
157.847 101.231 L
157.86 100.972 L
158.492 130.567 L
158.631 71.002 L
158.644 68.003 L
158.656 64.229 L
159.327 101.186 L
159.415 95.985 L
159.428 96 L
159.668 76.55 L
160.212 141.394 L
160.224 134.48 L
160.692 79.587 L
160.995 103.933 L
161.008 108.387 L
161.071 140.978 L
161.324 82.359 L
161.792 103.08 L
161.804 103.263 L
161.893 78.073 L
162.462 144.633 L
162.576 107.341 L
162.588 106.876 L
162.803 88.418 L
163.056 139.48 L
163.372 101.811 L
163.385 99.744 L
163.84 91.539 L
163.916 140.323 L
164.156 104.462 L
164.169 104.348 L
164.459 87.491 L
164.636 134.937 L
164.94 105.653 L
164.952 105.623 L
165.483 87.464 L
165.711 134.844 L
165.736 120.794 L
165.749 122.547 L
165.989 86.869 L
166.52 104.593 L
166.533 106.652 L
166.735 126.324 L
166.887 94.371 L
167.316 110.246 L
167.329 108.163 L
167.746 116.281 L
167.797 97.258 L
168.1 109.774 L
168.113 113.215 L
168.176 140.698 L
168.416 91.751 L
168.897 114.135 L
168.909 125.574 L
169.011 140.695 L
169.567 91.01 L
169.681 103.95 L
169.693 104.766 L
169.82 139.423 L
170.212 94.513 L
170.464 108.078 L
170.477 108.12 L
171.008 91.574 L
171.084 142.021 L
171.261 110.332 L
171.273 110.5 L
171.501 96.798 L
171.792 128.858 L
172.045 110.92 L
172.057 110.899 L
172.234 94.225 L
172.664 149.905 L
172.841 112.46 L
172.854 112.263 L
173.157 98.789 L
173.372 133.675 L
173.625 111.855 L
173.638 111.791 L
174.421 110.958 L
174.434 110.954 L
175.205 110.892 L
175.218 110.893 L
175.976 110.881 L
175.989 110.882 L
176.002 110.88 L
176.103 110.884 L
176.596 110.876 L
176.786 110.879 L
176.798 110.879 L
176.975 110.882 L
177.354 110.874 L
177.569 110.877 L
177.582 110.876 L
177.873 110.878 L
178.328 110.872 L
178.366 110.876 L
178.378 110.876 L
178.669 110.87 L
178.77 110.877 L
179.15 110.875 L
179.162 110.875 L
179.238 110.875 L
179.946 110.875 L
179.959 110.875 L
180.73 110.875 L
180.743 110.875 L
181.514 110.874 L
181.526 110.874 L
182.31 110.874 L
182.323 110.874 L
182.955 110.979 L
183.069 94.921 L
183.094 107.95 L
183.107 109.707 L
183.183 137.564 L
183.448 95.469 L
183.89 110.131 L
183.903 111.538 L
183.979 111.091 L
184.207 153.022 L
184.674 112.816 L
184.687 112.756 L
185.041 145.69 L
185.205 78.116 L
185.471 107.56 L
185.483 107.727 L
185.547 87.912 L
185.875 115.448 L
186.255 107.857 L
186.267 108.173 L
186.76 155.478 L
187.038 116.407 L
187.051 116.197 L
187.241 94.117 L
187.62 154.943 L
187.835 114.244 L
187.848 111.772 L
188.05 154.69 L
188.442 92.593 L
188.619 112.109 L
188.631 112.351 L
189.011 157.908 L
189.352 102.617 L
189.415 115.058 L
189.428 115.24 L
189.605 153.504 L
189.971 108.983 L
190.199 111.862 L
190.212 113.023 L
190.464 154.158 L
190.995 102.658 L
191.008 101.26 L
191.185 148.263 L
191.779 123.604 L
191.792 141.067 L
192.26 148.484 L
192.538 100.555 L
192.563 104.221 L
192.576 105.894 L
192.867 102.399 L
193.284 139.931 L
193.36 122.543 L
193.372 122.289 L
193.435 108.028 L
193.65 131.615 L
194.143 120.837 L
194.156 120.78 L
194.725 154.345 L
194.94 109.112 L
194.952 108.363 L
194.978 105.977 L
195.559 154.217 L
195.724 123.034 L
195.736 122.877 L
196.116 105.343 L
196.368 152.845 L
196.52 124.671 L
196.533 124.156 L
196.76 108.7 L
197.19 149.908 L
197.304 125.262 L
197.317 124.985 L
197.557 105.934 L
197.633 155.805 L
198.088 122.194 L
198.1 123.35 L
198.341 142.278 L
198.783 108.634 L
198.884 123.219 L
198.897 129.634 L
199.124 114.99 L
199.213 161.87 L
199.668 121.383 L
199.681 121.282 L
199.706 112.898 L
199.921 147.567 L
200.465 125.397 L
200.477 125.39 L
201.223 125.257 L
201.248 125.258 L
201.261 125.256 L
201.982 125.235 L
202.045 125.235 L
202.057 125.234 L
202.108 125.235 L
202.69 125.227 L
202.829 125.229 L
202.841 125.229 L
202.93 125.23 L
203.562 125.224 L
203.612 125.225 L
203.625 125.226 L
203.638 125.229 L
204.207 125.223 L
204.409 125.227 L
204.422 125.222 L
204.813 125.227 L
205.104 125.221 L
205.193 125.225 L
205.205 125.223 L
205.307 125.221 L
205.408 125.226 L
205.989 125.225 L
206.002 125.225 L
206.191 125.225 L
206.773 125.225 L
206.786 125.225 L
207.569 125.225 L
207.582 125.225 L
208.353 125.225 L
208.366 125.225 L
209.137 125.225 L
209.15 125.225 L
209.618 109.277 L
209.731 152.062 L
209.934 134.615 L
209.946 128.407 L
209.997 110.027 L
210.717 161.474 L
210.73 163.357 L
210.755 166.1 L
211.4 108.866 L
211.514 127.054 L
211.527 123.893 L
211.59 160.797 L
211.754 93.474 L
212.298 123.231 L
212.31 123.339 L
212.778 106.458 L
213.094 139.964 L
213.107 141.969 L
213.309 167.874 L
213.789 109.333 L
213.878 124.537 L
213.891 124.954 L
214.422 110.796 L
214.599 168.869 L
214.662 137.715 L
214.674 135.423 L
214.99 108.32 L
215.458 130.061 L
215.471 136.685 L
215.534 171.676 L
215.901 118.79 L
216.242 135.651 L
216.255 135.272 L
216.937 121.638 L
217.013 170.657 L
217.039 159.056 L
217.051 155.054 L
217.557 119.467 L
217.734 164.967 L
217.822 138.233 L
217.835 137.752 L
218.353 163.988 L
218.581 119.501 L
218.619 123.201 L
218.631 128.323 L
218.808 165.573 L
219.087 118.362 L
219.403 121.732 L
219.415 120.772 L
219.832 156.904 L
220.199 149.029 L
220.212 143.519 L
220.844 148.903 L
220.894 127.956 L
220.983 138.737 L
220.996 138.698 L
221.274 172.225 L
221.527 124.702 L
221.767 141.13 L
221.779 140.646 L
221.918 139.409 L
222.108 172.331 L
222.563 141.192 L
222.576 141.224 L
222.664 124.671 L
222.917 171.163 L
223.347 140.236 L
223.36 140.409 L
223.739 167.999 L
224.106 125.274 L
224.143 147.826 L
224.156 158.597 L
224.181 175.421 L
224.599 129.836 L
224.927 145.382 L
224.94 144.906 L
225.332 127.939 L
225.458 149.692 L
225.724 142.868 L
225.736 168.526 L
225.762 183.221 L
226.255 132.578 L
226.508 146.952 L
226.52 146.458 L
226.583 146.665 L
227.291 144.731 L
227.304 144.726 L
228.075 144.641 L
228.088 144.644 L
228.101 144.645 L
228.859 144.624 L
228.872 144.626 L
228.884 144.626 L
229.643 144.616 L
229.668 144.617 L
229.681 144.618 L
229.693 144.618 L
230.288 144.611 L
230.452 144.612 L
230.465 144.612 L
230.49 144.615 L
231.223 144.608 L
231.248 144.61 L
231.261 144.61 L
231.312 144.612 L
231.906 144.606 L
232.032 144.61 L
232.045 144.61 L
232.247 144.61 L
232.816 144.61 L
232.829 144.61 L
233.613 144.609 L
233.625 144.609 L
234.396 144.609 L
234.409 144.609 L
235.193 144.609 L
235.205 144.609 L
235.977 143.787 L
235.989 143.776 L
236.166 128.646 L
236.28 172.144 L
236.773 144.937 L
236.786 144.912 L
236.862 132.419 L
237.304 186.989 L
237.557 148.635 L
237.57 148.482 L
238.138 181.54 L
238.303 113.358 L
238.341 118.422 L
238.353 116.47 L
238.973 150.234 L
239.137 143.96 L
239.15 144.02 L
239.327 125.93 L
239.858 188.724 L
239.921 165.421 L
239.934 166.195 L
240.338 128.545 L
240.718 188.714 L
240.73 187.229 L
240.983 129.494 L
241.147 188.499 L
241.501 145.208 L
241.514 142.661 L
241.59 126.045 L
242.083 190.584 L
242.298 152.963 L
242.31 152.059 L
242.45 136.198 L
242.702 186.934 L
243.082 147.496 L
243.094 150.018 L
243.486 137.615 L
243.562 187.728 L
243.865 151.165 L
243.878 151.089 L
244.106 134.948 L
244.283 180.757 L
244.662 148.924 L
244.675 147.903 L
245.13 134.609 L
245.357 181.406 L
245.446 155.086 L
245.458 154.712 L
245.635 133.418 L
246.204 159.554 L
246.242 151.837 L
246.255 151.778 L
246.381 172.703 L
246.533 140.235 L
247.026 160.497 L
247.039 160.227 L
247.443 142.686 L
247.822 187.186 L
247.835 180.404 L
248.075 138.18 L
248.606 158.541 L
248.619 161.47 L
248.657 186.514 L
249.213 137.34 L
249.39 164.143 L
249.403 174.173 L
249.466 184.337 L
249.858 140.394 L
250.187 154.399 L
250.199 154.217 L
250.654 137.569 L
250.73 188.214 L
250.97 156.125 L
250.983 153.779 L
251.147 141.84 L
251.413 173.439 L
251.767 154.177 L
251.78 154.633 L
251.881 139.661 L
252.31 194.513 L
252.551 156.769 L
252.563 156.66 L
252.804 144.196 L
253.031 176.899 L
253.347 156.577 L
253.36 156.543 L
254.131 155.965 L
254.144 155.964 L
254.864 155.908 L
254.915 155.91 L
254.927 155.909 L
255.686 155.897 L
255.711 155.898 L
255.724 155.9 L
255.737 155.9 L
256.445 155.893 L
256.495 155.896 L
256.508 155.895 L
256.571 155.898 L
256.634 155.891 L
257.292 155.896 L
257.304 155.894 L
257.519 155.897 L
257.57 155.89 L
258.075 155.892 L
258.088 155.893 L
258.417 155.897 L
258.493 155.892 L
258.872 155.895 L
258.884 155.895 L
259.656 155.895 L
259.668 155.895 L
260.364 155.895 L
260.439 155.895 L
260.452 155.895 L
261.236 155.895 L
261.249 155.895 L
262.02 155.895 L
262.032 155.895 L
262.715 139.726 L
262.816 168.098 L
262.829 183.623 L
263.094 140.65 L
263.6 156.233 L
263.613 156.053 L
263.625 156.014 L
263.853 196.659 L
264.396 157.528 L
264.409 158.121 L
264.687 192.336 L
264.852 124.214 L
265.18 142.708 L
265.193 133.221 L
265.522 161.85 L
265.964 160.141 L
265.977 165.581 L
266.129 156.259 L
266.407 198.331 L
266.761 160.515 L
266.773 157.494 L
267.254 197.791 L
267.532 139.486 L
267.544 153.402 L
267.557 143.94 L
267.696 197.781 L
268.088 137.058 L
268.341 157.303 L
268.354 157.396 L
268.632 199.427 L
268.998 146.675 L
269.125 159.217 L
269.137 159.248 L
269.251 196.596 L
269.618 153.036 L
269.921 159.605 L
269.934 159.577 L
270.111 197.169 L
270.654 144.948 L
270.705 158.229 L
270.718 158.479 L
270.844 190.209 L
271.324 146.889 L
271.489 169.418 L
271.501 163.284 L
271.906 190.467 L
272.184 143.546 L
272.285 159.519 L
272.298 159.705 L
272.513 145.366 L
272.93 181.621 L
273.069 152.205 L
273.082 149.471 L
273.297 173.016 L
273.866 162.349 L
273.878 162.385 L
274.371 195.719 L
274.624 147.343 L
274.649 148.412 L
274.662 151.977 L
275.206 195.038 L
275.446 163.249 L
275.458 163.181 L
275.762 146.715 L
276.015 192.795 L
276.23 163.853 L
276.242 163.761 L
276.407 149.385 L
276.837 188.077 L
277.013 164.174 L
277.026 164.083 L
277.203 146.525 L
277.279 197.057 L
277.81 163.363 L
277.823 163.502 L
277.962 181.973 L
278.429 148.374 L
278.594 163.742 L
278.606 163.713 L
278.859 202.69 L
279.39 152.672 L
279.403 162.642 L
279.58 185.282 L
280.174 164.634 L
280.187 164.623 L
280.971 164.379 L
280.983 164.378 L
281.754 164.327 L
281.767 164.327 L
281.792 164.329 L
282.361 164.311 L
282.538 164.314 L
282.551 164.314 L
282.639 164.314 L
283.284 164.305 L
283.335 164.307 L
283.347 164.309 L
283.815 164.303 L
284.118 164.304 L
284.131 164.304 L
284.194 164.307 L
284.89 164.3 L
284.915 164.304 L
284.928 164.303 L
284.94 164.304 L
285.067 164.3 L
285.699 164.304 L
285.711 164.304 L
286.495 164.304 L
286.508 164.304 L
287.279 164.303 L
287.292 164.303 L
288.063 164.303 L
288.076 164.303 L
288.859 164.303 L
288.872 164.303 L
289.264 148.121 L
289.378 192.477 L
289.643 149.126 L
289.656 149.85 L
290.402 204.28 L
290.44 191.014 L
290.452 176.211 L
291.046 147.433 L
291.211 196.495 L
291.223 176.245 L
291.236 201.171 L
291.4 133.161 L
292.02 162.807 L
292.033 162.882 L
292.424 145.519 L
292.804 190.053 L
292.816 198.228 L
292.955 205.131 L
293.436 148.482 L
293.588 164.309 L
293.6 164.474 L
293.802 205.695 L
294.081 147.042 L
294.384 169.225 L
294.397 168.986 L
294.637 145.036 L
295.168 204.35 L
295.18 207.008 L
295.547 154.278 L
295.964 168.79 L
295.977 168.646 L
296.584 154.536 L
296.66 204.761 L
296.748 170.496 L
296.761 170.132 L
297.203 153.042 L
297.393 198.342 L
297.545 169.431 L
297.557 169.255 L
298 196.228 L
298.227 152.053 L
298.328 166.517 L
298.341 166.78 L
298.455 198.119 L
298.733 150.879 L
299.112 166.361 L
299.125 166.61 L
299.479 188.981 L
299.631 156.766 L
299.909 172.038 L
299.921 170.261 L
300.49 180.604 L
300.541 159.886 L
300.692 169.635 L
300.705 169.303 L
300.92 203.162 L
301.173 154.177 L
301.489 170.34 L
301.502 170.832 L
301.754 202.329 L
302.273 161.274 L
302.285 157.478 L
302.311 153.953 L
302.564 200.228 L
303.069 169.006 L
303.082 169.67 L
303.752 153.542 L
303.828 203.875 L
303.853 186.128 L
303.866 173.779 L
304.245 157.896 L
304.51 188.772 L
304.637 171.695 L
304.65 171.555 L
304.978 155.2 L
305.408 208.136 L
305.433 198.688 L
305.446 183.832 L
305.939 158.716 L
306.129 192.045 L
306.217 172.937 L
306.23 173.274 L
307.014 171.168 L
307.026 171.164 L
307.797 171.07 L
307.81 171.07 L
307.835 171.071 L
308.543 171.037 L
308.594 171.039 L
308.607 171.038 L
309.365 171.022 L
309.378 171.023 L
309.39 171.024 L
309.479 171.026 L
309.833 171.016 L
310.162 171.018 L
310.174 171.017 L
310.25 171.019 L
310.882 171.013 L
310.958 171.015 L
310.971 171.015 L
311.464 171.017 L
311.565 171.01 L
311.742 171.014 L
311.754 171.014 L
311.856 171.014 L
312.538 171.014 L
312.551 171.014 L
313.322 171.014 L
313.335 171.014 L
314.119 171.014 L
314.131 171.014 L
314.902 171.014 L
314.915 171.014 L
315.674 170.175 L
315.686 170.476 L
315.699 171.258 L
315.813 154.569 L
315.926 199.512 L
316.483 167.057 L
316.495 159.939 L
316.508 158.859 L
316.95 210.993 L
317.267 172.754 L
317.279 172.646 L
317.785 207.971 L
317.949 139.962 L
318.063 164.086 L
318.076 164.677 L
318.291 148.976 L
318.619 178.126 L
318.847 170.706 L
318.859 170.721 L
318.973 152.357 L
319.504 212.781 L
319.643 179.374 L
319.656 177.446 L
319.985 154.57 L
320.364 212.263 L
320.427 197.943 L
320.44 183.607 L
320.794 211.315 L
321.186 151.59 L
321.211 161.9 L
321.224 156.112 L
321.236 151.22 L
321.729 213.358 L
322.007 172.292 L
322.02 168.247 L
322.096 160.458 L
322.349 210.609 L
322.791 177.125 L
322.804 177.171 L
323.133 160.096 L
323.208 210.778 L
323.588 173.945 L
323.6 173.899 L
323.752 159.17 L
323.942 204.993 L
324.371 165.382 L
324.384 163.398 L
324.776 158.384 L
325.004 204.191 L
325.168 175.313 L
325.181 172.768 L
325.282 157.366 L
325.851 184.315 L
325.952 175.113 L
325.964 179.072 L
326.028 195.275 L
326.179 163.426 L
326.736 176.155 L
326.748 176.14 L
327.09 166.71 L
327.469 209.47 L
327.532 179.083 L
327.545 178.737 L
327.722 159.968 L
328.303 208.494 L
328.316 203.055 L
328.328 189.291 L
328.859 160.011 L
329.112 205.878 L
329.125 197.815 L
329.504 162.129 L
329.896 179.764 L
329.909 193.895 L
330.301 159.386 L
330.377 209.96 L
330.693 177.362 L
330.705 176.652 L
330.794 163.775 L
331.059 194.827 L
331.476 176.838 L
331.489 174.869 L
331.527 160.987 L
331.957 215.013 L
332.26 177.119 L
332.273 177.044 L
332.463 165.027 L
332.677 198.057 L
333.057 177.307 L
333.069 177.287 L
333.841 176.9 L
333.853 176.898 L
334.637 176.817 L
334.65 176.817 L
335.408 176.785 L
335.421 176.785 L
335.433 176.783 L
335.471 176.784 L
336.205 176.767 L
336.217 176.767 L
336.23 176.769 L
336.457 176.771 L
336.951 176.76 L
337.001 176.763 L
337.014 176.763 L
337.128 176.763 L
337.621 176.757 L
337.785 176.76 L
337.798 176.761 L
337.886 176.763 L
338 176.756 L
338.581 176.76 L
338.594 176.76 L
339.365 176.76 L
339.378 176.76 L
340.162 176.76 L
340.174 176.76 L
340.945 176.76 L
340.958 176.76 L
341.742 176.76 L
341.755 176.76 L
342.361 160.214 L
342.475 204.987 L
342.526 179.592 L
342.538 178.908 L
342.652 197.444 L
342.741 161.892 L
343.31 177.567 L
343.322 184.625 L
343.499 216.504 L
344.106 173.087 L
344.119 170.968 L
344.334 212.741 L
344.511 145.901 L
344.89 173.274 L
344.903 173.565 L
345.522 158.012 L
345.636 188.137 L
345.686 182.549 L
345.699 177.546 L
346.066 218.887 L
346.47 161.303 L
346.483 162.32 L
346.913 217.795 L
347.178 159.47 L
347.267 177.203 L
347.279 179.988 L
347.342 216.856 L
347.785 156.839 L
348.05 177.739 L
348.063 177.797 L
348.278 218.749 L
348.645 165.994 L
348.834 179.31 L
348.847 179.276 L
348.91 215.631 L
349.53 171.448 L
349.631 179.233 L
349.643 179.274 L
349.757 216.467 L
350.301 164.805 L
350.415 178.332 L
350.427 180.687 L
350.49 210.85 L
350.971 166.038 L
351.211 182.159 L
351.224 181.01 L
351.552 209.646 L
351.83 162.932 L
351.995 178.786 L
352.007 185.212 L
352.159 164.778 L
352.576 200.524 L
352.791 180.1 L
352.804 180.11 L
352.842 180.041 L
352.943 191.091 L
353.575 188.621 L
353.588 191.744 L
354.018 214.874 L
354.27 165.161 L
354.359 178.9 L
354.372 180.935 L
354.384 179.442 L
354.852 213.76 L
355.155 181.141 L
355.168 181.083 L
355.408 165.435 L
355.661 211.128 L
355.939 182.639 L
355.952 182.589 L
356.053 167.313 L
356.483 204.583 L
356.736 181.838 L
356.748 181.754 L
356.849 164.646 L
356.925 215.509 L
357.52 185.564 L
357.532 190.397 L
357.608 200.202 L
358.076 166.714 L
358.316 181.492 L
358.329 181.485 L
358.506 219.359 L
359.011 170.71 L
359.1 185.716 L
359.112 188.449 L
359.226 204.063 L
359.884 183.171 L
359.896 183.165 L
360.68 182.948 L
360.693 182.946 L
360.705 182.946 L
361.464 182.851 L
361.477 182.848 L
362.26 182.782 L
362.273 182.782 L
363.044 182.732 L
363.057 182.733 L
363.095 182.734 L
363.828 182.692 L
363.841 182.692 L
363.853 182.692 L
364.624 182.651 L
364.637 182.652 L
365.408 182.62 L
365.421 182.619 L
366.205 182.586 L
366.217 182.586 L
366.989 182.555 L
367.001 182.555 L
367.785 182.525 L
367.798 182.524 L
368.569 181.876 L
368.582 181.853 L
368.91 165.678 L
369.024 209.848 L
369.365 183.099 L
369.378 181.892 L
369.606 170.154 L
370.048 222.316 L
370.149 187.961 L
370.162 187.531 L
370.705 165.738 L
370.882 217.787 L
370.933 186.886 L
370.946 176.918 L
371.059 151.989 L
371.717 189.754 L
371.729 181.835 L
371.742 181.638 L
372.071 163.139 L
372.488 217.966 L
372.513 204.95 L
372.526 197.086 L
372.614 225.584 L
373.082 167.043 L
373.31 183.117 L
373.322 183.147 L
373.461 223.985 L
373.727 165.714 L
374.094 187.009 L
374.106 186.867 L
374.296 163.526 L
374.827 224.824 L
374.89 200.556 L
374.903 191.514 L
375.193 172.717 L
375.459 222.176 L
375.674 186.51 L
375.686 186.422 L
376.23 171.292 L
376.306 222.965 L
376.458 187.227 L
376.47 187.075 L
376.85 171.368 L
377.039 217.707 L
377.254 186.668 L
377.267 186.578 L
377.646 213.605 L
377.874 170.116 L
378.038 193.254 L
378.051 199.796 L
378.101 215.82 L
378.379 169.377 L
378.834 186.559 L
378.847 190.627 L
379.125 206.213 L
379.277 174.438 L
379.618 186.998 L
379.631 186.912 L
380.137 197.574 L
380.187 178.72 L
380.415 186.625 L
380.427 188.686 L
380.566 220.69 L
380.819 171.125 L
381.198 186.917 L
381.211 186.821 L
381.401 219.582 L
381.957 171.875 L
381.982 172.408 L
381.995 172.555 L
382.21 216.832 L
382.779 187.696 L
382.791 187.358 L
383.398 170.975 L
383.474 222.152 L
383.563 189.339 L
383.575 189.159 L
383.891 175.669 L
384.157 206.453 L
384.359 188.511 L
384.372 189.213 L
384.625 173.324 L
385.054 226.586 L
385.143 190.995 L
385.156 190.711 L
385.56 176.943 L
385.775 209.911 L
385.939 190.444 L
385.952 190.425 L
386.723 188.778 L
386.736 188.775 L
387.494 188.659 L
387.507 188.66 L
387.52 188.658 L
388.266 188.606 L
388.303 188.608 L
388.316 188.607 L
388.341 188.609 L
389.049 188.58 L
389.087 188.58 L
389.1 188.577 L
389.15 188.581 L
389.871 188.562 L
389.884 188.564 L
389.896 188.563 L
389.909 188.565 L
390.668 188.553 L
390.68 188.555 L
390.693 188.556 L
391.274 188.549 L
391.464 188.551 L
391.477 188.551 L
392.248 188.548 L
392.26 188.548 L
393.032 188.547 L
393.044 188.547 L
393.828 188.546 L
393.841 188.546 L
394.612 188.545 L
394.625 188.545 L
395.345 188.873 L
395.408 183.721 L
395.421 181.729 L
395.459 171.69 L
395.573 215.078 L
396.192 187.665 L
396.205 187.77 L
396.597 228.053 L
396.989 189.901 L
397.001 189.848 L
397.431 222.244 L
397.608 158.69 L
397.773 185.416 L
397.785 185.633 L
397.937 166.808 L
398.266 195.848 L
398.556 188.033 L
398.569 188.013 L
398.62 169.469 L
399.163 231.504 L
399.353 193.082 L
399.365 192.862 L
399.631 173.263 L
400.01 229.849 L
400.137 194.874 L
400.149 194.5 L
400.44 229.348 L
400.845 168.535 L
400.933 187.563 L
400.946 187.882 L
401.376 230.916 L
401.717 180.596 L
401.73 179.464 L
401.742 178.675 L
402.008 228.392 L
402.513 193.619 L
402.526 195.172 L
402.779 176.951 L
402.855 229.239 L
403.297 191.399 L
403.31 189.753 L
403.398 177.403 L
403.588 224.748 L
404.081 185.887 L
404.094 193.008 L
404.422 176.686 L
404.65 222.637 L
404.877 183.217 L
404.89 181.747 L
404.928 176.217 L
405.661 212.123 L
405.674 213.324 L
405.826 181.687 L
406.458 194.479 L
406.47 201.745 L
406.736 186.425 L
407.115 228.539 L
407.242 196.824 L
407.254 195.314 L
407.368 177.911 L
407.95 227.468 L
408.038 196.946 L
408.051 196.708 L
408.506 179.198 L
408.759 224.767 L
408.822 202.379 L
408.835 198.379 L
409.151 180.829 L
409.58 217.203 L
409.606 211.472 L
409.618 215.36 L
409.947 178.496 L
410.023 230.33 L
410.402 193.492 L
410.415 186.906 L
410.706 214.447 L
411.173 181.308 L
411.186 181.344 L
411.199 183.113 L
411.603 235.037 L
411.982 196.599 L
411.995 196.549 L
412.109 184.712 L
412.324 218.525 L
412.766 197.184 L
412.779 197.166 L
413.563 196.812 L
413.575 196.811 L
414.334 196.736 L
414.347 196.736 L
414.359 196.737 L
415.118 196.703 L
415.13 196.704 L
415.143 196.704 L
415.902 196.691 L
415.927 196.694 L
415.939 196.694 L
416.003 196.695 L
416.635 196.685 L
416.711 196.688 L
416.723 196.688 L
416.862 196.69 L
417.444 196.683 L
417.507 196.688 L
417.52 196.687 L
417.57 196.689 L
417.659 196.684 L
418.291 196.688 L
418.304 196.688 L
418.367 196.688 L
419.087 196.687 L
419.1 196.687 L
419.871 196.687 L
419.884 196.687 L
420.655 196.687 L
420.668 196.687 L
421.452 196.687 L
421.464 196.687 L
422.008 180.195 L
422.122 222.598 L
422.235 181.922 L
422.248 191.438 L
422.311 217.418 L
422.387 181.772 L
423.032 197.471 L
423.044 197.378 L
423.146 238.821 L
423.803 178.842 L
423.816 187.741 L
423.828 186.398 L
423.98 230.599 L
424.157 165.91 L
424.612 193.97 L
424.625 194.125 L
425.168 177.113 L
425.282 208.442 L
425.396 196.992 L
425.409 196.921 L
425.712 243.345 L
426.18 181.664 L
426.192 181.326 L
426.559 241.754 L
426.976 237.798 L
426.989 240.587 L
427.393 176.833 L
427.76 199.015 L
427.773 199.115 L
427.924 242.237 L
428.291 187.745 L
428.556 239.278 L
428.569 230.179 L
429.328 186.546 L
429.34 194.37 L
429.353 191.142 L
429.404 239.365 L
429.947 186.404 L
430.137 235.818 L
430.149 224.845 L
430.617 187.634 L
430.744 229.976 L
430.921 196.808 L
430.933 189.972 L
431.199 232.644 L
431.477 185.362 L
431.704 201.775 L
431.717 201.765 L
431.806 186.141 L
432.223 223.352 L
432.501 202.66 L
432.513 202.739 L
433.234 214.408 L
433.285 196.776 L
433.297 199.53 L
433.664 239.163 L
433.917 187.336 L
434.081 208.911 L
434.094 205.533 L
434.309 203.763 L
434.498 237.688 L
434.865 204.379 L
434.878 204.327 L
435.067 188.355 L
435.307 234.922 L
435.661 203.749 L
435.674 202.062 L
435.699 190.346 L
436.129 226.695 L
436.445 204.641 L
436.458 201.749 L
436.496 188.185 L
436.572 241.058 L
437.229 208.436 L
437.242 216.718 L
437.254 224.602 L
437.735 190.921 L
438.026 205.798 L
438.038 205.766 L
438.165 245.518 L
438.658 194.726 L
438.809 211.552 L
438.822 210.452 L
438.873 229.151 L
439.606 207.208 L
439.618 207.198 L
440.377 206.931 L
440.39 206.931 L
440.402 206.928 L
441.161 206.844 L
441.186 206.845 L
441.199 206.842 L
441.237 206.842 L
441.894 206.812 L
441.97 206.814 L
441.983 206.813 L
441.995 206.814 L
442.665 206.8 L
442.754 206.801 L
442.766 206.801 L
442.943 206.801 L
443.449 206.794 L
443.55 206.795 L
443.563 206.793 L
443.588 206.796 L
444.283 206.79 L
444.334 206.792 L
444.347 206.791 L
444.637 206.794 L
445.13 206.794 L
445.143 206.794 L
445.914 206.793 L
445.927 206.793 L
446.711 206.793 L
446.723 206.793 L
447.495 206.793 L
447.507 206.793 L
448.278 206.031 L
448.291 206.012 L
448.557 190.85 L
448.67 232.081 L
449.075 206.447 L
449.088 206.371 L
449.252 193.947 L
449.694 248.931 L
449.859 212.073 L
449.871 211.827 L
450.529 240.109 L
450.655 183.764 L
450.668 181.9 L
450.706 175.29 L
451.363 212.343 L
451.439 205.384 L
451.452 205.384 L
451.717 186.47 L
452.134 246.295 L
452.235 233.072 L
452.248 248.56 L
452.261 253.053 L
452.741 191.994 L
453.019 210.253 L
453.032 212.765 L
453.108 252.115 L
453.373 192.241 L
453.803 213.884 L
453.816 213.79 L
453.942 187.677 L
454.486 253.368 L
454.6 217.83 L
454.612 217.353 L
454.84 199.726 L
455.105 251.203 L
455.383 214.761 L
455.396 215.238 L
455.876 199.521 L
455.952 251.608 L
456.18 215.154 L
456.192 215.059 L
456.496 199.223 L
456.686 249.159 L
456.964 215.975 L
456.976 216.205 L
457.52 198.277 L
457.747 245.553 L
457.76 244.474 L
457.773 233.401 L
457.798 237.01 L
458.026 198.318 L
458.544 214.985 L
458.557 214.895 L
458.771 236.345 L
458.923 204.209 L
459.328 216.915 L
459.34 217.412 L
459.429 228.081 L
459.833 210.753 L
460.124 217.618 L
460.137 218.524 L
460.213 253.491 L
460.466 200.873 L
460.908 218.107 L
460.921 218.112 L
461.047 251.935 L
461.616 202.342 L
461.704 215.013 L
461.717 215.318 L
461.856 249.708 L
462.248 204.504 L
462.488 219.187 L
462.501 219.199 L
463.045 202.614 L
463.12 256.156 L
463.285 221.401 L
463.297 221.274 L
463.538 207.902 L
463.803 239.874 L
464.069 222.065 L
464.081 222.06 L
464.284 205.798 L
464.713 259.218 L
464.852 222.759 L
464.865 222.582 L
465.206 209.393 L
465.421 244.188 L
465.649 222.719 L
465.662 222.668 L
466.433 221.991 L
466.445 221.986 L
467.229 221.767 L
467.242 221.764 L
468.013 221.679 L
468.026 221.678 L
468.784 221.642 L
468.809 221.642 L
468.822 221.64 L
468.847 221.642 L
469.581 221.625 L
469.593 221.626 L
469.606 221.626 L
470.377 221.617 L
470.39 221.614 L
470.415 221.614 L
470.592 221.622 L
471.174 221.617 L
471.186 221.617 L
471.957 221.616 L
471.97 221.616 L
472.754 221.616 L
472.767 221.616 L
473.538 221.615 L
473.55 221.615 L
474.334 221.615 L
474.347 221.615 L
474.992 221.868 L
475.105 206.415 L
475.118 207.025 L
475.131 217.089 L
475.219 246.179 L
475.497 206.163 L
475.902 220.988 L
475.914 221.055 L
475.94 221.041 L
476.243 262.961 L
476.698 223.88 L
476.711 223.841 L
477.078 253.355 L
477.255 189.632 L
477.482 219.005 L
477.495 219.11 L
477.596 198.755 L
477.912 226.899 L
478.279 208.618 L
478.291 218.377 L
478.81 266.122 L
479.062 226.743 L
479.075 226.642 L
479.29 206.472 L
479.657 265.743 L
479.859 227.383 L
479.871 224.813 L
480.086 265.251 L
480.491 200.354 L
480.643 223.34 L
480.655 223.556 L
481.022 265.758 L
481.401 212.388 L
481.426 224.149 L
481.439 228.848 L
481.654 263.559 L
482.021 219.491 L
482.223 226.226 L
482.236 225.256 L
482.501 263.807 L
483.007 211.333 L
483.019 211.744 L
483.045 210.662 L
483.234 260.896 L
483.803 233.042 L
483.816 239.344 L
484.069 209.341 L
484.296 255.823 L
484.587 211.849 L
484.6 214.019 L
484.903 210.23 L
485.32 246.65 L
485.383 228.738 L
485.396 228.04 L
485.472 214.254 L
485.978 238.65 L
486.167 227.299 L
486.18 227.272 L
486.762 262.793 L
486.951 217.254 L
486.964 215.204 L
487.014 210.814 L
487.596 260.729 L
487.748 228.107 L
487.76 228.022 L
488.165 211.29 L
488.405 257.433 L
488.531 229.185 L
488.544 229.352 L
488.797 212.775 L
489.239 248.975 L
489.328 228.829 L
489.341 228.655 L
489.593 210.21 L
489.669 264.258 L
490.112 226.432 L
490.124 226.908 L
490.352 246.809 L
490.832 212.579 L
490.908 226.572 L
490.921 226.77 L
491.174 220.1 L
491.25 267.559 L
491.692 225.748 L
491.705 224.887 L
491.755 216.111 L
491.97 250.649 L
492.476 228.492 L
492.488 228.477 L
493.272 228.11 L
493.285 228.107 L
493.298 228.107 L
494.056 227.996 L
494.069 227.995 L
494.081 227.995 L
494.827 227.952 L
494.853 227.953 L
494.865 227.954 L
495.573 227.932 L
495.636 227.934 L
495.649 227.935 L
496.269 227.924 L
496.433 227.928 L
496.445 227.928 L
497.141 227.921 L
497.217 227.923 L
497.229 227.923 L
497.28 227.921 L
497.33 227.925 L
498 227.924 L
498.013 227.924 L
498.797 227.923 L
498.81 227.923 L
499.581 227.923 L
499.593 227.923 L
500.377 227.923 L
500.39 227.923 L
501.161 227.923 L
501.174 227.923 L
501.768 251.778 L
501.882 212.272 L
501.958 250.31 L
501.97 242.342 L
502.033 212.305 L
502.741 233.205 L
502.754 254.051 L
502.792 268.744 L
503.449 209.555 L
503.525 229.536 L
503.538 232.018 L
503.626 257.462 L
503.803 196.364 L
504.322 225.992 L
504.334 226.086 L
504.815 207.521 L
504.928 240.821 L
505.105 228.829 L
505.118 234.901 L
505.358 271.525 L
505.839 211.627 L
505.902 215.221 L
505.915 226.612 L
506.205 270.634 L
506.471 210.111 L
506.686 249.616 L
506.698 237.625 L
507.04 205.03 L
507.482 229.7 L
507.495 229.722 L
507.571 271.374 L
507.95 217.472 L
508.266 233.636 L
508.279 233.257 L
508.974 218.099 L
509.05 270.133 L
509.062 269.714 L
509.075 260.59 L
509.593 216.598 L
509.783 267.066 L
509.846 236.944 L
509.859 234.318 L
510.39 260.24 L
510.63 215.21 L
510.643 223.918 L
510.845 262.245 L
511.123 215.711 L
511.427 216.697 L
511.439 217.344 L
511.452 216.53 L
511.869 253.559 L
512.21 239.758 L
512.223 244.074 L
512.526 245.076 L
512.944 227.447 L
513.007 236.148 L
513.02 233.868 L
513.31 271.413 L
513.563 217.544 L
513.791 249.846 L
513.803 239.486 L
513.968 233.934 L
514.157 269.352 L
514.587 234.504 L
514.6 235.158 L
514.714 218.452 L
514.954 267.64 L
515.371 232.13 L
515.384 234.452 L
515.788 262.122 L
516.155 218.403 L
516.167 233.759 L
516.218 277.635 L
516.635 224.714 L
516.951 246.225 L
516.964 243.091 L
517.381 222.857 L
517.495 246.294 L
517.735 237.975 L
517.748 238.669 L
517.811 287.61 L
518.304 228.291 L
518.532 261.876 L
518.544 249.212 L
519.252 244.086 L
519.315 244.09 L
519.328 244.09 L
520.112 244.197 L
520.124 244.2 L
520.896 244.298 L
520.908 244.3 L
521.68 244.351 L
521.692 244.349 L
522.387 244.373 L
522.476 244.368 L
522.489 244.37 L
522.526 244.367 L
523.133 244.378 L
523.26 244.376 L
523.272 244.377 L
523.374 244.381 L
523.386 244.376 L
524.056 244.38 L
524.069 244.38 L
524.84 244.383 L
524.853 244.383 L
525.636 244.383 L
525.649 244.383 L
526.42 244.383 L
526.433 244.383 L
527.204 244.383 L
527.217 244.383 L
527.925 244.384 L
S
GR
GS
[1.00088 0 0 0.9996 0 0.14755] CT
0.851 0.325 0.098 RC
[12 12] 0 setdash
2 LJ
3.15 LW
N
67.015 30.001 M
67.774 30.001 L
68.533 30.001 L
69.291 29.949 L
70.05 30.001 L
70.809 29.949 L
71.567 30.001 L
72.326 30.001 L
73.085 30.052 L
73.843 29.949 L
74.602 30.001 L
75.361 30.052 L
76.119 30.001 L
76.878 30.001 L
77.637 30.001 L
78.396 30.001 L
79.154 30.001 L
79.913 30.001 L
80.672 30.001 L
81.43 30.001 L
82.171 30.001 L
82.184 29.949 L
82.858 37.917 L
82.871 38.124 L
83.653 42.678 L
83.666 42.729 L
84.448 46.403 L
84.46 46.403 L
85.217 49.766 L
85.23 49.766 L
85.242 49.818 L
86.024 53.182 L
86.037 53.233 L
86.806 56.39 L
86.819 56.441 L
87.601 59.546 L
87.614 59.649 L
88.383 62.65 L
88.396 62.65 L
89.178 65.807 L
89.191 65.859 L
89.96 68.756 L
89.973 68.756 L
89.985 68.808 L
90.755 71.757 L
90.767 71.809 L
91.537 74.707 L
91.549 74.707 L
91.562 74.81 L
91.653 75.121 L
92.268 67.359 L
92.332 67.359 L
92.345 67.359 L
93.025 66.79 L
93.127 66.842 L
93.14 66.79 L
93.845 66.583 L
93.909 66.583 L
93.922 66.635 L
94.332 66.479 L
94.704 66.479 L
94.717 66.479 L
94.729 66.531 L
95.345 66.324 L
95.486 66.376 L
95.499 66.376 L
95.742 66.272 L
96.281 66.272 L
96.293 66.272 L
96.37 66.324 L
97.05 66.169 L
97.075 66.221 L
97.088 66.221 L
97.127 66.272 L
97.55 66.117 L
97.857 66.169 L
97.87 66.117 L
97.896 66.169 L
98.383 66.066 L
98.652 66.117 L
98.665 66.169 L
99.126 66.014 L
99.434 66.066 L
99.447 66.066 L
99.767 66.117 L
99.793 65.962 L
100.229 66.014 L
100.242 66.014 L
100.37 65.962 L
100.562 66.066 L
101.011 66.014 L
101.024 65.962 L
101.421 65.91 L
101.472 66.066 L
101.806 65.962 L
101.818 65.962 L
102.088 65.859 L
102.6 65.91 L
102.613 65.91 L
103.3 66.014 L
103.377 58.77 L
103.39 64.203 L
103.403 64.72 L
103.416 49.663 L
103.531 93.645 L
104.172 64.668 L
104.185 64.824 L
104.557 106.994 L
104.967 69.067 L
104.98 69.015 L
105.39 104.045 L
105.557 35.848 L
105.749 61.823 L
105.762 61.978 L
105.903 43.713 L
106.223 71.757 L
106.544 64.41 L
106.556 64.461 L
106.569 45.058 L
107.12 111.082 L
107.326 73.62 L
107.338 73.413 L
107.595 50.75 L
107.967 108.857 L
108.12 75.328 L
108.133 76.052 L
108.402 110.564 L
108.8 48.318 L
108.915 67.411 L
108.928 67.825 L
109.364 113.152 L
109.697 60.374 L
109.71 60.115 L
109.966 109.064 L
110.492 74.655 L
110.505 74.448 L
110.735 59.235 L
110.812 109.788 L
111.274 71.861 L
111.287 71.705 L
111.364 58.563 L
111.543 106.787 L
112.069 73.154 L
112.081 72.999 L
112.389 58.977 L
112.607 104.407 L
112.851 64.41 L
112.863 62.754 L
112.889 57.89 L
113.633 95.921 L
113.645 95.456 L
113.658 91.523 L
113.786 64.358 L
114.44 78.639 L
114.453 78.018 L
114.697 67.049 L
115.068 111.755 L
115.222 77.294 L
115.235 75.379 L
115.325 62.288 L
115.914 109.892 L
116.017 81.433 L
116.03 81.226 L
116.466 62.961 L
116.722 109.737 L
116.799 82.83 L
116.812 82.416 L
117.107 65.91 L
117.542 107.201 L
117.594 84.331 L
117.606 83.555 L
117.914 63.737 L
117.978 114.29 L
118.376 69.584 L
118.388 69.636 L
118.696 100.63 L
119.132 66.014 L
119.17 78.432 L
119.183 78.743 L
119.478 70.308 L
119.568 119.723 L
119.952 82.572 L
119.965 83.348 L
120.093 70.308 L
120.273 104.873 L
120.747 82.985 L
120.76 82.934 L
121.465 82.365 L
121.542 82.416 L
121.555 82.416 L
122.119 82.209 L
122.324 82.209 L
122.337 82.209 L
122.362 82.261 L
122.824 82.106 L
123.119 82.106 L
123.132 82.158 L
123.221 82.209 L
123.388 82.054 L
123.901 82.054 L
123.913 82.054 L
123.926 82.002 L
123.978 82.106 L
124.695 82.054 L
124.708 82.002 L
124.888 82.054 L
125.336 81.899 L
125.477 81.951 L
125.49 81.951 L
125.826 82.002 L
126.095 81.847 L
126.275 81.899 L
126.287 81.899 L
126.326 81.951 L
126.813 81.795 L
127.057 81.847 L
127.069 81.847 L
127.121 81.899 L
127.351 81.744 L
127.851 81.795 L
127.864 81.847 L
127.967 81.744 L
128.646 81.795 L
128.659 81.744 L
128.71 81.847 L
129.21 81.692 L
129.428 81.744 L
129.441 81.692 L
129.965 65.393 L
130.08 109.478 L
130.221 81.019 L
130.234 81.226 L
130.26 105.856 L
130.35 66.479 L
131.003 82.416 L
131.016 82.365 L
131.106 123.293 L
131.76 65.496 L
131.798 93.696 L
131.811 92.92 L
131.939 120.137 L
132.106 51.422 L
132.58 78.018 L
132.593 78.122 L
133.119 60.684 L
133.234 93.903 L
133.375 81.226 L
133.388 81.278 L
133.67 127.691 L
134.144 66.428 L
134.17 69.998 L
134.183 81.381 L
134.785 68.187 L
134.952 126.657 L
134.965 123.707 L
135.349 63.892 L
135.747 85.417 L
135.759 85.417 L
135.913 129.347 L
136.259 75.69 L
136.529 114.549 L
136.541 115.532 L
137.285 74.707 L
137.323 86.918 L
137.336 91.523 L
137.362 125.57 L
137.913 73.982 L
138.105 112.324 L
138.118 108.391 L
138.567 76.311 L
138.708 119.413 L
138.9 78.743 L
138.913 76 L
139.156 120.137 L
139.438 73.206 L
139.695 89.971 L
139.708 89.919 L
139.772 74.655 L
140.182 111.548 L
140.477 91.523 L
140.49 91.471 L
140.554 104.614 L
141.246 82.416 L
141.272 92.61 L
141.284 92.713 L
141.618 127.484 L
141.874 77.604 L
142.054 93.282 L
142.066 99.647 L
142.271 93.231 L
142.464 125.622 L
142.848 94.421 L
142.861 94.317 L
143.015 78.07 L
143.271 125.26 L
143.63 92.868 L
143.643 83.089 L
143.656 81.123 L
144.092 122.672 L
144.425 90.954 L
144.438 87.28 L
144.464 78.949 L
144.528 129.709 L
145.22 113.669 L
145.233 108.857 L
145.245 116.049 L
145.681 81.071 L
146.002 95.973 L
146.015 95.818 L
146.117 135.142 L
146.643 85.262 L
146.797 100.268 L
146.809 100.268 L
146.822 120.189 L
147.553 97.68 L
147.579 97.732 L
147.591 97.629 L
148.271 97.267 L
148.373 97.267 L
148.386 97.267 L
148.745 97.111 L
149.155 97.163 L
149.168 97.111 L
149.181 97.163 L
149.63 97.008 L
149.95 97.06 L
149.963 97.008 L
150.078 97.06 L
150.732 96.904 L
150.745 96.956 L
150.758 96.956 L
151.309 96.853 L
151.527 96.904 L
151.54 96.904 L
151.604 96.956 L
152.091 96.801 L
152.322 96.801 L
152.334 96.801 L
152.439 96.904 L
152.991 96.749 L
153.106 96.801 L
153.119 96.801 L
153.132 96.853 L
153.157 96.749 L
153.901 96.801 L
153.914 96.749 L
154.132 96.697 L
154.221 96.801 L
154.683 96.749 L
154.696 96.749 L
155.144 96.646 L
155.478 96.646 L
155.49 96.697 L
155.619 96.749 L
156.258 95.87 L
156.271 95.921 L
156.515 80.191 L
156.63 124.587 L
157.053 96.025 L
157.066 100.423 L
157.207 84.59 L
157.655 138.764 L
157.848 102.648 L
157.861 102.441 L
158.489 135.401 L
158.63 72.792 L
158.642 70.153 L
158.655 66.169 L
159.322 102.286 L
159.424 94.628 L
159.437 94.679 L
159.668 75.431 L
160.206 139.955 L
160.219 143.318 L
160.694 81.278 L
161.001 105.338 L
161.014 110.099 L
161.334 83.296 L
161.501 142.076 L
161.783 104.355 L
161.796 105.235 L
161.899 78.794 L
162.463 144.715 L
162.578 108.65 L
162.591 108.34 L
162.809 90.643 L
163.065 140.213 L
163.373 103.165 L
163.386 101.095 L
163.834 89.402 L
163.911 140.524 L
164.155 105.959 L
164.168 105.856 L
164.462 88.574 L
164.642 137.316 L
164.949 106.839 L
164.962 106.839 L
165.488 88.936 L
165.706 134.987 L
165.731 121.637 L
165.744 119.309 L
165.757 128.468 L
165.988 87.746 L
166.526 104.355 L
166.539 108.391 L
166.731 126.398 L
166.885 94.628 L
167.308 110.771 L
167.321 111.392 L
167.744 118.999 L
167.795 97.163 L
168.103 111.651 L
168.116 114.807 L
168.167 142.593 L
168.423 92.247 L
168.898 115.791 L
168.911 128.002 L
169.013 140.627 L
169.564 92.558 L
169.68 104.821 L
169.693 105.183 L
169.821 140.058 L
170.205 95.714 L
170.475 108.857 L
170.487 108.909 L
171.013 93.386 L
171.077 144.404 L
171.256 112.065 L
171.269 111.91 L
171.5 97.422 L
171.795 130.693 L
172.051 112.22 L
172.064 112.169 L
172.231 95.507 L
172.667 149.786 L
172.833 114.549 L
172.846 114.394 L
173.192 99.647 L
173.372 134.884 L
173.628 113.203 L
173.641 113.255 L
174.372 111.703 L
174.423 111.806 L
174.436 111.703 L
175.012 111.392 L
175.205 111.392 L
175.218 111.392 L
175.807 111.185 L
176 111.185 L
176.012 111.237 L
176.705 111.03 L
176.782 111.134 L
176.794 111.03 L
176.858 111.134 L
177.294 110.978 L
177.576 110.978 L
177.589 111.03 L
178.294 110.875 L
178.358 110.978 L
178.371 110.875 L
178.435 110.978 L
179.079 110.823 L
179.155 110.823 L
179.168 110.875 L
179.207 110.927 L
179.886 110.771 L
179.937 110.823 L
179.95 110.823 L
180.053 110.875 L
180.399 110.72 L
180.732 110.72 L
180.745 110.72 L
180.758 110.823 L
181.514 110.72 L
181.527 110.771 L
181.809 110.823 L
181.976 110.668 L
182.309 110.668 L
182.322 110.72 L
183.064 94.162 L
183.102 108.184 L
183.115 112.117 L
183.179 138.764 L
183.448 95.3 L
183.884 109.737 L
183.897 109.788 L
184.205 153.201 L
184.679 114.342 L
184.692 114.238 L
185.038 149.837 L
185.205 80.14 L
185.461 106.684 L
185.474 106.839 L
185.551 87.746 L
185.871 116.153 L
186.256 107.149 L
186.269 107.356 L
186.769 157.909 L
187.051 118.947 L
187.063 118.688 L
187.243 95.611 L
187.615 154.753 L
187.833 117.239 L
187.845 115.014 L
188.051 156.978 L
188.448 93.541 L
188.627 112.945 L
188.64 112.945 L
189.012 159.306 L
189.358 105.235 L
189.409 117.032 L
189.422 117.032 L
189.614 154.857 L
189.973 109.892 L
190.204 110.151 L
190.217 117.653 L
190.384 103.527 L
190.461 155.012 L
190.986 105.08 L
190.999 104.2 L
191.012 102.7 L
191.191 151.7 L
191.781 122.983 L
191.794 145.491 L
192.255 149.268 L
192.537 101.923 L
192.563 105.856 L
192.576 107.46 L
192.871 102.855 L
193.281 140.472 L
193.358 123.604 L
193.37 123.397 L
193.435 108.805 L
193.652 133.694 L
194.152 122.362 L
194.165 122.207 L
194.345 111.444 L
194.716 157.133 L
194.934 112.013 L
194.947 111.599 L
194.973 106.736 L
195.563 155.271 L
195.729 126.036 L
195.742 125.829 L
196.114 106.891 L
196.37 154.494 L
196.511 127.743 L
196.524 126.76 L
196.755 110.202 L
197.191 152.062 L
197.306 127.381 L
197.319 127.174 L
197.562 107.874 L
197.626 159.203 L
198.088 123.914 L
198.101 125.001 L
198.344 145.439 L
198.78 109.995 L
198.883 123.138 L
198.895 130.33 L
199.126 113.773 L
199.216 164.222 L
199.677 123.914 L
199.69 123.345 L
199.742 114.342 L
199.921 149.682 L
200.459 127.226 L
200.472 127.174 L
201.229 125.984 L
201.254 125.984 L
201.267 125.984 L
202.023 125.415 L
202.036 125.467 L
202.049 125.415 L
202.062 125.467 L
202.664 125.104 L
202.831 125.104 L
202.844 125.104 L
203.613 124.794 L
203.626 124.846 L
204.28 124.639 L
204.408 124.69 L
204.421 124.639 L
204.433 124.69 L
205.151 124.483 L
205.202 124.483 L
205.215 124.483 L
205.241 124.535 L
205.923 124.328 L
205.987 124.38 L
206 124.432 L
206.128 124.276 L
206.782 124.276 L
206.794 124.276 L
206.833 124.328 L
207.269 124.173 L
207.564 124.173 L
207.576 124.173 L
207.653 124.225 L
208.102 124.069 L
208.358 124.173 L
208.371 124.121 L
208.448 124.173 L
208.743 124.018 L
209.14 124.069 L
209.153 124.018 L
209.613 107.253 L
209.729 152.218 L
209.934 133.952 L
209.947 127.588 L
209.998 108.598 L
210.716 160.186 L
210.729 162.825 L
210.754 166.861 L
211.408 108.857 L
211.511 127.381 L
211.523 127.226 L
211.587 164.481 L
211.754 93.852 L
212.305 120.24 L
212.318 120.344 L
212.767 102.027 L
213.087 137.833 L
213.1 136.85 L
213.318 171.673 L
213.792 110.099 L
213.882 124.276 L
213.895 124.639 L
214.433 113.255 L
214.6 172.035 L
214.664 140.679 L
214.677 138.609 L
214.997 109.271 L
215.459 129.399 L
215.472 136.591 L
215.561 174.208 L
215.907 121.379 L
216.241 138.661 L
216.254 138.351 L
216.933 119.826 L
217.01 171.311 L
217.036 160.393 L
217.048 161.221 L
217.561 119.361 L
217.741 168.258 L
217.83 139.851 L
217.843 139.489 L
218.356 165.36 L
218.587 120.033 L
218.612 122.828 L
218.625 123.655 L
218.805 165.878 L
219.087 118.999 L
219.407 120.551 L
219.42 119.361 L
219.83 156.926 L
220.189 146.164 L
220.202 150.51 L
220.843 150.614 L
220.894 128.778 L
220.984 139.592 L
220.997 139.489 L
221.266 174.157 L
221.522 124.069 L
221.766 141.3 L
221.779 140.782 L
221.92 139.592 L
222.112 172.19 L
222.561 142.024 L
222.573 141.973 L
222.663 124.794 L
222.92 171.518 L
223.355 140.575 L
223.368 140.575 L
223.74 169.5 L
224.112 126.087 L
224.137 147.095 L
224.15 148.596 L
224.176 177.054 L
224.599 130.33 L
224.932 145.75 L
224.945 145.491 L
225.33 128.468 L
225.458 149.786 L
225.714 142.438 L
225.727 142.593 L
225.765 182.022 L
226.291 132.711 L
226.509 146.785 L
226.522 146.526 L
226.573 147.354 L
227.252 145.181 L
227.291 145.232 L
227.304 145.181 L
227.329 145.232 L
228.022 144.715 L
228.086 144.715 L
228.098 144.715 L
228.88 144.404 L
228.893 144.404 L
228.906 144.456 L
229.585 144.197 L
229.662 144.249 L
229.675 144.249 L
230.239 144.042 L
230.457 144.042 L
230.47 144.042 L
230.97 143.887 L
231.239 143.939 L
231.252 143.939 L
231.29 143.991 L
231.983 143.732 L
232.036 143.784 L
232.049 143.784 L
232.113 143.835 L
232.729 143.68 L
232.818 143.732 L
232.831 143.68 L
232.844 143.732 L
233.511 143.577 L
233.613 143.68 L
233.626 143.68 L
234.292 143.473 L
234.395 143.473 L
234.408 143.577 L
234.895 143.421 L
235.19 143.473 L
235.203 143.421 L
235.331 143.525 L
235.983 142.49 L
235.996 142.438 L
236.163 126.708 L
236.278 171.621 L
236.765 143.887 L
236.778 143.784 L
236.855 131.106 L
237.304 184.454 L
237.56 148.389 L
237.573 148.337 L
238.137 182.591 L
238.303 113.41 L
238.342 117.653 L
238.355 115.635 L
238.97 148.596 L
239.137 141.145 L
239.15 141.196 L
239.316 121.068 L
239.867 188.231 L
239.919 163.394 L
239.932 163.135 L
240.342 128.778 L
240.713 186.109 L
240.726 184.816 L
240.983 130.02 L
241.149 187.972 L
241.508 144.974 L
241.521 141.973 L
241.547 125.984 L
242.085 189.369 L
242.29 153.666 L
242.303 152.425 L
242.457 137.937 L
242.7 186.316 L
243.085 150.924 L
243.098 151.235 L
243.482 136.436 L
243.559 187.455 L
243.867 152.062 L
243.88 152.011 L
244.111 136.126 L
244.29 184.195 L
244.662 149.941 L
244.675 149.01 L
245.136 136.333 L
245.354 181.194 L
245.444 155.271 L
245.457 154.96 L
245.636 134.987 L
246.2 162.928 L
246.239 152.011 L
246.251 151.959 L
246.38 172.294 L
246.533 140.989 L
247.033 164.946 L
247.046 155.219 L
247.444 143.473 L
247.815 188.386 L
247.828 185.075 L
248.072 138.764 L
248.61 159.979 L
248.623 163.135 L
248.661 185.695 L
249.213 139.23 L
249.392 167.12 L
249.405 176.485 L
249.469 184.868 L
249.854 141.662 L
250.187 155.374 L
250.2 155.115 L
250.661 139.437 L
250.725 190.094 L
250.969 157.651 L
250.982 155.167 L
251.148 143.37 L
251.443 175.606 L
251.764 155.374 L
251.776 155.788 L
251.879 141.248 L
252.315 194.595 L
252.546 158.013 L
252.558 158.013 L
252.84 145.336 L
253.02 179.745 L
253.34 157.858 L
253.353 157.909 L
254.135 157.03 L
254.148 157.082 L
254.199 157.133 L
254.802 156.823 L
254.917 156.926 L
254.93 156.823 L
254.994 156.926 L
255.661 156.719 L
255.712 156.719 L
255.725 156.719 L
255.776 156.771 L
256.186 156.616 L
256.494 156.668 L
256.507 156.668 L
256.532 156.719 L
257.007 156.564 L
257.289 156.564 L
257.301 156.616 L
257.494 156.668 L
257.583 156.512 L
258.071 156.512 L
258.083 156.564 L
258.276 156.616 L
258.842 156.461 L
258.868 156.564 L
258.881 156.512 L
259.137 156.564 L
259.329 156.409 L
259.65 156.461 L
259.663 156.461 L
259.688 156.512 L
259.842 156.409 L
260.444 156.461 L
260.457 156.409 L
260.586 156.512 L
260.675 156.357 L
261.239 156.409 L
261.252 156.461 L
261.355 156.512 L
261.893 156.305 L
262.021 156.357 L
262.034 156.409 L
262.712 140.006 L
262.815 166.033 L
262.827 184.454 L
263.097 141.145 L
263.597 156.616 L
263.609 156.357 L
263.622 156.305 L
263.853 196.355 L
264.391 158.22 L
264.404 159.255 L
264.686 194.13 L
264.853 126.087 L
265.173 153.822 L
265.186 135.298 L
265.199 134.108 L
265.955 163.808 L
265.968 158.22 L
265.981 168.982 L
266.019 155.943 L
266.417 199.614 L
266.763 161.428 L
266.776 157.702 L
266.891 140.524 L
267.263 197.389 L
267.545 155.167 L
267.558 144.715 L
267.699 198.735 L
268.096 136.436 L
268.34 158.168 L
268.353 158.22 L
268.635 199.976 L
269.006 148.285 L
269.122 160.186 L
269.134 160.29 L
269.25 196.768 L
269.878 150.976 L
269.916 160.703 L
269.929 160.652 L
270.109 197.648 L
270.66 146.164 L
270.698 159.203 L
270.711 159.462 L
270.839 194.233 L
271.314 148.13 L
271.493 164.222 L
271.506 163.808 L
271.903 190.973 L
272.185 144.663 L
272.288 160.652 L
272.301 160.703 L
272.519 146.474 L
272.929 182.022 L
273.07 152.528 L
273.083 150.355 L
273.301 175.243 L
273.865 163.601 L
273.878 163.549 L
274.365 197.7 L
274.621 148.026 L
274.647 149.63 L
274.66 151.7 L
275.211 194.957 L
275.441 164.688 L
275.454 164.636 L
275.762 148.233 L
276.018 193.923 L
276.223 165.257 L
276.236 165.153 L
276.403 150.407 L
276.839 191.491 L
277.018 165.464 L
277.031 165.412 L
277.211 148.182 L
277.275 199.097 L
277.813 164.429 L
277.826 164.533 L
277.992 184.298 L
278.428 149.734 L
278.595 164.636 L
278.608 164.533 L
278.864 203.288 L
279.39 153.718 L
279.403 163.912 L
279.569 188.283 L
280.172 165.826 L
280.185 165.774 L
280.197 165.826 L
280.941 165.257 L
280.967 165.309 L
280.979 165.309 L
281.556 165.102 L
281.748 165.205 L
281.761 165.153 L
282.03 164.998 L
282.543 165.05 L
282.556 164.998 L
282.607 165.05 L
283.287 164.895 L
283.338 164.946 L
283.351 164.946 L
283.646 164.843 L
284.12 164.843 L
284.133 164.843 L
284.158 164.895 L
284.44 164.791 L
284.915 164.791 L
284.928 164.843 L
285.056 164.739 L
285.699 164.791 L
285.712 164.791 L
285.725 164.843 L
286.302 164.688 L
286.494 164.688 L
286.507 164.688 L
286.52 164.791 L
287.276 164.739 L
287.289 164.636 L
287.34 164.739 L
288.071 164.636 L
288.084 164.636 L
288.096 164.739 L
288.109 164.584 L
288.853 164.636 L
288.865 164.636 L
289.262 148.233 L
289.377 192.784 L
289.646 149.372 L
289.659 150.614 L
290.402 204.633 L
290.441 191.387 L
290.453 175.036 L
291.056 147.716 L
291.21 198.579 L
291.223 175.243 L
291.235 202.305 L
291.402 134.159 L
292.017 162.773 L
292.03 162.773 L
292.415 143.784 L
292.799 184.35 L
292.812 199.821 L
292.966 207.841 L
293.44 148.492 L
293.594 164.429 L
293.607 164.688 L
294.081 148.647 L
294.248 206.807 L
294.376 170.742 L
294.389 170.535 L
294.645 144.301 L
295.171 206.082 L
295.184 207.997 L
295.555 155.943 L
295.966 170.172 L
295.979 170.069 L
296.581 154.08 L
296.658 205.358 L
296.748 171.414 L
296.76 171.207 L
297.209 153.615 L
297.389 201.839 L
297.542 170.69 L
297.555 170.586 L
298.004 198.062 L
298.235 153.408 L
298.324 167.378 L
298.337 167.482 L
298.453 198.528 L
298.735 152.011 L
299.119 167.068 L
299.132 167.275 L
299.478 189.421 L
299.632 157.702 L
299.901 175.243 L
299.914 171.259 L
300.491 181.815 L
300.542 159.876 L
300.696 170.845 L
300.709 170.276 L
300.914 204.996 L
301.17 155.115 L
301.491 171.052 L
301.504 171.725 L
301.76 202.201 L
302.273 162.618 L
302.286 158.789 L
302.311 155.271 L
302.568 201.115 L
303.068 170.172 L
303.08 170.276 L
303.76 155.064 L
303.824 206.134 L
303.849 192.06 L
303.862 175.192 L
304.247 158.996 L
304.542 191.18 L
304.644 172.656 L
304.657 172.501 L
304.978 156.564 L
305.413 210.17 L
305.426 206.186 L
305.439 196.096 L
305.939 160.497 L
306.221 174.312 L
306.234 174.364 L
307.003 172.19 L
307.016 172.19 L
307.029 172.242 L
307.554 171.88 L
307.798 171.88 L
307.811 171.828 L
307.823 171.88 L
308.541 171.621 L
308.593 171.621 L
308.605 171.621 L
308.631 171.673 L
309.349 171.466 L
309.374 171.57 L
309.387 171.57 L
310.105 171.414 L
310.169 171.466 L
310.182 171.466 L
310.285 171.363 L
310.951 171.363 L
310.964 171.363 L
310.977 171.466 L
311.285 171.259 L
311.749 171.311 L
311.761 171.311 L
311.774 171.363 L
311.915 171.259 L
312.531 171.259 L
312.543 171.311 L
313.325 171.156 L
313.338 171.207 L
313.402 171.259 L
313.518 171.156 L
314.107 171.207 L
314.12 171.207 L
314.505 171.259 L
314.518 171.052 L
314.902 171.156 L
314.915 171.104 L
315.644 170.276 L
315.696 171.363 L
315.708 171.259 L
315.811 154.65 L
315.926 199.511 L
316.477 171.311 L
316.49 161.376 L
316.503 158.789 L
316.952 211.205 L
317.272 173.898 L
317.285 173.743 L
317.785 208.825 L
317.952 140.42 L
318.054 165.774 L
318.067 166.447 L
318.298 149.061 L
318.618 177.986 L
318.849 170.172 L
318.862 170.224 L
318.964 150.2 L
319.516 214.62 L
319.644 179.538 L
319.657 177.727 L
319.99 154.908 L
320.362 212.24 L
320.426 198.683 L
320.439 183.263 L
320.798 213.481 L
321.195 150.562 L
321.221 159.565 L
321.233 152.994 L
321.733 214.465 L
322.003 174.415 L
322.015 172.294 L
322.105 162.256 L
322.349 211.101 L
322.797 180.987 L
322.81 175.968 L
323.131 160.083 L
323.208 211.722 L
323.579 175.347 L
323.592 175.295 L
323.759 159.669 L
323.938 208.1 L
324.374 164.222 L
324.387 164.636 L
324.784 159.462 L
325.002 204.633 L
325.156 178.193 L
325.169 175.968 L
325.284 157.909 L
325.848 186.213 L
325.951 175.036 L
325.964 178.503 L
326.028 195.475 L
326.182 163.498 L
326.746 177.054 L
326.758 176.951 L
327.092 165.619 L
327.463 211.101 L
327.528 179.797 L
327.54 179.383 L
327.72 161.014 L
328.31 208.152 L
328.322 198.993 L
328.335 181.401 L
328.861 161.066 L
329.104 205.823 L
329.117 207.014 L
329.502 163.135 L
329.899 179.952 L
329.912 199.407 L
330.309 160.703 L
330.373 212.033 L
330.681 180.987 L
330.694 178.4 L
330.796 164.636 L
331.091 196.975 L
331.476 177.986 L
331.489 176.071 L
331.527 162.101 L
331.963 216.017 L
332.271 178.451 L
332.283 178.348 L
332.489 166.085 L
332.668 200.856 L
333.053 178.451 L
333.065 178.348 L
333.796 177.52 L
333.847 177.572 L
333.86 177.572 L
334.45 177.21 L
334.629 177.261 L
334.642 177.261 L
335.258 177.003 L
335.424 177.054 L
335.437 177.003 L
335.501 177.106 L
336.104 176.847 L
336.206 176.899 L
336.219 176.847 L
336.347 176.951 L
336.86 176.744 L
337.001 176.796 L
337.014 176.847 L
337.629 176.64 L
337.796 176.692 L
337.809 176.692 L
337.885 176.744 L
338.039 176.64 L
338.58 176.64 L
338.593 176.64 L
338.631 176.692 L
338.683 176.589 L
339.375 176.589 L
339.388 176.537 L
339.477 176.64 L
340.067 176.485 L
340.157 176.537 L
340.17 176.485 L
340.182 176.589 L
340.439 176.433 L
340.952 176.485 L
340.964 176.485 L
341.016 176.537 L
341.131 176.433 L
341.734 176.485 L
341.746 176.537 L
342.36 159.824 L
342.475 204.84 L
342.527 178.451 L
342.54 178.193 L
342.655 201.218 L
342.745 161.014 L
343.309 176.485 L
343.322 183.781 L
343.501 216.741 L
344.103 174.312 L
344.116 172.346 L
344.334 214.413 L
344.501 145.698 L
344.898 172.811 L
344.911 173.07 L
345.514 155.322 L
345.629 189.473 L
345.68 185.281 L
345.693 176.899 L
346.065 220.208 L
346.475 161.531 L
346.488 164.688 L
346.911 217.724 L
347.18 160.29 L
347.257 178.555 L
347.27 178.762 L
347.347 219.07 L
347.744 155.84 L
348.052 177.934 L
348.065 178.037 L
348.283 220.001 L
348.654 167.585 L
348.834 180.262 L
348.847 180.159 L
348.898 216.741 L
349.526 169.965 L
349.629 180.055 L
349.641 180.055 L
349.757 217.207 L
350.308 164.895 L
350.423 178.865 L
350.436 186.058 L
350.487 213.533 L
350.962 166.757 L
351.205 182.539 L
351.218 182.487 L
351.551 210.066 L
351.833 163.032 L
352 179.486 L
352.013 190.611 L
352.167 164.791 L
352.577 200.649 L
352.782 180.832 L
352.795 180.883 L
352.846 180.78 L
352.949 193.871 L
353.577 190.197 L
353.59 193.043 L
354.013 216.327 L
354.269 166.085 L
354.359 180.159 L
354.372 182.177 L
354.384 180.573 L
354.859 213.481 L
355.154 182.436 L
355.166 182.384 L
355.41 166.085 L
355.666 212.343 L
355.948 183.677 L
355.961 183.626 L
356.051 168.206 L
356.487 209.652 L
356.73 182.953 L
356.743 182.85 L
356.859 165.723 L
356.923 217.414 L
357.525 189.473 L
357.538 192.732 L
357.64 202.201 L
358.076 167.068 L
358.307 181.866 L
358.32 181.866 L
358.512 221.295 L
359.038 171.104 L
359.102 186.627 L
359.115 189.731 L
359.217 206.03 L
359.858 183.056 L
359.884 183.108 L
359.897 183.108 L
360.679 182.487 L
360.691 182.487 L
360.73 182.539 L
361.461 182.177 L
361.473 182.177 L
361.486 182.229 L
362.14 182.022 L
362.255 182.022 L
362.268 182.022 L
362.281 182.073 L
363.037 181.815 L
363.05 181.815 L
363.063 181.866 L
363.678 181.711 L
363.832 181.763 L
363.845 181.815 L
364.473 181.608 L
364.627 181.608 L
364.64 181.659 L
365.283 181.504 L
365.411 181.556 L
365.424 181.556 L
365.488 181.608 L
365.911 181.452 L
366.206 181.504 L
366.219 181.504 L
366.283 181.401 L
366.411 181.556 L
366.988 181.452 L
367.001 181.401 L
367.026 181.452 L
367.783 181.297 L
367.796 181.349 L
367.808 181.401 L
368.551 180.676 L
368.576 180.676 L
368.589 180.728 L
368.909 164.533 L
369.025 209.963 L
369.358 183.677 L
369.371 181.038 L
369.602 168.827 L
370.05 221.76 L
370.153 186.472 L
370.166 186.161 L
370.704 164.222 L
370.884 219.639 L
370.935 185.54 L
370.948 173.588 L
371.05 150.355 L
371.717 187.972 L
371.73 180.004 L
371.743 179.9 L
372.063 159.824 L
372.486 217.88 L
372.512 204.53 L
372.524 195.992 L
372.614 225.331 L
373.089 165.153 L
373.306 181.815 L
373.319 181.866 L
373.729 165.153 L
373.896 224.399 L
374.101 186.73 L
374.114 186.575 L
374.294 160.703 L
374.832 225.331 L
374.883 209.601 L
374.896 190.766 L
375.204 172.604 L
375.447 222.071 L
375.678 186.368 L
375.691 186.316 L
376.229 170.276 L
376.306 222.692 L
376.46 187.144 L
376.473 186.989 L
376.857 169.965 L
377.037 218.966 L
377.255 186.679 L
377.268 186.523 L
377.652 215.034 L
377.883 169.707 L
378.037 191.801 L
378.049 199.045 L
378.101 215.551 L
378.383 168.206 L
378.831 184.143 L
378.844 191.025 L
379.126 205.979 L
379.28 173.846 L
379.626 187.092 L
379.639 186.989 L
380.139 198.476 L
380.19 175.968 L
380.408 186.834 L
380.421 186.679 L
380.562 222.019 L
380.818 171.363 L
381.203 186.937 L
381.216 186.886 L
381.408 219.121 L
381.959 171.414 L
381.985 172.346 L
381.998 172.501 L
382.216 217.983 L
382.78 187.455 L
382.793 187.403 L
383.408 171.052 L
383.472 223.157 L
383.562 189.731 L
383.575 189.576 L
383.895 175.14 L
384.19 207.893 L
384.357 188.541 L
384.369 189.369 L
384.626 172.604 L
385.062 227.297 L
385.138 191.491 L
385.151 191.232 L
385.587 176.589 L
385.767 211.877 L
385.933 190.611 L
385.946 190.559 L
385.959 190.611 L
386.69 188.541 L
386.728 188.541 L
386.741 188.541 L
386.767 188.593 L
387.318 188.179 L
387.51 188.231 L
387.523 188.231 L
388.1 187.972 L
388.305 188.024 L
388.318 187.972 L
388.33 188.024 L
388.766 187.817 L
389.087 187.869 L
389.1 187.869 L
389.728 187.713 L
389.882 187.765 L
389.894 187.713 L
389.907 187.765 L
390.407 187.61 L
390.664 187.662 L
390.676 187.662 L
391.461 187.506 L
391.474 187.558 L
391.486 187.61 L
391.768 187.506 L
392.243 187.558 L
392.255 187.558 L
392.332 187.455 L
393.037 187.455 L
393.05 187.455 L
393.525 187.351 L
393.832 187.351 L
393.845 187.403 L
394.025 187.455 L
394.422 187.299 L
394.614 187.351 L
394.627 187.351 L
395.344 187.61 L
395.408 182.591 L
395.42 180.055 L
395.459 170.431 L
395.574 216.172 L
396.19 186.109 L
396.202 186.265 L
396.6 228.28 L
396.984 189.783 L
396.997 189.68 L
397.433 225.952 L
397.6 156.15 L
397.766 183.47 L
397.779 183.677 L
397.946 164.533 L
398.266 194.026 L
398.561 186.006 L
398.574 185.954 L
398.612 165.671 L
399.164 231.695 L
399.356 193.146 L
399.369 192.939 L
399.638 170.793 L
400.01 229.263 L
400.138 194.336 L
400.151 194.078 L
400.445 230.66 L
400.843 166.499 L
400.933 186.523 L
400.945 187.196 L
401.381 231.643 L
401.715 180.728 L
401.727 179.434 L
401.753 178.451 L
401.997 228.383 L
402.509 192.112 L
402.522 195.734 L
402.779 176.433 L
402.855 229.108 L
403.291 192.37 L
403.304 189.524 L
403.407 176.019 L
403.586 225.382 L
404.086 190.042 L
404.099 194.44 L
404.432 176.019 L
404.65 222.019 L
404.881 182.332 L
404.894 180.78 L
404.932 174.467 L
405.663 211.67 L
405.676 212.602 L
405.83 180.055 L
406.458 193.974 L
406.47 201.374 L
406.74 182.487 L
407.111 229.004 L
407.24 196.613 L
407.252 195.475 L
407.368 177.675 L
407.958 225.952 L
408.034 196.406 L
408.047 196.148 L
408.509 177.986 L
408.765 224.865 L
408.816 203.805 L
408.829 197.079 L
409.15 180.314 L
409.586 222.536 L
409.611 212.809 L
409.624 215.965 L
409.957 177.986 L
410.021 230.505 L
410.406 192.836 L
410.419 183.419 L
410.739 215.085 L
411.175 179.641 L
411.188 180.832 L
411.201 182.694 L
411.611 234.851 L
411.983 196.148 L
411.996 196.096 L
412.137 183.781 L
412.316 219.38 L
412.765 196.561 L
412.777 196.51 L
413.508 195.889 L
413.559 195.941 L
413.572 195.941 L
414.213 195.734 L
414.341 195.734 L
414.354 195.734 L
414.418 195.837 L
414.957 195.578 L
415.136 195.63 L
415.149 195.63 L
415.393 195.527 L
415.931 195.578 L
415.944 195.578 L
416.098 195.475 L
416.713 195.475 L
416.726 195.527 L
417.226 195.371 L
417.508 195.423 L
417.521 195.423 L
417.533 195.475 L
417.803 195.371 L
418.292 195.371 L
418.305 195.423 L
418.754 195.32 L
419.087 195.371 L
419.1 195.32 L
419.138 195.371 L
419.356 195.268 L
419.869 195.371 L
419.882 195.268 L
419.894 195.371 L
420.664 195.32 L
420.676 195.268 L
420.689 195.32 L
420.792 195.216 L
421.446 195.216 L
421.458 195.268 L
422.008 178.193 L
422.124 224.451 L
422.239 179.797 L
422.252 193.974 L
422.303 220.674 L
422.393 179.383 L
423.034 195.837 L
423.047 195.734 L
423.149 236.714 L
423.803 177.675 L
423.816 186.73 L
423.829 185.333 L
423.982 234.386 L
424.149 163.549 L
424.611 191.335 L
424.623 191.439 L
425.162 172.708 L
425.277 207.634 L
425.393 194.233 L
425.405 194.181 L
425.713 240.026 L
426.187 178.555 L
426.2 182.901 L
426.559 237.749 L
426.828 178.71 L
426.969 234.851 L
426.982 237.852 L
426.995 239.249 L
427.392 174.467 L
427.764 197.182 L
427.777 197.234 L
427.931 240.543 L
428.302 186.73 L
428.559 237.232 L
428.572 225.382 L
428.584 226.158 L
429.328 184.971 L
429.341 193.56 L
429.354 189.99 L
429.405 238.37 L
429.956 184.609 L
430.136 234.748 L
430.148 223.106 L
430.61 186.73 L
430.751 230.919 L
430.918 197.752 L
430.93 189.369 L
431.2 231.54 L
431.482 183.16 L
431.712 200.442 L
431.725 200.494 L
431.815 184.816 L
432.225 221.967 L
432.494 201.684 L
432.507 201.736 L
432.597 215.137 L
433.289 191.646 L
433.302 202.46 L
433.661 238.784 L
433.917 186.575 L
434.084 209.342 L
434.097 202.978 L
434.302 202.615 L
434.507 235.886 L
434.866 203.65 L
434.879 203.598 L
435.058 187.092 L
435.315 235.058 L
435.661 203.081 L
435.673 201.943 L
435.699 189.628 L
436.135 232.73 L
436.443 204.633 L
436.455 201.58 L
436.507 187.351 L
436.571 240.698 L
437.237 211.36 L
437.25 223.209 L
437.289 225.434 L
437.724 189.317 L
438.019 205.047 L
438.032 204.996 L
438.16 245.614 L
438.686 193.716 L
438.814 210.325 L
438.827 208.98 L
438.865 230.091 L
439.506 206.651 L
439.609 206.651 L
439.622 206.548 L
439.635 206.6 L
440.378 206.289 L
440.391 206.289 L
440.404 206.341 L
441.032 206.186 L
441.186 206.237 L
441.198 206.289 L
441.557 206.134 L
441.968 206.134 L
441.98 206.186 L
442.096 206.237 L
442.416 206.082 L
442.762 206.134 L
442.775 206.186 L
443.185 206.03 L
443.544 206.082 L
443.557 206.082 L
443.865 206.134 L
444.288 205.979 L
444.339 206.082 L
444.352 206.03 L
444.38 206.082 L
444.739 205.979 L
445.124 206.03 L
445.136 205.979 L
445.213 206.082 L
445.752 205.927 L
445.918 205.979 L
445.931 205.979 L
445.957 206.03 L
446.098 205.927 L
446.7 205.979 L
446.713 205.927 L
446.726 206.03 L
447.495 205.979 L
447.508 205.927 L
447.559 205.979 L
448.25 205.151 L
448.289 205.203 L
448.301 205.151 L
448.558 188.541 L
448.673 235.679 L
449.07 205.565 L
449.083 205.513 L
449.25 192.991 L
449.699 248.356 L
449.865 210.584 L
449.878 210.377 L
450.532 246.287 L
450.647 184.609 L
450.66 181.452 L
450.698 173.898 L
451.365 211.826 L
451.442 203.392 L
451.455 203.443 L
451.711 182.798 L
452.134 243.958 L
452.237 232.575 L
452.25 249.184 L
452.262 252.237 L
452.737 189.68 L
453.019 208.514 L
453.032 210.946 L
453.378 190.404 L
453.544 252.237 L
453.814 212.809 L
453.826 212.654 L
453.942 186.316 L
454.48 253.944 L
454.595 216.327 L
454.608 216.069 L
454.852 199.149 L
455.095 250.892 L
455.39 214.62 L
455.403 214.62 L
455.877 197.648 L
455.954 252.185 L
456.172 214.93 L
456.185 214.775 L
456.506 197.493 L
456.685 248.77 L
456.967 215.913 L
456.98 215.965 L
457.531 197.752 L
457.749 245.821 L
457.762 243.596 L
458.031 196.406 L
458.544 214.206 L
458.557 213.999 L
458.775 236.352 L
458.928 202.822 L
459.339 216.793 L
459.351 220.467 L
459.787 229.056 L
459.838 205.668 L
460.121 217.983 L
460.133 217.31 L
460.21 253.944 L
460.467 201.115 L
460.915 218.138 L
460.928 218.19 L
461.056 251.875 L
461.608 202.15 L
461.697 215.396 L
461.71 215.603 L
461.864 251.357 L
462.248 205.099 L
462.492 219.432 L
462.505 219.432 L
463.056 202.978 L
463.12 257.567 L
463.274 222.122 L
463.287 222.019 L
463.543 207.479 L
463.838 242.199 L
464.069 222.847 L
464.082 222.795 L
464.274 205.358 L
464.71 262.741 L
464.864 223.934 L
464.876 223.778 L
465.235 209.756 L
465.415 246.856 L
465.646 223.623 L
465.658 223.52 L
466.402 222.588 L
466.44 222.64 L
466.453 222.64 L
467.03 222.381 L
467.222 222.433 L
467.235 222.381 L
467.248 222.433 L
467.94 222.226 L
468.017 222.329 L
468.03 222.329 L
468.607 222.122 L
468.799 222.174 L
468.812 222.122 L
468.825 222.174 L
469.478 222.019 L
469.594 222.071 L
469.607 222.071 L
469.619 222.122 L
469.799 222.019 L
470.389 222.019 L
470.401 221.967 L
470.568 222.071 L
471.109 221.915 L
471.173 221.967 L
471.186 221.967 L
471.237 221.915 L
471.968 221.967 L
471.981 221.967 L
472.122 221.864 L
472.75 221.864 L
472.763 221.864 L
472.801 221.915 L
473.147 221.812 L
473.545 221.864 L
473.557 221.812 L
473.57 221.864 L
473.878 221.709 L
474.327 221.864 L
474.339 221.709 L
474.992 221.967 L
475.107 204.064 L
475.12 207.376 L
475.133 219.121 L
475.222 252.185 L
475.492 205.306 L
475.902 221.036 L
475.915 221.036 L
475.94 220.932 L
476.248 264.759 L
476.697 223.571 L
476.709 223.52 L
477.081 262.223 L
477.248 188.955 L
477.491 218.035 L
477.504 218.19 L
477.594 197.545 L
477.914 228.176 L
478.273 200.96 L
478.286 218.035 L
478.812 267.967 L
479.068 226.055 L
479.081 226.003 L
479.286 203.754 L
479.658 265.587 L
479.85 228.073 L
479.863 226.107 L
480.094 266.673 L
480.491 198.993 L
480.645 221.657 L
480.658 221.915 L
481.029 268.07 L
481.401 211.205 L
481.427 223.002 L
481.44 227.814 L
481.658 264.19 L
482.017 215.655 L
482.222 225.848 L
482.234 225.693 L
482.427 209.601 L
482.504 265.224 L
483.016 211.205 L
483.029 210.894 L
483.055 208.876 L
483.234 261.292 L
483.798 225.641 L
483.811 245.096 L
484.298 257.722 L
484.58 206.755 L
484.593 215.189 L
484.606 211.412 L
484.914 208.721 L
485.324 247.735 L
485.375 230.143 L
485.388 229.056 L
485.478 213.274 L
485.696 240.44 L
486.17 227.763 L
486.183 227.763 L
486.388 215.706 L
486.76 264.966 L
486.952 217.155 L
486.965 215.034 L
487.016 209.756 L
487.606 261.758 L
487.747 228.849 L
487.76 228.694 L
488.157 209.963 L
488.413 260.671 L
488.542 230.298 L
488.554 230.298 L
488.798 212.343 L
489.234 257.877 L
489.323 229.987 L
489.336 229.78 L
489.605 209.704 L
489.67 265.845 L
490.118 226.572 L
490.131 226.935 L
490.387 249.702 L
490.823 211.36 L
490.9 226.055 L
490.913 226.21 L
491.169 216.017 L
491.259 270.968 L
491.695 225.279 L
491.708 225.175 L
491.785 215.344 L
491.964 253.944 L
492.477 229.056 L
492.49 229.004 L
493.246 228.383 L
493.272 228.435 L
493.285 228.539 L
493.887 228.228 L
494.066 228.228 L
494.079 228.228 L
494.156 228.28 L
494.707 228.125 L
494.848 228.176 L
494.861 228.176 L
494.977 228.228 L
495.348 228.073 L
495.643 228.125 L
495.656 228.125 L
495.733 228.021 L
495.861 228.176 L
496.425 228.073 L
496.438 228.021 L
496.451 228.073 L
496.489 227.969 L
497.22 227.969 L
497.233 228.021 L
497.31 228.073 L
497.71 227.918 L
498.004 228.021 L
498.017 227.969 L
498.594 227.866 L
498.799 227.969 L
498.812 227.969 L
499.145 227.866 L
499.581 227.866 L
499.594 227.866 L
500.171 227.969 L
500.196 227.814 L
500.376 227.866 L
500.389 227.866 L
500.402 227.918 L
500.491 227.814 L
501.158 227.866 L
501.171 227.866 L
501.656 209.704 L
501.772 259.222 L
501.951 255.135 L
501.964 248.408 L
502.041 210.946 L
502.746 236.455 L
502.759 267.863 L
502.797 273.452 L
503.451 208.359 L
503.528 227.918 L
503.541 232.937 L
503.631 269.726 L
503.797 193.353 L
504.323 224.089 L
504.336 224.192 L
504.81 203.805 L
504.925 240.957 L
505.105 227.349 L
505.118 233.506 L
505.361 276.66 L
505.835 208.618 L
505.9 211.101 L
505.912 224.296 L
506.476 209.187 L
506.643 275.47 L
506.694 241.06 L
506.707 238.473 L
507.04 204.168 L
507.476 228.383 L
507.489 228.435 L
507.604 277.591 L
507.951 216.845 L
508.271 235.834 L
508.284 235.317 L
508.976 215.292 L
509.053 273.555 L
509.066 273.193 L
509.604 214.361 L
509.848 237.852 L
509.861 236.766 L
510.399 265.897 L
510.63 214.465 L
510.643 223.157 L
510.848 266.415 L
511.13 212.86 L
511.425 216.379 L
511.437 216.431 L
511.463 214.206 L
511.873 255.962 L
512.219 246.959 L
512.232 243.492 L
512.245 248.563 L
512.937 223.157 L
513.001 239.87 L
513.014 235.576 L
513.309 275.314 L
513.565 217.466 L
513.796 245.873 L
513.809 237.025 L
513.963 235.214 L
514.155 273.4 L
514.578 237.18 L
514.591 237.128 L
514.706 218.501 L
514.963 273.193 L
515.373 235.627 L
515.386 236.352 L
515.783 271.071 L
516.155 220.57 L
516.168 236.041 L
516.219 280.23 L
516.642 226.21 L
516.95 247.114 L
516.962 245.562 L
517.373 225.072 L
517.501 249.546 L
517.732 240.853 L
517.744 240.957 L
517.808 289.285 L
518.334 231.85 L
518.526 271.641 L
518.539 250.012 L
518.629 250.064 L
519.257 248.046 L
519.321 248.046 L
519.334 248.098 L
519.975 247.735 L
520.103 247.787 L
520.116 247.787 L
520.898 247.528 L
520.911 247.58 L
520.949 247.632 L
521.641 247.425 L
521.68 247.528 L
521.693 247.477 L
521.757 247.58 L
522.129 247.373 L
522.475 247.373 L
522.487 247.373 L
523.013 247.218 L
523.257 247.27 L
523.269 247.27 L
523.308 247.321 L
523.833 247.166 L
524.054 247.218 L
524.067 247.166 L
524.092 247.218 L
524.541 247.063 L
524.836 247.166 L
524.849 247.114 L
524.874 247.166 L
525.143 247.011 L
525.631 247.063 L
525.643 247.011 L
525.656 247.063 L
526.4 246.907 L
526.425 247.011 L
526.438 247.011 L
526.451 246.907 L
527.207 246.959 L
527.22 246.856 L
527.259 246.959 L
527.605 246.804 L
527.937 246.907 L
S
GR
GS
[1.00088 0 0 0.9996 0 0.14755] CT
1 GC
N
525.5 81 M
525.5 37.5 L
415 37.5 L
415 81 L
cp
f
GR
GS
[1.00088 0 0 0.9996 452.39954 49.37791] CT
/Times-Roman 17.325 F
GS
[1 0 0 1 0 0] CT
0 6 moveto 
1 -1 scale
(Estimated) t 
GR
GR
GS
[1.00088 0 0 0.9996 0 0.14755] CT
0 0.447 0.741 RC
1 LJ
3.15 LW
N
419 49.25 M
449 49.25 L
S
GR
GS
[1.00088 0 0 0.9996 452.39954 69.36994] CT
/Times-Roman 17.325 F
GS
[1 0 0 1 0 0] CT
0 6 moveto 
1 -1 scale
(Truth) t 
GR
GR
GS
[1.00088 0 0 0.9996 0 0.14755] CT
0.851 0.325 0.098 RC
[12 12] 0 setdash
2 LJ
3.15 LW
N
419 69.25 M
449 69.25 L
S
GR
GS
[1.00088 0 0 0.9996 0 0.14755] CT
0.149 GC
10.0 ML
1.225 LW
N
415 81 M
415 37.5 L
525.5 37.5 L
525.5 81 L
cp
S
GR
%%Trailer
%%Pages: 1
%%EOF
