%!PS-Adobe-3.0 EPSF-3.0
%%Creator: (MATLAB, The Mathworks, Inc. Version 9.5.0.1033004 \(R2018b\) Update 2. Operating System: Mac OS X)
%%Title: ./UDDSmatchzoom.eps
%%CreationDate: 2019-11-05T09:32:56
%%Pages: (atend)
%%BoundingBox:     4     3   536   369
%%LanguageLevel: 2
%%EndComments
%%BeginProlog
%%BeginResource: procset (Apache XML Graphics Std ProcSet) 1.2 0
%%Version: 1.2 0
%%Copyright: (Copyright 2001-2003,2010 The Apache Software Foundation. License terms: http://www.apache.org/licenses/LICENSE-2.0)
/bd{bind def}bind def
/ld{load def}bd
/GR/grestore ld
/GS/gsave ld
/RM/rmoveto ld
/C/curveto ld
/t/show ld
/L/lineto ld
/ML/setmiterlimit ld
/CT/concat ld
/f/fill ld
/N/newpath ld
/S/stroke ld
/CC/setcmykcolor ld
/A/ashow ld
/cp/closepath ld
/RC/setrgbcolor ld
/LJ/setlinejoin ld
/GC/setgray ld
/LW/setlinewidth ld
/M/moveto ld
/re {4 2 roll M
1 index 0 rlineto
0 exch rlineto
neg 0 rlineto
cp } bd
/_ctm matrix def
/_tm matrix def
/BT { _ctm currentmatrix pop matrix _tm copy pop 0 0 moveto } bd
/ET { _ctm setmatrix } bd
/iTm { _ctm setmatrix _tm concat } bd
/Tm { _tm astore pop iTm 0 0 moveto } bd
/ux 0.0 def
/uy 0.0 def
/F {
  /Tp exch def
  /Tf exch def
  Tf findfont Tp scalefont setfont
  /cf Tf def  /cs Tp def
} bd
/ULS {currentpoint /uy exch def /ux exch def} bd
/ULE {
  /Tcx currentpoint pop def
  gsave
  newpath
  cf findfont cs scalefont dup
  /FontMatrix get 0 get /Ts exch def /FontInfo get dup
  /UnderlinePosition get Ts mul /To exch def
  /UnderlineThickness get Ts mul /Tt exch def
  ux uy To add moveto  Tcx uy To add lineto
  Tt setlinewidth stroke
  grestore
} bd
/OLE {
  /Tcx currentpoint pop def
  gsave
  newpath
  cf findfont cs scalefont dup
  /FontMatrix get 0 get /Ts exch def /FontInfo get dup
  /UnderlinePosition get Ts mul /To exch def
  /UnderlineThickness get Ts mul /Tt exch def
  ux uy To add cs add moveto Tcx uy To add cs add lineto
  Tt setlinewidth stroke
  grestore
} bd
/SOE {
  /Tcx currentpoint pop def
  gsave
  newpath
  cf findfont cs scalefont dup
  /FontMatrix get 0 get /Ts exch def /FontInfo get dup
  /UnderlinePosition get Ts mul /To exch def
  /UnderlineThickness get Ts mul /Tt exch def
  ux uy To add cs 10 mul 26 idiv add moveto Tcx uy To add cs 10 mul 26 idiv add lineto
  Tt setlinewidth stroke
  grestore
} bd
/QT {
/Y22 exch store
/X22 exch store
/Y21 exch store
/X21 exch store
currentpoint
/Y21 load 2 mul add 3 div exch
/X21 load 2 mul add 3 div exch
/X21 load 2 mul /X22 load add 3 div
/Y21 load 2 mul /Y22 load add 3 div
/X22 load /Y22 load curveto
} bd
/SSPD {
dup length /d exch dict def
{
/v exch def
/k exch def
currentpagedevice k known {
/cpdv currentpagedevice k get def
v cpdv ne {
/upd false def
/nullv v type /nulltype eq def
/nullcpdv cpdv type /nulltype eq def
nullv nullcpdv or
{
/upd true def
} {
/sametype v type cpdv type eq def
sametype {
v type /arraytype eq {
/vlen v length def
/cpdvlen cpdv length def
vlen cpdvlen eq {
0 1 vlen 1 sub {
/i exch def
/obj v i get def
/cpdobj cpdv i get def
obj cpdobj ne {
/upd true def
exit
} if
} for
} {
/upd true def
} ifelse
} {
v type /dicttype eq {
v {
/dv exch def
/dk exch def
/cpddv cpdv dk get def
dv cpddv ne {
/upd true def
exit
} if
} forall
} {
/upd true def
} ifelse
} ifelse
} if
} ifelse
upd true eq {
d k v put
} if
} if
} if
} forall
d length 0 gt {
d setpagedevice
} if
} bd
/RE { % /NewFontName [NewEncodingArray] /FontName RE -
  findfont dup length dict begin
  {
    1 index /FID ne
    {def} {pop pop} ifelse
  } forall
  /Encoding exch def
  /FontName 1 index def
  currentdict definefont pop
  end
} bind def
%%EndResource
%%BeginResource: procset (Apache XML Graphics EPS ProcSet) 1.0 0
%%Version: 1.0 0
%%Copyright: (Copyright 2002-2003 The Apache Software Foundation. License terms: http://www.apache.org/licenses/LICENSE-2.0)
/BeginEPSF { %def
/b4_Inc_state save def         % Save state for cleanup
/dict_count countdictstack def % Count objects on dict stack
/op_count count 1 sub def      % Count objects on operand stack
userdict begin                 % Push userdict on dict stack
/showpage { } def              % Redefine showpage, { } = null proc
0 setgray 0 setlinecap         % Prepare graphics state
1 setlinewidth 0 setlinejoin
10 setmiterlimit [ ] 0 setdash newpath
/languagelevel where           % If level not equal to 1 then
{pop languagelevel             % set strokeadjust and
1 ne                           % overprint to their defaults.
{false setstrokeadjust false setoverprint
} if
} if
} bd
/EndEPSF { %def
count op_count sub {pop} repeat            % Clean up stacks
countdictstack dict_count sub {end} repeat
b4_Inc_state restore
} bd
%%EndResource
%FOPBeginFontDict
%%IncludeResource: font Courier-Oblique
%%IncludeResource: font Courier-BoldOblique
%%IncludeResource: font Courier-Bold
%%IncludeResource: font ZapfDingbats
%%IncludeResource: font Symbol
%%IncludeResource: font Helvetica
%%IncludeResource: font Helvetica-Oblique
%%IncludeResource: font Helvetica-Bold
%%IncludeResource: font Helvetica-BoldOblique
%%IncludeResource: font Times-Roman
%%IncludeResource: font Times-Italic
%%IncludeResource: font Times-Bold
%%IncludeResource: font Times-BoldItalic
%%IncludeResource: font Courier
%FOPEndFontDict
%%BeginResource: encoding WinAnsiEncoding
/WinAnsiEncoding [
/.notdef /.notdef /.notdef /.notdef /.notdef
/.notdef /.notdef /.notdef /.notdef /.notdef
/.notdef /.notdef /.notdef /.notdef /.notdef
/.notdef /.notdef /.notdef /.notdef /.notdef
/.notdef /.notdef /.notdef /.notdef /.notdef
/.notdef /.notdef /.notdef /.notdef /.notdef
/.notdef /.notdef /space /exclam /quotedbl
/numbersign /dollar /percent /ampersand /quotesingle
/parenleft /parenright /asterisk /plus /comma
/hyphen /period /slash /zero /one
/two /three /four /five /six
/seven /eight /nine /colon /semicolon
/less /equal /greater /question /at
/A /B /C /D /E
/F /G /H /I /J
/K /L /M /N /O
/P /Q /R /S /T
/U /V /W /X /Y
/Z /bracketleft /backslash /bracketright /asciicircum
/underscore /quoteleft /a /b /c
/d /e /f /g /h
/i /j /k /l /m
/n /o /p /q /r
/s /t /u /v /w
/x /y /z /braceleft /bar
/braceright /asciitilde /bullet /Euro /bullet
/quotesinglbase /florin /quotedblbase /ellipsis /dagger
/daggerdbl /circumflex /perthousand /Scaron /guilsinglleft
/OE /bullet /Zcaron /bullet /bullet
/quoteleft /quoteright /quotedblleft /quotedblright /bullet
/endash /emdash /asciitilde /trademark /scaron
/guilsinglright /oe /bullet /zcaron /Ydieresis
/space /exclamdown /cent /sterling /currency
/yen /brokenbar /section /dieresis /copyright
/ordfeminine /guillemotleft /logicalnot /sfthyphen /registered
/macron /degree /plusminus /twosuperior /threesuperior
/acute /mu /paragraph /middot /cedilla
/onesuperior /ordmasculine /guillemotright /onequarter /onehalf
/threequarters /questiondown /Agrave /Aacute /Acircumflex
/Atilde /Adieresis /Aring /AE /Ccedilla
/Egrave /Eacute /Ecircumflex /Edieresis /Igrave
/Iacute /Icircumflex /Idieresis /Eth /Ntilde
/Ograve /Oacute /Ocircumflex /Otilde /Odieresis
/multiply /Oslash /Ugrave /Uacute /Ucircumflex
/Udieresis /Yacute /Thorn /germandbls /agrave
/aacute /acircumflex /atilde /adieresis /aring
/ae /ccedilla /egrave /eacute /ecircumflex
/edieresis /igrave /iacute /icircumflex /idieresis
/eth /ntilde /ograve /oacute /ocircumflex
/otilde /odieresis /divide /oslash /ugrave
/uacute /ucircumflex /udieresis /yacute /thorn
/ydieresis
] def
%%EndResource
%FOPBeginFontReencode
/Courier-Oblique findfont
dup length dict begin
  {1 index /FID ne {def} {pop pop} ifelse} forall
  /Encoding WinAnsiEncoding def
  currentdict
end
/Courier-Oblique exch definefont pop
/Courier-BoldOblique findfont
dup length dict begin
  {1 index /FID ne {def} {pop pop} ifelse} forall
  /Encoding WinAnsiEncoding def
  currentdict
end
/Courier-BoldOblique exch definefont pop
/Courier-Bold findfont
dup length dict begin
  {1 index /FID ne {def} {pop pop} ifelse} forall
  /Encoding WinAnsiEncoding def
  currentdict
end
/Courier-Bold exch definefont pop
/Helvetica findfont
dup length dict begin
  {1 index /FID ne {def} {pop pop} ifelse} forall
  /Encoding WinAnsiEncoding def
  currentdict
end
/Helvetica exch definefont pop
/Helvetica-Oblique findfont
dup length dict begin
  {1 index /FID ne {def} {pop pop} ifelse} forall
  /Encoding WinAnsiEncoding def
  currentdict
end
/Helvetica-Oblique exch definefont pop
/Helvetica-Bold findfont
dup length dict begin
  {1 index /FID ne {def} {pop pop} ifelse} forall
  /Encoding WinAnsiEncoding def
  currentdict
end
/Helvetica-Bold exch definefont pop
/Helvetica-BoldOblique findfont
dup length dict begin
  {1 index /FID ne {def} {pop pop} ifelse} forall
  /Encoding WinAnsiEncoding def
  currentdict
end
/Helvetica-BoldOblique exch definefont pop
/Times-Roman findfont
dup length dict begin
  {1 index /FID ne {def} {pop pop} ifelse} forall
  /Encoding WinAnsiEncoding def
  currentdict
end
/Times-Roman exch definefont pop
/Times-Italic findfont
dup length dict begin
  {1 index /FID ne {def} {pop pop} ifelse} forall
  /Encoding WinAnsiEncoding def
  currentdict
end
/Times-Italic exch definefont pop
/Times-Bold findfont
dup length dict begin
  {1 index /FID ne {def} {pop pop} ifelse} forall
  /Encoding WinAnsiEncoding def
  currentdict
end
/Times-Bold exch definefont pop
/Times-BoldItalic findfont
dup length dict begin
  {1 index /FID ne {def} {pop pop} ifelse} forall
  /Encoding WinAnsiEncoding def
  currentdict
end
/Times-BoldItalic exch definefont pop
/Courier findfont
dup length dict begin
  {1 index /FID ne {def} {pop pop} ifelse} forall
  /Encoding WinAnsiEncoding def
  currentdict
end
/Courier exch definefont pop
%FOPEndFontReencode
%%EndProlog
%%Page: 1 1
%%PageBoundingBox: 0 0 543 370
%%BeginPageSetup
[1 0 0 -1 0 370] CT
%%EndPageSetup
GS
[1.00088 0 0 0.9996 0 0.14755] CT
1 GC
N
0 0 543 370 re
f
GR
GS
[1.00088 0 0 0.9996 0 0.14755] CT
1 GC
N
0 0 543 370 re
f
GR
GS
[1.00088 0 0 0.9996 0 0.14755] CT
1 GC
N
67 317.5 M
533.5 317.5 L
533.5 29.5 L
67 29.5 L
cp
f
GR
GS
[1.00088 0 0 0.9996 0 0.14755] CT
0.873 GC
1 LJ
1.225 LW
N
113.65 317.5 M
113.65 29.5 L
S
GR
GS
[1.00088 0 0 0.9996 0 0.14755] CT
0.873 GC
1 LJ
1.225 LW
N
206.95 317.5 M
206.95 29.5 L
S
GR
GS
[1.00088 0 0 0.9996 0 0.14755] CT
0.873 GC
1 LJ
1.225 LW
N
300.25 317.5 M
300.25 29.5 L
S
GR
GS
[1.00088 0 0 0.9996 0 0.14755] CT
0.873 GC
1 LJ
1.225 LW
N
393.55 317.5 M
393.55 29.5 L
S
GR
GS
[1.00088 0 0 0.9996 0 0.14755] CT
0.873 GC
1 LJ
1.225 LW
N
486.85 317.5 M
486.85 29.5 L
S
GR
GS
[1.00088 0 0 0.9996 0 0.14755] CT
0.873 GC
1 LJ
1.225 LW
N
533.5 296.167 M
67 296.167 L
S
GR
GS
[1.00088 0 0 0.9996 0 0.14755] CT
0.873 GC
1 LJ
1.225 LW
N
533.5 242.833 M
67 242.833 L
S
GR
GS
[1.00088 0 0 0.9996 0 0.14755] CT
0.873 GC
1 LJ
1.225 LW
N
533.5 189.5 M
67 189.5 L
S
GR
GS
[1.00088 0 0 0.9996 0 0.14755] CT
0.873 GC
1 LJ
1.225 LW
N
533.5 136.167 M
67 136.167 L
S
GR
GS
[1.00088 0 0 0.9996 0 0.14755] CT
0.873 GC
1 LJ
1.225 LW
N
533.5 82.833 M
67 82.833 L
S
GR
GS
[1.00088 0 0 0.9996 0 0.14755] CT
0.873 GC
1 LJ
1.225 LW
N
533.5 29.5 M
67 29.5 L
S
GR
GS
[1.00088 0 0 0.9996 0 0.14755] CT
0.149 GC
2 setlinecap
1 LJ
1.225 LW
N
67 317.5 M
533.5 317.5 L
S
GR
GS
[1.00088 0 0 0.9996 0 0.14755] CT
0.149 GC
2 setlinecap
1 LJ
1.225 LW
N
67 29.5 M
533.5 29.5 L
S
GR
GS
[1.00088 0 0 0.9996 0 0.14755] CT
0.149 GC
2 setlinecap
1 LJ
1.225 LW
N
113.65 317.5 M
113.65 312.835 L
S
GR
GS
[1.00088 0 0 0.9996 0 0.14755] CT
0.149 GC
2 setlinecap
1 LJ
1.225 LW
N
206.95 317.5 M
206.95 312.835 L
S
GR
GS
[1.00088 0 0 0.9996 0 0.14755] CT
0.149 GC
2 setlinecap
1 LJ
1.225 LW
N
300.25 317.5 M
300.25 312.835 L
S
GR
GS
[1.00088 0 0 0.9996 0 0.14755] CT
0.149 GC
2 setlinecap
1 LJ
1.225 LW
N
393.55 317.5 M
393.55 312.835 L
S
GR
GS
[1.00088 0 0 0.9996 0 0.14755] CT
0.149 GC
2 setlinecap
1 LJ
1.225 LW
N
486.85 317.5 M
486.85 312.835 L
S
GR
GS
[1.00088 0 0 0.9996 0 0.14755] CT
0.149 GC
2 setlinecap
1 LJ
1.225 LW
N
113.65 29.5 M
113.65 34.165 L
S
GR
GS
[1.00088 0 0 0.9996 0 0.14755] CT
0.149 GC
2 setlinecap
1 LJ
1.225 LW
N
206.95 29.5 M
206.95 34.165 L
S
GR
GS
[1.00088 0 0 0.9996 0 0.14755] CT
0.149 GC
2 setlinecap
1 LJ
1.225 LW
N
300.25 29.5 M
300.25 34.165 L
S
GR
GS
[1.00088 0 0 0.9996 0 0.14755] CT
0.149 GC
2 setlinecap
1 LJ
1.225 LW
N
393.55 29.5 M
393.55 34.165 L
S
GR
GS
[1.00088 0 0 0.9996 0 0.14755] CT
0.149 GC
2 setlinecap
1 LJ
1.225 LW
N
486.85 29.5 M
486.85 34.165 L
S
GR
GS
[1.00088 0 0 0.9996 0 0.14755] CT
0.149 GC
2 setlinecap
1 LJ
1.225 LW
N
76.33 317.5 M
76.33 315.168 L
S
GR
GS
[1.00088 0 0 0.9996 0 0.14755] CT
0.149 GC
2 setlinecap
1 LJ
1.225 LW
N
94.99 317.5 M
94.99 315.168 L
S
GR
GS
[1.00088 0 0 0.9996 0 0.14755] CT
0.149 GC
2 setlinecap
1 LJ
1.225 LW
N
132.31 317.5 M
132.31 315.168 L
S
GR
GS
[1.00088 0 0 0.9996 0 0.14755] CT
0.149 GC
2 setlinecap
1 LJ
1.225 LW
N
150.97 317.5 M
150.97 315.168 L
S
GR
GS
[1.00088 0 0 0.9996 0 0.14755] CT
0.149 GC
2 setlinecap
1 LJ
1.225 LW
N
169.63 317.5 M
169.63 315.168 L
S
GR
GS
[1.00088 0 0 0.9996 0 0.14755] CT
0.149 GC
2 setlinecap
1 LJ
1.225 LW
N
188.29 317.5 M
188.29 315.168 L
S
GR
GS
[1.00088 0 0 0.9996 0 0.14755] CT
0.149 GC
2 setlinecap
1 LJ
1.225 LW
N
225.61 317.5 M
225.61 315.168 L
S
GR
GS
[1.00088 0 0 0.9996 0 0.14755] CT
0.149 GC
2 setlinecap
1 LJ
1.225 LW
N
244.27 317.5 M
244.27 315.168 L
S
GR
GS
[1.00088 0 0 0.9996 0 0.14755] CT
0.149 GC
2 setlinecap
1 LJ
1.225 LW
N
262.93 317.5 M
262.93 315.168 L
S
GR
GS
[1.00088 0 0 0.9996 0 0.14755] CT
0.149 GC
2 setlinecap
1 LJ
1.225 LW
N
281.59 317.5 M
281.59 315.168 L
S
GR
GS
[1.00088 0 0 0.9996 0 0.14755] CT
0.149 GC
2 setlinecap
1 LJ
1.225 LW
N
318.91 317.5 M
318.91 315.168 L
S
GR
GS
[1.00088 0 0 0.9996 0 0.14755] CT
0.149 GC
2 setlinecap
1 LJ
1.225 LW
N
337.57 317.5 M
337.57 315.168 L
S
GR
GS
[1.00088 0 0 0.9996 0 0.14755] CT
0.149 GC
2 setlinecap
1 LJ
1.225 LW
N
356.23 317.5 M
356.23 315.168 L
S
GR
GS
[1.00088 0 0 0.9996 0 0.14755] CT
0.149 GC
2 setlinecap
1 LJ
1.225 LW
N
374.89 317.5 M
374.89 315.168 L
S
GR
GS
[1.00088 0 0 0.9996 0 0.14755] CT
0.149 GC
2 setlinecap
1 LJ
1.225 LW
N
412.21 317.5 M
412.21 315.168 L
S
GR
GS
[1.00088 0 0 0.9996 0 0.14755] CT
0.149 GC
2 setlinecap
1 LJ
1.225 LW
N
430.87 317.5 M
430.87 315.168 L
S
GR
GS
[1.00088 0 0 0.9996 0 0.14755] CT
0.149 GC
2 setlinecap
1 LJ
1.225 LW
N
449.53 317.5 M
449.53 315.168 L
S
GR
GS
[1.00088 0 0 0.9996 0 0.14755] CT
0.149 GC
2 setlinecap
1 LJ
1.225 LW
N
468.19 317.5 M
468.19 315.168 L
S
GR
GS
[1.00088 0 0 0.9996 0 0.14755] CT
0.149 GC
2 setlinecap
1 LJ
1.225 LW
N
505.51 317.5 M
505.51 315.168 L
S
GR
GS
[1.00088 0 0 0.9996 0 0.14755] CT
0.149 GC
2 setlinecap
1 LJ
1.225 LW
N
524.17 317.5 M
524.17 315.168 L
S
GR
GS
[1.00088 0 0 0.9996 0 0.14755] CT
0.149 GC
2 setlinecap
1 LJ
1.225 LW
N
76.33 29.5 M
76.33 31.833 L
S
GR
GS
[1.00088 0 0 0.9996 0 0.14755] CT
0.149 GC
2 setlinecap
1 LJ
1.225 LW
N
94.99 29.5 M
94.99 31.833 L
S
GR
GS
[1.00088 0 0 0.9996 0 0.14755] CT
0.149 GC
2 setlinecap
1 LJ
1.225 LW
N
132.31 29.5 M
132.31 31.833 L
S
GR
GS
[1.00088 0 0 0.9996 0 0.14755] CT
0.149 GC
2 setlinecap
1 LJ
1.225 LW
N
150.97 29.5 M
150.97 31.833 L
S
GR
GS
[1.00088 0 0 0.9996 0 0.14755] CT
0.149 GC
2 setlinecap
1 LJ
1.225 LW
N
169.63 29.5 M
169.63 31.833 L
S
GR
GS
[1.00088 0 0 0.9996 0 0.14755] CT
0.149 GC
2 setlinecap
1 LJ
1.225 LW
N
188.29 29.5 M
188.29 31.833 L
S
GR
GS
[1.00088 0 0 0.9996 0 0.14755] CT
0.149 GC
2 setlinecap
1 LJ
1.225 LW
N
225.61 29.5 M
225.61 31.833 L
S
GR
GS
[1.00088 0 0 0.9996 0 0.14755] CT
0.149 GC
2 setlinecap
1 LJ
1.225 LW
N
244.27 29.5 M
244.27 31.833 L
S
GR
GS
[1.00088 0 0 0.9996 0 0.14755] CT
0.149 GC
2 setlinecap
1 LJ
1.225 LW
N
262.93 29.5 M
262.93 31.833 L
S
GR
GS
[1.00088 0 0 0.9996 0 0.14755] CT
0.149 GC
2 setlinecap
1 LJ
1.225 LW
N
281.59 29.5 M
281.59 31.833 L
S
GR
GS
[1.00088 0 0 0.9996 0 0.14755] CT
0.149 GC
2 setlinecap
1 LJ
1.225 LW
N
318.91 29.5 M
318.91 31.833 L
S
GR
GS
[1.00088 0 0 0.9996 0 0.14755] CT
0.149 GC
2 setlinecap
1 LJ
1.225 LW
N
337.57 29.5 M
337.57 31.833 L
S
GR
GS
[1.00088 0 0 0.9996 0 0.14755] CT
0.149 GC
2 setlinecap
1 LJ
1.225 LW
N
356.23 29.5 M
356.23 31.833 L
S
GR
GS
[1.00088 0 0 0.9996 0 0.14755] CT
0.149 GC
2 setlinecap
1 LJ
1.225 LW
N
374.89 29.5 M
374.89 31.833 L
S
GR
GS
[1.00088 0 0 0.9996 0 0.14755] CT
0.149 GC
2 setlinecap
1 LJ
1.225 LW
N
412.21 29.5 M
412.21 31.833 L
S
GR
GS
[1.00088 0 0 0.9996 0 0.14755] CT
0.149 GC
2 setlinecap
1 LJ
1.225 LW
N
430.87 29.5 M
430.87 31.833 L
S
GR
GS
[1.00088 0 0 0.9996 0 0.14755] CT
0.149 GC
2 setlinecap
1 LJ
1.225 LW
N
449.53 29.5 M
449.53 31.833 L
S
GR
GS
[1.00088 0 0 0.9996 0 0.14755] CT
0.149 GC
2 setlinecap
1 LJ
1.225 LW
N
468.19 29.5 M
468.19 31.833 L
S
GR
GS
[1.00088 0 0 0.9996 0 0.14755] CT
0.149 GC
2 setlinecap
1 LJ
1.225 LW
N
505.51 29.5 M
505.51 31.833 L
S
GR
GS
[1.00088 0 0 0.9996 0 0.14755] CT
0.149 GC
2 setlinecap
1 LJ
1.225 LW
N
524.17 29.5 M
524.17 31.833 L
S
GR
GS
[1.00088 0 0 0.9996 113.75051 323.36864] CT
0.149 GC
/Times-Roman 19.25 F
GS
[1 0 0 1 0 0] CT
-12.5 18 moveto 
1 -1 scale
(3.7) t 
GR
GR
GS
[1.00088 0 0 0.9996 207.13288 323.36864] CT
0.149 GC
/Times-Roman 19.25 F
GS
[1 0 0 1 0 0] CT
-12.5 18 moveto 
1 -1 scale
(3.8) t 
GR
GR
GS
[1.00088 0 0 0.9996 300.5155 323.36864] CT
0.149 GC
/Times-Roman 19.25 F
GS
[1 0 0 1 0 0] CT
-12.5 18 moveto 
1 -1 scale
(3.9) t 
GR
GR
GS
[1.00088 0 0 0.9996 393.89786 323.36864] CT
0.149 GC
/Times-Roman 19.25 F
GS
[1 0 0 1 0 0] CT
-5 18 moveto 
1 -1 scale
(4) t 
GR
GR
GS
[1.00088 0 0 0.9996 487.28026 323.36864] CT
0.149 GC
/Times-Roman 19.25 F
GS
[1 0 0 1 0 0] CT
-12.5 18 moveto 
1 -1 scale
(4.1) t 
GR
GR
GS
[1.00088 0 0 0.9996 300.51571 367.81349] CT
0.149 GC
/Times-Roman 21 F
GS
[1 0 0 1 0 0] CT
-37.5 -5 moveto 
1 -1 scale
(Time \(h\)) t 
GR
GR
GS
[1.00088 0 0 0.9996 0 0.14755] CT
0.149 GC
2 setlinecap
1 LJ
1.225 LW
N
67 317.5 M
67 29.5 L
S
GR
GS
[1.00088 0 0 0.9996 0 0.14755] CT
0.149 GC
2 setlinecap
1 LJ
1.225 LW
N
533.5 317.5 M
533.5 29.5 L
S
GR
GS
[1.00088 0 0 0.9996 0 0.14755] CT
0.149 GC
2 setlinecap
1 LJ
1.225 LW
N
67 296.167 M
71.665 296.167 L
S
GR
GS
[1.00088 0 0 0.9996 0 0.14755] CT
0.149 GC
2 setlinecap
1 LJ
1.225 LW
N
67 242.833 M
71.665 242.833 L
S
GR
GS
[1.00088 0 0 0.9996 0 0.14755] CT
0.149 GC
2 setlinecap
1 LJ
1.225 LW
N
67 189.5 M
71.665 189.5 L
S
GR
GS
[1.00088 0 0 0.9996 0 0.14755] CT
0.149 GC
2 setlinecap
1 LJ
1.225 LW
N
67 136.167 M
71.665 136.167 L
S
GR
GS
[1.00088 0 0 0.9996 0 0.14755] CT
0.149 GC
2 setlinecap
1 LJ
1.225 LW
N
67 82.833 M
71.665 82.833 L
S
GR
GS
[1.00088 0 0 0.9996 0 0.14755] CT
0.149 GC
2 setlinecap
1 LJ
1.225 LW
N
67 29.5 M
71.665 29.5 L
S
GR
GS
[1.00088 0 0 0.9996 0 0.14755] CT
0.149 GC
2 setlinecap
1 LJ
1.225 LW
N
533.5 296.167 M
528.835 296.167 L
S
GR
GS
[1.00088 0 0 0.9996 0 0.14755] CT
0.149 GC
2 setlinecap
1 LJ
1.225 LW
N
533.5 242.833 M
528.835 242.833 L
S
GR
GS
[1.00088 0 0 0.9996 0 0.14755] CT
0.149 GC
2 setlinecap
1 LJ
1.225 LW
N
533.5 189.5 M
528.835 189.5 L
S
GR
GS
[1.00088 0 0 0.9996 0 0.14755] CT
0.149 GC
2 setlinecap
1 LJ
1.225 LW
N
533.5 136.167 M
528.835 136.167 L
S
GR
GS
[1.00088 0 0 0.9996 0 0.14755] CT
0.149 GC
2 setlinecap
1 LJ
1.225 LW
N
533.5 82.833 M
528.835 82.833 L
S
GR
GS
[1.00088 0 0 0.9996 0 0.14755] CT
0.149 GC
2 setlinecap
1 LJ
1.225 LW
N
533.5 29.5 M
528.835 29.5 L
S
GR
GS
[1.00088 0 0 0.9996 0 0.14755] CT
0.149 GC
2 setlinecap
1 LJ
1.225 LW
N
67 317.5 M
69.333 317.5 L
S
GR
GS
[1.00088 0 0 0.9996 0 0.14755] CT
0.149 GC
2 setlinecap
1 LJ
1.225 LW
N
67 306.833 M
69.333 306.833 L
S
GR
GS
[1.00088 0 0 0.9996 0 0.14755] CT
0.149 GC
2 setlinecap
1 LJ
1.225 LW
N
67 285.5 M
69.333 285.5 L
S
GR
GS
[1.00088 0 0 0.9996 0 0.14755] CT
0.149 GC
2 setlinecap
1 LJ
1.225 LW
N
67 274.833 M
69.333 274.833 L
S
GR
GS
[1.00088 0 0 0.9996 0 0.14755] CT
0.149 GC
2 setlinecap
1 LJ
1.225 LW
N
67 264.167 M
69.333 264.167 L
S
GR
GS
[1.00088 0 0 0.9996 0 0.14755] CT
0.149 GC
2 setlinecap
1 LJ
1.225 LW
N
67 253.5 M
69.333 253.5 L
S
GR
GS
[1.00088 0 0 0.9996 0 0.14755] CT
0.149 GC
2 setlinecap
1 LJ
1.225 LW
N
67 232.167 M
69.333 232.167 L
S
GR
GS
[1.00088 0 0 0.9996 0 0.14755] CT
0.149 GC
2 setlinecap
1 LJ
1.225 LW
N
67 221.5 M
69.333 221.5 L
S
GR
GS
[1.00088 0 0 0.9996 0 0.14755] CT
0.149 GC
2 setlinecap
1 LJ
1.225 LW
N
67 210.833 M
69.333 210.833 L
S
GR
GS
[1.00088 0 0 0.9996 0 0.14755] CT
0.149 GC
2 setlinecap
1 LJ
1.225 LW
N
67 200.167 M
69.333 200.167 L
S
GR
GS
[1.00088 0 0 0.9996 0 0.14755] CT
0.149 GC
2 setlinecap
1 LJ
1.225 LW
N
67 178.833 M
69.333 178.833 L
S
GR
GS
[1.00088 0 0 0.9996 0 0.14755] CT
0.149 GC
2 setlinecap
1 LJ
1.225 LW
N
67 168.167 M
69.333 168.167 L
S
GR
GS
[1.00088 0 0 0.9996 0 0.14755] CT
0.149 GC
2 setlinecap
1 LJ
1.225 LW
N
67 157.5 M
69.333 157.5 L
S
GR
GS
[1.00088 0 0 0.9996 0 0.14755] CT
0.149 GC
2 setlinecap
1 LJ
1.225 LW
N
67 146.833 M
69.333 146.833 L
S
GR
GS
[1.00088 0 0 0.9996 0 0.14755] CT
0.149 GC
2 setlinecap
1 LJ
1.225 LW
N
67 125.5 M
69.333 125.5 L
S
GR
GS
[1.00088 0 0 0.9996 0 0.14755] CT
0.149 GC
2 setlinecap
1 LJ
1.225 LW
N
67 114.833 M
69.333 114.833 L
S
GR
GS
[1.00088 0 0 0.9996 0 0.14755] CT
0.149 GC
2 setlinecap
1 LJ
1.225 LW
N
67 104.167 M
69.333 104.167 L
S
GR
GS
[1.00088 0 0 0.9996 0 0.14755] CT
0.149 GC
2 setlinecap
1 LJ
1.225 LW
N
67 93.5 M
69.333 93.5 L
S
GR
GS
[1.00088 0 0 0.9996 0 0.14755] CT
0.149 GC
2 setlinecap
1 LJ
1.225 LW
N
67 72.167 M
69.333 72.167 L
S
GR
GS
[1.00088 0 0 0.9996 0 0.14755] CT
0.149 GC
2 setlinecap
1 LJ
1.225 LW
N
67 61.5 M
69.333 61.5 L
S
GR
GS
[1.00088 0 0 0.9996 0 0.14755] CT
0.149 GC
2 setlinecap
1 LJ
1.225 LW
N
67 50.833 M
69.333 50.833 L
S
GR
GS
[1.00088 0 0 0.9996 0 0.14755] CT
0.149 GC
2 setlinecap
1 LJ
1.225 LW
N
67 40.167 M
69.333 40.167 L
S
GR
GS
[1.00088 0 0 0.9996 0 0.14755] CT
0.149 GC
2 setlinecap
1 LJ
1.225 LW
N
533.5 317.5 M
531.168 317.5 L
S
GR
GS
[1.00088 0 0 0.9996 0 0.14755] CT
0.149 GC
2 setlinecap
1 LJ
1.225 LW
N
533.5 306.833 M
531.168 306.833 L
S
GR
GS
[1.00088 0 0 0.9996 0 0.14755] CT
0.149 GC
2 setlinecap
1 LJ
1.225 LW
N
533.5 285.5 M
531.168 285.5 L
S
GR
GS
[1.00088 0 0 0.9996 0 0.14755] CT
0.149 GC
2 setlinecap
1 LJ
1.225 LW
N
533.5 274.833 M
531.168 274.833 L
S
GR
GS
[1.00088 0 0 0.9996 0 0.14755] CT
0.149 GC
2 setlinecap
1 LJ
1.225 LW
N
533.5 264.167 M
531.168 264.167 L
S
GR
GS
[1.00088 0 0 0.9996 0 0.14755] CT
0.149 GC
2 setlinecap
1 LJ
1.225 LW
N
533.5 253.5 M
531.168 253.5 L
S
GR
GS
[1.00088 0 0 0.9996 0 0.14755] CT
0.149 GC
2 setlinecap
1 LJ
1.225 LW
N
533.5 232.167 M
531.168 232.167 L
S
GR
GS
[1.00088 0 0 0.9996 0 0.14755] CT
0.149 GC
2 setlinecap
1 LJ
1.225 LW
N
533.5 221.5 M
531.168 221.5 L
S
GR
GS
[1.00088 0 0 0.9996 0 0.14755] CT
0.149 GC
2 setlinecap
1 LJ
1.225 LW
N
533.5 210.833 M
531.168 210.833 L
S
GR
GS
[1.00088 0 0 0.9996 0 0.14755] CT
0.149 GC
2 setlinecap
1 LJ
1.225 LW
N
533.5 200.167 M
531.168 200.167 L
S
GR
GS
[1.00088 0 0 0.9996 0 0.14755] CT
0.149 GC
2 setlinecap
1 LJ
1.225 LW
N
533.5 178.833 M
531.168 178.833 L
S
GR
GS
[1.00088 0 0 0.9996 0 0.14755] CT
0.149 GC
2 setlinecap
1 LJ
1.225 LW
N
533.5 168.167 M
531.168 168.167 L
S
GR
GS
[1.00088 0 0 0.9996 0 0.14755] CT
0.149 GC
2 setlinecap
1 LJ
1.225 LW
N
533.5 157.5 M
531.168 157.5 L
S
GR
GS
[1.00088 0 0 0.9996 0 0.14755] CT
0.149 GC
2 setlinecap
1 LJ
1.225 LW
N
533.5 146.833 M
531.168 146.833 L
S
GR
GS
[1.00088 0 0 0.9996 0 0.14755] CT
0.149 GC
2 setlinecap
1 LJ
1.225 LW
N
533.5 125.5 M
531.168 125.5 L
S
GR
GS
[1.00088 0 0 0.9996 0 0.14755] CT
0.149 GC
2 setlinecap
1 LJ
1.225 LW
N
533.5 114.833 M
531.168 114.833 L
S
GR
GS
[1.00088 0 0 0.9996 0 0.14755] CT
0.149 GC
2 setlinecap
1 LJ
1.225 LW
N
533.5 104.167 M
531.168 104.167 L
S
GR
GS
[1.00088 0 0 0.9996 0 0.14755] CT
0.149 GC
2 setlinecap
1 LJ
1.225 LW
N
533.5 93.5 M
531.168 93.5 L
S
GR
GS
[1.00088 0 0 0.9996 0 0.14755] CT
0.149 GC
2 setlinecap
1 LJ
1.225 LW
N
533.5 72.167 M
531.168 72.167 L
S
GR
GS
[1.00088 0 0 0.9996 0 0.14755] CT
0.149 GC
2 setlinecap
1 LJ
1.225 LW
N
533.5 61.5 M
531.168 61.5 L
S
GR
GS
[1.00088 0 0 0.9996 0 0.14755] CT
0.149 GC
2 setlinecap
1 LJ
1.225 LW
N
533.5 50.833 M
531.168 50.833 L
S
GR
GS
[1.00088 0 0 0.9996 0 0.14755] CT
0.149 GC
2 setlinecap
1 LJ
1.225 LW
N
533.5 40.167 M
531.168 40.167 L
S
GR
GS
[1.00088 0 0 0.9996 61.20407 296.19622] CT
0.149 GC
/Times-Roman 19.25 F
GS
[1 0 0 1 0 0] CT
-25 6.5 moveto 
1 -1 scale
(3.6) t 
GR
GR
GS
[1.00088 0 0 0.9996 61.20407 242.88395] CT
0.149 GC
/Times-Roman 19.25 F
GS
[1 0 0 1 0 0] CT
-34 6.5 moveto 
1 -1 scale
(3.65) t 
GR
GR
GS
[1.00088 0 0 0.9996 61.20407 189.57194] CT
0.149 GC
/Times-Roman 19.25 F
GS
[1 0 0 1 0 0] CT
-25 6.5 moveto 
1 -1 scale
(3.7) t 
GR
GR
GS
[1.00088 0 0 0.9996 61.20407 136.25992] CT
0.149 GC
/Times-Roman 19.25 F
GS
[1 0 0 1 0 0] CT
-34 6.5 moveto 
1 -1 scale
(3.75) t 
GR
GR
GS
[1.00088 0 0 0.9996 61.20407 82.9479] CT
0.149 GC
/Times-Roman 19.25 F
GS
[1 0 0 1 0 0] CT
-25 6.5 moveto 
1 -1 scale
(3.8) t 
GR
GR
GS
[1.00088 0 0 0.9996 61.20407 29.63589] CT
0.149 GC
/Times-Roman 19.25 F
GS
[1 0 0 1 0 0] CT
-34 6.5 moveto 
1 -1 scale
(3.85) t 
GR
GR
GS
[0 -0.9996 1.00088 0 -0.20014 173.57819] CT
0.149 GC
/Times-Roman 21 F
GS
[1 0 0 1 0 0] CT
-50.5 19 moveto 
1 -1 scale
(Voltage \(V\)) t 
GR
GR
GS
[1.00088 0 0 0.9996 300.51571 24.61038] CT
/Times-Roman 24.5 F
GS
[1 0 0 1 0 0] CT
-132 -6 moveto 
1 -1 scale
(UDDS cell voltage \(zoom\)) t 
GR
GR
GS
[1.00088 0 0 0.9996 0 0.14755] CT
0 0.447 0.741 RC
1 LJ
3.15 LW
N
66.944 146.532 M
67 146.532 L
67.259 146.532 L
67.778 146.532 L
68.037 146.532 L
68.555 146.532 L
68.814 146.532 L
69.332 146.532 L
69.592 146.532 L
70.11 146.532 L
70.369 146.532 L
70.888 146.532 L
71.147 146.532 L
71.665 146.532 L
71.924 146.532 L
72.442 146.532 L
72.702 146.532 L
73.22 146.531 L
73.479 146.531 L
73.998 146.531 L
74.257 146.531 L
74.775 146.531 L
75.034 146.531 L
75.552 146.531 L
75.812 146.531 L
76.33 146.531 L
76.589 146.531 L
77.108 146.531 L
77.367 146.531 L
77.885 146.531 L
78.144 146.531 L
78.922 146.531 L
79.181 146.531 L
79.699 146.531 L
79.958 146.531 L
80.477 146.531 L
80.736 146.531 L
81.254 146.531 L
81.513 146.531 L
82.032 146.531 L
82.291 146.531 L
82.809 146.531 L
83.068 146.531 L
83.587 146.531 L
83.846 146.531 L
84.364 146.531 L
84.623 146.531 L
85.142 146.531 L
85.401 146.531 L
85.919 146.531 L
86.178 146.531 L
86.697 146.531 L
86.956 146.531 L
87.474 146.531 L
87.733 146.531 L
88.252 146.531 L
88.511 146.531 L
89.029 146.531 L
89.288 146.531 L
89.807 146.531 L
90.066 146.531 L
90.584 146.531 L
90.843 146.531 L
91.362 146.531 L
91.621 146.531 L
92.139 146.531 L
92.398 146.53 L
92.917 146.53 L
93.176 146.53 L
93.694 146.53 L
93.953 146.53 L
94.472 146.53 L
94.731 146.53 L
95.249 146.53 L
95.508 146.53 L
96.286 146.53 L
96.545 146.53 L
97.063 146.53 L
97.322 146.53 L
97.841 146.53 L
98.1 146.53 L
98.618 146.53 L
98.878 146.53 L
99.396 146.53 L
99.655 146.53 L
100.173 146.53 L
100.432 146.53 L
100.951 146.53 L
101.21 146.53 L
101.728 146.53 L
101.988 146.53 L
102.506 146.53 L
102.765 146.53 L
103.283 146.53 L
103.543 146.53 L
104.061 146.53 L
104.32 146.53 L
104.838 146.53 L
105.097 146.53 L
105.616 146.53 L
105.875 146.53 L
106.393 146.53 L
106.653 146.53 L
107.171 146.53 L
107.43 146.53 L
107.948 146.53 L
108.207 146.53 L
108.726 146.53 L
108.985 146.53 L
109.503 146.53 L
109.763 146.53 L
110.281 146.53 L
110.54 146.53 L
111.058 146.53 L
111.317 146.53 L
111.836 146.53 L
112.095 146.53 L
112.613 146.53 L
112.873 146.53 L
113.65 146.53 L
113.909 146.53 L
114.427 146.53 L
114.687 146.53 L
115.205 146.53 L
115.464 146.53 L
115.983 146.53 L
116.242 146.53 L
116.76 146.53 L
117.019 146.53 L
117.537 146.53 L
117.797 146.53 L
118.315 146.53 L
118.574 146.53 L
119.093 146.53 L
119.352 146.53 L
119.87 146.53 L
120.129 146.53 L
120.647 146.53 L
120.907 146.53 L
121.425 146.53 L
121.684 145.244 L
122.203 144.504 L
122.462 144.414 L
122.98 144.269 L
123.239 144.21 L
123.757 144.102 L
124.017 144.048 L
124.535 143.949 L
124.794 143.91 L
125.313 143.829 L
125.572 143.791 L
126.09 143.716 L
126.349 143.686 L
126.608 143.651 L
126.867 145.189 L
127.127 147.177 L
127.645 145.375 L
127.904 140 L
128.423 127.904 L
128.682 128.659 L
128.941 142.305 L
129.2 127.656 L
129.459 93.321 L
129.977 138.964 L
130.237 143.52 L
131.014 176.299 L
131.273 171.924 L
131.792 238.313 L
132.051 206.14 L
132.31 156.449 L
132.569 175.343 L
132.828 157.161 L
133.347 122.477 L
133.606 106.282 L
134.124 97.893 L
134.383 141.757 L
134.902 144.916 L
135.161 168.849 L
135.42 225.462 L
135.679 209.718 L
135.938 181.606 L
136.457 120.555 L
136.716 104.712 L
137.234 95.691 L
137.493 98.668 L
138.012 140.716 L
138.271 153.404 L
138.53 154.093 L
138.789 147.002 L
139.048 144.831 L
139.307 144.705 L
139.567 145.067 L
139.826 145.422 L
140.085 145.493 L
140.344 144.946 L
140.603 154.738 L
140.863 150.772 L
141.122 163.103 L
141.381 156.723 L
141.899 147.624 L
142.158 147.54 L
142.417 148.585 L
142.677 148.341 L
142.936 147.399 L
143.454 108.196 L
143.713 105.895 L
144.232 141.73 L
144.491 142.484 L
145.009 143.452 L
145.268 143.982 L
145.787 144.583 L
146.046 144.681 L
146.305 144.635 L
146.564 148.268 L
146.823 160.395 L
147.083 167.011 L
147.342 155.769 L
147.601 147.607 L
148.119 146.916 L
148.378 146.957 L
149.156 174.853 L
149.415 178.775 L
149.933 150.105 L
150.193 149.293 L
150.711 148.505 L
150.97 148.433 L
151.488 151.344 L
151.747 181.428 L
152.266 276.203 L
152.525 282.84 L
152.784 287.796 L
153.043 281.671 L
153.303 246.472 L
153.821 192.855 L
154.08 184.209 L
154.598 172.856 L
154.857 170.836 L
155.376 167.807 L
155.635 166.591 L
156.153 164.599 L
156.413 163.755 L
156.931 162.293 L
157.19 161.653 L
157.708 160.478 L
157.967 159.949 L
158.486 158.967 L
158.745 158.53 L
159.263 157.737 L
159.523 157.332 L
160.041 156.576 L
160.3 156.23 L
160.818 155.593 L
161.077 155.3 L
161.596 154.755 L
161.855 154.502 L
162.373 154.036 L
162.633 153.823 L
163.151 153.424 L
163.41 153.245 L
163.669 153.064 L
163.928 154.565 L
164.187 156.347 L
164.706 152.597 L
164.965 144.43 L
165.483 128.85 L
165.743 111.75 L
166.002 90.717 L
166.52 115.444 L
166.779 134.256 L
167.038 185.834 L
167.297 177.716 L
167.557 160.977 L
167.816 152.941 L
168.075 161.9 L
168.334 152.133 L
168.853 124.049 L
169.112 203.41 L
169.371 249.752 L
169.63 198.901 L
169.889 269.633 L
170.407 191.394 L
170.667 169.224 L
171.185 125.757 L
171.444 107.098 L
171.703 95.324 L
171.963 104.142 L
172.222 76.347 L
172.74 63.554 L
172.999 55.284 L
173.258 42.36 L
173.517 45.526 L
173.777 68.163 L
174.295 52.733 L
174.554 62.544 L
175.073 81.375 L
175.332 118.269 L
175.85 128.935 L
176.109 130.508 L
176.627 132.807 L
176.887 133.786 L
177.405 135.391 L
177.664 136.054 L
178.183 137.05 L
178.442 137.543 L
178.96 138.554 L
179.219 139.027 L
179.737 139.766 L
179.997 101.116 L
180.256 73.067 L
180.515 76.805 L
180.774 109.057 L
181.293 134.8 L
181.552 135.934 L
182.07 137.246 L
182.329 137.667 L
182.847 138.464 L
183.107 138.856 L
183.884 139.8 L
184.143 140.155 L
184.662 140.832 L
184.921 140.982 L
185.439 141.326 L
185.698 141.504 L
186.217 141.934 L
186.476 142.209 L
186.994 165.279 L
187.253 144.391 L
187.772 144.021 L
188.031 143.998 L
188.549 143.629 L
188.808 143.685 L
189.327 143.85 L
189.586 144.09 L
190.104 144.314 L
190.363 144.368 L
190.623 144.567 L
190.882 144.077 L
191.141 144.356 L
191.4 144.347 L
191.659 144.391 L
191.918 144.436 L
192.437 144.215 L
192.696 144.148 L
193.214 144.018 L
193.473 143.999 L
193.733 144.001 L
193.992 88.416 L
194.251 84.268 L
194.769 138.64 L
195.028 139.508 L
195.547 143.694 L
195.806 165.562 L
196.065 159.22 L
196.324 179.865 L
196.583 181.745 L
197.102 147.792 L
197.361 168.842 L
197.879 148.272 L
198.138 147.731 L
198.657 147.271 L
198.916 146.954 L
199.434 146.715 L
199.693 147.116 L
200.212 158.727 L
200.471 183.22 L
201.248 213.422 L
201.507 211.379 L
202.026 241.765 L
202.285 263.96 L
202.544 261.221 L
202.803 265.261 L
203.063 240.715 L
203.581 201.888 L
203.84 188.74 L
204.099 183.648 L
204.358 198.532 L
204.617 209.626 L
205.136 293.581 L
205.395 282.712 L
205.913 198.234 L
206.173 215.308 L
206.691 218.482 L
206.95 230.483 L
207.468 191.082 L
207.727 188.694 L
208.246 175.957 L
208.505 174.952 L
209.023 172.465 L
209.283 171.415 L
209.801 169.625 L
210.06 168.761 L
210.578 167.219 L
210.837 166.509 L
211.356 165.199 L
211.615 167.998 L
212.133 167.079 L
212.393 166.209 L
212.911 148.506 L
213.17 136.616 L
213.688 99.089 L
213.947 103.807 L
214.207 99.783 L
214.466 116.374 L
214.725 106.443 L
214.984 92.984 L
215.243 99.644 L
215.503 102.716 L
216.021 141.934 L
216.28 113.303 L
216.798 142.682 L
217.057 143.919 L
217.576 145.663 L
217.835 145.676 L
218.613 147.465 L
218.872 147.995 L
219.39 148.751 L
219.649 149.03 L
220.168 149.362 L
220.427 149.759 L
220.945 158.684 L
221.204 168.957 L
221.723 222.624 L
221.982 276.744 L
222.5 293.154 L
222.759 293.548 L
223.278 281.596 L
223.537 261.843 L
223.796 230.396 L
224.055 238.263 L
224.314 197.112 L
224.832 182.224 L
225.092 180.023 L
225.61 176.7 L
225.869 175.91 L
226.128 177.864 L
226.388 176.501 L
226.647 175.096 L
227.165 158.703 L
227.424 150.955 L
227.942 100.063 L
228.202 96.146 L
228.461 141.661 L
228.72 107.157 L
228.979 106.552 L
229.498 147.948 L
229.757 152.141 L
230.275 165.613 L
230.534 180.221 L
230.793 167.6 L
231.052 261.401 L
231.312 285.672 L
231.571 292.831 L
231.83 285.28 L
232.089 254.771 L
232.608 206.281 L
232.867 189.099 L
233.385 177.975 L
233.644 176.336 L
234.162 173.799 L
234.422 172.787 L
234.94 171.107 L
235.199 170.381 L
235.977 168.53 L
236.236 167.992 L
236.754 167.001 L
237.013 166.546 L
237.272 166.124 L
237.532 167.71 L
237.791 168.926 L
238.309 164.068 L
238.568 155.843 L
239.087 140.036 L
239.346 116.329 L
239.605 86.37 L
239.864 96.179 L
240.123 117.068 L
240.642 84.651 L
240.901 93.222 L
241.419 107.464 L
241.678 141.771 L
242.197 145.622 L
242.456 147.491 L
242.974 149.635 L
243.233 150.634 L
243.752 151.572 L
244.011 153.053 L
244.27 157.136 L
244.529 153.729 L
244.788 153.951 L
245.307 154.47 L
245.566 154.675 L
246.084 155.154 L
246.343 155.381 L
246.862 155.807 L
247.121 155.868 L
247.38 155.861 L
247.639 156.43 L
247.898 156.762 L
248.158 156.727 L
248.417 156.784 L
248.676 157.059 L
249.194 157.333 L
249.453 178.367 L
249.972 258.505 L
250.231 273.114 L
250.749 299.779 L
251.008 293.86 L
251.268 299.673 L
251.527 271.486 L
251.786 255.139 L
252.304 189.289 L
252.563 186.322 L
253.341 180.571 L
253.6 179.235 L
253.859 178.073 L
254.118 179.03 L
254.378 179.314 L
254.896 177.652 L
255.155 174.377 L
255.673 170.893 L
255.932 170.152 L
256.451 159.893 L
256.71 143.771 L
257.228 129.216 L
257.488 127.659 L
258.006 120.883 L
258.265 118.492 L
258.783 154.639 L
259.042 161.992 L
259.302 167.664 L
259.561 160.617 L
259.82 161.014 L
260.338 161.536 L
260.598 161.624 L
260.857 161.526 L
261.116 161.69 L
261.375 165.261 L
261.634 175.552 L
261.893 174.437 L
262.152 164.535 L
262.412 164.189 L
262.671 169.945 L
262.93 194.671 L
263.448 287.612 L
263.708 283.172 L
264.226 246.653 L
264.485 182.912 L
265.003 177.916 L
265.262 176.332 L
265.781 174.107 L
266.04 173.275 L
266.558 171.909 L
266.818 171.301 L
267.336 170.257 L
267.595 169.792 L
268.113 168.934 L
268.372 168.55 L
268.891 167.841 L
269.15 167.529 L
269.668 170.229 L
269.928 163.153 L
270.446 154.623 L
270.705 156.492 L
270.964 140.865 L
271.482 164.561 L
271.742 164.865 L
272.26 165.397 L
272.519 179.231 L
273.038 170.639 L
273.297 169.156 L
273.815 167.079 L
274.074 174.35 L
274.592 168.083 L
274.852 167.705 L
275.37 166.77 L
275.629 150.988 L
276.148 147.324 L
276.407 143.882 L
276.925 162.906 L
277.184 163.47 L
277.443 163.448 L
277.702 163.477 L
277.962 163.732 L
278.48 164.569 L
278.739 164.648 L
279.258 148.47 L
279.517 123.218 L
279.776 139.465 L
280.035 138.035 L
280.294 162.357 L
280.812 284.211 L
281.072 290.259 L
281.59 251.996 L
281.849 241.99 L
282.368 180.982 L
282.627 178.918 L
283.145 176.187 L
283.404 175.213 L
283.922 173.702 L
284.182 173.077 L
284.7 172 L
284.959 171.519 L
285.478 170.663 L
285.737 170.283 L
286.255 169.578 L
286.514 169.26 L
287.032 168.665 L
287.292 168.384 L
288.069 167.664 L
288.328 167.449 L
288.847 167.042 L
289.106 166.866 L
289.624 169.804 L
289.883 168.989 L
290.402 158.588 L
290.661 157.842 L
291.179 151.012 L
291.438 132.122 L
291.957 118.76 L
292.216 114.328 L
292.734 149.409 L
292.993 157.26 L
293.512 159.643 L
293.771 160.385 L
294.289 161.279 L
294.548 161.679 L
295.067 188.131 L
295.326 208.865 L
295.844 267.023 L
296.103 266.741 L
296.622 230.143 L
296.881 231.542 L
297.399 182.553 L
297.658 180.414 L
298.177 177.605 L
298.436 176.622 L
298.954 175.087 L
299.213 174.455 L
299.732 173.363 L
299.991 172.882 L
300.509 172.02 L
300.768 171.631 L
301.287 170.932 L
301.546 170.985 L
301.805 173.437 L
302.064 173.366 L
302.323 173.278 L
302.842 166.013 L
303.101 162.536 L
303.36 160.53 L
303.619 160.913 L
303.878 157.511 L
304.397 169.442 L
304.656 169.833 L
305.433 130.334 L
305.692 121.393 L
305.952 120.637 L
306.211 153.576 L
306.47 171.199 L
306.988 162.225 L
307.248 162.815 L
307.766 214.124 L
308.025 191.697 L
308.543 263.031 L
308.802 241.099 L
309.321 197.102 L
309.58 179.233 L
310.098 176.139 L
310.358 175.158 L
310.876 177 L
311.135 171.901 L
311.653 162.348 L
311.912 159.878 L
312.431 127.999 L
312.69 121.808 L
313.208 113.197 L
313.468 125.527 L
313.727 131.792 L
313.986 124.502 L
314.245 139.939 L
314.763 159.168 L
315.022 160.189 L
315.541 161.939 L
315.8 162.661 L
316.318 171.702 L
316.578 196.354 L
317.096 223.839 L
317.355 246.211 L
317.873 269.186 L
318.132 254.06 L
318.392 220.732 L
318.651 220.791 L
318.91 233.526 L
319.428 183.074 L
319.688 181.454 L
320.206 179.192 L
320.465 178.682 L
320.724 180.703 L
320.983 179.62 L
321.242 171.838 L
321.761 158.416 L
322.02 161.782 L
322.798 131.298 L
323.057 125.551 L
323.575 109.228 L
323.834 132.267 L
324.093 123.306 L
324.352 127.541 L
324.612 155.085 L
325.13 161.127 L
325.389 162.246 L
325.908 163.778 L
326.167 164.235 L
326.685 164.735 L
326.944 165.07 L
327.203 192.694 L
327.462 177.149 L
327.722 168.203 L
328.24 167.888 L
328.499 167.873 L
329.018 167.745 L
329.277 167.606 L
329.795 120.401 L
330.054 119.049 L
330.313 115.477 L
330.572 138.828 L
330.832 158.158 L
331.35 160.544 L
331.609 161.538 L
332.128 162.975 L
332.387 163.309 L
332.905 174.653 L
333.164 178.264 L
333.423 176.111 L
333.682 190.547 L
333.942 183.224 L
334.46 168.891 L
334.719 173.668 L
335.237 196.345 L
335.497 171.83 L
336.015 170.623 L
336.274 170.427 L
336.793 170.214 L
337.052 170.042 L
337.57 189.507 L
337.829 215.562 L
338.088 203.827 L
338.348 224.882 L
338.607 237.672 L
338.866 240.178 L
339.125 236.597 L
339.384 222.86 L
340.162 182.529 L
340.421 180.684 L
340.939 179.308 L
341.198 178.523 L
341.717 140.18 L
341.976 131.951 L
342.235 152.411 L
342.494 141.233 L
342.753 167.623 L
343.272 170.954 L
343.531 171.176 L
343.79 171.066 L
344.049 171.115 L
344.308 170.996 L
344.827 171.403 L
345.086 171.434 L
345.604 183.234 L
345.863 204.703 L
346.123 203.215 L
346.382 211.222 L
346.641 195.076 L
346.9 195.929 L
347.159 184.735 L
347.418 186.835 L
347.937 177.238 L
348.196 176.463 L
348.714 175.631 L
348.973 175.371 L
349.492 174.87 L
349.751 174.987 L
350.01 175.046 L
350.269 174.961 L
350.528 180.975 L
350.787 187.534 L
351.047 182.463 L
351.306 175.968 L
351.824 188.445 L
352.083 199.489 L
352.602 178.182 L
352.861 177.193 L
353.379 176.552 L
353.638 176.408 L
354.157 175.898 L
354.416 175.869 L
354.934 183.082 L
355.193 194.801 L
355.712 176.816 L
355.971 176.374 L
356.489 176.013 L
356.748 175.845 L
357.526 177.446 L
357.785 175.561 L
358.044 175.176 L
358.303 175.349 L
358.563 178.204 L
358.822 190.213 L
359.081 185.376 L
359.34 203.612 L
359.599 211.87 L
359.858 180.187 L
360.117 178.771 L
360.636 140.12 L
360.895 171.703 L
361.413 174.15 L
361.673 173.714 L
361.932 186.826 L
362.191 177.097 L
362.45 175.599 L
362.709 175.391 L
362.968 176.631 L
363.227 175.82 L
363.746 175.275 L
364.005 174.049 L
364.523 175.064 L
364.783 174.812 L
365.301 173.626 L
365.56 183.854 L
366.078 194.5 L
366.337 184.106 L
366.597 175.765 L
366.856 184.534 L
367.115 196.422 L
367.374 191.464 L
367.633 225.762 L
367.893 248.7 L
368.411 288.453 L
368.67 265.847 L
369.188 191.802 L
369.447 189.499 L
369.966 186.523 L
370.225 185.467 L
370.743 186.965 L
371.003 184.938 L
371.521 168.888 L
371.78 163.755 L
372.298 142.581 L
372.557 137.729 L
373.076 134.625 L
373.335 128.257 L
373.594 125.099 L
373.853 133.81 L
374.113 127.494 L
374.89 166.419 L
375.149 167.506 L
375.667 174.148 L
375.927 170.185 L
376.445 182.316 L
376.704 176.156 L
376.963 194.591 L
377.223 178.38 L
377.482 197.818 L
377.741 194.034 L
378 247.564 L
378.259 206.431 L
378.777 179.721 L
379.037 178.224 L
379.296 177.568 L
379.555 178.175 L
379.814 178.268 L
380.073 177.693 L
380.333 179.631 L
380.592 178.133 L
381.11 176.495 L
381.369 175.801 L
381.628 175.506 L
381.887 175.655 L
382.147 187.648 L
382.665 177.261 L
382.924 177.286 L
383.443 231.948 L
383.702 208.18 L
384.22 192.167 L
384.479 192.971 L
384.738 202.735 L
384.997 198.303 L
385.257 256.37 L
385.516 286.215 L
385.775 265.072 L
386.034 215.657 L
386.553 189.257 L
386.812 187.794 L
387.33 185.686 L
387.589 184.884 L
388.107 183.55 L
388.367 182.961 L
388.885 181.924 L
389.144 181.458 L
389.663 180.606 L
389.922 180.229 L
390.44 179.522 L
390.699 179.202 L
391.217 178.622 L
391.477 178.354 L
392.254 177.638 L
392.513 177.426 L
393.032 177.037 L
393.291 176.859 L
393.809 176.532 L
394.068 176.373 L
394.328 176.224 L
394.587 176.611 L
394.846 179.083 L
395.105 179.169 L
395.364 177.682 L
395.623 166.577 L
396.141 147.1 L
396.401 134.751 L
396.919 122.299 L
397.179 124.446 L
397.437 124.29 L
397.697 124.456 L
397.956 147.522 L
398.215 130.034 L
398.474 161.867 L
398.733 164.661 L
399.252 166.601 L
399.511 167.761 L
400.029 195.929 L
400.288 175.973 L
400.807 245.078 L
401.066 251.166 L
401.325 202.632 L
401.584 231.642 L
401.843 268.114 L
402.103 278.957 L
402.361 245.626 L
402.621 246.694 L
403.139 212.73 L
403.398 197.732 L
403.917 188.676 L
404.176 189.294 L
404.694 188.587 L
404.953 188.604 L
405.472 184.482 L
405.731 183.873 L
406.249 182.83 L
406.508 182.372 L
407.027 181.536 L
407.286 182.689 L
407.545 184.018 L
407.804 183.878 L
408.063 183.721 L
408.581 171.872 L
408.841 169.754 L
409.359 173.68 L
409.618 158.398 L
410.137 132.478 L
410.396 147.791 L
410.655 172.365 L
411.173 174.65 L
411.432 174.719 L
411.692 174.433 L
411.951 174.52 L
412.21 174.357 L
412.469 174.26 L
412.728 177.602 L
412.988 187.019 L
413.247 177.872 L
413.506 188.726 L
413.765 177.984 L
414.024 177.784 L
414.283 177.81 L
414.543 177.732 L
415.061 177.781 L
415.32 177.885 L
415.839 178.119 L
416.097 178.218 L
416.357 178.293 L
416.616 178.27 L
416.875 179.162 L
417.134 178.558 L
417.393 191.054 L
417.652 203.693 L
418.171 190.277 L
418.43 247.333 L
418.689 228.505 L
418.948 265.257 L
419.208 231.429 L
419.726 249.353 L
419.985 203.461 L
420.503 189.511 L
420.763 188.352 L
421.281 186.679 L
421.54 186.013 L
422.059 184.871 L
422.317 184.381 L
422.836 183.469 L
423.095 183.062 L
423.613 182.327 L
423.872 181.998 L
424.391 181.395 L
424.65 182.885 L
424.909 184.078 L
425.168 181.903 L
425.428 174.591 L
425.946 156.839 L
426.205 137.568 L
426.464 123.063 L
426.723 144.438 L
426.983 181.991 L
427.76 283.382 L
428.019 291.879 L
428.537 230.158 L
428.797 192.795 L
429.315 189.244 L
429.574 188.204 L
430.092 186.727 L
430.352 186.132 L
430.87 185.131 L
431.129 184.686 L
431.648 183.899 L
431.907 184.112 L
432.166 186.354 L
432.425 186.234 L
432.684 186.109 L
433.203 177.095 L
433.462 173.617 L
433.98 181.589 L
434.239 191.754 L
434.757 182.153 L
435.017 182.442 L
435.535 175.115 L
435.794 173.205 L
436.312 142.792 L
436.572 137.299 L
437.09 175.871 L
437.349 177.135 L
437.868 182.331 L
438.127 179.479 L
438.386 178.667 L
438.645 178.798 L
438.904 179.286 L
439.423 180.063 L
439.682 180.034 L
440.2 197.497 L
440.459 211.521 L
440.977 184.959 L
441.237 182.789 L
441.755 229.743 L
442.014 242.629 L
442.273 230.412 L
442.532 239.787 L
442.792 214.352 L
443.31 188.486 L
443.569 187.486 L
444.088 186.121 L
444.347 185.606 L
445.124 184.347 L
445.383 183.995 L
445.902 183.363 L
446.161 184.397 L
446.42 186 L
446.679 185.933 L
446.938 185.845 L
447.457 185.672 L
447.716 185.584 L
448.234 185.431 L
448.493 185.352 L
449.012 180.334 L
449.271 178.422 L
449.789 181.082 L
450.048 180.972 L
450.567 182.172 L
450.826 175.587 L
451.344 151.297 L
451.603 130.036 L
452.122 142.344 L
452.381 173.167 L
452.899 174.791 L
453.158 175.467 L
453.677 177.448 L
453.936 200.766 L
454.195 203.74 L
454.454 181.964 L
454.713 180.946 L
455.232 180.778 L
455.491 180.791 L
455.75 180.152 L
456.009 180.156 L
456.268 180.058 L
456.787 180.011 L
457.046 192.242 L
457.564 181.821 L
457.823 181.696 L
458.342 181.314 L
458.601 154.696 L
459.119 179.053 L
459.378 179.61 L
459.897 260.241 L
460.156 304.706 L
460.415 312.876 L
460.674 305.426 L
460.933 278.03 L
461.452 199.8 L
461.711 197.467 L
462.488 193.479 L
462.748 192.587 L
463.266 191.104 L
463.525 190.459 L
464.043 189.313 L
464.302 188.798 L
464.821 187.878 L
465.08 187.458 L
465.598 186.7 L
465.857 186.366 L
466.376 185.74 L
466.635 185.457 L
467.153 184.942 L
467.413 184.71 L
467.931 184.273 L
468.19 184.08 L
468.708 186.868 L
468.968 186.465 L
469.486 173.479 L
469.745 173.293 L
470.263 168.111 L
470.522 145.154 L
471.041 174.32 L
471.3 145.872 L
471.818 178.7 L
472.077 179.999 L
472.596 195.191 L
472.855 205.523 L
473.114 215.997 L
473.373 208.87 L
473.633 200.761 L
474.151 193.827 L
474.41 193.379 L
474.928 252.912 L
475.188 254.164 L
475.706 190.541 L
475.965 189.354 L
476.484 187.87 L
476.742 187.366 L
477.261 191.494 L
477.52 191.402 L
478.038 191.209 L
478.297 191.11 L
478.816 190.923 L
479.075 190.845 L
479.853 187.457 L
480.112 187.267 L
480.63 186.937 L
480.889 186.792 L
481.408 186.544 L
481.667 186.424 L
482.185 186.21 L
482.444 186.12 L
482.962 185.951 L
483.222 185.867 L
483.74 185.725 L
483.999 185.656 L
484.517 185.53 L
484.777 185.476 L
485.295 185.373 L
485.554 185.317 L
486.073 185.233 L
486.332 185.189 L
486.85 185.119 L
487.109 185.084 L
487.628 185.016 L
487.887 184.982 L
488.405 184.927 L
488.664 184.892 L
489.182 184.847 L
489.442 184.809 L
489.96 184.785 L
490.219 184.755 L
490.737 184.716 L
490.997 184.697 L
491.515 184.666 L
491.774 184.645 L
492.293 184.604 L
492.552 184.598 L
493.07 184.576 L
493.329 184.554 L
493.848 184.532 L
494.107 184.521 L
494.625 184.492 L
494.884 184.49 L
495.402 184.46 L
495.662 184.452 L
496.18 184.436 L
496.439 184.426 L
497.217 184.405 L
497.476 184.394 L
497.994 184.381 L
498.253 184.378 L
498.772 184.359 L
499.031 184.352 L
499.549 184.35 L
499.808 184.338 L
500.326 184.331 L
500.586 184.328 L
501.104 184.317 L
501.364 184.309 L
501.882 184.303 L
502.141 184.304 L
502.659 184.288 L
502.918 184.285 L
503.437 184.276 L
503.696 184.278 L
504.214 184.266 L
504.473 184.266 L
504.992 184.259 L
505.251 184.251 L
505.51 184.247 L
505.769 184.252 L
506.028 184.251 L
506.288 184.243 L
506.546 184.245 L
506.806 184.246 L
507.324 184.236 L
507.584 184.227 L
507.842 184.232 L
508.102 184.229 L
508.361 184.219 L
508.879 184.224 L
509.138 184.222 L
509.657 184.219 L
509.916 184.222 L
510.175 184.216 L
510.434 184.219 L
510.693 184.213 L
510.953 184.216 L
511.212 184.21 L
511.471 184.208 L
511.989 184.206 L
512.248 184.209 L
512.766 184.193 L
513.026 184.199 L
513.285 184.203 L
513.544 184.199 L
513.804 184.201 L
514.322 184.191 L
514.581 184.193 L
514.84 184.189 L
515.358 184.185 L
515.617 184.191 L
515.877 184.193 L
516.136 184.189 L
516.395 184.187 L
516.654 184.183 L
516.913 184.187 L
517.173 184.189 L
517.691 184.181 L
517.95 184.185 L
518.468 184.179 L
518.728 184.183 L
519.246 184.182 L
519.505 184.178 L
520.023 184.177 L
520.282 184.172 L
520.801 184.175 L
521.06 184.174 L
521.319 184.178 L
521.578 184.177 L
521.837 184.172 L
522.097 184.178 L
522.356 184.176 L
522.615 184.172 L
523.133 184.166 L
523.393 184.174 L
523.652 184.17 L
523.911 184.172 L
524.17 184.175 L
524.429 184.165 L
524.688 184.169 L
524.948 184.169 L
525.206 184.173 L
525.466 184.172 L
525.725 184.168 L
526.244 184.162 L
526.502 184.166 L
527.021 184.174 L
527.28 184.166 L
527.539 184.169 L
527.798 184.16 L
528.057 184.164 L
528.317 184.164 L
528.576 184.169 L
528.835 184.164 L
529.353 184.158 L
529.613 184.157 L
529.872 184.162 L
530.131 184.161 L
530.39 184.166 L
530.649 184.166 L
530.908 184.162 L
531.168 184.157 L
531.686 184.155 L
531.945 184.159 L
532.204 184.159 L
532.464 184.147 L
532.722 184.156 L
532.982 184.158 L
533.241 184.154 L
533.5 184.157 L
533.556 184.155 L
S
GR
GS
[1.00088 0 0 0.9996 0 0.14755] CT
0.851 0.325 0.098 RC
[12 12] 0 setdash
2 LJ
3.15 LW
N
66.944 143.433 M
67.132 143.433 L
67.394 143.606 L
67.657 143.433 L
67.92 143.433 L
68.446 143.433 L
68.708 143.261 L
68.971 143.433 L
69.234 143.433 L
69.497 143.433 L
70.022 143.261 L
70.285 143.261 L
70.548 143.433 L
70.811 143.433 L
71.074 143.261 L
71.599 143.261 L
71.862 143.261 L
72.388 143.433 L
72.65 143.433 L
73.176 143.261 L
73.439 143.261 L
73.964 143.261 L
74.227 143.433 L
74.753 143.261 L
75.015 143.089 L
75.541 143.433 L
75.804 143.261 L
76.067 143.089 L
76.329 143.433 L
76.592 143.261 L
77.118 143.433 L
77.381 143.433 L
77.643 143.089 L
77.906 143.089 L
78.169 143.089 L
78.432 143.261 L
78.695 143.261 L
78.957 143.089 L
79.22 143.261 L
79.483 143.089 L
79.746 143.261 L
80.009 143.089 L
80.271 143.261 L
80.534 143.089 L
81.06 143.261 L
81.322 143.261 L
81.848 143.261 L
82.111 143.089 L
82.636 143.261 L
82.899 143.089 L
83.162 143.261 L
83.425 143.089 L
83.688 143.089 L
83.95 142.916 L
84.213 143.089 L
84.476 142.916 L
84.739 143.261 L
85.002 143.089 L
85.264 143.089 L
85.79 143.089 L
86.053 142.916 L
86.316 143.089 L
86.578 143.089 L
86.841 143.089 L
87.104 142.916 L
87.367 142.916 L
87.63 143.261 L
87.892 142.916 L
88.155 142.916 L
88.418 143.089 L
88.944 142.916 L
89.206 143.089 L
89.469 142.916 L
89.732 142.916 L
89.995 143.089 L
90.257 142.916 L
90.52 142.916 L
90.783 142.916 L
91.046 142.744 L
91.309 143.089 L
91.571 142.916 L
92.097 142.916 L
92.36 142.916 L
92.885 142.916 L
93.148 142.744 L
93.411 143.089 L
93.674 142.916 L
93.937 143.089 L
94.199 142.916 L
94.462 142.916 L
94.725 142.744 L
94.988 142.916 L
95.251 142.916 L
95.513 142.916 L
96.039 142.916 L
96.302 142.916 L
96.827 142.916 L
97.09 142.744 L
97.353 142.916 L
97.616 142.916 L
97.878 142.916 L
98.404 142.744 L
98.667 142.916 L
99.192 142.916 L
99.455 142.744 L
99.981 142.916 L
100.244 142.916 L
100.769 142.916 L
101.032 142.916 L
101.558 142.744 L
101.82 142.916 L
102.083 142.744 L
102.346 142.916 L
102.609 142.744 L
102.871 142.916 L
103.134 142.916 L
103.397 142.571 L
103.66 142.916 L
103.923 142.916 L
104.185 142.744 L
104.711 142.744 L
104.974 142.744 L
105.499 142.916 L
105.762 142.744 L
106.288 142.744 L
106.551 142.744 L
107.076 142.571 L
107.339 142.744 L
107.864 142.744 L
108.127 142.744 L
108.39 142.571 L
108.916 142.744 L
109.178 142.916 L
109.704 142.571 L
109.967 142.571 L
110.492 142.744 L
110.755 142.744 L
111.281 142.744 L
111.543 142.744 L
111.806 142.571 L
112.069 142.571 L
112.332 142.916 L
112.595 142.571 L
112.857 142.571 L
113.12 142.571 L
113.646 142.744 L
113.909 142.744 L
114.434 142.571 L
114.697 142.571 L
114.96 142.744 L
115.223 142.744 L
115.485 142.571 L
116.011 142.744 L
116.274 142.744 L
116.799 142.399 L
117.062 142.571 L
117.588 142.571 L
117.85 142.571 L
118.376 142.571 L
118.639 142.571 L
118.902 142.744 L
119.164 142.399 L
119.427 142.571 L
119.69 142.399 L
119.953 142.571 L
120.216 142.571 L
120.741 142.744 L
121.004 142.399 L
121.267 142.571 L
121.497 142.399 L
121.765 140.846 L
122.027 140.674 L
122.29 140.674 L
122.553 140.329 L
122.816 140.156 L
123.079 140.329 L
123.341 139.984 L
123.867 139.984 L
124.13 139.811 L
124.393 139.984 L
124.655 139.639 L
124.918 139.639 L
125.444 139.639 L
125.707 139.467 L
126.232 139.122 L
126.495 139.122 L
127.02 142.744 L
127.283 142.571 L
127.809 138.087 L
128.072 131.188 L
128.597 117.907 L
128.86 136.707 L
129.123 138.259 L
129.386 86.861 L
129.648 96.52 L
130.174 134.465 L
130.437 147.918 L
130.962 172.41 L
131.225 164.993 L
131.751 236.571 L
132.014 208.112 L
132.276 146.883 L
132.539 171.547 L
132.802 152.057 L
133.327 119.804 L
133.59 104.109 L
134.116 93.07 L
134.379 138.087 L
134.904 141.536 L
135.167 165.855 L
135.43 224.67 L
135.693 205.008 L
135.955 174.824 L
136.481 111.87 L
136.744 99.797 L
137.269 91.69 L
137.532 95.313 L
138.058 137.224 L
138.32 152.747 L
138.846 141.364 L
139.109 140.674 L
139.634 140.846 L
139.897 141.019 L
140.16 141.191 L
140.423 140.501 L
140.686 155.507 L
140.948 142.226 L
141.211 165.165 L
141.474 145.503 L
141.999 143.779 L
142.262 143.779 L
142.525 145.331 L
142.788 143.951 L
143.051 143.433 L
143.576 101.522 L
143.839 103.419 L
144.365 136.88 L
144.627 137.569 L
145.153 138.432 L
145.416 138.949 L
145.678 139.294 L
145.941 139.294 L
146.204 139.122 L
146.467 138.949 L
146.73 148.78 L
146.992 164.648 L
147.518 143.089 L
147.781 142.226 L
148.044 142.054 L
148.306 142.054 L
148.569 142.054 L
149.095 166.028 L
149.358 181.723 L
149.883 146.021 L
150.146 145.503 L
150.409 144.986 L
150.672 144.986 L
150.934 144.813 L
151.46 145.158 L
151.723 168.788 L
152.248 269.514 L
152.511 274.861 L
152.774 279.345 L
153.037 273.136 L
153.299 236.916 L
153.825 182.758 L
154.088 175.859 L
154.613 166.89 L
154.876 165.855 L
155.402 164.131 L
155.665 163.441 L
156.19 162.406 L
156.453 161.544 L
156.979 160.681 L
157.241 160.336 L
157.767 159.646 L
158.03 159.129 L
158.555 158.612 L
158.818 157.922 L
159.344 157.404 L
159.606 157.232 L
160.132 156.369 L
160.395 156.369 L
160.92 155.679 L
161.183 155.507 L
161.709 154.989 L
161.972 154.817 L
162.497 154.472 L
162.76 154.299 L
163.023 153.955 L
163.286 153.955 L
163.548 153.955 L
163.811 153.437 L
164.074 156.887 L
164.337 156.542 L
164.862 148.09 L
165.125 140.846 L
165.651 124.288 L
165.914 96.175 L
166.176 90.483 L
166.439 118.769 L
166.702 114.285 L
166.965 186.553 L
167.228 183.448 L
167.49 165.338 L
167.753 149.47 L
168.016 164.303 L
168.279 151.885 L
168.804 109.283 L
169.067 191.037 L
169.33 259.338 L
169.593 183.448 L
169.855 273.136 L
170.381 189.485 L
170.644 165.511 L
171.169 124.806 L
171.432 106.869 L
171.695 95.83 L
171.958 106.869 L
172.221 78.755 L
172.746 65.129 L
173.009 56.16 L
173.272 42.535 L
173.535 45.812 L
173.797 69.096 L
174.323 49.951 L
174.586 60.817 L
175.111 78.927 L
175.374 119.977 L
175.9 123.599 L
176.162 124.634 L
176.688 125.841 L
176.951 126.876 L
177.476 127.738 L
177.739 128.255 L
178.265 128.773 L
178.528 129.118 L
179.053 129.98 L
179.316 130.325 L
179.842 130.843 L
180.104 69.441 L
180.367 64.267 L
180.63 70.476 L
180.893 119.287 L
181.418 124.288 L
181.681 125.151 L
182.207 126.013 L
182.469 126.531 L
182.995 127.221 L
183.258 127.566 L
183.783 128.255 L
184.046 128.601 L
184.572 129.463 L
184.835 129.808 L
185.36 130.153 L
185.623 130.153 L
186.148 130.843 L
186.411 131.188 L
186.937 159.819 L
187.2 134.465 L
187.725 133.775 L
187.988 133.947 L
188.514 133.775 L
188.776 133.947 L
189.302 133.947 L
189.565 134.465 L
189.828 134.637 L
190.09 134.637 L
190.353 134.982 L
190.616 135.154 L
190.879 134.81 L
191.141 135.154 L
191.667 135.327 L
191.93 135.327 L
192.193 135.154 L
192.455 135.154 L
192.718 135.154 L
193.244 135.154 L
193.507 135.327 L
194.032 68.061 L
194.295 74.615 L
194.821 128.428 L
195.083 129.463 L
195.609 134.292 L
195.872 162.923 L
196.134 144.813 L
196.397 181.033 L
196.66 169.995 L
197.186 138.432 L
197.448 167.753 L
197.974 140.156 L
198.237 139.811 L
198.762 139.294 L
199.025 139.294 L
199.288 139.122 L
199.551 139.294 L
199.814 140.156 L
200.339 159.819 L
200.602 189.485 L
200.865 185.863 L
201.128 202.421 L
201.39 205.87 L
201.653 197.074 L
201.916 209.492 L
202.179 261.235 L
202.442 239.503 L
202.704 265.547 L
202.967 233.466 L
203.493 196.212 L
203.756 185.518 L
204.018 169.478 L
204.281 191.037 L
204.544 191.899 L
205.069 282.45 L
205.332 291.936 L
205.858 185.69 L
206.121 207.25 L
206.383 209.147 L
206.646 208.285 L
206.909 229.672 L
207.435 185.518 L
207.697 184.483 L
208.223 172.237 L
208.486 171.72 L
209.011 169.822 L
209.274 169.305 L
209.8 167.753 L
210.063 167.235 L
210.588 166.201 L
210.851 165.683 L
211.376 164.993 L
211.639 168.098 L
212.165 166.89 L
212.428 166.201 L
212.953 148.09 L
213.216 135.327 L
213.742 99.969 L
214.004 109.628 L
214.267 102.556 L
214.53 126.876 L
214.793 105.316 L
215.056 93.76 L
215.318 107.213 L
215.581 105.833 L
216.107 145.503 L
216.37 100.659 L
216.895 142.744 L
217.158 143.951 L
217.684 144.986 L
217.946 144.813 L
218.472 145.676 L
218.735 146.193 L
219.26 146.538 L
219.523 146.71 L
219.786 146.883 L
220.049 146.71 L
220.311 147.228 L
220.837 152.402 L
221.1 160.336 L
221.625 188.967 L
221.888 263.477 L
222.414 282.967 L
222.677 284.865 L
223.202 273.309 L
223.465 266.064 L
223.728 214.149 L
223.991 241.745 L
224.253 191.21 L
224.779 176.721 L
225.042 175.342 L
225.567 173.272 L
225.83 172.41 L
226.093 175.169 L
226.356 174.307 L
226.618 173.962 L
227.144 158.266 L
227.407 151.195 L
227.932 101.694 L
228.195 97.9 L
228.458 145.503 L
228.721 110.663 L
228.984 110.835 L
229.509 154.472 L
229.772 156.197 L
230.298 168.788 L
230.56 183.276 L
230.823 166.373 L
231.086 275.896 L
231.349 285.727 L
231.611 291.074 L
231.874 279.173 L
232.137 243.298 L
232.663 190.175 L
232.925 182.931 L
233.451 174.652 L
233.714 173.962 L
234.239 172.582 L
234.502 171.892 L
235.028 170.857 L
235.29 170.34 L
235.816 169.478 L
236.079 168.96 L
236.604 168.443 L
236.867 168.098 L
237.393 167.408 L
237.656 170.685 L
238.181 169.822 L
238.444 161.544 L
238.97 147.746 L
239.232 137.742 L
239.758 84.446 L
240.021 130.153 L
240.546 91.518 L
240.809 95.83 L
241.072 111.698 L
241.335 99.624 L
241.597 146.71 L
242.123 149.988 L
242.386 151.195 L
242.911 152.057 L
243.174 152.575 L
243.437 153.265 L
243.7 153.092 L
243.963 153.265 L
244.225 158.784 L
244.488 154.645 L
244.751 154.645 L
245.276 154.817 L
245.539 154.989 L
246.065 155.162 L
246.328 155.162 L
246.853 155.507 L
247.116 155.507 L
247.642 156.024 L
247.904 156.024 L
248.167 156.197 L
248.43 156.024 L
248.693 156.197 L
248.956 156.542 L
249.218 156.542 L
249.481 180.171 L
250.007 260.545 L
250.27 271.411 L
250.795 295.731 L
251.058 285.899 L
251.321 295.041 L
251.584 255.888 L
251.846 245.54 L
252.372 182.241 L
252.635 180.344 L
253.16 178.619 L
253.423 177.584 L
253.949 176.377 L
254.211 178.446 L
254.737 177.929 L
255 176.721 L
255.525 171.202 L
255.788 171.892 L
256.314 165.338 L
256.577 158.439 L
257.102 134.12 L
257.365 132.567 L
257.891 127.911 L
258.153 124.461 L
258.416 124.288 L
258.679 158.612 L
258.942 160.164 L
259.205 175.169 L
259.467 163.441 L
259.73 163.613 L
259.993 163.786 L
260.256 163.786 L
260.519 163.786 L
260.781 163.613 L
261.044 163.613 L
261.307 163.613 L
261.832 178.619 L
262.095 166.201 L
262.621 165.511 L
262.884 195.866 L
263.146 193.107 L
263.409 285.554 L
263.672 285.554 L
263.935 248.644 L
264.198 251.231 L
264.46 181.033 L
264.986 177.239 L
265.249 176.204 L
265.774 174.652 L
266.037 174.134 L
266.563 173.272 L
266.826 172.582 L
267.351 172.237 L
267.614 171.72 L
268.14 171.202 L
268.402 170.857 L
268.928 170.34 L
269.191 170.167 L
269.453 173.1 L
269.716 172.754 L
269.979 164.131 L
270.242 157.404 L
270.505 157.922 L
270.767 160.336 L
271.03 138.777 L
271.293 167.58 L
271.556 168.615 L
271.819 168.27 L
272.081 168.443 L
272.344 168.615 L
272.607 186.898 L
272.87 171.202 L
273.133 174.307 L
273.658 169.65 L
273.921 169.65 L
274.184 181.378 L
274.447 171.03 L
274.709 170.34 L
275.235 169.65 L
275.498 169.305 L
275.76 140.156 L
276.023 165.855 L
276.286 134.292 L
276.812 165.511 L
277.074 166.545 L
277.337 166.201 L
277.6 166.201 L
277.863 166.201 L
278.388 167.063 L
278.651 167.063 L
279.177 165.683 L
279.44 119.287 L
279.702 146.538 L
279.965 134.982 L
280.228 161.888 L
280.753 281.76 L
281.016 289.349 L
281.542 249.679 L
281.805 251.231 L
282.33 180.516 L
282.593 178.964 L
283.119 177.239 L
283.381 176.377 L
283.907 175.514 L
284.17 175.169 L
284.695 174.307 L
284.958 174.134 L
285.484 173.272 L
285.746 172.927 L
286.272 172.582 L
286.535 172.237 L
287.06 171.72 L
287.323 171.375 L
287.586 171.202 L
287.849 171.202 L
288.112 171.03 L
288.637 170.512 L
288.9 170.167 L
289.426 173.272 L
289.688 173.272 L
290.214 162.751 L
290.477 161.888 L
291.002 156.024 L
291.265 154.989 L
291.791 125.151 L
292.053 122.909 L
292.316 118.252 L
292.579 143.606 L
292.842 159.819 L
293.367 162.061 L
293.63 162.751 L
294.156 163.096 L
294.419 163.613 L
294.944 187.07 L
295.207 190.175 L
295.733 252.784 L
295.995 278.483 L
296.521 228.12 L
296.784 227.602 L
297.046 232.086 L
297.309 182.931 L
297.572 180.516 L
298.098 178.446 L
298.36 177.584 L
298.886 176.721 L
299.149 176.204 L
299.674 175.342 L
299.937 174.997 L
300.2 174.652 L
300.463 174.652 L
300.726 174.134 L
301.251 173.617 L
301.514 173.272 L
301.777 176.204 L
302.04 176.032 L
302.302 176.032 L
302.828 169.133 L
303.091 165.683 L
303.354 163.958 L
303.616 164.303 L
303.879 161.199 L
304.405 172.927 L
304.667 173.1 L
304.93 134.982 L
305.193 136.017 L
305.456 134.81 L
305.719 125.496 L
305.982 126.186 L
306.244 163.958 L
306.507 178.101 L
306.77 166.545 L
307.033 166.028 L
307.558 170.512 L
307.821 230.017 L
308.084 183.62 L
308.347 257.786 L
308.609 266.754 L
308.872 232.259 L
309.135 236.571 L
309.398 179.999 L
309.923 177.584 L
310.186 176.894 L
310.449 176.204 L
310.712 178.791 L
310.975 178.964 L
311.5 165.338 L
311.763 165.511 L
312.288 134.81 L
312.551 131.878 L
313.077 121.012 L
313.34 118.942 L
313.602 145.331 L
313.865 129.808 L
314.128 132.567 L
314.654 163.096 L
314.916 163.786 L
315.442 164.821 L
315.705 165.511 L
316.23 165.855 L
316.493 190.002 L
317.019 215.356 L
317.282 243.988 L
317.807 268.479 L
318.07 261.753 L
318.596 213.114 L
318.858 243.298 L
319.384 182.931 L
319.647 182.068 L
320.172 180.516 L
320.435 179.654 L
320.698 182.413 L
320.961 182.241 L
321.223 174.479 L
321.749 161.026 L
322.012 165.338 L
322.8 135.672 L
323.063 130.498 L
323.589 114.457 L
323.851 140.156 L
324.114 128.773 L
324.377 134.292 L
324.64 164.131 L
325.165 165.855 L
325.428 166.373 L
325.954 167.235 L
326.216 167.58 L
326.479 167.408 L
326.742 167.58 L
327.005 167.753 L
327.268 204.49 L
327.53 170.34 L
327.793 169.995 L
328.319 169.822 L
328.582 169.822 L
328.844 169.65 L
329.107 169.65 L
329.37 169.478 L
329.633 124.634 L
329.896 125.668 L
330.158 122.736 L
330.421 119.287 L
330.684 159.991 L
330.947 162.061 L
331.472 163.268 L
331.735 164.131 L
332.261 164.821 L
332.523 164.993 L
333.049 187.588 L
333.312 167.58 L
333.837 192.072 L
334.1 170.34 L
334.626 169.133 L
334.888 182.931 L
335.151 207.595 L
335.414 172.582 L
335.677 171.72 L
336.202 171.03 L
336.465 171.202 L
336.991 170.857 L
337.254 171.03 L
337.779 219.151 L
338.042 199.833 L
338.568 236.053 L
338.83 238.813 L
339.356 222.6 L
339.619 209.32 L
340.144 182.241 L
340.407 181.033 L
340.933 179.999 L
341.195 179.826 L
341.721 141.364 L
341.984 134.465 L
342.247 156.542 L
342.509 144.123 L
342.772 172.927 L
343.298 173.962 L
343.561 173.962 L
344.086 173.79 L
344.349 173.79 L
344.875 174.134 L
345.137 173.962 L
345.663 189.312 L
345.926 213.114 L
346.189 202.938 L
346.451 216.909 L
346.714 188.795 L
346.977 201.386 L
347.24 179.826 L
347.502 192.934 L
348.028 179.136 L
348.291 178.619 L
348.816 178.101 L
349.079 177.929 L
349.342 177.756 L
349.605 177.756 L
349.868 177.756 L
350.13 177.929 L
350.393 177.756 L
350.656 188.967 L
350.919 190.692 L
351.182 179.309 L
351.444 178.791 L
351.97 192.072 L
352.233 214.321 L
352.758 180.344 L
353.021 179.826 L
353.284 179.481 L
353.547 179.481 L
353.81 179.481 L
354.072 179.136 L
354.335 179.136 L
354.598 179.309 L
355.123 202.938 L
355.386 182.241 L
355.912 179.654 L
356.175 179.481 L
356.7 179.309 L
356.963 179.136 L
357.489 181.206 L
357.751 178.964 L
358.277 178.446 L
358.54 180.689 L
358.803 193.969 L
359.065 187.588 L
359.328 206.043 L
359.591 215.529 L
359.854 183.103 L
360.117 181.723 L
360.642 142.744 L
360.905 176.549 L
361.431 177.756 L
361.693 177.239 L
361.956 191.727 L
362.219 179.481 L
362.482 178.791 L
363.007 180.171 L
363.27 178.964 L
363.796 178.619 L
364.058 177.239 L
364.321 178.619 L
364.584 178.619 L
364.847 178.274 L
365.372 176.894 L
365.635 191.727 L
365.898 188.622 L
366.161 200.006 L
366.424 180.689 L
366.686 178.619 L
366.949 192.072 L
367.212 202.248 L
367.475 189.312 L
367.738 250.542 L
368 246.402 L
368.263 292.454 L
368.526 281.415 L
368.789 251.059 L
369.314 191.037 L
369.577 189.312 L
370.103 187.243 L
370.366 186.725 L
370.628 189.14 L
370.891 188.277 L
371.154 184.828 L
371.679 167.753 L
371.942 165.511 L
372.468 143.089 L
372.731 142.054 L
373.256 137.569 L
373.519 127.048 L
373.782 143.089 L
374.044 132.395 L
374.307 139.122 L
374.833 171.202 L
375.096 171.892 L
375.621 178.964 L
375.884 173.79 L
376.41 186.898 L
376.672 176.549 L
376.935 199.488 L
377.198 178.964 L
377.461 200.696 L
377.724 192.072 L
377.986 251.059 L
378.249 208.63 L
378.775 181.206 L
379.038 180.344 L
379.3 179.481 L
379.563 180.344 L
379.826 180.689 L
380.089 180.171 L
380.351 182.241 L
380.614 180.516 L
381.14 178.964 L
381.403 178.274 L
381.928 178.274 L
382.191 193.107 L
382.716 179.654 L
382.979 179.826 L
383.505 244.332 L
383.768 198.799 L
384.03 208.112 L
384.293 188.622 L
384.556 197.764 L
384.819 208.285 L
385.082 197.074 L
385.344 282.45 L
385.607 283.485 L
385.87 253.819 L
386.133 196.039 L
386.658 190.347 L
386.921 189.14 L
387.447 187.588 L
387.71 187.07 L
388.235 186.208 L
388.498 185.69 L
389.023 185 L
389.286 184.656 L
389.812 183.966 L
390.075 183.62 L
390.6 183.276 L
390.863 182.758 L
391.389 182.413 L
391.651 182.241 L
392.177 181.723 L
392.44 181.551 L
392.965 181.206 L
393.228 180.861 L
393.754 180.689 L
394.017 180.689 L
394.542 180.344 L
394.805 183.103 L
395.068 183.276 L
395.33 183.103 L
395.593 171.547 L
396.119 153.092 L
396.382 140.329 L
396.907 128.601 L
397.17 130.843 L
397.696 131.188 L
397.958 154.645 L
398.221 136.362 L
398.484 169.305 L
398.747 170.34 L
399.273 171.547 L
399.535 172.41 L
400.061 200.006 L
400.323 175.859 L
400.849 252.784 L
401.112 252.956 L
401.375 192.072 L
401.638 243.298 L
401.901 276.586 L
402.163 280.725 L
402.426 233.984 L
402.689 251.059 L
402.951 211.389 L
403.214 212.769 L
403.477 191.382 L
404.003 189.14 L
404.266 190.865 L
404.528 189.83 L
404.791 190.52 L
405.054 190.347 L
405.579 186.553 L
405.842 186.38 L
406.368 185.69 L
406.631 185.173 L
407.156 184.828 L
407.419 187.415 L
407.682 187.243 L
407.944 187.243 L
408.207 187.415 L
408.733 173.272 L
408.996 174.997 L
409.259 179.481 L
409.522 175.514 L
409.784 142.399 L
410.047 136.707 L
410.31 142.226 L
410.572 176.721 L
411.098 179.136 L
411.361 179.309 L
411.624 178.791 L
411.887 178.791 L
412.149 178.619 L
412.412 178.274 L
412.675 178.274 L
412.938 193.452 L
413.2 178.964 L
413.463 194.314 L
413.726 181.378 L
413.989 181.033 L
414.252 181.033 L
414.514 181.206 L
414.777 181.033 L
415.04 181.206 L
415.303 181.378 L
415.828 181.551 L
416.091 181.551 L
416.354 181.378 L
416.617 181.551 L
416.88 182.413 L
417.142 181.551 L
417.405 194.659 L
417.668 207.595 L
418.193 192.244 L
418.456 256.061 L
418.719 227.43 L
418.982 273.136 L
419.245 226.222 L
419.77 252.266 L
420.033 193.452 L
420.559 190.692 L
420.821 190.002 L
421.347 188.967 L
421.61 188.45 L
422.135 187.588 L
422.398 187.415 L
422.924 186.725 L
423.186 186.38 L
423.712 186.035 L
423.975 185.69 L
424.5 185 L
424.763 187.76 L
425.026 187.933 L
425.289 184.138 L
425.552 174.307 L
426.077 156.197 L
426.34 131.015 L
426.603 129.29 L
426.866 175.514 L
427.128 200.006 L
427.654 273.653 L
427.917 298.145 L
428.442 252.266 L
428.705 196.556 L
429.231 192.072 L
429.493 191.382 L
430.019 190.002 L
430.282 189.485 L
430.807 188.967 L
431.07 188.45 L
431.596 187.588 L
431.859 187.415 L
432.121 190.347 L
432.384 190.175 L
432.647 190.175 L
433.173 181.723 L
433.435 177.411 L
433.961 185 L
434.224 196.384 L
434.749 186.208 L
435.012 186.898 L
435.538 179.309 L
435.801 177.584 L
436.063 147.4 L
436.326 147.918 L
436.589 142.399 L
437.114 181.378 L
437.377 182.413 L
437.903 187.07 L
438.166 183.448 L
438.428 182.931 L
438.691 183.103 L
438.954 183.62 L
439.479 184.138 L
439.742 183.966 L
440.268 207.595 L
440.531 218.288 L
441.056 186.38 L
441.319 185.863 L
441.844 242.608 L
442.107 242.952 L
442.37 225.533 L
442.633 249.852 L
442.896 195.176 L
443.422 191.037 L
443.684 190.175 L
444.21 189.14 L
444.472 188.967 L
444.998 188.105 L
445.261 187.933 L
445.787 187.243 L
446.05 187.07 L
446.312 189.83 L
446.575 189.83 L
446.838 189.83 L
447.363 189.657 L
447.626 189.657 L
448.152 189.657 L
448.415 189.485 L
448.94 185.345 L
449.203 182.413 L
449.728 185.518 L
449.991 185.173 L
450.517 187.76 L
450.78 181.378 L
451.305 159.991 L
451.568 135.327 L
452.093 144.813 L
452.356 178.619 L
452.619 179.654 L
452.882 179.654 L
453.145 180.171 L
453.671 181.206 L
453.933 204.663 L
454.196 207.422 L
454.459 185 L
454.721 184.31 L
454.984 184.138 L
455.247 184.31 L
455.51 184.483 L
455.773 183.276 L
456.036 183.448 L
456.298 183.448 L
456.824 183.276 L
457.087 197.936 L
457.349 185 L
457.612 185 L
457.875 184.828 L
458.138 185 L
458.401 184.138 L
458.664 149.47 L
459.189 182.586 L
459.452 183.103 L
459.977 289.866 L
460.24 307.114 L
460.503 313.151 L
460.766 299.697 L
461.029 266.41 L
461.554 200.696 L
461.817 198.799 L
462.342 196.384 L
462.605 195.694 L
463.131 194.314 L
463.394 193.969 L
463.919 192.934 L
464.182 192.589 L
464.707 191.899 L
464.97 191.727 L
465.233 191.21 L
465.496 191.21 L
465.759 190.692 L
466.284 190.002 L
466.547 190.002 L
467.073 189.485 L
467.335 189.14 L
467.861 188.795 L
468.124 188.622 L
468.387 188.45 L
468.65 191.382 L
468.912 191.555 L
469.438 178.274 L
469.701 178.101 L
470.226 176.721 L
470.489 150.85 L
470.752 149.988 L
471.015 183.103 L
471.277 148.953 L
471.803 183.793 L
472.066 184.483 L
472.591 199.144 L
472.854 209.665 L
473.117 220.013 L
473.38 212.252 L
473.642 203.973 L
474.168 197.074 L
474.431 196.901 L
474.956 263.65 L
475.219 256.406 L
475.745 192.934 L
476.008 191.899 L
476.533 191.037 L
476.796 190.865 L
477.059 195.176 L
477.322 195.176 L
477.584 195.176 L
477.847 195.004 L
478.11 195.176 L
478.373 195.004 L
478.898 194.832 L
479.161 194.832 L
479.687 191.727 L
479.95 191.727 L
480.475 191.21 L
480.738 191.21 L
481.001 191.037 L
481.263 191.037 L
481.526 190.692 L
481.789 190.865 L
482.052 190.52 L
482.315 190.52 L
482.578 190.347 L
482.84 190.52 L
483.103 190.175 L
483.628 190.175 L
483.891 190.002 L
484.417 189.83 L
484.68 189.83 L
485.205 189.83 L
485.468 189.657 L
485.731 189.485 L
485.993 189.485 L
486.256 189.485 L
486.519 189.312 L
486.782 189.312 L
487.045 189.485 L
487.571 189.14 L
487.833 189.14 L
488.359 189.14 L
488.621 188.967 L
488.884 189.14 L
489.147 189.14 L
489.41 188.795 L
489.673 188.967 L
489.936 188.967 L
490.198 188.795 L
490.724 188.795 L
490.987 188.622 L
491.512 188.622 L
491.775 188.622 L
492.038 188.45 L
492.301 188.45 L
492.564 188.45 L
492.826 188.622 L
493.089 188.45 L
493.352 188.277 L
493.877 188.45 L
494.14 188.277 L
494.403 188.622 L
494.666 188.277 L
494.929 188.45 L
495.454 188.105 L
495.717 188.277 L
495.98 188.105 L
496.242 188.105 L
496.505 188.105 L
497.031 188.277 L
497.294 188.105 L
497.819 187.933 L
498.082 188.105 L
498.608 188.105 L
498.87 188.105 L
499.133 188.277 L
499.396 187.933 L
499.659 187.933 L
499.922 188.105 L
500.185 187.933 L
500.447 187.933 L
500.973 187.76 L
501.236 187.76 L
501.498 187.933 L
501.761 187.76 L
502.024 187.933 L
502.287 187.76 L
502.55 187.76 L
502.813 187.76 L
503.338 187.76 L
503.601 187.76 L
504.126 187.588 L
504.389 187.76 L
504.915 187.76 L
505.178 187.588 L
505.44 187.76 L
505.703 187.76 L
505.966 187.76 L
506.491 187.588 L
506.754 187.76 L
507.017 187.588 L
507.28 187.76 L
507.543 187.76 L
507.806 187.588 L
508.068 187.76 L
508.331 187.588 L
508.856 187.588 L
509.119 187.588 L
509.645 187.415 L
509.908 187.415 L
510.171 187.588 L
510.433 187.588 L
510.696 187.415 L
511.222 187.588 L
511.484 187.243 L
511.747 187.415 L
512.01 187.415 L
512.273 187.588 L
512.536 187.415 L
512.799 187.415 L
513.061 187.588 L
513.324 187.415 L
513.587 187.588 L
513.85 187.588 L
514.112 187.243 L
514.375 187.243 L
514.638 187.243 L
515.164 187.415 L
515.426 187.588 L
515.689 187.415 L
515.952 187.415 L
516.215 187.415 L
516.477 187.243 L
516.74 187.415 L
517.003 187.415 L
517.266 187.243 L
517.529 187.243 L
517.792 187.243 L
518.054 187.07 L
518.317 187.243 L
518.58 187.07 L
518.843 187.415 L
519.105 187.415 L
519.368 187.415 L
519.631 187.07 L
519.894 187.07 L
520.157 187.243 L
520.419 187.07 L
520.682 187.07 L
520.945 187.243 L
521.471 187.243 L
521.733 187.415 L
522.259 187.07 L
522.522 187.07 L
523.047 187.07 L
523.31 187.243 L
523.836 187.07 L
524.099 187.07 L
524.361 187.243 L
524.624 187.243 L
524.887 187.07 L
525.15 187.243 L
525.412 187.243 L
525.675 187.07 L
525.938 187.243 L
526.201 187.07 L
526.464 187.07 L
526.989 187.243 L
527.252 187.07 L
527.515 187.243 L
527.777 187.07 L
528.04 187.07 L
528.566 187.243 L
528.829 187.07 L
529.092 186.898 L
529.354 187.07 L
529.617 186.898 L
530.143 186.898 L
530.405 186.898 L
530.931 186.898 L
531.194 186.898 L
531.457 187.07 L
531.72 186.898 L
531.982 186.898 L
532.245 187.07 L
532.508 186.898 L
532.77 187.07 L
533.296 186.725 L
533.556 186.896 L
S
GR
GS
[1.00088 0 0 0.9996 0 0.14755] CT
1 GC
N
525.5 81 M
525.5 37.5 L
415 37.5 L
415 81 L
cp
f
GR
GS
[1.00088 0 0 0.9996 452.39954 49.37791] CT
/Times-Roman 17.325 F
GS
[1 0 0 1 0 0] CT
0 6 moveto 
1 -1 scale
(Estimated) t 
GR
GR
GS
[1.00088 0 0 0.9996 0 0.14755] CT
0 0.447 0.741 RC
1 LJ
3.15 LW
N
419 49.25 M
449 49.25 L
S
GR
GS
[1.00088 0 0 0.9996 452.39954 69.36994] CT
/Times-Roman 17.325 F
GS
[1 0 0 1 0 0] CT
0 6 moveto 
1 -1 scale
(Truth) t 
GR
GR
GS
[1.00088 0 0 0.9996 0 0.14755] CT
0.851 0.325 0.098 RC
[12 12] 0 setdash
2 LJ
3.15 LW
N
419 69.25 M
449 69.25 L
S
GR
GS
[1.00088 0 0 0.9996 0 0.14755] CT
0.149 GC
10.0 ML
1.225 LW
N
415 81 M
415 37.5 L
525.5 37.5 L
525.5 81 L
cp
S
GR
%%Trailer
%%Pages: 1
%%EOF
