%!PS-Adobe-3.0 EPSF-3.0
%%Creator: (MATLAB, The Mathworks, Inc. Version 9.5.0.1033004 \(R2018b\) Update 2. Operating System: Mac OS X)
%%Title: ./UDDSerr.eps
%%CreationDate: 2019-11-05T09:32:56
%%Pages: (atend)
%%BoundingBox:     4     3   522   369
%%LanguageLevel: 2
%%EndComments
%%BeginProlog
%%BeginResource: procset (Apache XML Graphics Std ProcSet) 1.2 0
%%Version: 1.2 0
%%Copyright: (Copyright 2001-2003,2010 The Apache Software Foundation. License terms: http://www.apache.org/licenses/LICENSE-2.0)
/bd{bind def}bind def
/ld{load def}bd
/GR/grestore ld
/GS/gsave ld
/RM/rmoveto ld
/C/curveto ld
/t/show ld
/L/lineto ld
/ML/setmiterlimit ld
/CT/concat ld
/f/fill ld
/N/newpath ld
/S/stroke ld
/CC/setcmykcolor ld
/A/ashow ld
/cp/closepath ld
/RC/setrgbcolor ld
/LJ/setlinejoin ld
/GC/setgray ld
/LW/setlinewidth ld
/M/moveto ld
/re {4 2 roll M
1 index 0 rlineto
0 exch rlineto
neg 0 rlineto
cp } bd
/_ctm matrix def
/_tm matrix def
/BT { _ctm currentmatrix pop matrix _tm copy pop 0 0 moveto } bd
/ET { _ctm setmatrix } bd
/iTm { _ctm setmatrix _tm concat } bd
/Tm { _tm astore pop iTm 0 0 moveto } bd
/ux 0.0 def
/uy 0.0 def
/F {
  /Tp exch def
  /Tf exch def
  Tf findfont Tp scalefont setfont
  /cf Tf def  /cs Tp def
} bd
/ULS {currentpoint /uy exch def /ux exch def} bd
/ULE {
  /Tcx currentpoint pop def
  gsave
  newpath
  cf findfont cs scalefont dup
  /FontMatrix get 0 get /Ts exch def /FontInfo get dup
  /UnderlinePosition get Ts mul /To exch def
  /UnderlineThickness get Ts mul /Tt exch def
  ux uy To add moveto  Tcx uy To add lineto
  Tt setlinewidth stroke
  grestore
} bd
/OLE {
  /Tcx currentpoint pop def
  gsave
  newpath
  cf findfont cs scalefont dup
  /FontMatrix get 0 get /Ts exch def /FontInfo get dup
  /UnderlinePosition get Ts mul /To exch def
  /UnderlineThickness get Ts mul /Tt exch def
  ux uy To add cs add moveto Tcx uy To add cs add lineto
  Tt setlinewidth stroke
  grestore
} bd
/SOE {
  /Tcx currentpoint pop def
  gsave
  newpath
  cf findfont cs scalefont dup
  /FontMatrix get 0 get /Ts exch def /FontInfo get dup
  /UnderlinePosition get Ts mul /To exch def
  /UnderlineThickness get Ts mul /Tt exch def
  ux uy To add cs 10 mul 26 idiv add moveto Tcx uy To add cs 10 mul 26 idiv add lineto
  Tt setlinewidth stroke
  grestore
} bd
/QT {
/Y22 exch store
/X22 exch store
/Y21 exch store
/X21 exch store
currentpoint
/Y21 load 2 mul add 3 div exch
/X21 load 2 mul add 3 div exch
/X21 load 2 mul /X22 load add 3 div
/Y21 load 2 mul /Y22 load add 3 div
/X22 load /Y22 load curveto
} bd
/SSPD {
dup length /d exch dict def
{
/v exch def
/k exch def
currentpagedevice k known {
/cpdv currentpagedevice k get def
v cpdv ne {
/upd false def
/nullv v type /nulltype eq def
/nullcpdv cpdv type /nulltype eq def
nullv nullcpdv or
{
/upd true def
} {
/sametype v type cpdv type eq def
sametype {
v type /arraytype eq {
/vlen v length def
/cpdvlen cpdv length def
vlen cpdvlen eq {
0 1 vlen 1 sub {
/i exch def
/obj v i get def
/cpdobj cpdv i get def
obj cpdobj ne {
/upd true def
exit
} if
} for
} {
/upd true def
} ifelse
} {
v type /dicttype eq {
v {
/dv exch def
/dk exch def
/cpddv cpdv dk get def
dv cpddv ne {
/upd true def
exit
} if
} forall
} {
/upd true def
} ifelse
} ifelse
} if
} ifelse
upd true eq {
d k v put
} if
} if
} if
} forall
d length 0 gt {
d setpagedevice
} if
} bd
/RE { % /NewFontName [NewEncodingArray] /FontName RE -
  findfont dup length dict begin
  {
    1 index /FID ne
    {def} {pop pop} ifelse
  } forall
  /Encoding exch def
  /FontName 1 index def
  currentdict definefont pop
  end
} bind def
%%EndResource
%%BeginResource: procset (Apache XML Graphics EPS ProcSet) 1.0 0
%%Version: 1.0 0
%%Copyright: (Copyright 2002-2003 The Apache Software Foundation. License terms: http://www.apache.org/licenses/LICENSE-2.0)
/BeginEPSF { %def
/b4_Inc_state save def         % Save state for cleanup
/dict_count countdictstack def % Count objects on dict stack
/op_count count 1 sub def      % Count objects on operand stack
userdict begin                 % Push userdict on dict stack
/showpage { } def              % Redefine showpage, { } = null proc
0 setgray 0 setlinecap         % Prepare graphics state
1 setlinewidth 0 setlinejoin
10 setmiterlimit [ ] 0 setdash newpath
/languagelevel where           % If level not equal to 1 then
{pop languagelevel             % set strokeadjust and
1 ne                           % overprint to their defaults.
{false setstrokeadjust false setoverprint
} if
} if
} bd
/EndEPSF { %def
count op_count sub {pop} repeat            % Clean up stacks
countdictstack dict_count sub {end} repeat
b4_Inc_state restore
} bd
%%EndResource
%FOPBeginFontDict
%%IncludeResource: font Courier-Oblique
%%IncludeResource: font Courier-BoldOblique
%%IncludeResource: font Courier-Bold
%%IncludeResource: font ZapfDingbats
%%IncludeResource: font Symbol
%%IncludeResource: font Helvetica
%%IncludeResource: font Helvetica-Oblique
%%IncludeResource: font Helvetica-Bold
%%IncludeResource: font Helvetica-BoldOblique
%%IncludeResource: font Times-Roman
%%IncludeResource: font Times-Italic
%%IncludeResource: font Times-Bold
%%IncludeResource: font Times-BoldItalic
%%IncludeResource: font Courier
%FOPEndFontDict
%%BeginResource: encoding WinAnsiEncoding
/WinAnsiEncoding [
/.notdef /.notdef /.notdef /.notdef /.notdef
/.notdef /.notdef /.notdef /.notdef /.notdef
/.notdef /.notdef /.notdef /.notdef /.notdef
/.notdef /.notdef /.notdef /.notdef /.notdef
/.notdef /.notdef /.notdef /.notdef /.notdef
/.notdef /.notdef /.notdef /.notdef /.notdef
/.notdef /.notdef /space /exclam /quotedbl
/numbersign /dollar /percent /ampersand /quotesingle
/parenleft /parenright /asterisk /plus /comma
/hyphen /period /slash /zero /one
/two /three /four /five /six
/seven /eight /nine /colon /semicolon
/less /equal /greater /question /at
/A /B /C /D /E
/F /G /H /I /J
/K /L /M /N /O
/P /Q /R /S /T
/U /V /W /X /Y
/Z /bracketleft /backslash /bracketright /asciicircum
/underscore /quoteleft /a /b /c
/d /e /f /g /h
/i /j /k /l /m
/n /o /p /q /r
/s /t /u /v /w
/x /y /z /braceleft /bar
/braceright /asciitilde /bullet /Euro /bullet
/quotesinglbase /florin /quotedblbase /ellipsis /dagger
/daggerdbl /circumflex /perthousand /Scaron /guilsinglleft
/OE /bullet /Zcaron /bullet /bullet
/quoteleft /quoteright /quotedblleft /quotedblright /bullet
/endash /emdash /asciitilde /trademark /scaron
/guilsinglright /oe /bullet /zcaron /Ydieresis
/space /exclamdown /cent /sterling /currency
/yen /brokenbar /section /dieresis /copyright
/ordfeminine /guillemotleft /logicalnot /sfthyphen /registered
/macron /degree /plusminus /twosuperior /threesuperior
/acute /mu /paragraph /middot /cedilla
/onesuperior /ordmasculine /guillemotright /onequarter /onehalf
/threequarters /questiondown /Agrave /Aacute /Acircumflex
/Atilde /Adieresis /Aring /AE /Ccedilla
/Egrave /Eacute /Ecircumflex /Edieresis /Igrave
/Iacute /Icircumflex /Idieresis /Eth /Ntilde
/Ograve /Oacute /Ocircumflex /Otilde /Odieresis
/multiply /Oslash /Ugrave /Uacute /Ucircumflex
/Udieresis /Yacute /Thorn /germandbls /agrave
/aacute /acircumflex /atilde /adieresis /aring
/ae /ccedilla /egrave /eacute /ecircumflex
/edieresis /igrave /iacute /icircumflex /idieresis
/eth /ntilde /ograve /oacute /ocircumflex
/otilde /odieresis /divide /oslash /ugrave
/uacute /ucircumflex /udieresis /yacute /thorn
/ydieresis
] def
%%EndResource
%FOPBeginFontReencode
/Courier-Oblique findfont
dup length dict begin
  {1 index /FID ne {def} {pop pop} ifelse} forall
  /Encoding WinAnsiEncoding def
  currentdict
end
/Courier-Oblique exch definefont pop
/Courier-BoldOblique findfont
dup length dict begin
  {1 index /FID ne {def} {pop pop} ifelse} forall
  /Encoding WinAnsiEncoding def
  currentdict
end
/Courier-BoldOblique exch definefont pop
/Courier-Bold findfont
dup length dict begin
  {1 index /FID ne {def} {pop pop} ifelse} forall
  /Encoding WinAnsiEncoding def
  currentdict
end
/Courier-Bold exch definefont pop
/Helvetica findfont
dup length dict begin
  {1 index /FID ne {def} {pop pop} ifelse} forall
  /Encoding WinAnsiEncoding def
  currentdict
end
/Helvetica exch definefont pop
/Helvetica-Oblique findfont
dup length dict begin
  {1 index /FID ne {def} {pop pop} ifelse} forall
  /Encoding WinAnsiEncoding def
  currentdict
end
/Helvetica-Oblique exch definefont pop
/Helvetica-Bold findfont
dup length dict begin
  {1 index /FID ne {def} {pop pop} ifelse} forall
  /Encoding WinAnsiEncoding def
  currentdict
end
/Helvetica-Bold exch definefont pop
/Helvetica-BoldOblique findfont
dup length dict begin
  {1 index /FID ne {def} {pop pop} ifelse} forall
  /Encoding WinAnsiEncoding def
  currentdict
end
/Helvetica-BoldOblique exch definefont pop
/Times-Roman findfont
dup length dict begin
  {1 index /FID ne {def} {pop pop} ifelse} forall
  /Encoding WinAnsiEncoding def
  currentdict
end
/Times-Roman exch definefont pop
/Times-Italic findfont
dup length dict begin
  {1 index /FID ne {def} {pop pop} ifelse} forall
  /Encoding WinAnsiEncoding def
  currentdict
end
/Times-Italic exch definefont pop
/Times-Bold findfont
dup length dict begin
  {1 index /FID ne {def} {pop pop} ifelse} forall
  /Encoding WinAnsiEncoding def
  currentdict
end
/Times-Bold exch definefont pop
/Times-BoldItalic findfont
dup length dict begin
  {1 index /FID ne {def} {pop pop} ifelse} forall
  /Encoding WinAnsiEncoding def
  currentdict
end
/Times-BoldItalic exch definefont pop
/Courier findfont
dup length dict begin
  {1 index /FID ne {def} {pop pop} ifelse} forall
  /Encoding WinAnsiEncoding def
  currentdict
end
/Courier exch definefont pop
%FOPEndFontReencode
%%EndProlog
%%Page: 1 1
%%PageBoundingBox: 0 0 531 370
%%BeginPageSetup
[1 0 0 -1 0 370] CT
%%EndPageSetup
GS
[0.99977 0 0 0.9996 0 0.14755] CT
1 GC
N
0 0 531 370 re
f
GR
GS
[0.99977 0 0 0.9996 0 0.14755] CT
1 GC
N
0 0 531 370 re
f
GR
GS
[0.99977 0 0 0.9996 0 0.14755] CT
1 GC
N
54.5 317.5 M
521 317.5 L
521 29.5 L
54.5 29.5 L
cp
f
GR
GS
[0.99977 0 0 0.9996 0 0.14755] CT
0.873 GC
1 LJ
1.225 LW
N
54.5 317.5 M
54.5 29.5 L
S
GR
GS
[0.99977 0 0 0.9996 0 0.14755] CT
0.873 GC
1 LJ
1.225 LW
N
145.524 317.5 M
145.524 29.5 L
S
GR
GS
[0.99977 0 0 0.9996 0 0.14755] CT
0.873 GC
1 LJ
1.225 LW
N
236.549 317.5 M
236.549 29.5 L
S
GR
GS
[0.99977 0 0 0.9996 0 0.14755] CT
0.873 GC
1 LJ
1.225 LW
N
327.573 317.5 M
327.573 29.5 L
S
GR
GS
[0.99977 0 0 0.9996 0 0.14755] CT
0.873 GC
1 LJ
1.225 LW
N
418.598 317.5 M
418.598 29.5 L
S
GR
GS
[0.99977 0 0 0.9996 0 0.14755] CT
0.873 GC
1 LJ
1.225 LW
N
509.622 317.5 M
509.622 29.5 L
S
GR
GS
[0.99977 0 0 0.9996 0 0.14755] CT
0.873 GC
1 LJ
1.225 LW
N
521 317.5 M
54.5 317.5 L
S
GR
GS
[0.99977 0 0 0.9996 0 0.14755] CT
0.873 GC
1 LJ
1.225 LW
N
521 245.5 M
54.5 245.5 L
S
GR
GS
[0.99977 0 0 0.9996 0 0.14755] CT
0.873 GC
1 LJ
1.225 LW
N
521 173.5 M
54.5 173.5 L
S
GR
GS
[0.99977 0 0 0.9996 0 0.14755] CT
0.873 GC
1 LJ
1.225 LW
N
521 101.5 M
54.5 101.5 L
S
GR
GS
[0.99977 0 0 0.9996 0 0.14755] CT
0.873 GC
1 LJ
1.225 LW
N
521 29.5 M
54.5 29.5 L
S
GR
GS
[0.99977 0 0 0.9996 0 0.14755] CT
0.149 GC
2 setlinecap
1 LJ
1.225 LW
N
54.5 317.5 M
521 317.5 L
S
GR
GS
[0.99977 0 0 0.9996 0 0.14755] CT
0.149 GC
2 setlinecap
1 LJ
1.225 LW
N
54.5 29.5 M
521 29.5 L
S
GR
GS
[0.99977 0 0 0.9996 0 0.14755] CT
0.149 GC
2 setlinecap
1 LJ
1.225 LW
N
54.5 317.5 M
54.5 312.835 L
S
GR
GS
[0.99977 0 0 0.9996 0 0.14755] CT
0.149 GC
2 setlinecap
1 LJ
1.225 LW
N
145.524 317.5 M
145.524 312.835 L
S
GR
GS
[0.99977 0 0 0.9996 0 0.14755] CT
0.149 GC
2 setlinecap
1 LJ
1.225 LW
N
236.549 317.5 M
236.549 312.835 L
S
GR
GS
[0.99977 0 0 0.9996 0 0.14755] CT
0.149 GC
2 setlinecap
1 LJ
1.225 LW
N
327.573 317.5 M
327.573 312.835 L
S
GR
GS
[0.99977 0 0 0.9996 0 0.14755] CT
0.149 GC
2 setlinecap
1 LJ
1.225 LW
N
418.598 317.5 M
418.598 312.835 L
S
GR
GS
[0.99977 0 0 0.9996 0 0.14755] CT
0.149 GC
2 setlinecap
1 LJ
1.225 LW
N
509.622 317.5 M
509.622 312.835 L
S
GR
GS
[0.99977 0 0 0.9996 0 0.14755] CT
0.149 GC
2 setlinecap
1 LJ
1.225 LW
N
54.5 29.5 M
54.5 34.165 L
S
GR
GS
[0.99977 0 0 0.9996 0 0.14755] CT
0.149 GC
2 setlinecap
1 LJ
1.225 LW
N
145.524 29.5 M
145.524 34.165 L
S
GR
GS
[0.99977 0 0 0.9996 0 0.14755] CT
0.149 GC
2 setlinecap
1 LJ
1.225 LW
N
236.549 29.5 M
236.549 34.165 L
S
GR
GS
[0.99977 0 0 0.9996 0 0.14755] CT
0.149 GC
2 setlinecap
1 LJ
1.225 LW
N
327.573 29.5 M
327.573 34.165 L
S
GR
GS
[0.99977 0 0 0.9996 0 0.14755] CT
0.149 GC
2 setlinecap
1 LJ
1.225 LW
N
418.598 29.5 M
418.598 34.165 L
S
GR
GS
[0.99977 0 0 0.9996 0 0.14755] CT
0.149 GC
2 setlinecap
1 LJ
1.225 LW
N
509.622 29.5 M
509.622 34.165 L
S
GR
GS
[0.99977 0 0 0.9996 0 0.14755] CT
0.149 GC
2 setlinecap
1 LJ
1.225 LW
N
77.256 317.5 M
77.256 315.168 L
S
GR
GS
[0.99977 0 0 0.9996 0 0.14755] CT
0.149 GC
2 setlinecap
1 LJ
1.225 LW
N
100.012 317.5 M
100.012 315.168 L
S
GR
GS
[0.99977 0 0 0.9996 0 0.14755] CT
0.149 GC
2 setlinecap
1 LJ
1.225 LW
N
122.768 317.5 M
122.768 315.168 L
S
GR
GS
[0.99977 0 0 0.9996 0 0.14755] CT
0.149 GC
2 setlinecap
1 LJ
1.225 LW
N
168.28 317.5 M
168.28 315.168 L
S
GR
GS
[0.99977 0 0 0.9996 0 0.14755] CT
0.149 GC
2 setlinecap
1 LJ
1.225 LW
N
191.037 317.5 M
191.037 315.168 L
S
GR
GS
[0.99977 0 0 0.9996 0 0.14755] CT
0.149 GC
2 setlinecap
1 LJ
1.225 LW
N
213.793 317.5 M
213.793 315.168 L
S
GR
GS
[0.99977 0 0 0.9996 0 0.14755] CT
0.149 GC
2 setlinecap
1 LJ
1.225 LW
N
259.305 317.5 M
259.305 315.168 L
S
GR
GS
[0.99977 0 0 0.9996 0 0.14755] CT
0.149 GC
2 setlinecap
1 LJ
1.225 LW
N
282.061 317.5 M
282.061 315.168 L
S
GR
GS
[0.99977 0 0 0.9996 0 0.14755] CT
0.149 GC
2 setlinecap
1 LJ
1.225 LW
N
304.817 317.5 M
304.817 315.168 L
S
GR
GS
[0.99977 0 0 0.9996 0 0.14755] CT
0.149 GC
2 setlinecap
1 LJ
1.225 LW
N
350.329 317.5 M
350.329 315.168 L
S
GR
GS
[0.99977 0 0 0.9996 0 0.14755] CT
0.149 GC
2 setlinecap
1 LJ
1.225 LW
N
373.085 317.5 M
373.085 315.168 L
S
GR
GS
[0.99977 0 0 0.9996 0 0.14755] CT
0.149 GC
2 setlinecap
1 LJ
1.225 LW
N
395.841 317.5 M
395.841 315.168 L
S
GR
GS
[0.99977 0 0 0.9996 0 0.14755] CT
0.149 GC
2 setlinecap
1 LJ
1.225 LW
N
441.354 317.5 M
441.354 315.168 L
S
GR
GS
[0.99977 0 0 0.9996 0 0.14755] CT
0.149 GC
2 setlinecap
1 LJ
1.225 LW
N
464.11 317.5 M
464.11 315.168 L
S
GR
GS
[0.99977 0 0 0.9996 0 0.14755] CT
0.149 GC
2 setlinecap
1 LJ
1.225 LW
N
486.866 317.5 M
486.866 315.168 L
S
GR
GS
[0.99977 0 0 0.9996 0 0.14755] CT
0.149 GC
2 setlinecap
1 LJ
1.225 LW
N
77.256 29.5 M
77.256 31.832 L
S
GR
GS
[0.99977 0 0 0.9996 0 0.14755] CT
0.149 GC
2 setlinecap
1 LJ
1.225 LW
N
100.012 29.5 M
100.012 31.832 L
S
GR
GS
[0.99977 0 0 0.9996 0 0.14755] CT
0.149 GC
2 setlinecap
1 LJ
1.225 LW
N
122.768 29.5 M
122.768 31.832 L
S
GR
GS
[0.99977 0 0 0.9996 0 0.14755] CT
0.149 GC
2 setlinecap
1 LJ
1.225 LW
N
168.28 29.5 M
168.28 31.832 L
S
GR
GS
[0.99977 0 0 0.9996 0 0.14755] CT
0.149 GC
2 setlinecap
1 LJ
1.225 LW
N
191.037 29.5 M
191.037 31.832 L
S
GR
GS
[0.99977 0 0 0.9996 0 0.14755] CT
0.149 GC
2 setlinecap
1 LJ
1.225 LW
N
213.793 29.5 M
213.793 31.832 L
S
GR
GS
[0.99977 0 0 0.9996 0 0.14755] CT
0.149 GC
2 setlinecap
1 LJ
1.225 LW
N
259.305 29.5 M
259.305 31.832 L
S
GR
GS
[0.99977 0 0 0.9996 0 0.14755] CT
0.149 GC
2 setlinecap
1 LJ
1.225 LW
N
282.061 29.5 M
282.061 31.832 L
S
GR
GS
[0.99977 0 0 0.9996 0 0.14755] CT
0.149 GC
2 setlinecap
1 LJ
1.225 LW
N
304.817 29.5 M
304.817 31.832 L
S
GR
GS
[0.99977 0 0 0.9996 0 0.14755] CT
0.149 GC
2 setlinecap
1 LJ
1.225 LW
N
350.329 29.5 M
350.329 31.832 L
S
GR
GS
[0.99977 0 0 0.9996 0 0.14755] CT
0.149 GC
2 setlinecap
1 LJ
1.225 LW
N
373.085 29.5 M
373.085 31.832 L
S
GR
GS
[0.99977 0 0 0.9996 0 0.14755] CT
0.149 GC
2 setlinecap
1 LJ
1.225 LW
N
395.841 29.5 M
395.841 31.832 L
S
GR
GS
[0.99977 0 0 0.9996 0 0.14755] CT
0.149 GC
2 setlinecap
1 LJ
1.225 LW
N
441.354 29.5 M
441.354 31.832 L
S
GR
GS
[0.99977 0 0 0.9996 0 0.14755] CT
0.149 GC
2 setlinecap
1 LJ
1.225 LW
N
464.11 29.5 M
464.11 31.832 L
S
GR
GS
[0.99977 0 0 0.9996 0 0.14755] CT
0.149 GC
2 setlinecap
1 LJ
1.225 LW
N
486.866 29.5 M
486.866 31.832 L
S
GR
GS
[0.99977 0 0 0.9996 54.48768 323.36861] CT
0.149 GC
/Times-Roman 19.25 F
GS
[1 0 0 1 0 0] CT
-5 18 moveto 
1 -1 scale
(0) t 
GR
GR
GS
[0.99977 0 0 0.9996 145.4915 323.36861] CT
0.149 GC
/Times-Roman 19.25 F
GS
[1 0 0 1 0 0] CT
-5 18 moveto 
1 -1 scale
(2) t 
GR
GR
GS
[0.99977 0 0 0.9996 236.49533 323.36861] CT
0.149 GC
/Times-Roman 19.25 F
GS
[1 0 0 1 0 0] CT
-5 18 moveto 
1 -1 scale
(4) t 
GR
GR
GS
[0.99977 0 0 0.9996 327.49916 323.36861] CT
0.149 GC
/Times-Roman 19.25 F
GS
[1 0 0 1 0 0] CT
-5 18 moveto 
1 -1 scale
(6) t 
GR
GR
GS
[0.99977 0 0 0.9996 418.50297 323.36861] CT
0.149 GC
/Times-Roman 19.25 F
GS
[1 0 0 1 0 0] CT
-5 18 moveto 
1 -1 scale
(8) t 
GR
GR
GS
[0.99977 0 0 0.9996 509.50678 323.36861] CT
0.149 GC
/Times-Roman 19.25 F
GS
[1 0 0 1 0 0] CT
-10 18 moveto 
1 -1 scale
(10) t 
GR
GR
GS
[0.99977 0 0 0.9996 287.68519 367.81337] CT
0.149 GC
/Times-Roman 21 F
GS
[1 0 0 1 0 0] CT
-37.5 -5 moveto 
1 -1 scale
(Time \(h\)) t 
GR
GR
GS
[0.99977 0 0 0.9996 0 0.14755] CT
0.149 GC
2 setlinecap
1 LJ
1.225 LW
N
54.5 317.5 M
54.5 29.5 L
S
GR
GS
[0.99977 0 0 0.9996 0 0.14755] CT
0.149 GC
2 setlinecap
1 LJ
1.225 LW
N
521 317.5 M
521 29.5 L
S
GR
GS
[0.99977 0 0 0.9996 0 0.14755] CT
0.149 GC
2 setlinecap
1 LJ
1.225 LW
N
54.5 317.5 M
59.165 317.5 L
S
GR
GS
[0.99977 0 0 0.9996 0 0.14755] CT
0.149 GC
2 setlinecap
1 LJ
1.225 LW
N
54.5 245.5 M
59.165 245.5 L
S
GR
GS
[0.99977 0 0 0.9996 0 0.14755] CT
0.149 GC
2 setlinecap
1 LJ
1.225 LW
N
54.5 173.5 M
59.165 173.5 L
S
GR
GS
[0.99977 0 0 0.9996 0 0.14755] CT
0.149 GC
2 setlinecap
1 LJ
1.225 LW
N
54.5 101.5 M
59.165 101.5 L
S
GR
GS
[0.99977 0 0 0.9996 0 0.14755] CT
0.149 GC
2 setlinecap
1 LJ
1.225 LW
N
54.5 29.5 M
59.165 29.5 L
S
GR
GS
[0.99977 0 0 0.9996 0 0.14755] CT
0.149 GC
2 setlinecap
1 LJ
1.225 LW
N
521 317.5 M
516.335 317.5 L
S
GR
GS
[0.99977 0 0 0.9996 0 0.14755] CT
0.149 GC
2 setlinecap
1 LJ
1.225 LW
N
521 245.5 M
516.335 245.5 L
S
GR
GS
[0.99977 0 0 0.9996 0 0.14755] CT
0.149 GC
2 setlinecap
1 LJ
1.225 LW
N
521 173.5 M
516.335 173.5 L
S
GR
GS
[0.99977 0 0 0.9996 0 0.14755] CT
0.149 GC
2 setlinecap
1 LJ
1.225 LW
N
521 101.5 M
516.335 101.5 L
S
GR
GS
[0.99977 0 0 0.9996 0 0.14755] CT
0.149 GC
2 setlinecap
1 LJ
1.225 LW
N
521 29.5 M
516.335 29.5 L
S
GR
GS
[0.99977 0 0 0.9996 0 0.14755] CT
0.149 GC
2 setlinecap
1 LJ
1.225 LW
N
54.5 303.1 M
56.833 303.1 L
S
GR
GS
[0.99977 0 0 0.9996 0 0.14755] CT
0.149 GC
2 setlinecap
1 LJ
1.225 LW
N
54.5 288.7 M
56.833 288.7 L
S
GR
GS
[0.99977 0 0 0.9996 0 0.14755] CT
0.149 GC
2 setlinecap
1 LJ
1.225 LW
N
54.5 274.3 M
56.833 274.3 L
S
GR
GS
[0.99977 0 0 0.9996 0 0.14755] CT
0.149 GC
2 setlinecap
1 LJ
1.225 LW
N
54.5 259.9 M
56.833 259.9 L
S
GR
GS
[0.99977 0 0 0.9996 0 0.14755] CT
0.149 GC
2 setlinecap
1 LJ
1.225 LW
N
54.5 231.1 M
56.833 231.1 L
S
GR
GS
[0.99977 0 0 0.9996 0 0.14755] CT
0.149 GC
2 setlinecap
1 LJ
1.225 LW
N
54.5 216.7 M
56.833 216.7 L
S
GR
GS
[0.99977 0 0 0.9996 0 0.14755] CT
0.149 GC
2 setlinecap
1 LJ
1.225 LW
N
54.5 202.3 M
56.833 202.3 L
S
GR
GS
[0.99977 0 0 0.9996 0 0.14755] CT
0.149 GC
2 setlinecap
1 LJ
1.225 LW
N
54.5 187.9 M
56.833 187.9 L
S
GR
GS
[0.99977 0 0 0.9996 0 0.14755] CT
0.149 GC
2 setlinecap
1 LJ
1.225 LW
N
54.5 159.1 M
56.833 159.1 L
S
GR
GS
[0.99977 0 0 0.9996 0 0.14755] CT
0.149 GC
2 setlinecap
1 LJ
1.225 LW
N
54.5 144.7 M
56.833 144.7 L
S
GR
GS
[0.99977 0 0 0.9996 0 0.14755] CT
0.149 GC
2 setlinecap
1 LJ
1.225 LW
N
54.5 130.3 M
56.833 130.3 L
S
GR
GS
[0.99977 0 0 0.9996 0 0.14755] CT
0.149 GC
2 setlinecap
1 LJ
1.225 LW
N
54.5 115.9 M
56.833 115.9 L
S
GR
GS
[0.99977 0 0 0.9996 0 0.14755] CT
0.149 GC
2 setlinecap
1 LJ
1.225 LW
N
54.5 87.1 M
56.833 87.1 L
S
GR
GS
[0.99977 0 0 0.9996 0 0.14755] CT
0.149 GC
2 setlinecap
1 LJ
1.225 LW
N
54.5 72.7 M
56.833 72.7 L
S
GR
GS
[0.99977 0 0 0.9996 0 0.14755] CT
0.149 GC
2 setlinecap
1 LJ
1.225 LW
N
54.5 58.3 M
56.833 58.3 L
S
GR
GS
[0.99977 0 0 0.9996 0 0.14755] CT
0.149 GC
2 setlinecap
1 LJ
1.225 LW
N
54.5 43.9 M
56.833 43.9 L
S
GR
GS
[0.99977 0 0 0.9996 0 0.14755] CT
0.149 GC
2 setlinecap
1 LJ
1.225 LW
N
521 303.1 M
518.667 303.1 L
S
GR
GS
[0.99977 0 0 0.9996 0 0.14755] CT
0.149 GC
2 setlinecap
1 LJ
1.225 LW
N
521 288.7 M
518.667 288.7 L
S
GR
GS
[0.99977 0 0 0.9996 0 0.14755] CT
0.149 GC
2 setlinecap
1 LJ
1.225 LW
N
521 274.3 M
518.667 274.3 L
S
GR
GS
[0.99977 0 0 0.9996 0 0.14755] CT
0.149 GC
2 setlinecap
1 LJ
1.225 LW
N
521 259.9 M
518.667 259.9 L
S
GR
GS
[0.99977 0 0 0.9996 0 0.14755] CT
0.149 GC
2 setlinecap
1 LJ
1.225 LW
N
521 231.1 M
518.667 231.1 L
S
GR
GS
[0.99977 0 0 0.9996 0 0.14755] CT
0.149 GC
2 setlinecap
1 LJ
1.225 LW
N
521 216.7 M
518.667 216.7 L
S
GR
GS
[0.99977 0 0 0.9996 0 0.14755] CT
0.149 GC
2 setlinecap
1 LJ
1.225 LW
N
521 202.3 M
518.667 202.3 L
S
GR
GS
[0.99977 0 0 0.9996 0 0.14755] CT
0.149 GC
2 setlinecap
1 LJ
1.225 LW
N
521 187.9 M
518.667 187.9 L
S
GR
GS
[0.99977 0 0 0.9996 0 0.14755] CT
0.149 GC
2 setlinecap
1 LJ
1.225 LW
N
521 159.1 M
518.667 159.1 L
S
GR
GS
[0.99977 0 0 0.9996 0 0.14755] CT
0.149 GC
2 setlinecap
1 LJ
1.225 LW
N
521 144.7 M
518.667 144.7 L
S
GR
GS
[0.99977 0 0 0.9996 0 0.14755] CT
0.149 GC
2 setlinecap
1 LJ
1.225 LW
N
521 130.3 M
518.667 130.3 L
S
GR
GS
[0.99977 0 0 0.9996 0 0.14755] CT
0.149 GC
2 setlinecap
1 LJ
1.225 LW
N
521 115.9 M
518.667 115.9 L
S
GR
GS
[0.99977 0 0 0.9996 0 0.14755] CT
0.149 GC
2 setlinecap
1 LJ
1.225 LW
N
521 87.1 M
518.667 87.1 L
S
GR
GS
[0.99977 0 0 0.9996 0 0.14755] CT
0.149 GC
2 setlinecap
1 LJ
1.225 LW
N
521 72.7 M
518.667 72.7 L
S
GR
GS
[0.99977 0 0 0.9996 0 0.14755] CT
0.149 GC
2 setlinecap
1 LJ
1.225 LW
N
521 58.3 M
518.667 58.3 L
S
GR
GS
[0.99977 0 0 0.9996 0 0.14755] CT
0.149 GC
2 setlinecap
1 LJ
1.225 LW
N
521 43.9 M
518.667 43.9 L
S
GR
GS
[0.99977 0 0 0.9996 48.63901 317.52094] CT
0.149 GC
/Times-Roman 19.25 F
GS
[1 0 0 1 0 0] CT
-26 6.5 moveto 
1 -1 scale
(-20) t 
GR
GR
GS
[0.99977 0 0 0.9996 48.63901 245.54965] CT
0.149 GC
/Times-Roman 19.25 F
GS
[1 0 0 1 0 0] CT
-26 6.5 moveto 
1 -1 scale
(-10) t 
GR
GR
GS
[0.99977 0 0 0.9996 48.63901 173.57836] CT
0.149 GC
/Times-Roman 19.25 F
GS
[1 0 0 1 0 0] CT
-10 6.5 moveto 
1 -1 scale
(0) t 
GR
GR
GS
[0.99977 0 0 0.9996 48.63901 101.60708] CT
0.149 GC
/Times-Roman 19.25 F
GS
[1 0 0 1 0 0] CT
-20 6.5 moveto 
1 -1 scale
(10) t 
GR
GR
GS
[0.99977 0 0 0.9996 48.63901 29.63579] CT
0.149 GC
/Times-Roman 19.25 F
GS
[1 0 0 1 0 0] CT
-20 6.5 moveto 
1 -1 scale
(20) t 
GR
GR
GS
[0 -0.9996 0.99977 0 -0.09998 173.57823] CT
0.149 GC
/Times-Roman 21 F
GS
[1 0 0 1 0 0] CT
-59 19 moveto 
1 -1 scale
(Voltage \(mV\)) t 
GR
GR
GS
[0.99977 0 0 0.9996 287.68525 24.61035] CT
/Times-Roman 24.5 F
GS
[1 0 0 1 0 0] CT
-174 -6 moveto 
1 -1 scale
(UDDS cell voltage-prediction error) t 
GR
GR
GS
[0.99977 0 0 0.9996 0 0.14755] CT
0 0.447 0.741 RC
1 LJ
3.15 LW
N
54.525 168.841 M
55.145 168.841 L
55.157 168.841 L
55.929 168.841 L
55.941 168.841 L
56.712 167.798 L
56.725 167.779 L
56.788 167.682 L
57.509 168.778 L
57.522 168.798 L
57.547 168.836 L
58.293 167.702 L
58.305 167.682 L
59.077 168.841 L
59.089 168.841 L
59.873 168.913 L
59.886 168.933 L
60.581 170.003 L
60.657 169.787 L
60.669 169.748 L
61.339 167.689 L
61.441 167.826 L
61.453 167.846 L
62.237 169.049 L
62.25 169.068 L
62.857 170.002 L
63.021 169.762 L
63.034 169.743 L
63.628 168.841 L
63.805 168.841 L
63.817 168.841 L
64.601 168.841 L
64.614 168.841 L
65.385 168.841 L
65.398 168.841 L
66.169 168.841 L
66.181 168.841 L
66.965 168.841 L
66.978 168.841 L
67.749 168.841 L
67.762 168.841 L
68.533 168.841 L
68.546 168.841 L
69.317 168.841 L
69.329 168.841 L
69.696 169.917 L
70.113 166.711 L
70.126 165.596 L
70.202 162.679 L
70.682 167.93 L
70.897 166.465 L
70.91 167.252 L
70.922 165.936 L
71.289 169.724 L
71.681 166.932 L
71.693 167.508 L
71.946 167.906 L
71.997 165.49 L
72.477 167.343 L
72.49 167.684 L
72.857 165.064 L
73.223 168.741 L
73.261 168.304 L
73.274 168.916 L
73.994 173.892 L
74.045 173.25 L
74.058 173.524 L
74.146 173.027 L
74.715 179.15 L
74.841 177.536 L
74.854 178.475 L
74.879 177.717 L
75.6 182.133 L
75.625 181.255 L
75.638 182.358 L
75.802 181.531 L
76.384 186.177 L
76.409 185.316 L
76.422 186.55 L
76.46 185.613 L
77.104 189.804 L
77.206 189.71 L
77.218 189.865 L
77.269 189.213 L
77.749 194.679 L
77.989 192.044 L
78.002 192.938 L
78.078 192.716 L
78.659 195.989 L
78.773 195.36 L
78.786 195.455 L
79.165 194.59 L
79.342 202.558 L
79.57 196.11 L
79.582 195.947 L
79.595 196.332 L
80.316 185.017 L
80.353 185.12 L
80.366 185.152 L
80.379 185.184 L
80.973 180.337 L
81.137 181.41 L
81.15 180.746 L
81.833 176.446 L
81.934 177.553 L
81.946 176.579 L
81.959 177.538 L
82.503 174.484 L
82.718 174.593 L
82.73 174.599 L
82.945 175.658 L
83.426 172.913 L
83.501 173.755 L
83.514 173.759 L
83.704 173.823 L
83.994 171.582 L
84.298 172.83 L
84.31 172.833 L
84.627 172.885 L
85.044 170.041 L
85.082 171.261 L
85.094 171.232 L
85.347 171.644 L
85.372 169.558 L
85.865 169.631 L
85.878 168.906 L
85.929 170.803 L
86.624 167.831 L
86.649 168.809 L
86.662 168.558 L
86.7 169.725 L
87.294 166.467 L
87.446 167.559 L
87.458 168.507 L
87.522 168.628 L
88.166 166.337 L
88.23 167.505 L
88.242 167.454 L
88.419 168.333 L
88.925 165.207 L
89.013 167.302 L
89.026 166.374 L
89.152 167.484 L
89.582 164.55 L
89.81 165.624 L
89.823 166.026 L
89.873 164.382 L
89.962 166.403 L
90.594 165.295 L
90.606 164.891 L
90.922 176.525 L
91.036 151.492 L
91.378 171.302 L
91.39 171.382 L
91.605 177.652 L
92.123 144.938 L
92.174 159.295 L
92.187 165.537 L
92.705 197.586 L
92.895 159.651 L
92.958 168.013 L
92.97 168.208 L
93.122 222.826 L
93.716 137.911 L
93.742 143.349 L
93.754 140.99 L
94.121 157.674 L
94.462 118.84 L
94.538 142.733 L
94.551 146.011 L
94.601 140.381 L
95.132 211.871 L
95.322 167.54 L
95.335 166.193 L
95.436 129.627 L
95.764 205.029 L
96.106 188.059 L
96.118 188.301 L
96.295 216.157 L
96.902 142.155 L
96.915 143.063 L
97.206 208.514 L
97.686 188.14 L
97.699 189.826 L
98.053 194.99 L
98.305 155.44 L
98.47 180.27 L
98.482 182.363 L
98.862 191.504 L
99.039 138.361 L
99.266 181.429 L
99.279 182.349 L
99.709 160.417 L
99.924 196.887 L
100.05 163.223 L
100.063 161.478 L
100.113 149.48 L
100.417 197.867 L
100.834 167.466 L
100.847 159.761 L
100.948 153.504 L
101.352 182.838 L
101.63 175.476 L
101.643 177.154 L
101.782 169.057 L
101.807 182.713 L
102.414 180.771 L
102.427 179.01 L
102.566 139.079 L
102.819 204.45 L
103.198 175.061 L
103.211 175.116 L
103.4 117.292 L
103.438 199.541 L
103.982 194.657 L
103.995 195.833 L
104.26 157.471 L
104.601 200.35 L
104.778 179.115 L
104.791 180.8 L
105.398 205.685 L
105.474 156.76 L
105.562 179.152 L
105.575 179.843 L
105.739 191.416 L
106.156 144.402 L
106.346 184.587 L
106.359 185.667 L
106.953 173.112 L
107.105 226.421 L
107.142 199.301 L
107.155 199.818 L
107.256 205.854 L
107.775 182.783 L
107.926 190.633 L
107.939 191.619 L
108.166 193.831 L
108.697 184.983 L
108.71 186.043 L
108.723 186.083 L
108.837 186.379 L
109.317 181.139 L
109.507 181.205 L
109.519 181.185 L
109.873 181.283 L
110.05 178.995 L
110.29 179.75 L
110.303 179.052 L
110.72 180.05 L
111.074 176.852 L
111.087 177.441 L
111.099 178.005 L
111.757 175.663 L
111.871 176.888 L
111.883 176.889 L
111.896 176.912 L
112.541 174.573 L
112.654 174.619 L
112.667 175.511 L
112.692 175.777 L
113.426 173.449 L
113.438 174.341 L
113.451 173.738 L
113.464 174.308 L
113.603 172.285 L
114.235 173.338 L
114.247 173.458 L
114.26 173.458 L
114.854 170.523 L
115.019 172.303 L
115.031 172.253 L
115.335 172.799 L
115.474 169.978 L
115.802 171.379 L
115.815 171.871 L
115.84 172.123 L
116.169 169.982 L
116.599 169.984 L
116.612 170.355 L
116.89 171.149 L
117.37 168.056 L
117.383 168.577 L
117.395 170.318 L
117.585 152.715 L
118.154 181.49 L
118.167 176.845 L
118.179 165.411 L
118.571 156.409 L
118.925 199.2 L
118.95 198.126 L
118.963 197.116 L
119.405 167.154 L
119.658 225.564 L
119.747 196.375 L
119.759 189.792 L
120.278 138.795 L
120.531 149.785 L
120.543 150.456 L
120.783 126.577 L
121.314 198.46 L
121.327 200.704 L
121.668 216.446 L
121.984 136.61 L
122.111 170.349 L
122.124 174.416 L
122.844 224.305 L
122.895 221.864 L
122.907 217.386 L
122.92 218.661 L
123.451 156.013 L
123.679 217.966 L
123.691 215.801 L
123.742 217.816 L
124.007 167.638 L
124.475 194.192 L
124.488 195.884 L
124.601 201.448 L
124.854 161.801 L
125.259 196.57 L
125.271 196.561 L
125.411 198.331 L
125.588 143.875 L
126.043 192.212 L
126.055 193.32 L
126.435 204.255 L
126.662 155.321 L
126.839 189.919 L
126.852 191.516 L
126.966 203.464 L
127.497 157.576 L
127.623 164.189 L
127.636 164.611 L
127.661 163.526 L
128.356 191.156 L
128.407 187.526 L
128.419 187.775 L
129.115 150.658 L
129.153 194.852 L
129.203 191.28 L
129.216 193.041 L
129.368 213.715 L
129.949 134.574 L
129.987 205.995 L
130 198.493 L
130.164 203.659 L
130.733 168.538 L
130.771 172.807 L
130.783 165.381 L
131.15 208.784 L
131.567 180.323 L
131.58 182.264 L
131.959 212.74 L
132.022 163.837 L
132.351 197.784 L
132.364 197.22 L
132.452 199.567 L
132.705 152.424 L
133.135 192.134 L
133.148 193.542 L
133.527 178.067 L
133.653 229.406 L
133.931 212.87 L
133.944 212.113 L
134.108 212.613 L
134.361 187.839 L
134.715 197.537 L
134.728 198.023 L
135.347 187.054 L
135.499 187.57 L
135.512 188.252 L
135.55 188.276 L
136.245 182.034 L
136.283 184.338 L
136.296 184.374 L
137.041 180.925 L
137.079 182.031 L
137.092 180.957 L
137.193 182.076 L
137.724 178.696 L
137.863 178.94 L
137.876 179.845 L
137.888 179.846 L
138.382 177.535 L
138.647 177.545 L
138.66 177.947 L
138.685 178.72 L
139.443 176.4 L
139.456 176.415 L
139.633 177.256 L
140.227 175.225 L
140.24 175.225 L
140.43 176.39 L
140.935 174.062 L
141.011 175.226 L
141.024 174.542 L
141.188 175.227 L
141.643 172.9 L
141.808 174.376 L
141.82 174.065 L
142.048 172.901 L
142.098 174.548 L
142.591 172.902 L
142.604 172.902 L
143.186 174.067 L
143.312 170.681 L
143.375 172.877 L
143.388 171.749 L
144.02 182.151 L
144.134 155.248 L
144.172 160.282 L
144.184 162.751 L
144.589 157.845 L
144.703 186.083 L
144.955 166.232 L
144.968 164.73 L
144.981 162.21 L
145.449 209.9 L
145.739 200.328 L
145.752 202.342 L
146.232 233.688 L
146.473 151.227 L
146.536 155.77 L
146.548 159.356 L
146.827 137.349 L
147.218 160.592 L
147.32 143.648 L
147.332 125.102 L
147.964 226.483 L
148.103 220.874 L
148.116 219.132 L
148.167 223.114 L
148.533 141.788 L
148.9 217.929 L
148.913 217.738 L
149.393 234.555 L
149.684 177.675 L
149.696 177.726 L
150 170.229 L
150.24 229.531 L
150.468 193.992 L
150.48 194.282 L
150.556 178.476 L
150.771 209.352 L
151.264 193.732 L
151.277 193.208 L
151.403 170.489 L
151.631 208.968 L
152.048 182.183 L
152.06 181.302 L
152.136 149.815 L
152.629 202.906 L
152.832 184.293 L
152.844 187.528 L
152.983 212.408 L
153.211 162.395 L
153.615 187.188 L
153.628 185.664 L
153.78 203.741 L
154.045 162.617 L
154.412 197.693 L
154.425 197.867 L
154.639 187.919 L
155.044 199.99 L
155.196 196.737 L
155.208 196.276 L
155.663 171.436 L
155.866 227.022 L
155.98 210.132 L
155.992 209.294 L
156.498 146.359 L
156.536 218.285 L
156.776 215.35 L
156.789 213.9 L
156.814 215.159 L
157.282 173.892 L
157.56 208.721 L
157.572 207.921 L
157.699 218.117 L
158.192 189.013 L
158.344 208.272 L
158.356 207.594 L
158.508 221.386 L
158.571 174.344 L
159.14 194.405 L
159.153 193.704 L
159.254 163.468 L
159.734 206.908 L
159.924 184.885 L
159.937 186.173 L
160.139 138.652 L
160.366 219.92 L
160.708 205.332 L
160.72 204.749 L
160.847 192.547 L
161.138 206.146 L
161.504 197.989 L
161.517 197.425 L
162.263 186.04 L
162.288 187.772 L
162.301 187.283 L
163.059 181.844 L
163.072 182.164 L
163.085 182.576 L
163.11 182.801 L
163.805 179.179 L
163.868 180.109 L
163.881 179.493 L
163.969 179.589 L
164.488 176.914 L
164.652 177.042 L
164.665 176.939 L
164.703 178.096 L
165.284 174.921 L
165.436 176.875 L
165.449 174.653 L
165.676 175.89 L
166.043 173.514 L
166.232 174.439 L
166.245 173.521 L
166.321 175.67 L
166.953 172.579 L
167.016 173.494 L
167.029 173.339 L
167.345 173.497 L
167.75 171.173 L
167.8 171.998 L
167.813 171.174 L
168.243 170.015 L
168.268 172.343 L
168.584 171.182 L
168.597 171.182 L
168.761 172.065 L
168.799 170.02 L
169.38 170.025 L
169.393 170.025 L
169.507 171.19 L
170.025 168.865 L
170.164 169.695 L
170.177 169.103 L
170.569 179.283 L
170.683 154.469 L
170.948 170.683 L
170.961 176.148 L
171.138 153.934 L
171.251 180.782 L
171.744 179.94 L
171.757 182.351 L
171.972 217.662 L
172.503 178.321 L
172.528 187.445 L
172.541 179.236 L
172.768 233.039 L
173.312 140.612 L
173.325 140.401 L
173.755 156.77 L
173.881 120.423 L
174.109 122.951 L
174.121 124.384 L
174.513 237.631 L
174.892 177.231 L
174.905 175.106 L
175.082 145.338 L
175.36 234.297 L
175.676 228.865 L
175.689 230.733 L
175.942 244.482 L
176.346 173.86 L
176.473 187.258 L
176.485 191.395 L
176.776 245.558 L
177.105 190.774 L
177.257 225.026 L
177.269 225.747 L
177.282 226.885 L
177.952 179.93 L
178.04 209.24 L
178.053 210.757 L
178.458 227.021 L
178.672 164.067 L
178.837 212.566 L
178.849 214.466 L
179.482 219.122 L
179.621 193.527 L
179.633 190.574 L
179.734 172.639 L
179.924 219.185 L
180.404 177.105 L
180.417 176.244 L
180.594 161.218 L
180.999 204.299 L
181.201 201.361 L
181.214 199.847 L
181.454 213.582 L
181.985 205.449 L
181.997 205.204 L
182.187 182.893 L
182.377 242.97 L
182.769 195.788 L
182.781 198.413 L
183.047 170.562 L
183.085 251.208 L
183.565 217.199 L
183.578 214.884 L
183.78 180.663 L
184.109 230.337 L
184.349 205.089 L
184.361 202.923 L
185.044 229.123 L
185.12 191.096 L
185.133 207.416 L
185.145 223.116 L
185.171 235.47 L
185.803 173.652 L
185.916 218.124 L
185.929 218.512 L
185.992 221.488 L
186.624 179.684 L
186.713 212.629 L
186.726 228.037 L
186.751 267.181 L
187.396 211.005 L
187.497 220.383 L
187.509 220.603 L
187.636 228.96 L
188.255 201.588 L
188.281 201.685 L
188.293 201.64 L
189.052 184.303 L
189.077 185.068 L
189.09 183.41 L
189.115 185.302 L
189.823 174.111 L
189.861 175.284 L
189.873 174.92 L
189.924 174.997 L
190.645 167.804 L
190.657 168.401 L
191.251 162.814 L
191.441 163.327 L
191.454 163.101 L
191.568 163.156 L
192.111 158.138 L
192.225 159.417 L
192.238 159.115 L
192.263 160.264 L
192.933 155.683 L
193.009 155.995 L
193.021 155.651 L
193.034 156.438 L
193.628 152.184 L
193.805 153.314 L
193.818 153.314 L
193.906 154.478 L
194.513 150.987 L
194.589 150.987 L
194.602 150.987 L
194.665 152.151 L
194.867 149.824 L
195.373 149.825 L
195.386 149.825 L
195.777 150.254 L
195.929 147.496 L
196.169 147.497 L
196.182 147.497 L
196.397 148.642 L
196.928 144.07 L
196.953 144.648 L
196.966 144.274 L
197.421 165.118 L
197.686 133.412 L
197.737 143.986 L
197.75 143.505 L
197.965 134.134 L
198.458 236.392 L
198.533 230.476 L
198.546 228.758 L
199.052 165.257 L
199.317 186.283 L
199.33 186.003 L
199.924 101.64 L
200.101 111.708 L
200.114 112.854 L
200.43 96.175 L
200.898 255.881 L
200.91 264.984 L
200.986 273.38 L
201.618 138.738 L
201.681 196.159 L
201.694 206.775 L
201.871 270.226 L
202.465 249.506 L
202.478 251.611 L
202.769 156.059 L
203.249 267.809 L
203.262 267.149 L
203.565 193.674 L
204.045 219.228 L
204.058 217.668 L
204.501 167.747 L
204.678 238.043 L
204.829 222.024 L
204.842 221.358 L
205.221 143.726 L
205.386 222.079 L
205.613 204.392 L
205.626 202.174 L
206.245 141.991 L
206.41 215.101 L
206.422 217.507 L
206.473 220.185 L
207.042 125.553 L
207.193 150.331 L
207.206 150.252 L
207.269 149.797 L
207.459 203.01 L
207.977 187.867 L
207.99 192.878 L
208.003 200.355 L
208.736 172.938 L
208.774 176.427 L
208.786 182.895 L
208.925 220.872 L
209.191 157.283 L
209.558 189.088 L
209.57 192.185 L
209.722 214.809 L
210.291 143.664 L
210.341 148.643 L
210.354 157.523 L
210.582 204.142 L
211.138 168.605 L
211.15 169.482 L
211.593 202.037 L
211.669 159.648 L
211.922 198.699 L
211.934 198.037 L
211.947 198.12 L
212.351 154.689 L
212.705 192.201 L
212.718 192.378 L
213.236 122.773 L
213.502 198.541 L
213.515 198.773 L
213.565 198.97 L
213.995 168.609 L
214.286 194.194 L
214.298 192.991 L
215.032 180.029 L
215.07 180.371 L
215.082 180.141 L
215.12 180.206 L
215.815 172.042 L
215.866 174.024 L
215.879 172.186 L
215.917 172.994 L
216.612 166.337 L
216.65 168.527 L
216.662 167.452 L
216.675 168.603 L
217.434 162.933 L
217.446 162.939 L
217.472 164.131 L
218.091 158.898 L
218.217 159.516 L
218.23 159.507 L
218.496 160.761 L
218.951 156.07 L
219.014 156.724 L
219.027 156.565 L
219.229 157.247 L
219.482 153.969 L
219.798 154.905 L
219.81 154.461 L
219.975 154.906 L
220.266 152.58 L
220.582 152.584 L
220.594 151.972 L
220.645 153.201 L
221.15 150.262 L
221.378 151.044 L
221.391 150.663 L
221.403 151.012 L
221.972 147.966 L
222.162 148.89 L
222.175 149.104 L
222.415 149.105 L
222.642 146.777 L
222.946 146.777 L
222.958 147.881 L
223.666 148.176 L
223.692 131.818 L
223.742 137.356 L
223.755 138.484 L
223.793 127.954 L
224.349 157.66 L
224.526 134.43 L
224.539 140.276 L
224.829 108.967 L
225.285 177.283 L
225.31 177.08 L
225.322 178.288 L
225.449 197.456 L
226.106 113.217 L
226.119 112.805 L
226.132 129.412 L
226.182 89.905 L
226.89 103.137 L
226.903 107.186 L
227.244 93.889 L
227.674 172.242 L
227.687 172.48 L
227.813 204.322 L
228.243 103.531 L
228.47 183.518 L
228.483 193.324 L
228.698 138.977 L
229.09 230.408 L
229.254 181.764 L
229.267 179.882 L
229.646 124.364 L
229.95 213.295 L
230.038 190.266 L
230.051 188.687 L
230.24 153.466 L
230.834 200.191 L
230.847 193.441 L
231.1 157.955 L
231.606 212.007 L
231.618 206.458 L
231.631 198.918 L
231.783 151.048 L
232.288 211.17 L
232.402 183.426 L
232.415 175.522 L
232.63 219.255 L
232.857 157.282 L
233.199 208.568 L
233.211 204.635 L
233.464 208.76 L
233.894 161.907 L
233.982 178.133 L
233.995 182.256 L
234.058 197.904 L
234.766 196.824 L
234.779 196.106 L
235.322 158.602 L
235.55 211.739 L
235.563 215.035 L
235.601 218.336 L
236.157 152.64 L
236.347 197.036 L
236.359 197.501 L
236.764 219.964 L
237.004 170.786 L
237.13 188.912 L
237.143 190.919 L
237.358 214.765 L
237.838 178.46 L
237.914 190.878 L
237.927 191.444 L
238.154 221.673 L
238.23 174.057 L
238.711 204.395 L
238.723 203.916 L
238.9 173.706 L
239.406 214.562 L
239.494 199.994 L
239.507 198.289 L
239.798 152.421 L
240.266 205.957 L
240.278 205.657 L
240.291 206.959 L
240.341 213.751 L
240.544 189.881 L
241.075 202.165 L
241.087 201.623 L
241.113 203.208 L
241.795 196.743 L
241.859 196.883 L
241.871 196.934 L
242.099 197.289 L
242.617 193.436 L
242.642 193.511 L
242.655 194.298 L
242.68 195.325 L
243.363 191.346 L
243.439 192.837 L
243.451 193.17 L
244.122 189.653 L
244.223 189.887 L
244.235 190.666 L
244.766 188.55 L
244.994 190.912 L
245.006 188.585 L
245.019 189.653 L
245.183 189.738 L
245.626 187.395 L
245.803 188.467 L
245.816 187.421 L
245.967 188.558 L
246.435 186.224 L
246.587 187.388 L
246.599 187.388 L
246.663 188.55 L
246.827 185.473 L
247.371 186.221 L
247.383 185.971 L
247.636 187.315 L
247.864 185.057 L
248.167 185.384 L
248.18 184.295 L
248.483 187.352 L
248.824 183.893 L
248.951 185.057 L
248.963 185.057 L
249.368 186.107 L
249.393 182.779 L
249.735 183.484 L
249.747 184.632 L
250.215 195.74 L
250.329 170.872 L
250.531 178.42 L
250.544 178.37 L
250.898 195.673 L
251.315 173.976 L
251.328 172.212 L
251.391 161.494 L
251.998 212.249 L
252.099 194.617 L
252.111 196.448 L
252.44 240.376 L
252.883 174.057 L
252.895 174.018 L
253.388 177.801 L
253.527 154.569 L
253.679 159.663 L
253.692 157.699 L
253.768 141.165 L
254.425 215.039 L
254.463 193.637 L
254.476 189.777 L
254.728 156.626 L
255.095 206.371 L
255.247 178.627 L
255.259 179.986 L
255.639 222.243 L
256.043 188.327 L
256.056 188.307 L
256.195 168.563 L
256.486 210.708 L
256.827 190.211 L
256.84 193.181 L
257.535 206.145 L
257.598 176.734 L
257.611 180.49 L
257.623 181.364 L
258.117 214.46 L
258.331 170.622 L
258.407 194.62 L
258.42 193.147 L
258.989 187.39 L
259.166 213.216 L
259.191 208.839 L
259.204 206.598 L
259.216 209.057 L
259.406 175.171 L
259.975 205.97 L
259.988 209.676 L
260.417 180.228 L
260.771 194.955 L
260.784 194.35 L
260.809 192.069 L
261.517 202.365 L
261.555 201.031 L
261.568 199.952 L
261.871 179.792 L
262.124 214.924 L
262.339 186.667 L
262.352 191.733 L
262.706 169.379 L
262.744 209.9 L
263.135 203.708 L
263.148 202.162 L
263.477 186.433 L
263.894 211.647 L
263.919 206.623 L
263.932 201.777 L
264.071 193.951 L
264.703 216.129 L
264.716 208.239 L
265.449 177.445 L
265.5 198.199 L
265.512 206.174 L
265.955 206.337 L
266.106 192.179 L
266.283 194.608 L
266.296 195.219 L
266.347 162.044 L
266.498 212.663 L
267.067 198.99 L
267.08 199.425 L
267.105 196.557 L
267.282 205.117 L
267.851 199.103 L
267.864 198.105 L
267.927 199.638 L
268.597 193.481 L
268.648 194.836 L
268.66 194.709 L
269.393 189.844 L
269.431 191.33 L
269.444 191.9 L
270.215 188.244 L
270.228 188.471 L
270.392 189.916 L
270.923 186.707 L
271.012 187.241 L
271.024 186.737 L
271.366 187.728 L
271.441 185.548 L
271.795 185.627 L
271.808 185.65 L
272.251 186.593 L
272.554 183.547 L
272.579 184.48 L
272.592 185.238 L
272.693 185.629 L
273.098 183.299 L
273.376 183.302 L
273.388 183.302 L
273.73 184.471 L
273.995 182.144 L
274.16 183.309 L
274.172 183.309 L
274.21 184.316 L
274.943 180.987 L
274.956 181.045 L
275.184 183.316 L
275.613 180.6 L
275.74 180.99 L
275.752 180.99 L
275.854 183.155 L
275.929 179.841 L
276.524 180.658 L
276.536 180.741 L
276.764 188.642 L
276.878 168.52 L
277.307 179.726 L
277.32 179.254 L
277.611 176.786 L
278.091 203.58 L
278.104 202.111 L
278.117 201.677 L
278.736 179.592 L
278.888 205.197 L
278.9 207.378 L
279.57 167.229 L
279.672 171.676 L
279.684 172.086 L
280.316 160.478 L
280.468 187.835 L
280.481 196.771 L
280.696 208.147 L
281.252 170.384 L
281.265 164.514 L
281.277 156.121 L
281.581 210.862 L
282.036 205.369 L
282.048 203.803 L
282.137 219.537 L
282.364 179.758 L
282.832 206.355 L
282.845 206.524 L
282.984 217.2 L
283.3 176.943 L
283.616 204.326 L
283.629 203.593 L
284.147 176.543 L
284.4 208.414 L
284.412 208.847 L
284.88 166.233 L
285.184 202.377 L
285.196 203.776 L
285.689 212.153 L
285.93 173.959 L
285.98 182.626 L
285.993 179.336 L
286.233 210.423 L
286.726 175.217 L
286.764 179.321 L
286.777 178.378 L
286.802 175.06 L
287.181 203.902 L
287.548 196.672 L
287.56 195.01 L
287.649 202.987 L
288.344 194.159 L
288.357 189.466 L
288.395 179.434 L
288.673 217.523 L
289.128 195.732 L
289.141 195.757 L
289.242 164.432 L
289.507 211.042 L
289.912 201.006 L
289.924 197.675 L
290.114 174.891 L
290.443 211.881 L
290.708 191.298 L
290.721 192.539 L
290.948 183.834 L
291.252 213.413 L
291.492 198.888 L
291.505 199.513 L
291.796 205.574 L
291.998 179.489 L
292.276 200.165 L
292.289 199.928 L
292.82 187.923 L
292.946 223.855 L
293.072 207.86 L
293.085 209.893 L
293.401 215.177 L
293.679 193.85 L
293.856 203.117 L
293.869 203.364 L
293.932 204.376 L
294.602 195.766 L
294.64 196.305 L
294.653 195.98 L
295.31 190.615 L
295.437 190.686 L
295.449 190.742 L
295.487 190.801 L
296.094 186.607 L
296.22 186.718 L
296.233 186.717 L
296.385 187.706 L
296.852 183.472 L
297.004 185.66 L
297.017 184.546 L
297.042 185.779 L
297.788 181.623 L
297.801 182.757 L
297.813 183.324 L
297.839 183.649 L
298.584 181.099 L
298.597 182.477 L
298.787 179.402 L
298.926 182.521 L
299.368 180.177 L
299.381 180.547 L
299.634 179.013 L
299.887 181.345 L
300.152 179.573 L
300.165 180.183 L
300.38 180.185 L
300.822 177.286 L
300.949 178.565 L
300.961 179.022 L
301.214 179.023 L
301.239 176.695 L
301.732 176.696 L
301.745 177.555 L
301.998 178.398 L
302.023 175.381 L
302.516 176.697 L
302.529 177.725 L
303.287 174.169 L
303.313 184.767 L
303.325 177.665 L
303.515 164.36 L
303.755 185.698 L
304.096 177.335 L
304.109 176.607 L
304.514 155.266 L
304.855 201.549 L
304.88 200.276 L
304.893 199.227 L
305.361 176.814 L
305.538 223.492 L
305.677 183.791 L
305.689 180.931 L
305.791 187.991 L
306.119 157.431 L
306.461 161.35 L
306.473 160.934 L
306.865 145.409 L
307.244 198.122 L
307.257 199.933 L
307.535 217.107 L
307.927 155.329 L
308.041 183.152 L
308.053 186.424 L
308.37 176.718 L
308.736 220.761 L
308.825 209.772 L
308.837 207.889 L
309.305 156.078 L
309.596 214.797 L
309.609 213.446 L
309.621 208.378 L
309.659 213.161 L
309.925 180.85 L
310.405 199.768 L
310.418 199.317 L
310.784 180.105 L
310.999 205.062 L
311.189 204.084 L
311.201 205.079 L
311.492 174.851 L
311.973 203.894 L
311.985 202.79 L
312.314 208.503 L
312.554 172.108 L
312.769 201.227 L
312.782 202.869 L
312.832 208.092 L
313.351 172.389 L
313.553 176.647 L
313.566 175.097 L
313.591 172.795 L
314.198 197.193 L
314.337 196.423 L
314.349 195.996 L
314.944 176.137 L
315.133 200.316 L
315.146 202.125 L
315.247 213.771 L
315.803 160.064 L
315.917 194.089 L
315.93 195.17 L
316.069 206.525 L
316.688 172.885 L
316.701 174.617 L
316.713 176.075 L
316.992 206.52 L
317.485 184.746 L
317.497 181.411 L
317.801 209.399 L
318.281 199.642 L
318.294 200.481 L
318.332 204.224 L
318.547 175.285 L
319.065 197.275 L
319.078 200.609 L
319.444 160.878 L
319.76 206.308 L
319.849 204.64 L
319.861 203.39 L
319.887 206.558 L
320.215 187.728 L
320.645 197.397 L
320.658 197.685 L
320.671 197.785 L
321.429 187.332 L
321.442 186.627 L
321.48 187.912 L
322.213 181.846 L
322.225 181.894 L
322.339 182.585 L
322.756 178.476 L
323.009 180.109 L
323.022 178.96 L
323.604 175.264 L
323.793 176.445 L
323.806 176.448 L
323.844 177.285 L
324.552 172.069 L
324.577 173.192 L
324.59 174.159 L
324.691 174.964 L
325.285 170.994 L
325.373 172.048 L
325.386 173.076 L
325.437 173.143 L
325.879 170.8 L
326.157 171.939 L
326.17 170.792 L
326.663 170.875 L
326.941 168.674 L
326.954 169.645 L
327.143 170.748 L
327.573 167.318 L
327.738 168.954 L
327.75 167.65 L
327.94 166.246 L
328.091 169.547 L
328.521 168.484 L
328.534 168.484 L
328.673 166.157 L
329.305 166.637 L
329.318 166.157 L
329.861 172.156 L
330.076 156.789 L
330.102 161.536 L
330.114 165.178 L
330.165 175.879 L
330.228 157.09 L
330.885 161.002 L
330.898 161.745 L
331.075 155.848 L
331.391 194.266 L
331.669 187.019 L
331.682 189.519 L
332.074 202.449 L
332.377 148.773 L
332.466 155.216 L
332.478 153.723 L
333.098 160.745 L
333.174 142.879 L
333.25 150.752 L
333.262 151.461 L
333.414 143.572 L
334.021 203.988 L
334.033 203.579 L
334.046 203.17 L
334.084 207.912 L
334.375 156.812 L
334.817 207.795 L
334.83 212.743 L
334.842 213.251 L
335.614 175.163 L
335.626 175.962 L
335.854 160.376 L
336.081 210.238 L
336.397 185.704 L
336.41 194.015 L
336.473 179.759 L
336.802 201.703 L
337.181 197.464 L
337.194 188.381 L
337.75 199.547 L
337.965 171.514 L
337.978 171.663 L
337.99 174.095 L
338.597 198.348 L
338.762 188.617 L
338.774 193.198 L
339.103 173.691 L
339.394 200.922 L
339.545 183.379 L
339.558 182.767 L
339.634 193.294 L
339.899 168.475 L
340.342 190.901 L
340.355 190.759 L
340.43 193.698 L
340.544 184.311 L
341.126 190.545 L
341.138 188.525 L
341.492 175.412 L
341.796 206.628 L
341.91 196.177 L
341.922 195.33 L
342.352 166.015 L
342.63 203.948 L
342.706 202.598 L
342.719 202.471 L
343.237 173.384 L
343.49 199.772 L
343.502 197.888 L
343.54 204.446 L
344.059 180.213 L
344.274 196.746 L
344.286 198.337 L
344.349 204.29 L
344.413 186.028 L
345.07 186.355 L
345.083 181.3 L
345.095 174.049 L
345.639 195.165 L
345.854 181.813 L
345.867 180.336 L
345.917 177.785 L
346.044 203.813 L
346.638 186.459 L
346.65 184.539 L
346.777 168.91 L
347.434 170.404 L
347.447 170.385 L
347.472 170.519 L
348.205 162.113 L
348.218 163.335 L
348.231 164.357 L
348.256 164.502 L
348.964 158.339 L
349.002 159.574 L
349.014 159.606 L
349.191 159.998 L
349.647 156.193 L
349.786 157.145 L
349.798 156.014 L
349.95 157.409 L
350.544 152.869 L
350.582 154.02 L
350.595 153.971 L
350.974 154.425 L
351.265 151.378 L
351.366 152.622 L
351.379 152.67 L
351.417 153.372 L
351.985 149.835 L
352.15 151.171 L
352.162 151.184 L
352.769 151.572 L
352.832 148.499 L
352.946 149.6 L
352.959 148.782 L
352.984 150.436 L
353.54 147.836 L
353.73 149.176 L
353.743 149.187 L
353.907 150.128 L
354.109 147.193 L
354.514 147.571 L
354.526 148.726 L
354.59 148.782 L
355.285 146.085 L
355.31 147.887 L
355.323 146.068 L
355.475 148.294 L
356.018 145.812 L
356.094 147.699 L
356.107 146.714 L
356.625 135.235 L
356.714 158.257 L
356.878 152.384 L
356.891 151.457 L
357.535 158.508 L
357.611 135.072 L
357.674 148.824 L
357.687 152.823 L
357.839 165.535 L
358.446 143.126 L
358.458 143.442 L
358.471 143.799 L
358.648 173.683 L
358.926 128.895 L
359.242 134.488 L
359.255 132.955 L
359.659 146.92 L
359.722 129.924 L
360.039 139.337 L
360.051 139.698 L
360.064 138.436 L
360.38 176.747 L
360.822 144.677 L
360.835 144.722 L
360.923 134.869 L
361.391 182.079 L
361.606 169.081 L
361.619 168.051 L
361.783 173.308 L
362.137 145.99 L
362.403 148.856 L
362.415 150.478 L
362.63 176.293 L
363.186 171.523 L
363.199 171.438 L
363.793 154.992 L
363.831 173.351 L
363.97 172.243 L
363.983 172.933 L
364.046 174.827 L
364.514 146.589 L
364.767 172.485 L
364.779 172.984 L
365.159 178.76 L
365.538 156.473 L
365.551 157.27 L
365.563 160.255 L
365.778 178.429 L
366.233 150.307 L
366.334 154.283 L
366.347 151.936 L
367.055 178.611 L
367.118 177.079 L
367.131 176.731 L
367.207 173.395 L
367.295 182.374 L
367.915 176.434 L
367.927 177.853 L
368.041 169.101 L
368.104 200.686 L
368.698 175.189 L
368.711 175.385 L
368.901 158.477 L
368.939 203 L
369.482 171.375 L
369.495 171.52 L
369.583 167.264 L
369.71 187.19 L
370.279 174.855 L
370.291 174.611 L
370.924 166.362 L
371.012 190.617 L
371.063 182.084 L
371.075 182.706 L
371.644 158.204 L
371.707 187.811 L
371.846 177.923 L
371.859 177.882 L
372.542 145.898 L
372.605 195.223 L
372.643 182.655 L
372.656 183.311 L
372.757 186.468 L
373.073 171.059 L
373.427 176.8 L
373.439 176.714 L
373.49 178.044 L
374.198 168.065 L
374.211 168.857 L
374.223 168.625 L
374.261 169.058 L
374.817 162.316 L
375.007 163.577 L
375.02 163.894 L
375.032 163.953 L
375.601 159.095 L
375.791 159.208 L
375.803 160.229 L
376.562 156.311 L
376.575 156.351 L
376.587 157.495 L
376.6 157.538 L
377.321 154.342 L
377.371 155.577 L
377.384 155.335 L
377.548 155.569 L
377.902 152.627 L
378.155 153.402 L
378.168 153.452 L
378.648 151.162 L
378.939 151.495 L
378.951 151.689 L
379.078 152.337 L
379.267 150.189 L
379.735 150.543 L
379.748 151.22 L
379.9 151.229 L
380.14 148.913 L
380.519 149.436 L
380.532 148.928 L
381.025 146.641 L
381.202 148.946 L
381.303 147.784 L
381.315 147.785 L
381.581 148.953 L
381.948 145.47 L
382.099 146.445 L
382.112 146.633 L
382.213 147.798 L
382.795 144.117 L
382.883 144.486 L
382.896 145.352 L
382.984 133.462 L
383.262 159.062 L
383.667 139.901 L
383.68 133.678 L
384.097 172.358 L
384.451 170.611 L
384.463 170.194 L
384.476 170.355 L
385.184 131.643 L
385.247 133.77 L
385.26 132.667 L
385.437 138.507 L
385.475 106.374 L
386.031 126.234 L
386.044 127.052 L
386.12 117.994 L
386.663 175.596 L
386.815 173.819 L
386.828 174.037 L
386.941 177.47 L
387.472 142.474 L
387.611 156.638 L
387.624 160.183 L
387.94 188.615 L
388.357 159.253 L
388.395 161.132 L
388.408 159.759 L
388.951 143.285 L
389.179 175.392 L
389.192 172.346 L
389.47 157.12 L
389.975 166.768 L
389.988 166.89 L
390.342 154.039 L
390.671 169.752 L
390.759 168.684 L
390.772 168.433 L
390.86 173.539 L
391.063 146.45 L
391.543 161.139 L
391.556 160.131 L
391.695 175.967 L
392.099 152.444 L
392.34 162.644 L
392.352 162.01 L
392.504 166.172 L
392.782 141.429 L
393.123 146.607 L
393.136 150.703 L
393.25 150.315 L
393.844 169.879 L
393.907 163.998 L
393.92 164.083 L
394.527 176.459 L
394.59 156.048 L
394.704 162.379 L
394.716 162.807 L
394.805 172.293 L
395.45 132.146 L
395.487 167.4 L
395.5 158.753 L
395.791 169.752 L
396.271 154.409 L
396.284 149.113 L
396.309 140.575 L
396.638 168.075 L
397.068 162.132 L
397.08 164.971 L
397.144 143.185 L
397.447 169.461 L
397.852 164.922 L
397.864 164.271 L
397.991 165.819 L
398.206 142.46 L
398.635 161.949 L
398.648 161.472 L
399.128 130.141 L
399.419 163.203 L
399.432 163.631 L
399.445 163.991 L
399.849 142.224 L
400.216 158.907 L
400.228 159.371 L
400.241 159.617 L
401 153.29 L
401.012 152.904 L
401.303 154.502 L
401.745 150.792 L
401.783 152.039 L
401.796 151.532 L
401.922 152.689 L
402.453 148.326 L
402.58 149.296 L
402.592 149.985 L
403.262 147.16 L
403.364 147.557 L
403.376 147.231 L
403.515 148.405 L
403.718 146.103 L
404.147 146.241 L
404.16 147.228 L
404.236 147.341 L
404.729 144.197 L
404.944 145.142 L
404.957 145.112 L
405.146 146.224 L
405.715 143.888 L
405.728 145.027 L
405.74 143.928 L
406.36 145.052 L
406.461 142.931 L
406.512 143.888 L
406.524 143.888 L
406.941 143.888 L
407.245 141.936 L
407.308 142.723 L
407.321 142.723 L
407.586 143.832 L
407.687 141.559 L
408.092 142.258 L
408.104 142.008 L
408.484 142.723 L
408.699 140.396 L
408.876 141.56 L
408.888 141.56 L
409.596 144.543 L
409.647 125.649 L
409.672 126.195 L
409.685 128.228 L
409.71 126.822 L
409.799 153.76 L
410.456 136.205 L
410.469 135.439 L
410.62 150.267 L
410.709 72.712 L
411.24 142.871 L
411.252 143.963 L
411.758 154.993 L
412.024 104.655 L
412.036 114.178 L
412.049 117.047 L
412.668 101.809 L
412.782 122.38 L
412.82 104.421 L
412.833 102.922 L
413.111 70.611 L
413.591 128.316 L
413.604 128.074 L
413.616 131.996 L
413.73 161.106 L
414.11 61.258 L
414.4 152.256 L
414.413 149.909 L
414.552 74.903 L
414.969 162.789 L
415.184 134.333 L
415.197 134.273 L
415.5 67.951 L
415.804 154.671 L
415.968 132.971 L
415.981 132.4 L
416.107 102.5 L
416.676 148.282 L
416.752 145.58 L
416.764 144.868 L
416.967 115.051 L
417.46 158.416 L
417.548 146.693 L
417.561 145.296 L
417.675 119.778 L
418.142 167.094 L
418.332 133.863 L
418.345 137.409 L
418.509 171.479 L
418.775 127.878 L
419.116 152.762 L
419.129 151.121 L
419.306 160.677 L
419.773 130.014 L
419.912 152.384 L
419.925 155.534 L
420.14 146.058 L
420.696 156.572 L
420.709 155.251 L
421.075 169.423 L
421.215 136.167 L
421.48 161.513 L
421.493 158.73 L
421.897 159.139 L
421.998 119.733 L
422.276 156.393 L
422.289 156.884 L
422.605 165.748 L
422.858 128.996 L
423.06 155.402 L
423.073 154.959 L
423.629 162.935 L
423.692 131.965 L
423.844 156.63 L
423.857 156.415 L
423.996 164.61 L
424.122 133.698 L
424.641 155.675 L
424.653 156.03 L
424.754 142.907 L
425.273 165.982 L
425.424 155.724 L
425.437 156.113 L
425.715 129.514 L
426.208 164.118 L
426.221 163.657 L
426.373 165.341 L
426.398 139.258 L
427.005 159.425 L
427.017 160.534 L
427.106 160.985 L
427.397 159.055 L
427.788 159.865 L
427.801 161.039 L
428.534 158.682 L
428.572 158.755 L
428.585 159.531 L
428.825 161.063 L
429.053 158.348 L
429.369 158.513 L
429.381 158.99 L
429.596 160.577 L
430.14 157.311 L
430.153 157.859 L
430.165 158.523 L
430.557 159.67 L
430.684 156.431 L
430.936 156.945 L
430.949 157.488 L
431.164 156.302 L
431.366 158.559 L
431.733 157.441 L
431.746 156.65 L
431.935 157.492 L
432.239 155.232 L
432.517 155.551 L
432.529 156.683 L
432.959 157.066 L
433.25 154.314 L
433.301 156.112 L
433.313 155.403 L
433.971 156.333 L
434.021 154.035 L
434.084 155.118 L
434.097 155.169 L
434.16 156.186 L
434.666 154.006 L
434.881 154.108 L
434.893 155.17 L
435.121 153.044 L
435.475 155.17 L
435.665 154.007 L
435.677 153.593 L
436.347 173.612 L
436.411 132.656 L
436.448 147.88 L
436.461 156.488 L
437.169 170.992 L
437.245 109.981 L
437.258 105.463 L
438.003 165.653 L
438.029 156.406 L
438.041 146.146 L
438.092 125.316 L
438.307 169.631 L
438.813 130.343 L
438.825 129.693 L
439.331 139.52 L
439.381 115.451 L
439.609 119.499 L
439.622 120.741 L
439.685 109.121 L
440.279 167.964 L
440.393 137.423 L
440.405 136.806 L
440.658 108.488 L
441.025 176.346 L
441.177 140.777 L
441.189 142.872 L
441.518 167.841 L
441.708 141.241 L
441.973 163.584 L
441.986 155.609 L
442.049 107.43 L
442.605 166.495 L
442.757 156.395 L
442.77 158.085 L
443.452 177.831 L
443.515 137.23 L
443.541 144.872 L
443.553 149.235 L
443.743 166.7 L
444.261 141.138 L
444.337 161.453 L
444.35 162.418 L
444.792 185.413 L
444.843 139.377 L
445.121 167.18 L
445.134 164.329 L
445.285 146.572 L
445.589 177.745 L
445.905 164.103 L
445.918 162.583 L
446.069 153.119 L
446.625 179.704 L
446.701 166.248 L
446.714 164.219 L
447.283 180.49 L
447.485 174.533 L
447.498 174.319 L
447.991 185.837 L
448.218 158.38 L
448.269 165.278 L
448.282 167.737 L
448.547 162.951 L
448.787 193.295 L
449.053 181.419 L
449.065 180.381 L
449.432 160.297 L
449.786 193.192 L
449.849 185.429 L
449.862 184.876 L
450.241 166.238 L
450.62 202.871 L
450.633 199.311 L
450.646 187.966 L
450.671 167.349 L
451.063 193.435 L
451.417 183.761 L
451.43 185.894 L
452.125 174.279 L
452.201 229.102 L
452.213 224.138 L
452.226 216.284 L
452.947 178.062 L
452.997 185.972 L
453.01 188.398 L
453.111 194.657 L
453.781 187.802 L
453.794 187.976 L
453.844 189.605 L
454.135 186.602 L
454.577 187.496 L
454.59 187.911 L
455.121 186.358 L
455.184 188.579 L
455.361 187.699 L
455.374 186.957 L
455.576 188.249 L
456.107 184.27 L
456.145 185.334 L
456.158 186.473 L
456.183 186.59 L
456.449 183.673 L
456.942 184.488 L
456.954 183.596 L
456.98 182.445 L
457.043 184.66 L
457.725 182.802 L
457.738 183.332 L
457.763 183.681 L
458.484 181.377 L
458.509 181.377 L
458.522 181.378 L
458.636 182.444 L
458.813 180.223 L
459.306 181.403 L
459.318 181.403 L
459.546 181.407 L
459.622 179.079 L
460.09 179.668 L
460.102 180.249 L
460.519 180.252 L
460.747 177.926 L
460.873 179.09 L
460.886 179.091 L
461.379 175.93 L
461.43 179.092 L
461.67 177.929 L
461.682 176.152 L
461.796 178.673 L
462.441 175.12 L
462.454 175.282 L
462.466 175.564 L
462.909 205.381 L
462.959 158.064 L
463.237 173.729 L
463.25 173.878 L
463.718 216.087 L
463.806 153.651 L
464.034 172.101 L
464.047 172.338 L
464.552 183.972 L
464.653 148.124 L
464.818 183.379 L
464.83 182.958 L
464.856 187.34 L
464.982 149.98 L
465.602 160.818 L
465.614 162.09 L
465.766 143.367 L
466.31 203.202 L
466.385 179.422 L
466.398 173.325 L
466.866 125.011 L
467.182 168.119 L
467.194 165.849 L
467.422 138.393 L
467.586 185.551 L
467.966 146.005 L
467.978 146.668 L
468.181 134.088 L
468.535 199.153 L
468.749 164.546 L
468.762 163.983 L
469.002 140.952 L
469.154 187.357 L
469.546 162.187 L
469.559 159.765 L
469.597 156.776 L
470.014 200.16 L
470.33 169.561 L
470.342 168.795 L
470.57 150.303 L
470.785 194.07 L
471.114 170.107 L
471.126 171.026 L
471.341 204.14 L
471.67 153.78 L
471.91 189.435 L
471.923 190.505 L
472.428 149.231 L
472.694 166.459 L
472.706 167.462 L
472.846 196.548 L
473.478 190.206 L
473.49 191.315 L
473.895 180.203 L
474.274 219.42 L
474.287 217.729 L
474.552 152.366 L
475.058 192.253 L
475.071 196.192 L
475.121 222.301 L
475.728 151.538 L
475.842 181.212 L
475.854 193.032 L
475.905 225.248 L
476.31 164.837 L
476.638 171.932 L
476.651 175.879 L
476.765 222.55 L
477.119 162.359 L
477.422 186.164 L
477.435 182.865 L
477.586 165.14 L
477.902 215.567 L
478.206 184.873 L
478.219 185.431 L
478.737 151.872 L
478.787 244.935 L
479.002 193.181 L
479.015 191.257 L
479.28 165.173 L
479.47 223.415 L
479.786 190.448 L
479.799 188.917 L
479.849 189.515 L
480.545 180.59 L
480.57 181.129 L
480.583 181.81 L
480.785 183.119 L
481.063 178.903 L
481.366 179.418 L
481.379 178.976 L
481.531 180.773 L
481.645 177.898 L
482.15 178.413 L
482.163 178.423 L
482.302 179.67 L
482.846 177.042 L
482.934 178.547 L
482.947 178.12 L
483.364 178.511 L
483.566 175.565 L
483.718 176.603 L
483.731 176.741 L
483.958 176.772 L
484.451 174.548 L
484.514 175.638 L
484.527 176.786 L
485.21 173.393 L
485.298 174.529 L
485.311 174.529 L
485.387 175.485 L
486.082 173.301 L
486.095 172.321 L
486.55 174.542 L
486.828 172.214 L
486.878 174.319 L
486.891 173.378 L
487.03 172.215 L
487.662 173.774 L
487.675 174.169 L
487.991 171.078 L
488.446 172.779 L
488.459 172.836 L
488.522 173.382 L
489.167 149.983 L
489.243 172.637 L
489.255 177.305 L
489.458 208.238 L
489.546 153.637 L
490.026 169.731 L
490.039 167.866 L
490.052 166.646 L
490.305 271.412 L
490.81 181.441 L
490.823 179.913 L
491.139 226.301 L
491.354 119.775 L
491.607 132.931 L
491.619 135.164 L
491.961 139.3 L
492.315 110.583 L
492.391 134.917 L
492.403 143.114 L
492.454 134.549 L
492.858 271.119 L
493.174 200.213 L
493.187 198.795 L
493.415 125.136 L
493.743 271.531 L
493.971 165.935 L
493.983 167.831 L
494.148 272.796 L
494.628 130.132 L
494.755 139.28 L
494.767 140.212 L
494.78 139.599 L
495.109 296.268 L
495.538 165.966 L
495.551 166.564 L
495.576 165.962 L
495.728 255.882 L
496.335 177.447 L
496.348 177.998 L
496.588 262.973 L
497.119 139.395 L
497.131 140.948 L
497.903 248.861 L
497.915 239.225 L
498.181 147.215 L
498.396 256.81 L
498.686 157.882 L
498.699 156.538 L
498.977 129.696 L
499.394 231.06 L
499.483 215.309 L
499.495 213.939 L
499.559 185.213 L
500.026 223.352 L
500.267 213.358 L
500.279 213.683 L
500.873 260.064 L
501.05 195.452 L
501.063 186.628 L
501.101 170.285 L
501.721 261.82 L
501.847 248.386 L
501.86 248.128 L
502.264 162.14 L
502.454 265.378 L
502.631 244.641 L
502.643 245.849 L
503.263 253.168 L
503.339 178.347 L
503.415 240.628 L
503.427 241.285 L
503.743 135.068 L
504.021 252.102 L
504.211 234.157 L
504.224 232.709 L
504.325 249.78 L
504.451 189.036 L
504.995 234.76 L
505.008 218.836 L
505.298 306.593 L
505.336 144.702 L
505.779 280.39 L
505.791 269.483 L
505.817 289.078 L
506.044 186.061 L
506.575 267.224 L
506.588 266.658 L
506.638 266.856 L
507.359 255.288 L
507.372 256.229 L
507.384 256.25 L
508.143 249.053 L
508.155 249.041 L
508.206 250.058 L
508.901 244.543 L
508.939 245.007 L
508.952 244.35 L
509.003 246.161 L
509.723 241.646 L
509.736 242.333 L
510.507 238.549 L
510.52 239.197 L
510.532 239.803 L
511.228 237.357 L
511.303 237.362 L
511.316 237.365 L
511.354 238.528 L
512.049 234.57 L
512.087 236.137 L
512.1 236.137 L
512.643 232.634 L
512.871 233.79 L
512.884 233.79 L
512.896 234.637 L
513.402 231.456 L
513.667 231.587 L
513.68 232.472 L
513.693 232.62 L
514.363 230.289 L
514.451 230.325 L
514.464 231.432 L
514.628 231.452 L
515.109 228.69 L
515.235 229.329 L
515.248 230.099 L
515.324 228.192 L
515.425 229.211 L
S
GR
%%Trailer
%%Pages: 1
%%EOF
