%!PS-Adobe-3.0 EPSF-3.0
%%Creator: (MATLAB, The Mathworks, Inc. Version 9.5.0.1033004 \(R2018b\) Update 2. Operating System: Mac OS X)
%%Title: ./UDDSerrzoom.eps
%%CreationDate: 2019-11-05T09:32:56
%%Pages: (atend)
%%BoundingBox:     4     3   523   369
%%LanguageLevel: 2
%%EndComments
%%BeginProlog
%%BeginResource: procset (Apache XML Graphics Std ProcSet) 1.2 0
%%Version: 1.2 0
%%Copyright: (Copyright 2001-2003,2010 The Apache Software Foundation. License terms: http://www.apache.org/licenses/LICENSE-2.0)
/bd{bind def}bind def
/ld{load def}bd
/GR/grestore ld
/GS/gsave ld
/RM/rmoveto ld
/C/curveto ld
/t/show ld
/L/lineto ld
/ML/setmiterlimit ld
/CT/concat ld
/f/fill ld
/N/newpath ld
/S/stroke ld
/CC/setcmykcolor ld
/A/ashow ld
/cp/closepath ld
/RC/setrgbcolor ld
/LJ/setlinejoin ld
/GC/setgray ld
/LW/setlinewidth ld
/M/moveto ld
/re {4 2 roll M
1 index 0 rlineto
0 exch rlineto
neg 0 rlineto
cp } bd
/_ctm matrix def
/_tm matrix def
/BT { _ctm currentmatrix pop matrix _tm copy pop 0 0 moveto } bd
/ET { _ctm setmatrix } bd
/iTm { _ctm setmatrix _tm concat } bd
/Tm { _tm astore pop iTm 0 0 moveto } bd
/ux 0.0 def
/uy 0.0 def
/F {
  /Tp exch def
  /Tf exch def
  Tf findfont Tp scalefont setfont
  /cf Tf def  /cs Tp def
} bd
/ULS {currentpoint /uy exch def /ux exch def} bd
/ULE {
  /Tcx currentpoint pop def
  gsave
  newpath
  cf findfont cs scalefont dup
  /FontMatrix get 0 get /Ts exch def /FontInfo get dup
  /UnderlinePosition get Ts mul /To exch def
  /UnderlineThickness get Ts mul /Tt exch def
  ux uy To add moveto  Tcx uy To add lineto
  Tt setlinewidth stroke
  grestore
} bd
/OLE {
  /Tcx currentpoint pop def
  gsave
  newpath
  cf findfont cs scalefont dup
  /FontMatrix get 0 get /Ts exch def /FontInfo get dup
  /UnderlinePosition get Ts mul /To exch def
  /UnderlineThickness get Ts mul /Tt exch def
  ux uy To add cs add moveto Tcx uy To add cs add lineto
  Tt setlinewidth stroke
  grestore
} bd
/SOE {
  /Tcx currentpoint pop def
  gsave
  newpath
  cf findfont cs scalefont dup
  /FontMatrix get 0 get /Ts exch def /FontInfo get dup
  /UnderlinePosition get Ts mul /To exch def
  /UnderlineThickness get Ts mul /Tt exch def
  ux uy To add cs 10 mul 26 idiv add moveto Tcx uy To add cs 10 mul 26 idiv add lineto
  Tt setlinewidth stroke
  grestore
} bd
/QT {
/Y22 exch store
/X22 exch store
/Y21 exch store
/X21 exch store
currentpoint
/Y21 load 2 mul add 3 div exch
/X21 load 2 mul add 3 div exch
/X21 load 2 mul /X22 load add 3 div
/Y21 load 2 mul /Y22 load add 3 div
/X22 load /Y22 load curveto
} bd
/SSPD {
dup length /d exch dict def
{
/v exch def
/k exch def
currentpagedevice k known {
/cpdv currentpagedevice k get def
v cpdv ne {
/upd false def
/nullv v type /nulltype eq def
/nullcpdv cpdv type /nulltype eq def
nullv nullcpdv or
{
/upd true def
} {
/sametype v type cpdv type eq def
sametype {
v type /arraytype eq {
/vlen v length def
/cpdvlen cpdv length def
vlen cpdvlen eq {
0 1 vlen 1 sub {
/i exch def
/obj v i get def
/cpdobj cpdv i get def
obj cpdobj ne {
/upd true def
exit
} if
} for
} {
/upd true def
} ifelse
} {
v type /dicttype eq {
v {
/dv exch def
/dk exch def
/cpddv cpdv dk get def
dv cpddv ne {
/upd true def
exit
} if
} forall
} {
/upd true def
} ifelse
} ifelse
} if
} ifelse
upd true eq {
d k v put
} if
} if
} if
} forall
d length 0 gt {
d setpagedevice
} if
} bd
/RE { % /NewFontName [NewEncodingArray] /FontName RE -
  findfont dup length dict begin
  {
    1 index /FID ne
    {def} {pop pop} ifelse
  } forall
  /Encoding exch def
  /FontName 1 index def
  currentdict definefont pop
  end
} bind def
%%EndResource
%%BeginResource: procset (Apache XML Graphics EPS ProcSet) 1.0 0
%%Version: 1.0 0
%%Copyright: (Copyright 2002-2003 The Apache Software Foundation. License terms: http://www.apache.org/licenses/LICENSE-2.0)
/BeginEPSF { %def
/b4_Inc_state save def         % Save state for cleanup
/dict_count countdictstack def % Count objects on dict stack
/op_count count 1 sub def      % Count objects on operand stack
userdict begin                 % Push userdict on dict stack
/showpage { } def              % Redefine showpage, { } = null proc
0 setgray 0 setlinecap         % Prepare graphics state
1 setlinewidth 0 setlinejoin
10 setmiterlimit [ ] 0 setdash newpath
/languagelevel where           % If level not equal to 1 then
{pop languagelevel             % set strokeadjust and
1 ne                           % overprint to their defaults.
{false setstrokeadjust false setoverprint
} if
} if
} bd
/EndEPSF { %def
count op_count sub {pop} repeat            % Clean up stacks
countdictstack dict_count sub {end} repeat
b4_Inc_state restore
} bd
%%EndResource
%FOPBeginFontDict
%%IncludeResource: font Courier-Oblique
%%IncludeResource: font Courier-BoldOblique
%%IncludeResource: font Courier-Bold
%%IncludeResource: font ZapfDingbats
%%IncludeResource: font Symbol
%%IncludeResource: font Helvetica
%%IncludeResource: font Helvetica-Oblique
%%IncludeResource: font Helvetica-Bold
%%IncludeResource: font Helvetica-BoldOblique
%%IncludeResource: font Times-Roman
%%IncludeResource: font Times-Italic
%%IncludeResource: font Times-Bold
%%IncludeResource: font Times-BoldItalic
%%IncludeResource: font Courier
%FOPEndFontDict
%%BeginResource: encoding WinAnsiEncoding
/WinAnsiEncoding [
/.notdef /.notdef /.notdef /.notdef /.notdef
/.notdef /.notdef /.notdef /.notdef /.notdef
/.notdef /.notdef /.notdef /.notdef /.notdef
/.notdef /.notdef /.notdef /.notdef /.notdef
/.notdef /.notdef /.notdef /.notdef /.notdef
/.notdef /.notdef /.notdef /.notdef /.notdef
/.notdef /.notdef /space /exclam /quotedbl
/numbersign /dollar /percent /ampersand /quotesingle
/parenleft /parenright /asterisk /plus /comma
/hyphen /period /slash /zero /one
/two /three /four /five /six
/seven /eight /nine /colon /semicolon
/less /equal /greater /question /at
/A /B /C /D /E
/F /G /H /I /J
/K /L /M /N /O
/P /Q /R /S /T
/U /V /W /X /Y
/Z /bracketleft /backslash /bracketright /asciicircum
/underscore /quoteleft /a /b /c
/d /e /f /g /h
/i /j /k /l /m
/n /o /p /q /r
/s /t /u /v /w
/x /y /z /braceleft /bar
/braceright /asciitilde /bullet /Euro /bullet
/quotesinglbase /florin /quotedblbase /ellipsis /dagger
/daggerdbl /circumflex /perthousand /Scaron /guilsinglleft
/OE /bullet /Zcaron /bullet /bullet
/quoteleft /quoteright /quotedblleft /quotedblright /bullet
/endash /emdash /asciitilde /trademark /scaron
/guilsinglright /oe /bullet /zcaron /Ydieresis
/space /exclamdown /cent /sterling /currency
/yen /brokenbar /section /dieresis /copyright
/ordfeminine /guillemotleft /logicalnot /sfthyphen /registered
/macron /degree /plusminus /twosuperior /threesuperior
/acute /mu /paragraph /middot /cedilla
/onesuperior /ordmasculine /guillemotright /onequarter /onehalf
/threequarters /questiondown /Agrave /Aacute /Acircumflex
/Atilde /Adieresis /Aring /AE /Ccedilla
/Egrave /Eacute /Ecircumflex /Edieresis /Igrave
/Iacute /Icircumflex /Idieresis /Eth /Ntilde
/Ograve /Oacute /Ocircumflex /Otilde /Odieresis
/multiply /Oslash /Ugrave /Uacute /Ucircumflex
/Udieresis /Yacute /Thorn /germandbls /agrave
/aacute /acircumflex /atilde /adieresis /aring
/ae /ccedilla /egrave /eacute /ecircumflex
/edieresis /igrave /iacute /icircumflex /idieresis
/eth /ntilde /ograve /oacute /ocircumflex
/otilde /odieresis /divide /oslash /ugrave
/uacute /ucircumflex /udieresis /yacute /thorn
/ydieresis
] def
%%EndResource
%FOPBeginFontReencode
/Courier-Oblique findfont
dup length dict begin
  {1 index /FID ne {def} {pop pop} ifelse} forall
  /Encoding WinAnsiEncoding def
  currentdict
end
/Courier-Oblique exch definefont pop
/Courier-BoldOblique findfont
dup length dict begin
  {1 index /FID ne {def} {pop pop} ifelse} forall
  /Encoding WinAnsiEncoding def
  currentdict
end
/Courier-BoldOblique exch definefont pop
/Courier-Bold findfont
dup length dict begin
  {1 index /FID ne {def} {pop pop} ifelse} forall
  /Encoding WinAnsiEncoding def
  currentdict
end
/Courier-Bold exch definefont pop
/Helvetica findfont
dup length dict begin
  {1 index /FID ne {def} {pop pop} ifelse} forall
  /Encoding WinAnsiEncoding def
  currentdict
end
/Helvetica exch definefont pop
/Helvetica-Oblique findfont
dup length dict begin
  {1 index /FID ne {def} {pop pop} ifelse} forall
  /Encoding WinAnsiEncoding def
  currentdict
end
/Helvetica-Oblique exch definefont pop
/Helvetica-Bold findfont
dup length dict begin
  {1 index /FID ne {def} {pop pop} ifelse} forall
  /Encoding WinAnsiEncoding def
  currentdict
end
/Helvetica-Bold exch definefont pop
/Helvetica-BoldOblique findfont
dup length dict begin
  {1 index /FID ne {def} {pop pop} ifelse} forall
  /Encoding WinAnsiEncoding def
  currentdict
end
/Helvetica-BoldOblique exch definefont pop
/Times-Roman findfont
dup length dict begin
  {1 index /FID ne {def} {pop pop} ifelse} forall
  /Encoding WinAnsiEncoding def
  currentdict
end
/Times-Roman exch definefont pop
/Times-Italic findfont
dup length dict begin
  {1 index /FID ne {def} {pop pop} ifelse} forall
  /Encoding WinAnsiEncoding def
  currentdict
end
/Times-Italic exch definefont pop
/Times-Bold findfont
dup length dict begin
  {1 index /FID ne {def} {pop pop} ifelse} forall
  /Encoding WinAnsiEncoding def
  currentdict
end
/Times-Bold exch definefont pop
/Times-BoldItalic findfont
dup length dict begin
  {1 index /FID ne {def} {pop pop} ifelse} forall
  /Encoding WinAnsiEncoding def
  currentdict
end
/Times-BoldItalic exch definefont pop
/Courier findfont
dup length dict begin
  {1 index /FID ne {def} {pop pop} ifelse} forall
  /Encoding WinAnsiEncoding def
  currentdict
end
/Courier exch definefont pop
%FOPEndFontReencode
%%EndProlog
%%Page: 1 1
%%PageBoundingBox: 0 0 531 370
%%BeginPageSetup
[1 0 0 -1 0 370] CT
%%EndPageSetup
GS
[0.99977 0 0 0.9996 0 0.14755] CT
1 GC
N
0 0 531 370 re
f
GR
GS
[0.99977 0 0 0.9996 0 0.14755] CT
1 GC
N
0 0 531 370 re
f
GR
GS
[0.99977 0 0 0.9996 0 0.14755] CT
1 GC
N
54.5 317.5 M
521 317.5 L
521 29.5 L
54.5 29.5 L
cp
f
GR
GS
[0.99977 0 0 0.9996 0 0.14755] CT
0.873 GC
1 LJ
1.225 LW
N
101.15 317.5 M
101.15 29.5 L
S
GR
GS
[0.99977 0 0 0.9996 0 0.14755] CT
0.873 GC
1 LJ
1.225 LW
N
194.45 317.5 M
194.45 29.5 L
S
GR
GS
[0.99977 0 0 0.9996 0 0.14755] CT
0.873 GC
1 LJ
1.225 LW
N
287.75 317.5 M
287.75 29.5 L
S
GR
GS
[0.99977 0 0 0.9996 0 0.14755] CT
0.873 GC
1 LJ
1.225 LW
N
381.05 317.5 M
381.05 29.5 L
S
GR
GS
[0.99977 0 0 0.9996 0 0.14755] CT
0.873 GC
1 LJ
1.225 LW
N
474.35 317.5 M
474.35 29.5 L
S
GR
GS
[0.99977 0 0 0.9996 0 0.14755] CT
0.873 GC
1 LJ
1.225 LW
N
521 274.3 M
54.5 274.3 L
S
GR
GS
[0.99977 0 0 0.9996 0 0.14755] CT
0.873 GC
1 LJ
1.225 LW
N
521 202.3 M
54.5 202.3 L
S
GR
GS
[0.99977 0 0 0.9996 0 0.14755] CT
0.873 GC
1 LJ
1.225 LW
N
521 130.3 M
54.5 130.3 L
S
GR
GS
[0.99977 0 0 0.9996 0 0.14755] CT
0.873 GC
1 LJ
1.225 LW
N
521 58.3 M
54.5 58.3 L
S
GR
GS
[0.99977 0 0 0.9996 0 0.14755] CT
0.149 GC
2 setlinecap
1 LJ
1.225 LW
N
54.5 317.5 M
521 317.5 L
S
GR
GS
[0.99977 0 0 0.9996 0 0.14755] CT
0.149 GC
2 setlinecap
1 LJ
1.225 LW
N
54.5 29.5 M
521 29.5 L
S
GR
GS
[0.99977 0 0 0.9996 0 0.14755] CT
0.149 GC
2 setlinecap
1 LJ
1.225 LW
N
101.15 317.5 M
101.15 312.835 L
S
GR
GS
[0.99977 0 0 0.9996 0 0.14755] CT
0.149 GC
2 setlinecap
1 LJ
1.225 LW
N
194.45 317.5 M
194.45 312.835 L
S
GR
GS
[0.99977 0 0 0.9996 0 0.14755] CT
0.149 GC
2 setlinecap
1 LJ
1.225 LW
N
287.75 317.5 M
287.75 312.835 L
S
GR
GS
[0.99977 0 0 0.9996 0 0.14755] CT
0.149 GC
2 setlinecap
1 LJ
1.225 LW
N
381.05 317.5 M
381.05 312.835 L
S
GR
GS
[0.99977 0 0 0.9996 0 0.14755] CT
0.149 GC
2 setlinecap
1 LJ
1.225 LW
N
474.35 317.5 M
474.35 312.835 L
S
GR
GS
[0.99977 0 0 0.9996 0 0.14755] CT
0.149 GC
2 setlinecap
1 LJ
1.225 LW
N
101.15 29.5 M
101.15 34.165 L
S
GR
GS
[0.99977 0 0 0.9996 0 0.14755] CT
0.149 GC
2 setlinecap
1 LJ
1.225 LW
N
194.45 29.5 M
194.45 34.165 L
S
GR
GS
[0.99977 0 0 0.9996 0 0.14755] CT
0.149 GC
2 setlinecap
1 LJ
1.225 LW
N
287.75 29.5 M
287.75 34.165 L
S
GR
GS
[0.99977 0 0 0.9996 0 0.14755] CT
0.149 GC
2 setlinecap
1 LJ
1.225 LW
N
381.05 29.5 M
381.05 34.165 L
S
GR
GS
[0.99977 0 0 0.9996 0 0.14755] CT
0.149 GC
2 setlinecap
1 LJ
1.225 LW
N
474.35 29.5 M
474.35 34.165 L
S
GR
GS
[0.99977 0 0 0.9996 0 0.14755] CT
0.149 GC
2 setlinecap
1 LJ
1.225 LW
N
63.83 317.5 M
63.83 315.168 L
S
GR
GS
[0.99977 0 0 0.9996 0 0.14755] CT
0.149 GC
2 setlinecap
1 LJ
1.225 LW
N
82.49 317.5 M
82.49 315.168 L
S
GR
GS
[0.99977 0 0 0.9996 0 0.14755] CT
0.149 GC
2 setlinecap
1 LJ
1.225 LW
N
119.81 317.5 M
119.81 315.168 L
S
GR
GS
[0.99977 0 0 0.9996 0 0.14755] CT
0.149 GC
2 setlinecap
1 LJ
1.225 LW
N
138.47 317.5 M
138.47 315.168 L
S
GR
GS
[0.99977 0 0 0.9996 0 0.14755] CT
0.149 GC
2 setlinecap
1 LJ
1.225 LW
N
157.13 317.5 M
157.13 315.168 L
S
GR
GS
[0.99977 0 0 0.9996 0 0.14755] CT
0.149 GC
2 setlinecap
1 LJ
1.225 LW
N
175.79 317.5 M
175.79 315.168 L
S
GR
GS
[0.99977 0 0 0.9996 0 0.14755] CT
0.149 GC
2 setlinecap
1 LJ
1.225 LW
N
213.11 317.5 M
213.11 315.168 L
S
GR
GS
[0.99977 0 0 0.9996 0 0.14755] CT
0.149 GC
2 setlinecap
1 LJ
1.225 LW
N
231.77 317.5 M
231.77 315.168 L
S
GR
GS
[0.99977 0 0 0.9996 0 0.14755] CT
0.149 GC
2 setlinecap
1 LJ
1.225 LW
N
250.43 317.5 M
250.43 315.168 L
S
GR
GS
[0.99977 0 0 0.9996 0 0.14755] CT
0.149 GC
2 setlinecap
1 LJ
1.225 LW
N
269.09 317.5 M
269.09 315.168 L
S
GR
GS
[0.99977 0 0 0.9996 0 0.14755] CT
0.149 GC
2 setlinecap
1 LJ
1.225 LW
N
306.41 317.5 M
306.41 315.168 L
S
GR
GS
[0.99977 0 0 0.9996 0 0.14755] CT
0.149 GC
2 setlinecap
1 LJ
1.225 LW
N
325.07 317.5 M
325.07 315.168 L
S
GR
GS
[0.99977 0 0 0.9996 0 0.14755] CT
0.149 GC
2 setlinecap
1 LJ
1.225 LW
N
343.73 317.5 M
343.73 315.168 L
S
GR
GS
[0.99977 0 0 0.9996 0 0.14755] CT
0.149 GC
2 setlinecap
1 LJ
1.225 LW
N
362.39 317.5 M
362.39 315.168 L
S
GR
GS
[0.99977 0 0 0.9996 0 0.14755] CT
0.149 GC
2 setlinecap
1 LJ
1.225 LW
N
399.71 317.5 M
399.71 315.168 L
S
GR
GS
[0.99977 0 0 0.9996 0 0.14755] CT
0.149 GC
2 setlinecap
1 LJ
1.225 LW
N
418.37 317.5 M
418.37 315.168 L
S
GR
GS
[0.99977 0 0 0.9996 0 0.14755] CT
0.149 GC
2 setlinecap
1 LJ
1.225 LW
N
437.03 317.5 M
437.03 315.168 L
S
GR
GS
[0.99977 0 0 0.9996 0 0.14755] CT
0.149 GC
2 setlinecap
1 LJ
1.225 LW
N
455.69 317.5 M
455.69 315.168 L
S
GR
GS
[0.99977 0 0 0.9996 0 0.14755] CT
0.149 GC
2 setlinecap
1 LJ
1.225 LW
N
493.01 317.5 M
493.01 315.168 L
S
GR
GS
[0.99977 0 0 0.9996 0 0.14755] CT
0.149 GC
2 setlinecap
1 LJ
1.225 LW
N
511.67 317.5 M
511.67 315.168 L
S
GR
GS
[0.99977 0 0 0.9996 0 0.14755] CT
0.149 GC
2 setlinecap
1 LJ
1.225 LW
N
63.83 29.5 M
63.83 31.832 L
S
GR
GS
[0.99977 0 0 0.9996 0 0.14755] CT
0.149 GC
2 setlinecap
1 LJ
1.225 LW
N
82.49 29.5 M
82.49 31.832 L
S
GR
GS
[0.99977 0 0 0.9996 0 0.14755] CT
0.149 GC
2 setlinecap
1 LJ
1.225 LW
N
119.81 29.5 M
119.81 31.832 L
S
GR
GS
[0.99977 0 0 0.9996 0 0.14755] CT
0.149 GC
2 setlinecap
1 LJ
1.225 LW
N
138.47 29.5 M
138.47 31.832 L
S
GR
GS
[0.99977 0 0 0.9996 0 0.14755] CT
0.149 GC
2 setlinecap
1 LJ
1.225 LW
N
157.13 29.5 M
157.13 31.832 L
S
GR
GS
[0.99977 0 0 0.9996 0 0.14755] CT
0.149 GC
2 setlinecap
1 LJ
1.225 LW
N
175.79 29.5 M
175.79 31.832 L
S
GR
GS
[0.99977 0 0 0.9996 0 0.14755] CT
0.149 GC
2 setlinecap
1 LJ
1.225 LW
N
213.11 29.5 M
213.11 31.832 L
S
GR
GS
[0.99977 0 0 0.9996 0 0.14755] CT
0.149 GC
2 setlinecap
1 LJ
1.225 LW
N
231.77 29.5 M
231.77 31.832 L
S
GR
GS
[0.99977 0 0 0.9996 0 0.14755] CT
0.149 GC
2 setlinecap
1 LJ
1.225 LW
N
250.43 29.5 M
250.43 31.832 L
S
GR
GS
[0.99977 0 0 0.9996 0 0.14755] CT
0.149 GC
2 setlinecap
1 LJ
1.225 LW
N
269.09 29.5 M
269.09 31.832 L
S
GR
GS
[0.99977 0 0 0.9996 0 0.14755] CT
0.149 GC
2 setlinecap
1 LJ
1.225 LW
N
306.41 29.5 M
306.41 31.832 L
S
GR
GS
[0.99977 0 0 0.9996 0 0.14755] CT
0.149 GC
2 setlinecap
1 LJ
1.225 LW
N
325.07 29.5 M
325.07 31.832 L
S
GR
GS
[0.99977 0 0 0.9996 0 0.14755] CT
0.149 GC
2 setlinecap
1 LJ
1.225 LW
N
343.73 29.5 M
343.73 31.832 L
S
GR
GS
[0.99977 0 0 0.9996 0 0.14755] CT
0.149 GC
2 setlinecap
1 LJ
1.225 LW
N
362.39 29.5 M
362.39 31.832 L
S
GR
GS
[0.99977 0 0 0.9996 0 0.14755] CT
0.149 GC
2 setlinecap
1 LJ
1.225 LW
N
399.71 29.5 M
399.71 31.832 L
S
GR
GS
[0.99977 0 0 0.9996 0 0.14755] CT
0.149 GC
2 setlinecap
1 LJ
1.225 LW
N
418.37 29.5 M
418.37 31.832 L
S
GR
GS
[0.99977 0 0 0.9996 0 0.14755] CT
0.149 GC
2 setlinecap
1 LJ
1.225 LW
N
437.03 29.5 M
437.03 31.832 L
S
GR
GS
[0.99977 0 0 0.9996 0 0.14755] CT
0.149 GC
2 setlinecap
1 LJ
1.225 LW
N
455.69 29.5 M
455.69 31.832 L
S
GR
GS
[0.99977 0 0 0.9996 0 0.14755] CT
0.149 GC
2 setlinecap
1 LJ
1.225 LW
N
493.01 29.5 M
493.01 31.832 L
S
GR
GS
[0.99977 0 0 0.9996 0 0.14755] CT
0.149 GC
2 setlinecap
1 LJ
1.225 LW
N
511.67 29.5 M
511.67 31.832 L
S
GR
GS
[0.99977 0 0 0.9996 101.12719 323.36861] CT
0.149 GC
/Times-Roman 19.25 F
GS
[1 0 0 1 0 0] CT
-12.5 18 moveto 
1 -1 scale
(3.7) t 
GR
GR
GS
[0.99977 0 0 0.9996 194.40601 323.36861] CT
0.149 GC
/Times-Roman 19.25 F
GS
[1 0 0 1 0 0] CT
-12.5 18 moveto 
1 -1 scale
(3.8) t 
GR
GR
GS
[0.99977 0 0 0.9996 287.68507 323.36861] CT
0.149 GC
/Times-Roman 19.25 F
GS
[1 0 0 1 0 0] CT
-12.5 18 moveto 
1 -1 scale
(3.9) t 
GR
GR
GS
[0.99977 0 0 0.9996 380.96388 323.36861] CT
0.149 GC
/Times-Roman 19.25 F
GS
[1 0 0 1 0 0] CT
-5 18 moveto 
1 -1 scale
(4) t 
GR
GR
GS
[0.99977 0 0 0.9996 474.24272 323.36861] CT
0.149 GC
/Times-Roman 19.25 F
GS
[1 0 0 1 0 0] CT
-12.5 18 moveto 
1 -1 scale
(4.1) t 
GR
GR
GS
[0.99977 0 0 0.9996 287.68528 367.81337] CT
0.149 GC
/Times-Roman 21 F
GS
[1 0 0 1 0 0] CT
-37.5 -5 moveto 
1 -1 scale
(Time \(h\)) t 
GR
GR
GS
[0.99977 0 0 0.9996 0 0.14755] CT
0.149 GC
2 setlinecap
1 LJ
1.225 LW
N
54.5 317.5 M
54.5 29.5 L
S
GR
GS
[0.99977 0 0 0.9996 0 0.14755] CT
0.149 GC
2 setlinecap
1 LJ
1.225 LW
N
521 317.5 M
521 29.5 L
S
GR
GS
[0.99977 0 0 0.9996 0 0.14755] CT
0.149 GC
2 setlinecap
1 LJ
1.225 LW
N
54.5 274.3 M
59.165 274.3 L
S
GR
GS
[0.99977 0 0 0.9996 0 0.14755] CT
0.149 GC
2 setlinecap
1 LJ
1.225 LW
N
54.5 202.3 M
59.165 202.3 L
S
GR
GS
[0.99977 0 0 0.9996 0 0.14755] CT
0.149 GC
2 setlinecap
1 LJ
1.225 LW
N
54.5 130.3 M
59.165 130.3 L
S
GR
GS
[0.99977 0 0 0.9996 0 0.14755] CT
0.149 GC
2 setlinecap
1 LJ
1.225 LW
N
54.5 58.3 M
59.165 58.3 L
S
GR
GS
[0.99977 0 0 0.9996 0 0.14755] CT
0.149 GC
2 setlinecap
1 LJ
1.225 LW
N
521 274.3 M
516.335 274.3 L
S
GR
GS
[0.99977 0 0 0.9996 0 0.14755] CT
0.149 GC
2 setlinecap
1 LJ
1.225 LW
N
521 202.3 M
516.335 202.3 L
S
GR
GS
[0.99977 0 0 0.9996 0 0.14755] CT
0.149 GC
2 setlinecap
1 LJ
1.225 LW
N
521 130.3 M
516.335 130.3 L
S
GR
GS
[0.99977 0 0 0.9996 0 0.14755] CT
0.149 GC
2 setlinecap
1 LJ
1.225 LW
N
521 58.3 M
516.335 58.3 L
S
GR
GS
[0.99977 0 0 0.9996 0 0.14755] CT
0.149 GC
2 setlinecap
1 LJ
1.225 LW
N
54.5 317.5 M
56.833 317.5 L
S
GR
GS
[0.99977 0 0 0.9996 0 0.14755] CT
0.149 GC
2 setlinecap
1 LJ
1.225 LW
N
54.5 303.1 M
56.833 303.1 L
S
GR
GS
[0.99977 0 0 0.9996 0 0.14755] CT
0.149 GC
2 setlinecap
1 LJ
1.225 LW
N
54.5 288.7 M
56.833 288.7 L
S
GR
GS
[0.99977 0 0 0.9996 0 0.14755] CT
0.149 GC
2 setlinecap
1 LJ
1.225 LW
N
54.5 259.9 M
56.833 259.9 L
S
GR
GS
[0.99977 0 0 0.9996 0 0.14755] CT
0.149 GC
2 setlinecap
1 LJ
1.225 LW
N
54.5 245.5 M
56.833 245.5 L
S
GR
GS
[0.99977 0 0 0.9996 0 0.14755] CT
0.149 GC
2 setlinecap
1 LJ
1.225 LW
N
54.5 231.1 M
56.833 231.1 L
S
GR
GS
[0.99977 0 0 0.9996 0 0.14755] CT
0.149 GC
2 setlinecap
1 LJ
1.225 LW
N
54.5 216.7 M
56.833 216.7 L
S
GR
GS
[0.99977 0 0 0.9996 0 0.14755] CT
0.149 GC
2 setlinecap
1 LJ
1.225 LW
N
54.5 187.9 M
56.833 187.9 L
S
GR
GS
[0.99977 0 0 0.9996 0 0.14755] CT
0.149 GC
2 setlinecap
1 LJ
1.225 LW
N
54.5 173.5 M
56.833 173.5 L
S
GR
GS
[0.99977 0 0 0.9996 0 0.14755] CT
0.149 GC
2 setlinecap
1 LJ
1.225 LW
N
54.5 159.1 M
56.833 159.1 L
S
GR
GS
[0.99977 0 0 0.9996 0 0.14755] CT
0.149 GC
2 setlinecap
1 LJ
1.225 LW
N
54.5 144.7 M
56.833 144.7 L
S
GR
GS
[0.99977 0 0 0.9996 0 0.14755] CT
0.149 GC
2 setlinecap
1 LJ
1.225 LW
N
54.5 115.9 M
56.833 115.9 L
S
GR
GS
[0.99977 0 0 0.9996 0 0.14755] CT
0.149 GC
2 setlinecap
1 LJ
1.225 LW
N
54.5 101.5 M
56.833 101.5 L
S
GR
GS
[0.99977 0 0 0.9996 0 0.14755] CT
0.149 GC
2 setlinecap
1 LJ
1.225 LW
N
54.5 87.1 M
56.833 87.1 L
S
GR
GS
[0.99977 0 0 0.9996 0 0.14755] CT
0.149 GC
2 setlinecap
1 LJ
1.225 LW
N
54.5 72.7 M
56.833 72.7 L
S
GR
GS
[0.99977 0 0 0.9996 0 0.14755] CT
0.149 GC
2 setlinecap
1 LJ
1.225 LW
N
54.5 43.9 M
56.833 43.9 L
S
GR
GS
[0.99977 0 0 0.9996 0 0.14755] CT
0.149 GC
2 setlinecap
1 LJ
1.225 LW
N
54.5 29.5 M
56.833 29.5 L
S
GR
GS
[0.99977 0 0 0.9996 0 0.14755] CT
0.149 GC
2 setlinecap
1 LJ
1.225 LW
N
521 317.5 M
518.668 317.5 L
S
GR
GS
[0.99977 0 0 0.9996 0 0.14755] CT
0.149 GC
2 setlinecap
1 LJ
1.225 LW
N
521 303.1 M
518.668 303.1 L
S
GR
GS
[0.99977 0 0 0.9996 0 0.14755] CT
0.149 GC
2 setlinecap
1 LJ
1.225 LW
N
521 288.7 M
518.668 288.7 L
S
GR
GS
[0.99977 0 0 0.9996 0 0.14755] CT
0.149 GC
2 setlinecap
1 LJ
1.225 LW
N
521 259.9 M
518.668 259.9 L
S
GR
GS
[0.99977 0 0 0.9996 0 0.14755] CT
0.149 GC
2 setlinecap
1 LJ
1.225 LW
N
521 245.5 M
518.668 245.5 L
S
GR
GS
[0.99977 0 0 0.9996 0 0.14755] CT
0.149 GC
2 setlinecap
1 LJ
1.225 LW
N
521 231.1 M
518.668 231.1 L
S
GR
GS
[0.99977 0 0 0.9996 0 0.14755] CT
0.149 GC
2 setlinecap
1 LJ
1.225 LW
N
521 216.7 M
518.668 216.7 L
S
GR
GS
[0.99977 0 0 0.9996 0 0.14755] CT
0.149 GC
2 setlinecap
1 LJ
1.225 LW
N
521 187.9 M
518.668 187.9 L
S
GR
GS
[0.99977 0 0 0.9996 0 0.14755] CT
0.149 GC
2 setlinecap
1 LJ
1.225 LW
N
521 173.5 M
518.668 173.5 L
S
GR
GS
[0.99977 0 0 0.9996 0 0.14755] CT
0.149 GC
2 setlinecap
1 LJ
1.225 LW
N
521 159.1 M
518.668 159.1 L
S
GR
GS
[0.99977 0 0 0.9996 0 0.14755] CT
0.149 GC
2 setlinecap
1 LJ
1.225 LW
N
521 144.7 M
518.668 144.7 L
S
GR
GS
[0.99977 0 0 0.9996 0 0.14755] CT
0.149 GC
2 setlinecap
1 LJ
1.225 LW
N
521 115.9 M
518.668 115.9 L
S
GR
GS
[0.99977 0 0 0.9996 0 0.14755] CT
0.149 GC
2 setlinecap
1 LJ
1.225 LW
N
521 101.5 M
518.668 101.5 L
S
GR
GS
[0.99977 0 0 0.9996 0 0.14755] CT
0.149 GC
2 setlinecap
1 LJ
1.225 LW
N
521 87.1 M
518.668 87.1 L
S
GR
GS
[0.99977 0 0 0.9996 0 0.14755] CT
0.149 GC
2 setlinecap
1 LJ
1.225 LW
N
521 72.7 M
518.668 72.7 L
S
GR
GS
[0.99977 0 0 0.9996 0 0.14755] CT
0.149 GC
2 setlinecap
1 LJ
1.225 LW
N
521 43.9 M
518.668 43.9 L
S
GR
GS
[0.99977 0 0 0.9996 0 0.14755] CT
0.149 GC
2 setlinecap
1 LJ
1.225 LW
N
521 29.5 M
518.668 29.5 L
S
GR
GS
[0.99977 0 0 0.9996 48.63903 274.33815] CT
0.149 GC
/Times-Roman 19.25 F
GS
[1 0 0 1 0 0] CT
-17 6.5 moveto 
1 -1 scale
(-5) t 
GR
GR
GS
[0.99977 0 0 0.9996 48.63903 202.36688] CT
0.149 GC
/Times-Roman 19.25 F
GS
[1 0 0 1 0 0] CT
-10 6.5 moveto 
1 -1 scale
(0) t 
GR
GR
GS
[0.99977 0 0 0.9996 48.63903 130.39559] CT
0.149 GC
/Times-Roman 19.25 F
GS
[1 0 0 1 0 0] CT
-10 6.5 moveto 
1 -1 scale
(5) t 
GR
GR
GS
[0.99977 0 0 0.9996 48.63903 58.4243] CT
0.149 GC
/Times-Roman 19.25 F
GS
[1 0 0 1 0 0] CT
-20 6.5 moveto 
1 -1 scale
(10) t 
GR
GR
GS
[0 -0.9996 0.99977 0 -0.09979 173.57823] CT
0.149 GC
/Times-Roman 21 F
GS
[1 0 0 1 0 0] CT
-59 19 moveto 
1 -1 scale
(Voltage \(mV\)) t 
GR
GR
GS
[0.99977 0 0 0.9996 287.68528 24.61035] CT
/Times-Roman 24.5 F
GS
[1 0 0 1 0 0] CT
-212.5 -6 moveto 
1 -1 scale
(UDDS cell voltage-prediction error \(zoom\)) t 
GR
GR
GS
[0.99977 0 0 0.9996 0 0.14755] CT
0 0.447 0.741 RC
1 LJ
3.15 LW
N
54.444 160.225 M
54.5 160.469 L
55.018 161.702 L
55.278 160.469 L
55.796 160.47 L
56.055 159.502 L
56.314 159.079 L
56.573 160.471 L
56.832 160.471 L
57.092 160.471 L
57.351 159.664 L
57.61 158.144 L
58.128 160.472 L
58.388 159.794 L
58.647 158.145 L
58.906 158.145 L
59.165 158.146 L
59.683 158.664 L
59.942 160.474 L
60.202 160.474 L
60.461 160.053 L
60.72 158.147 L
61.238 158.148 L
61.498 158.442 L
61.757 160.476 L
62.016 160.247 L
62.275 157.951 L
62.534 155.986 L
62.793 158.282 L
63.052 160.376 L
63.571 155.896 L
63.83 160.473 L
64.348 158.15 L
64.608 160.387 L
64.867 160.478 L
65.385 155.823 L
65.644 155.824 L
66.162 158.152 L
66.422 156.141 L
66.681 157.804 L
66.94 156.205 L
67.199 157.74 L
67.458 156.27 L
67.718 157.676 L
67.977 156.335 L
68.236 155.826 L
68.495 157.58 L
68.754 158.154 L
69.272 158.154 L
69.532 156.529 L
69.791 155.827 L
70.05 157.389 L
70.309 156.625 L
70.568 157.325 L
70.828 156.69 L
71.087 155.828 L
71.346 154.427 L
71.605 154.869 L
71.864 154.491 L
72.382 156.884 L
72.642 155.829 L
73.16 155.829 L
73.419 154.685 L
73.678 154.614 L
73.938 155.83 L
74.197 155.83 L
74.715 153.502 L
74.974 155.405 L
75.233 156.32 L
75.492 153.503 L
75.752 154.358 L
76.011 155.831 L
76.27 155.04 L
76.529 154.263 L
76.788 155.104 L
77.048 153.504 L
77.307 154.167 L
77.566 155.201 L
77.825 153.504 L
78.084 153.504 L
78.602 152.181 L
78.862 155.362 L
79.121 153.505 L
79.38 153.505 L
79.639 153.505 L
80.158 153.505 L
80.417 153.228 L
80.676 151.669 L
80.935 155.62 L
81.194 153.687 L
81.453 155.685 L
81.712 153.506 L
81.972 153.421 L
82.231 151.231 L
82.49 153.507 L
82.749 153.507 L
83.268 153.507 L
83.527 153.507 L
84.045 153.507 L
84.304 153.507 L
84.563 151.416 L
85.082 153.508 L
85.341 153.508 L
85.6 153.508 L
85.859 151.577 L
86.118 153.079 L
86.637 153.509 L
86.896 151.706 L
87.155 151.181 L
87.414 152.919 L
87.673 153.509 L
88.192 153.509 L
88.451 153.509 L
88.71 153.509 L
88.969 151.964 L
89.228 152.695 L
89.488 152.028 L
89.747 152.631 L
90.006 152.093 L
90.524 153.51 L
90.783 150.867 L
91.302 153.51 L
91.561 152.286 L
91.82 151.183 L
92.079 151.183 L
92.338 151.183 L
92.857 152.247 L
93.116 152.479 L
93.375 151.183 L
93.634 151.184 L
93.893 151.184 L
94.153 151.184 L
94.412 150.311 L
94.671 149.693 L
95.189 151.184 L
95.448 151.184 L
95.967 148.853 L
96.226 149.501 L
96.744 152.93 L
97.003 150.634 L
97.263 148.854 L
97.522 148.854 L
97.781 149.308 L
98.299 151.185 L
98.558 151.185 L
98.817 151.185 L
99.077 150.891 L
99.336 148.854 L
99.854 153.119 L
100.113 148.854 L
100.632 148.855 L
100.891 148.923 L
101.409 151.186 L
101.668 151.186 L
102.187 148.855 L
102.446 151.062 L
102.705 151.186 L
102.964 149.044 L
103.223 148.855 L
103.742 151.187 L
104.001 149.172 L
104.26 146.877 L
104.778 148.856 L
105.037 148.856 L
105.556 148.856 L
105.815 148.856 L
106.333 150.581 L
106.593 147.805 L
106.852 148.186 L
107.111 147.23 L
107.37 148.122 L
107.888 148.856 L
108.147 150.356 L
108.666 147.962 L
108.925 147.259 L
109.443 149.906 L
109.703 150.594 L
110.221 146.75 L
110.48 148.241 L
110.998 146.024 L
111.257 146.706 L
111.517 146.103 L
111.776 147.133 L
112.035 146.25 L
112.294 144.64 L
112.553 145.165 L
112.813 145.732 L
113.331 143.343 L
113.59 141.538 L
113.849 140.675 L
114.108 142.158 L
114.367 142.2 L
114.627 141.504 L
114.886 142.137 L
115.145 140.175 L
115.663 144.843 L
115.923 143.153 L
116.441 133.175 L
116.7 141.351 L
116.959 151.652 L
117.218 132.102 L
117.477 118.937 L
117.737 123.453 L
117.996 121.232 L
118.255 121.145 L
118.773 132.269 L
119.033 131.382 L
119.551 111.209 L
119.81 115.98 L
120.328 131.983 L
120.587 140.596 L
121.106 165.748 L
121.365 162.889 L
121.883 153.435 L
122.143 158.203 L
122.661 154.303 L
122.92 162.321 L
123.438 137.117 L
123.697 134.134 L
124.475 158.023 L
124.734 154.815 L
124.993 149.796 L
125.253 150.719 L
125.512 151.499 L
125.771 153.867 L
126.03 152.559 L
126.289 150.851 L
126.807 147.872 L
127.067 144.722 L
127.326 142.219 L
127.585 143.568 L
127.844 145.078 L
128.103 149.324 L
128.363 145.476 L
128.622 124.737 L
129.14 154.89 L
129.399 152.162 L
129.917 149.792 L
130.177 150.915 L
130.695 165.992 L
130.954 170.62 L
131.473 134.599 L
131.732 125.034 L
132.25 131.314 L
132.509 130.698 L
132.768 130.434 L
133.027 130.959 L
133.287 130.891 L
133.805 126.981 L
134.064 125.596 L
134.323 121.793 L
134.583 124.161 L
134.842 135.853 L
135.101 137.642 L
135.36 136.332 L
135.619 136.663 L
136.137 135.771 L
136.397 134.851 L
136.656 132.276 L
136.915 140.491 L
137.174 144.047 L
137.693 149.907 L
137.952 150.832 L
138.211 154.444 L
138.47 153.436 L
138.729 152.699 L
138.988 153.192 L
139.247 150.572 L
139.507 142.906 L
140.025 97.764 L
140.284 84.967 L
140.803 73.233 L
141.062 74.14 L
141.58 92.371 L
141.839 108.622 L
142.357 136.056 L
142.617 144.742 L
143.135 160.825 L
143.394 167.972 L
144.172 180.817 L
144.431 182.236 L
144.949 188.921 L
145.208 192.113 L
145.727 196.363 L
145.986 198.74 L
146.504 196.325 L
146.763 198.521 L
147.282 203.098 L
147.541 201.941 L
148.059 205.684 L
148.318 205.272 L
148.837 207.494 L
149.096 207.473 L
149.614 208.517 L
149.873 209.284 L
150.133 209.866 L
150.392 209.175 L
150.651 209.461 L
150.91 211.876 L
151.169 211.115 L
151.428 207.837 L
151.687 207.575 L
151.947 208.464 L
152.206 209.421 L
152.724 217.801 L
152.983 223.796 L
153.502 250.211 L
153.761 238.919 L
154.279 219.537 L
154.538 200.256 L
154.797 214.544 L
155.057 207.043 L
155.316 203.289 L
155.575 197.001 L
155.834 197.96 L
156.093 199.841 L
156.353 205.591 L
156.612 191.927 L
156.871 171.78 L
157.389 145.752 L
157.648 144.239 L
157.907 143.868 L
158.167 149.731 L
158.426 158.838 L
158.944 192.386 L
159.203 213.896 L
159.722 234.191 L
159.981 231.355 L
160.499 218.61 L
160.758 214.001 L
161.277 190.253 L
161.536 183.178 L
162.054 161.416 L
162.313 151.151 L
162.832 136.01 L
163.091 130.233 L
163.868 113.63 L
164.127 106.645 L
164.646 100.477 L
164.905 97.096 L
165.423 91.513 L
165.683 89.098 L
166.201 85.672 L
166.46 84.901 L
166.978 81.735 L
167.237 80.91 L
167.497 114.123 L
167.756 113.064 L
168.015 80.216 L
168.533 35.111 L
168.793 49.252 L
169.052 50.991 L
169.311 50.441 L
169.57 49.444 L
169.829 48.231 L
170.088 48.903 L
170.347 47.906 L
170.607 47.204 L
170.866 48.473 L
171.125 48.979 L
171.643 48.044 L
171.903 48.477 L
172.421 51.448 L
172.68 50.643 L
172.939 51.457 L
173.198 50.394 L
173.457 52.486 L
173.976 54.657 L
174.235 54.861 L
174.494 53.936 L
174.753 67.342 L
175.013 65.525 L
175.272 64.394 L
175.531 66.618 L
175.79 67.99 L
176.308 70.844 L
176.567 70.054 L
176.827 69.268 L
177.086 72.543 L
177.345 72.582 L
177.604 71.913 L
177.863 75.681 L
178.123 75.113 L
178.641 78.067 L
178.9 78.204 L
179.159 79.868 L
179.418 79.331 L
179.677 78.879 L
180.196 80.89 L
180.455 81.697 L
180.973 84.932 L
181.233 85.2 L
181.751 57.113 L
182.01 57.153 L
182.528 63.767 L
182.787 61.78 L
183.047 61.573 L
183.565 72.525 L
183.824 81.902 L
184.083 87.23 L
184.343 80.16 L
184.602 78.175 L
184.861 55.519 L
185.12 89.025 L
185.379 102.838 L
185.897 96.804 L
186.157 96.482 L
186.675 100.623 L
186.934 101.078 L
187.193 103.016 L
187.453 102.779 L
187.712 96.109 L
187.971 86.937 L
188.23 91.353 L
188.489 85.363 L
189.007 75.013 L
189.267 73.067 L
189.785 46.973 L
190.044 46.375 L
190.303 43.077 L
190.563 54.618 L
190.822 61.622 L
191.34 89.211 L
191.599 100.533 L
192.117 110.391 L
192.377 101.486 L
192.895 79.465 L
193.154 89.046 L
193.673 98.566 L
193.932 108.966 L
194.45 115.095 L
194.709 123.396 L
195.227 135.311 L
195.487 139.646 L
196.005 157.805 L
196.264 163.991 L
196.783 173.436 L
197.042 174.581 L
197.56 181.774 L
197.819 185.654 L
198.337 191.509 L
198.597 193.673 L
199.115 199.784 L
199.374 200.26 L
199.893 203.431 L
200.152 204.988 L
200.67 215.071 L
200.929 218.522 L
201.447 252.665 L
201.707 261.725 L
201.966 263.943 L
202.225 262.145 L
202.484 255.163 L
203.003 249.96 L
203.262 250.045 L
204.039 196.391 L
204.298 188.555 L
204.557 196.504 L
204.817 194.661 L
205.076 192.206 L
205.594 189.769 L
205.853 185.084 L
206.372 177.982 L
206.631 175.011 L
207.149 172.101 L
207.408 170.269 L
207.927 168.127 L
208.186 164.143 L
208.704 153.432 L
208.963 141.703 L
209.482 89.505 L
209.741 82.231 L
210.259 66.768 L
210.518 64.282 L
210.778 62.361 L
211.037 67.833 L
211.296 79.589 L
211.814 100.497 L
212.073 111.559 L
212.592 135.998 L
212.851 144.887 L
213.369 160.596 L
213.628 164.343 L
214.147 177.717 L
214.406 179.669 L
214.924 195.203 L
215.183 205.011 L
215.702 241.949 L
215.961 249.058 L
216.479 260.087 L
216.738 268.15 L
217.257 255.704 L
217.516 244.999 L
218.034 224.116 L
218.293 211.532 L
218.812 184.371 L
219.071 167.422 L
219.589 135.826 L
219.848 133.417 L
220.108 133.253 L
220.367 140.877 L
220.626 151.973 L
221.144 172.711 L
221.403 180.198 L
221.922 193.066 L
222.181 195.84 L
222.699 204.172 L
222.958 207.718 L
223.736 212.592 L
223.995 216.206 L
224.513 219.364 L
224.772 220.693 L
225.291 222.445 L
225.55 222.668 L
226.068 232.995 L
226.328 239.595 L
226.846 262.172 L
227.105 286.123 L
227.364 293.225 L
227.623 290.783 L
227.882 304.632 L
228.142 316.116 L
228.401 312.255 L
228.66 307.684 L
229.178 278.288 L
229.438 278.742 L
229.956 254.163 L
230.215 244.089 L
230.733 230.594 L
230.992 227.464 L
231.511 218.828 L
231.77 215.065 L
232.288 211.663 L
232.548 207.226 L
232.807 207.255 L
233.066 206.542 L
233.325 203.535 L
233.843 199.484 L
234.102 196.618 L
234.362 198.253 L
234.621 197.432 L
234.88 197.543 L
235.398 192.333 L
235.658 195.051 L
236.176 190.51 L
236.435 191.944 L
236.694 191.614 L
236.953 192.766 L
237.212 188.706 L
237.731 157.659 L
237.99 143.595 L
238.508 119.949 L
238.768 114.717 L
239.286 104.899 L
239.545 104.027 L
240.063 128.549 L
240.322 144.599 L
240.841 166.345 L
241.1 173.735 L
241.618 184.512 L
241.878 187.638 L
242.396 196.191 L
242.655 200.969 L
243.432 215.569 L
243.692 220.624 L
244.21 241.958 L
244.469 254.08 L
244.988 265.308 L
245.247 272.516 L
245.765 281.889 L
246.024 278.65 L
246.542 255.28 L
246.802 245.101 L
247.32 238.194 L
247.579 235.833 L
248.098 230.783 L
248.357 230.476 L
248.875 225.326 L
249.134 222.612 L
249.393 219.915 L
249.652 223.267 L
249.912 221.997 L
250.43 211.869 L
250.689 203.68 L
251.208 167.13 L
251.467 166.323 L
251.726 162.232 L
251.985 173.66 L
252.244 179.613 L
252.762 200.091 L
253.022 207.467 L
253.54 213.852 L
253.799 219.126 L
254.058 220.818 L
254.318 219.876 L
254.577 224.745 L
254.836 229.167 L
255.095 228.82 L
255.354 230.21 L
255.872 233.97 L
256.132 238.369 L
256.391 237.017 L
256.65 238.276 L
256.909 240.104 L
257.168 237.247 L
257.428 238.324 L
257.687 240.717 L
258.205 246.462 L
258.464 247.189 L
258.723 253.555 L
258.982 253.134 L
259.242 249.631 L
259.76 244.997 L
260.019 223.359 L
260.538 236.669 L
260.797 236.935 L
261.056 239.619 L
261.315 237.012 L
261.574 231.225 L
262.092 236.901 L
262.352 236.604 L
263.129 252.594 L
263.388 251.134 L
263.648 250.92 L
263.907 255.682 L
264.166 242.182 L
264.425 243.498 L
264.684 241.878 L
264.943 239.459 L
265.462 238.254 L
265.721 237.956 L
266.239 234.902 L
266.498 235.759 L
267.017 257.279 L
267.276 254.127 L
267.535 257.689 L
267.794 247.666 L
268.053 229.536 L
268.572 181.174 L
268.831 172.802 L
269.09 174.867 L
269.349 171.209 L
269.608 187.392 L
270.127 201.421 L
270.386 210.697 L
270.904 217.599 L
271.163 223.679 L
271.682 230.228 L
271.941 231.039 L
272.459 237.585 L
272.718 236.739 L
273.237 238.174 L
273.496 240.78 L
273.755 243.003 L
274.014 242.852 L
274.273 244.511 L
274.792 243.232 L
275.051 244.085 L
275.569 248.111 L
275.828 248.716 L
276.347 245.444 L
276.606 246.871 L
276.865 249.143 L
277.124 249.123 L
277.383 249.759 L
277.642 248.491 L
277.902 250.182 L
278.161 253.668 L
278.679 260.565 L
278.938 253.153 L
279.457 269.454 L
279.716 279.313 L
280.234 253.135 L
280.493 250.266 L
281.012 240.061 L
281.271 235.479 L
281.789 230.372 L
282.048 228.421 L
282.826 194.273 L
283.085 170.15 L
283.344 157.396 L
283.603 158.008 L
283.862 170.191 L
284.122 172.306 L
284.381 171.483 L
284.64 179.288 L
285.158 198.33 L
285.418 205.032 L
285.936 213.954 L
286.195 219.834 L
286.713 224.2 L
286.972 225.552 L
287.491 229.902 L
287.75 232.219 L
288.009 236.597 L
288.268 235.714 L
288.528 238.012 L
288.787 237.914 L
289.046 237.973 L
289.305 239.406 L
289.564 238.291 L
289.823 239.473 L
290.082 240.885 L
290.601 243.896 L
290.86 248.7 L
291.119 247.617 L
291.378 252.212 L
291.638 247.996 L
291.897 248.634 L
292.156 246.294 L
292.415 249.916 L
292.933 264.114 L
293.192 270.2 L
293.711 277.639 L
293.97 268.581 L
294.488 254.818 L
294.748 249.482 L
295.007 244.773 L
295.266 248.177 L
295.525 233.391 L
296.043 222.151 L
296.302 206.345 L
296.821 194.901 L
297.08 199.721 L
297.598 215.603 L
297.858 219.66 L
298.376 227.937 L
298.635 233.654 L
299.153 244.026 L
299.412 246.523 L
299.931 272.795 L
300.19 277.993 L
300.708 293.81 L
300.968 286.758 L
301.227 285.985 L
301.486 291.029 L
301.745 276.969 L
302.522 253.682 L
302.782 248.991 L
303.3 241.611 L
303.559 238.914 L
304.078 218.991 L
304.337 207.665 L
304.855 188.571 L
305.114 181.227 L
305.373 169.863 L
305.632 176.268 L
305.892 186.123 L
306.41 179.65 L
306.669 195.845 L
307.188 208.424 L
307.447 212.478 L
307.965 219.666 L
308.224 225.154 L
308.742 229.984 L
309.002 237.094 L
309.52 241.968 L
309.779 251.416 L
310.298 262.039 L
310.557 270.732 L
311.075 281.971 L
311.334 286.141 L
311.593 288.237 L
311.852 286.535 L
312.112 281.515 L
312.63 264.571 L
312.889 256.98 L
313.408 247.748 L
313.667 246.583 L
314.185 240.206 L
314.444 237.979 L
314.703 240.316 L
314.962 229.446 L
315.222 227.755 L
315.481 229.84 L
315.74 229.106 L
315.999 228.612 L
316.258 227.163 L
316.518 228.021 L
316.777 228.392 L
317.295 268.068 L
317.554 267.756 L
317.813 272.821 L
318.072 255.164 L
318.332 242.766 L
318.85 235.835 L
319.109 231.718 L
319.628 226.039 L
319.887 223.827 L
320.405 212.356 L
320.664 209.769 L
320.923 211.691 L
321.182 200.931 L
321.442 205.297 L
321.701 212.869 L
322.219 207.31 L
322.478 201.459 L
322.737 199.144 L
322.997 208.799 L
323.256 209.36 L
323.774 211.077 L
324.033 213.2 L
324.293 214.495 L
324.552 213.848 L
324.811 215.202 L
325.329 201.222 L
325.588 201.325 L
326.107 185.989 L
326.366 179.799 L
326.625 179.114 L
326.884 179.56 L
327.143 185.183 L
327.662 197.337 L
327.921 206.774 L
328.439 211.566 L
328.698 219.813 L
329.217 226.912 L
329.476 239.091 L
329.994 251.108 L
330.253 245.872 L
330.772 242.669 L
331.031 239.907 L
331.29 241.392 L
331.549 238.738 L
331.808 240.017 L
332.327 238.755 L
332.586 236.878 L
332.845 235.025 L
333.104 237.986 L
333.363 239.515 L
333.882 229.028 L
334.141 223.412 L
334.4 226.209 L
334.659 225.259 L
334.918 227.952 L
335.437 230.36 L
335.696 233.925 L
336.214 236.559 L
336.473 237.766 L
336.992 241.271 L
337.251 239.683 L
337.769 241.136 L
338.028 236.66 L
338.287 233.289 L
338.547 238.665 L
338.806 244.098 L
339.324 237.054 L
339.583 231.737 L
340.102 243.981 L
340.361 242.114 L
340.879 241.843 L
341.138 243.791 L
341.916 247.117 L
342.175 247.16 L
342.693 237.871 L
342.953 246.197 L
343.212 245.931 L
343.471 246.052 L
343.73 247.753 L
343.989 248.664 L
344.248 248.638 L
344.507 248.948 L
344.767 247.513 L
345.026 248.768 L
345.285 247.647 L
345.544 248.515 L
345.803 247.146 L
346.063 251.349 L
346.322 246.748 L
346.581 246.844 L
346.84 240.888 L
347.099 237.973 L
347.358 241.343 L
347.617 242.07 L
347.877 241.972 L
348.136 249.708 L
348.395 250.563 L
348.654 253.373 L
348.913 250.834 L
349.173 250.436 L
349.432 250.312 L
349.691 252.115 L
349.95 246.515 L
350.209 250.223 L
350.468 247.679 L
350.727 247.381 L
350.987 248.031 L
351.246 247.882 L
351.505 249.145 L
352.023 250.289 L
352.283 250.17 L
352.542 250.355 L
352.801 249.587 L
353.06 251.33 L
353.578 228.451 L
353.837 241.552 L
354.097 250.36 L
354.356 239.599 L
354.615 230.295 L
354.874 240.049 L
355.133 209.075 L
355.393 194.205 L
355.911 172.504 L
356.17 187.676 L
356.688 216.512 L
356.947 211.257 L
357.466 218.067 L
357.725 223.013 L
357.984 227.285 L
358.243 226.552 L
358.503 227.613 L
359.021 243.162 L
359.28 244.669 L
359.798 266.188 L
360.057 269.883 L
360.576 278.777 L
360.835 285.37 L
361.613 291.971 L
361.872 288.866 L
362.39 268.897 L
362.649 263.411 L
363.167 255.018 L
363.427 252.098 L
363.945 245.322 L
364.204 245.066 L
364.723 237.566 L
364.982 231.888 L
365.5 219.686 L
365.759 218.814 L
366.018 222.826 L
366.277 222.23 L
366.537 230.959 L
366.796 228.327 L
367.055 231.215 L
367.314 234.77 L
367.573 236.154 L
367.833 235.518 L
368.092 236.471 L
368.351 233.01 L
368.61 236.947 L
368.869 236.871 L
369.128 239.669 L
369.387 237.655 L
369.647 242.199 L
370.165 235.511 L
370.424 236.098 L
370.943 241.627 L
371.202 230.251 L
371.72 227.879 L
371.979 230.858 L
372.497 234.207 L
372.757 169.045 L
373.016 160.58 L
373.275 195.294 L
373.534 230.447 L
373.793 233.284 L
374.053 226.405 L
374.312 227.272 L
374.83 232.115 L
375.089 235.013 L
375.607 241.573 L
375.867 242.642 L
376.385 246.281 L
376.644 247.988 L
377.163 250.302 L
377.422 250.795 L
377.94 254.393 L
378.199 254.668 L
378.458 254.402 L
378.717 256.517 L
378.977 256.323 L
379.495 257.516 L
379.754 256.764 L
380.273 259.457 L
380.532 257.414 L
380.791 256.325 L
381.309 258.419 L
381.568 260.1 L
382.087 258.997 L
382.346 256.937 L
382.605 257.415 L
382.864 255.552 L
383.123 260.645 L
383.641 268.304 L
383.901 274.224 L
384.419 288.729 L
384.679 288.726 L
385.197 294.335 L
385.456 295.228 L
385.974 285.946 L
386.233 278.243 L
386.752 268.156 L
387.011 263.973 L
387.529 253.692 L
387.788 244.57 L
388.048 244.86 L
388.307 238.098 L
388.566 226.058 L
388.825 215.529 L
389.084 219.064 L
389.343 219.124 L
389.861 199.502 L
390.121 201.644 L
390.38 196.872 L
390.639 197.503 L
390.898 203.142 L
391.417 212.368 L
391.676 215.557 L
392.194 224.954 L
392.453 226.734 L
392.972 233.124 L
393.231 237.137 L
393.749 241.962 L
394.008 243.362 L
394.527 249.033 L
394.786 248.401 L
395.045 247.04 L
395.304 247.723 L
395.563 250.887 L
396.081 257.4 L
396.341 259.35 L
396.6 260.648 L
396.859 260.111 L
397.118 268.356 L
397.637 284.831 L
397.896 279.763 L
398.414 267.394 L
398.673 263.534 L
399.192 261.133 L
399.451 259.39 L
399.969 256.483 L
400.228 253.021 L
400.747 253.445 L
401.006 249.453 L
401.265 247.43 L
401.783 246.092 L
402.043 248.954 L
402.301 246.68 L
402.561 248.727 L
402.82 249.466 L
403.079 247.468 L
403.339 248.636 L
403.597 247.237 L
403.857 243.972 L
404.116 246.577 L
404.375 245.986 L
404.893 243.052 L
405.152 244.765 L
405.671 237.076 L
405.93 234.061 L
406.448 230.032 L
406.708 221.489 L
407.226 218.804 L
407.485 212.22 L
408.003 221.183 L
408.263 226.659 L
408.781 234.362 L
409.04 237.055 L
409.559 240.337 L
409.817 243.979 L
410.336 247.809 L
410.595 248.713 L
411.113 253.234 L
411.372 253.957 L
411.632 254.926 L
411.891 253.891 L
412.15 252.059 L
412.668 255.96 L
412.928 261.151 L
413.446 272.793 L
413.705 288.471 L
413.964 298.646 L
414.223 284.047 L
414.483 261.962 L
415.001 234.144 L
415.26 204.391 L
415.519 203.414 L
415.778 212.75 L
416.037 228.383 L
416.297 240.101 L
416.556 236.524 L
416.815 237.498 L
417.333 242.396 L
417.592 244.567 L
418.111 249.356 L
418.37 252.423 L
418.888 250.613 L
419.148 251.642 L
419.666 255.822 L
419.925 255.495 L
420.703 258.155 L
420.962 258.191 L
421.221 259.86 L
421.48 259.496 L
421.739 258.243 L
421.998 259.12 L
422.257 257.335 L
422.517 261.896 L
423.035 259.629 L
423.294 261.978 L
423.812 271.141 L
424.072 276.013 L
424.331 279.181 L
424.59 274.706 L
424.849 272.06 L
425.368 264.089 L
425.627 263.132 L
426.145 260.011 L
426.404 259.485 L
426.923 256.803 L
427.182 255.909 L
427.7 256.742 L
427.959 254.325 L
428.477 244.536 L
428.737 245.984 L
429.255 202.711 L
429.514 205.019 L
429.773 223.206 L
430.032 212.5 L
430.292 236.119 L
430.551 251.39 L
430.81 244.637 L
431.069 243.7 L
431.588 246.304 L
431.847 248.797 L
432.106 250.35 L
432.365 250.221 L
432.624 251.918 L
432.883 253.296 L
433.143 253.104 L
433.402 253.655 L
433.661 254.193 L
433.92 254.005 L
434.179 254.902 L
434.697 256.402 L
434.957 256.102 L
435.475 258.348 L
435.734 258.622 L
436.252 256.877 L
436.512 259.168 L
436.771 260.998 L
437.03 259.973 L
437.289 261.11 L
437.548 259.012 L
437.808 260.418 L
438.067 261.395 L
438.585 263.154 L
438.844 270.302 L
439.362 284.173 L
439.622 284.424 L
440.14 275.947 L
440.399 268.409 L
441.177 260.657 L
441.436 255.287 L
441.954 248.561 L
442.213 248.013 L
442.473 247.359 L
442.732 249.857 L
442.991 251.976 L
443.25 245.878 L
443.509 246.507 L
443.768 248.069 L
444.028 248.416 L
444.287 246.702 L
444.546 248.453 L
445.064 245.219 L
445.323 245.034 L
445.582 247.363 L
445.842 243.03 L
446.101 243.13 L
446.619 248.761 L
446.878 247.499 L
447.397 162.061 L
447.656 160.142 L
448.174 188.222 L
448.433 208.134 L
448.693 240.864 L
448.952 239.797 L
449.211 230.609 L
449.729 233.442 L
449.988 236.346 L
450.507 241.682 L
450.766 243.244 L
451.284 247.402 L
451.543 248.994 L
452.062 254.519 L
452.321 255.591 L
452.839 258.278 L
453.098 260.462 L
453.357 259.824 L
453.617 260.164 L
453.876 259.845 L
454.135 262.101 L
454.394 261.839 L
454.653 262.199 L
454.913 261.425 L
455.172 262.081 L
455.431 262.73 L
455.949 263.219 L
456.208 263.764 L
456.468 264.642 L
456.727 262.911 L
456.986 266.601 L
457.245 267.213 L
457.504 266.613 L
457.763 269.219 L
458.282 281.976 L
458.541 274.796 L
458.8 282.803 L
459.059 274.858 L
459.318 271.609 L
459.837 265.305 L
460.096 258.1 L
460.355 258.679 L
460.873 250.486 L
461.133 249.91 L
461.392 250.612 L
461.651 250.108 L
461.91 250.038 L
462.169 249.182 L
462.428 250.875 L
462.688 244.38 L
462.947 235.063 L
463.206 237.37 L
463.465 238.921 L
463.984 246.824 L
464.242 250 L
464.761 252.02 L
465.02 253.259 L
465.279 252.899 L
465.538 255.23 L
465.797 255.54 L
466.057 256.218 L
466.316 255.799 L
466.575 256.118 L
467.093 258.543 L
467.353 259.94 L
467.612 261.073 L
467.871 259.688 L
468.13 259.978 L
468.648 261.317 L
468.908 260.405 L
469.426 261.345 L
469.685 260.482 L
470.204 261.632 L
470.462 261.806 L
470.722 260.451 L
470.981 261.473 L
471.24 261.377 L
471.499 260.981 L
471.758 261.006 L
472.017 260.35 L
472.536 261.776 L
472.795 261.67 L
473.313 259.197 L
473.573 259.699 L
474.091 258.545 L
474.35 259.512 L
474.609 261.716 L
474.868 261.098 L
475.128 257.969 L
475.646 258.775 L
475.905 258.771 L
476.164 257.695 L
476.424 259.936 L
476.682 259.625 L
476.942 256.397 L
477.201 258.52 L
477.46 258.545 L
477.719 256.838 L
477.978 257.17 L
478.237 257.253 L
478.497 255.296 L
478.756 255.599 L
479.015 255.704 L
479.274 255.988 L
479.533 253.982 L
479.793 254.219 L
480.311 256.61 L
480.57 254.764 L
480.829 252.764 L
481.088 252.75 L
481.348 254.922 L
481.607 253.308 L
481.866 257.333 L
482.125 254.133 L
482.384 255.357 L
482.902 251.969 L
483.162 253.457 L
483.68 251.835 L
483.939 251.969 L
484.457 253.774 L
484.717 252.937 L
485.235 250.961 L
485.494 251.795 L
486.013 252.707 L
486.272 252.875 L
486.531 254.392 L
486.79 252.54 L
487.049 250.672 L
487.308 252.153 L
487.568 251.952 L
487.826 250.929 L
488.086 250.96 L
488.345 249.793 L
488.604 248.786 L
489.122 250.173 L
489.382 250.044 L
489.641 250.253 L
489.9 249.066 L
490.159 249.168 L
490.677 249.301 L
490.937 249.328 L
491.455 248.546 L
491.714 247.914 L
492.233 249.505 L
492.492 248.883 L
492.751 247.993 L
493.01 249.727 L
493.269 249.652 L
493.528 249.667 L
493.788 249.264 L
494.046 247.917 L
494.306 249.276 L
494.565 247.869 L
494.824 249.878 L
495.342 247.925 L
495.602 249.671 L
496.12 247.745 L
496.379 247.712 L
496.638 247.735 L
496.897 247.622 L
497.157 245.45 L
497.675 247.82 L
497.934 247.768 L
498.453 245.488 L
498.712 247.806 L
498.971 243.504 L
499.23 245.457 L
499.489 245.628 L
499.748 247.696 L
500.266 245.796 L
500.526 247.735 L
500.785 246.007 L
501.044 247.669 L
501.304 248.017 L
501.822 243.497 L
502.081 243.476 L
502.599 245.317 L
502.858 247.629 L
503.377 245.794 L
503.636 245.848 L
503.895 244.282 L
504.154 245.173 L
504.413 245.884 L
504.932 243.61 L
505.191 243.631 L
505.45 242.172 L
505.709 242.68 L
505.968 242.323 L
506.486 245.949 L
506.746 245.951 L
507.264 241.347 L
507.523 242.503 L
507.782 242.645 L
508.042 241.413 L
508.301 242.438 L
508.56 243.721 L
508.819 243.671 L
509.078 244.634 L
509.337 245.154 L
509.597 242.786 L
509.856 241.376 L
510.374 241.477 L
510.633 242.272 L
510.893 243.733 L
511.152 243.084 L
511.411 241.421 L
511.929 243.842 L
512.188 243.233 L
512.448 242.002 L
512.706 243.745 L
512.966 243.286 L
513.225 241.929 L
513.484 243.425 L
513.744 241.557 L
514.002 241.51 L
514.262 241.808 L
514.521 243.446 L
514.78 241.755 L
515.039 243.576 L
515.298 241.584 L
515.557 241.531 L
515.817 241.652 L
516.076 243.715 L
516.594 239.238 L
516.853 241.608 L
517.372 239.236 L
517.631 239.236 L
518.149 239.171 L
518.408 239.232 L
518.926 241.383 L
519.186 239.623 L
519.445 239.273 L
519.704 241.235 L
519.964 239.831 L
520.222 241.222 L
520.482 241.615 L
520.741 237.991 L
521 238.782 L
521.056 238.913 L
S
GR
%%Trailer
%%Pages: 1
%%EOF
