%!PS-Adobe-3.0 EPSF-3.0
%%BoundingBox: 0 0 73 19
%%Creator: MathType
%%Title: 1.eps
%%CreationDate: 09/17/18
%%DocumentFonts: SymbolMT
%%+ TimesNewRomanPSMT
%%DocumentNeededFonts: SymbolMT
%%+ TimesNewRomanPSMT
%%DocumentProcessColors: Black
%%Baseline: 6
%%Dimensions: H=0.264, W=1.014
%%EndComments
%MathType!MTEF!1!1!+-
%feaagKart1ev2aaatCvAUfeBSjuyZL2yd9gzLbvyNv2CaerbuL
%wBLnhiov2DGi1BTfMBaeXatLxBI9gBaerbd9wDYLwzYbItLDha
%rqqtubsr4rNCHbWexLMBbXgBd9gzLbvyNv2CaeHbl7mZLdGeaG
%qiVu0Je9sqqrpepC0xbbL8F4rqqrFfpeea0xe9Lq-Jc9vqaqpe
%pm0xbba9pwe9Q8fs0-yqaqpepae9pg0FirpepeKkFr0xfr-xfr
%-xb9adbaqaaeGaciGaaiaabeqaamaabaabauaakeaacqaH4oqC
%daqhaaWcbaGaaGimaaqaaiaabchaaaGccaGGSaGaeqiUde3aa0
%baaSqaaiaaigdacaaIWaGaaGimaaqaaiaabchaaaGccaGGSaGa
%eqiUde3aa0baaSqaaiaaicdaaeaacaqGUbaaaOGaaiilaiabeI
%7aXnaaDaaaleaacaaIXaGaaGimaiaaicdaaeaacaqGUbaaaaaa
%!5275!
%MathType!MathML!1!1!+-
%<?xmlversion="1.0"?><!--MathType@Translator@5@5@Ma
%thML2(Clipboard).tdl@MathML2.0(Clipboard)@--><math
%display='block'xmlns='http://www.w3.org/1998/Math/
%MathML'><mrow><msubsup><mi>&#x03B8;</mi><mn>0</mn>
%<mtext>p</mtext></msubsup><mo>,</mo><msubsup><mi>&
%#x03B8;</mi><mrow><mn>100</mn></mrow><mtext>p</mte
%xt></msubsup><mo>,</mo><msubsup><mi>&#x03B8;</mi><
%mn>0</mn><mtext>n</mtext></msubsup><mo>,</mo><msub
%sup><mi>&#x03B8;</mi><mrow><mn>100</mn></mrow><mte
%xt>n</mtext></msubsup></mrow></math><!--MathType@E
%nd@5@5@-->!
/MTsave save def 50 dict begin
/bdef {bind def} bind def
/xdef {exch def} bdef
/rndpos { transform round exch round exch itransform } bdef
/rndvec { dtransform round exch round exch idtransform } bdef
/rnddist { 0 rndvec pop } bdef
/rndmvto { rndpos moveto } bdef
/rndlnto { rndpos lineto } bdef
64 -533 .03125 -.03125 scale translate
/fs 0 def
/sf {exch dup /fs xdef dup neg matrix scale makefont setfont} bdef
/f1 {findfont dup /cf xdef sf} bdef
/ns {cf sf} bdef
/sh {rndmvto show} bdef
0 setgray
/f2 {findfont matrix dup 2 .22 put makefont dup /cf xdef sf} bdef
384 /SymbolMT f2
(q) -42 341 sh
(q) 479 341 sh
(q) 1150 341 sh
(q) 1678 341 sh
222 /TimesNewRomanPSMT f1
(0) 172 440 sh
(1) 672 440 sh
(0) 783 440 sh
(0) 894 440 sh
(0) 1364 440 sh
(1) 1871 440 sh
(0) 1982 440 sh
(0) 2093 440 sh
222 /TimesNewRomanPSMT f1
(p) 219 169 sh
(p) 740 169 sh
(n) 1411 169 sh
(n) 1939 169 sh
384 /TimesNewRomanPSMT f1
(,) 371 341 sh
(,) 1042 341 sh
(,) 1570 341 sh
end MTsave restore
