%!PS-Adobe-3.0 EPSF-3.0
%%BoundingBox: 0 0 69 44
%%Creator: MathType
%%Title: 2.eps
%%CreationDate: 09/17/18
%%DocumentFonts: SymbolMT
%%+ TimesNewRomanPS-ItalicMT
%%+ TimesNewRomanPSMT
%%DocumentNeededFonts: SymbolMT
%%+ TimesNewRomanPS-ItalicMT
%%+ TimesNewRomanPSMT
%%DocumentProcessColors: Black
%%Baseline: 19
%%Dimensions: H=0.611, W=0.958
%%EndComments
%MathType!MTEF!1!1!+-
%feaagKart1ev2aaatCvAUfeBSjuyZL2yd9gzLbvyNv2CaerbuL
%wBLnhiov2DGi1BTfMBaeXatLxBI9gBaerbd9wDYLwzYbItLDha
%rqqtubsr4rNCHbWexLMBbXgBd9gzLbvyNv2CaeHbl7mZLdGeaG
%qiVu0Je9sqqrpepC0xbbL8F4rqqrFfpeea0xe9Lq-Jc9vqaqpe
%pm0xbba9pwe9Q8fs0-yqaqpepae9pg0FirpepeKkFr0xfr-xfr
%-xb9adbaqaaeGaciGaaiaabeqaamaabaabauaakqaabeqaamaa
%naaabaGaam4AaaaadaqhaaWcbaGaaGimaaqaaiaabchaaaGcca
%GGSaWaa0aaaeaacqaHdpWCaaWaaWbaaSqabeaacaqGWbaaaOGa
%aiilamaanaaabaGaeqOUdSgaamaaCaaaleqabaGaaeiCaaaaki
%aacYcadaqdaaqaaiaadkfaaaWaa0baaSqaaiaabsgacaqGSbaa
%baGaaeiCaaaaaOqaamaanaaabaGaam4AaaaadaqhaaWcbaGaaG
%imaaqaaiaab6gaaaGccaGGSaWaa0aaaeaacqaHdpWCaaWaaWba
%aSqabeaacaqGUbaaaOGaaiilamaanaaabaGaeqOUdSgaamaaCa
%aaleqabaGaaeOBaaaakiaacYcadaqdaaqaaiaadkfaaaWaa0ba
%aSqaaiaabsgacaqGSbaabaGaaeOBaaaaaaaa!5CA6!
%MathType!MathML!1!1!+-
%<?xmlversion="1.0"?><!--MathType@Translator@5@5@Ma
%thML2(Clipboard).tdl@MathML2.0(Clipboard)@--><math
%display='block'xmlns='http://www.w3.org/1998/Math/
%MathML'><mtablecolumnalign='left'><mtr><mtd><msubs
%up><moveraccent='true'><mi>k</mi><mostretchy='true
%'>&#x00AF;</mo></mover><mn>0</mn><mtext>p</mtext><
%/msubsup><mo>,</mo><msup><moveraccent='true'><mi>&
%#x03C3;</mi><mostretchy='true'>&#x00AF;</mo></move
%r><mtext>p</mtext></msup><mo>,</mo><msup><moveracc
%ent='true'><mi>&#x03BA;</mi><mostretchy='true'>&#x
%00AF;</mo></mover><mtext>p</mtext></msup><mo>,</mo
%><msubsup><moveraccent='true'><mi>R</mi><mostretch
%y='true'>&#x00AF;</mo></mover><mrow><mtext>dl</mte
%xt></mrow><mtext>p</mtext></msubsup></mtd></mtr><m
%tr><mtd><msubsup><moveraccent='true'><mi>k</mi><mo
%stretchy='true'>&#x00AF;</mo></mover><mn>0</mn><mt
%ext>n</mtext></msubsup><mo>,</mo><msup><moveraccen
%t='true'><mi>&#x03C3;</mi><mostretchy='true'>&#x00
%AF;</mo></mover><mtext>n</mtext></msup><mo>,</mo><
%msup><moveraccent='true'><mi>&#x03BA;</mi><mostret
%chy='true'>&#x00AF;</mo></mover><mtext>n</mtext></
%msup><mo>,</mo><msubsup><moveraccent='true'><mi>R<
%/mi><mostretchy='true'>&#x00AF;</mo></mover><mrow>
%<mtext>dl</mtext></mrow><mtext>n</mtext></msubsup>
%</mtd></mtr></mtable></math><!--MathType@End@5@5@-
%->!
/MTsave save def 50 dict begin
/bdef {bind def} bind def
/xdef {exch def} bdef
/rndpos { transform round exch round exch itransform } bdef
/rndvec { dtransform round exch round exch idtransform } bdef
/rnddist { 0 rndvec pop } bdef
/rndmvto { rndpos moveto } bdef
/rndlnto { rndpos lineto } bdef
64 -1320 .03125 -.03125 scale translate
0 setgray
/thick 0 def
/th { dup setlinewidth /thick xdef } bdef
19 th 0 85 rndmvto 180 0 rlineto stroke
509 85 rndmvto 240 0 rlineto stroke
1078 85 rndmvto 210 0 rlineto stroke
1617 85 rndmvto 234 0 rlineto stroke
0 809 rndmvto 180 0 rlineto stroke
516 809 rndmvto 240 0 rlineto stroke
1092 809 rndmvto 210 0 rlineto stroke
1638 809 rndmvto 234 0 rlineto stroke
/fs 0 def
/sf {exch dup /fs xdef dup neg matrix scale makefont setfont} bdef
/f1 {findfont dup /cf xdef sf} bdef
/ns {cf sf} bdef
/sh {rndmvto show} bdef
384 /TimesNewRomanPS-ItalicMT f1
(k) -6 442 sh
(R) 1623 442 sh
(k) -6 1166 sh
(R) 1644 1166 sh
222 /TimesNewRomanPSMT f1
(0) 204 465 sh
(0) 204 1189 sh
222 /TimesNewRomanPSMT f1
(p) 207 169 sh
(p) 776 169 sh
(p) 1315 169 sh
(d) 1875 459 sh
(l) 1986 459 sh
(p) 1878 169 sh
(n) 207 893 sh
(n) 783 893 sh
(n) 1329 893 sh
(d) 1896 1183 sh
(l) 2007 1183 sh
(n) 1899 893 sh
384 /TimesNewRomanPSMT f1
(,) 359 442 sh
(,) 928 442 sh
(,) 1467 442 sh
(,) 366 1166 sh
(,) 942 1166 sh
(,) 1488 1166 sh
/f2 {findfont matrix dup 2 .22 put makefont dup /cf xdef sf} bdef
384 /SymbolMT f2
(s) 473 442 sh
(k) 1048 442 sh
(s) 480 1166 sh
(k) 1062 1166 sh
end MTsave restore
