%!PS-Adobe-3.0 EPSF-3.0
%%BoundingBox: 0 0 17 36
%%Creator: MathType
%%Title: 3.eps
%%CreationDate: 09/17/18
%%DocumentFonts: SymbolMT
%%+ TimesNewRomanPS-ItalicMT
%%DocumentNeededFonts: SymbolMT
%%+ TimesNewRomanPS-ItalicMT
%%DocumentProcessColors: Black
%%Baseline: 15
%%Dimensions: H=0.500, W=0.236
%%EndComments
%MathType!MTEF!1!1!+-
%feaagKart1ev2aaatCvAUfeBSjuyZL2yd9gzLbvyNv2CaerbuL
%wBLnhiov2DGi1BTfMBaeXatLxBI9gBaerbd9wDYLwzYbItLDha
%rqqtubsr4rNCHbWexLMBbXgBd9gzLbvyNv2CaeHbl7mZLdGeaG
%qiVu0Je9sqqrpepC0xbbL8F4rqqrFfpeea0xe9Lq-Jc9vqaqpe
%pm0xbba9pwe9Q8fs0-yqaqpepae9pg0FirpepeKkFr0xfr-xfr
%-xb9adbaqaaeGaciGaaiaabeqaamaabaabauaakqaabeqaamaa
%naaabaGaeqOUdSgaamaaBaaaleaacaWGebaabeaaaOqaaiabeI
%8a5baaaa!43B8!
%MathType!MathML!1!1!+-
%<?xmlversion="1.0"?><!--MathType@Translator@5@5@Ma
%thML2(Clipboard).tdl@MathML2.0(Clipboard)@--><math
%display='block'xmlns='http://www.w3.org/1998/Math/
%MathML'><mtablecolumnalign='left'><mtr><mtd><msub>
%<moveraccent='true'><mi>&#x03BA;</mi><mostretchy='
%true'>&#x00AF;</mo></mover><mi>D</mi></msub></mtd>
%</mtr><mtr><mtd><mi>&#x03C8;</mi></mtd></mtr></mta
%ble></math><!--MathType@End@5@5@-->!
/MTsave save def 50 dict begin
/bdef {bind def} bind def
/xdef {exch def} bdef
/rndpos { transform round exch round exch itransform } bdef
/rndvec { dtransform round exch round exch idtransform } bdef
/rnddist { 0 rndvec pop } bdef
/rndmvto { rndpos moveto } bdef
/rndlnto { rndpos lineto } bdef
64 -1086 .03125 -.03125 scale translate
0 setgray
/thick 0 def
/th { dup setlinewidth /thick xdef } bdef
19 th 0 9 rndmvto 210 0 rlineto stroke
/fs 0 def
/sf {exch dup /fs xdef dup neg matrix scale makefont setfont} bdef
/f1 {findfont dup /cf xdef sf} bdef
/ns {cf sf} bdef
/sh {rndmvto show} bdef
/f2 {findfont matrix dup 2 .22 put makefont dup /cf xdef sf} bdef
384 /SymbolMT f2
(k) -30 366 sh
(y) -66 942 sh
222 /TimesNewRomanPS-ItalicMT f1
(D) 243 383 sh
end MTsave restore
