%!PS-Adobe-3.0 EPSF-3.0
%%BoundingBox: 0 0 91 44
%%Creator: MathType
%%Title: 4.eps
%%CreationDate: 09/17/18
%%DocumentFonts: TimesNewRomanPS-ItalicMT
%%+ TimesNewRomanPSMT
%%DocumentNeededFonts: TimesNewRomanPS-ItalicMT
%%+ TimesNewRomanPSMT
%%DocumentProcessColors: Black
%%Baseline: 19
%%Dimensions: H=0.611, W=1.264
%%EndComments
%MathType!MTEF!1!1!+-
%feaagKart1ev2aaatCvAUfeBSjuyZL2yd9gzLbvyNv2CaerbuL
%wBLnhiov2DGi1BTfMBaeXatLxBI9gBaerbd9wDYLwzYbItLDha
%rqqtubsr4rNCHbWexLMBbXgBd9gzLbvyNv2CaeHbl7mZLdGeaG
%qiVu0Je9sqqrpepC0xbbL8F4rqqrFfpeea0xe9Lq-Jc9vqaqpe
%pm0xbba9pwe9Q8fs0-yqaqpepae9pg0FirpepeKkFr0xfr-xfr
%-xb9adbaqaaeGaciGaaiaabeqaamaabaabauaakqaabeqaamaa
%naaabaGaamiraaaadaqhaaWcbaGaam4CaaqaaiaabchaaaGcca
%GGSaWaa0aaaeaacaWGUbaaamaaDaaaleaacaWGLbaabaGaaeiC
%aaaakiaacYcadaqdaaqaaiaadkfaaaWaa0baaSqaaiaadAgaae
%aacaqGWbaaaOGaaiilamaanaaabaGaam4qaaaadaqhaaWcbaGa
%aeizaiaabYgaaeaacaqGWbaaaOGaaiilamaanaaabaGaam4qaa
%aadaqhaaWcbaGaamOzaaqaaiaabchaaaaakeaadaqdaaqaaiaa
%dseaaaWaa0baaSqaaiaadohaaeaacaqGUbaaaOGaaiilamaana
%aabaGaamOBaaaadaqhaaWcbaGaamyzaaqaaiaab6gaaaGccaGG
%SaWaa0aaaeaacaWGsbaaamaaDaaaleaacaWGMbaabaGaaeOBaa
%aakiaacYcadaqdaaqaaiaadoeaaaWaa0baaSqaaiaabsgacaqG
%SbaabaGaaeOBaaaakiaacYcadaqdaaqaaiaadoeaaaWaa0baaS
%qaaiaadAgaaeaacaqGUbaaaaaaaa!6444!
%MathType!MathML!1!1!+-
%<?xmlversion="1.0"?><!--MathType@Translator@5@5@Ma
%thML2(Clipboard).tdl@MathML2.0(Clipboard)@--><math
%display='block'xmlns='http://www.w3.org/1998/Math/
%MathML'><mtablecolumnalign='left'><mtr><mtd><msubs
%up><moveraccent='true'><mi>D</mi><mostretchy='true
%'>&#x00AF;</mo></mover><mi>s</mi><mtext>p</mtext><
%/msubsup><mo>,</mo><msubsup><moveraccent='true'><m
%i>n</mi><mostretchy='true'>&#x00AF;</mo></mover><m
%i>e</mi><mtext>p</mtext></msubsup><mo>,</mo><msubs
%up><moveraccent='true'><mi>R</mi><mostretchy='true
%'>&#x00AF;</mo></mover><mi>f</mi><mtext>p</mtext><
%/msubsup><mo>,</mo><msubsup><moveraccent='true'><m
%i>C</mi><mostretchy='true'>&#x00AF;</mo></mover><m
%row><mtext>dl</mtext></mrow><mtext>p</mtext></msub
%sup><mo>,</mo><msubsup><moveraccent='true'><mi>C</
%mi><mostretchy='true'>&#x00AF;</mo></mover><mi>f</
%mi><mtext>p</mtext></msubsup></mtd></mtr><mtr><mtd
%><msubsup><moveraccent='true'><mi>D</mi><mostretch
%y='true'>&#x00AF;</mo></mover><mi>s</mi><mtext>n</
%mtext></msubsup><mo>,</mo><msubsup><moveraccent='t
%rue'><mi>n</mi><mostretchy='true'>&#x00AF;</mo></m
%over><mi>e</mi><mtext>n</mtext></msubsup><mo>,</mo
%><msubsup><moveraccent='true'><mi>R</mi><mostretch
%y='true'>&#x00AF;</mo></mover><mi>f</mi><mtext>n</
%mtext></msubsup><mo>,</mo><msubsup><moveraccent='t
%rue'><mi>C</mi><mostretchy='true'>&#x00AF;</mo></m
%over><mrow><mtext>dl</mtext></mrow><mtext>n</mtext
%></msubsup><mo>,</mo><msubsup><moveraccent='true'>
%<mi>C</mi><mostretchy='true'>&#x00AF;</mo></mover>
%<mi>f</mi><mtext>n</mtext></msubsup></mtd></mtr></
%mtable></math><!--MathType@End@5@5@-->!
/MTsave save def 50 dict begin
/bdef {bind def} bind def
/xdef {exch def} bdef
/rndpos { transform round exch round exch itransform } bdef
/rndvec { dtransform round exch round exch idtransform } bdef
/rnddist { 0 rndvec pop } bdef
/rndmvto { rndpos moveto } bdef
/rndlnto { rndpos lineto } bdef
64 -1322 .03125 -.03125 scale translate
0 setgray
/thick 0 def
/th { dup setlinewidth /thick xdef } bdef
19 th 0 85 rndmvto 276 0 rlineto stroke
605 85 rndmvto 174 0 rlineto stroke
1108 85 rndmvto 234 0 rlineto stroke
1712 85 rndmvto 246 0 rlineto stroke
2343 85 rndmvto 246 0 rlineto stroke
0 809 rndmvto 276 0 rlineto stroke
612 809 rndmvto 174 0 rlineto stroke
1122 809 rndmvto 234 0 rlineto stroke
1726 809 rndmvto 246 0 rlineto stroke
2357 809 rndmvto 246 0 rlineto stroke
/fs 0 def
/sf {exch dup /fs xdef dup neg matrix scale makefont setfont} bdef
/f1 {findfont dup /cf xdef sf} bdef
/ns {cf sf} bdef
/sh {rndmvto show} bdef
384 /TimesNewRomanPS-ItalicMT f1
(D) 6 442 sh
(n) 599 442 sh
(R) 1114 442 sh
(C) 1694 442 sh
(C) 2325 442 sh
(D) 6 1166 sh
(n) 606 1166 sh
(R) 1128 1166 sh
(C) 1708 1166 sh
(C) 2339 1166 sh
222 ns
(s) 306 459 sh
(e) 803 465 sh
(f) 1410 459 sh
(f) 2657 465 sh
(s) 306 1183 sh
(e) 810 1189 sh
(f) 1424 1183 sh
(f) 2671 1189 sh
222 /TimesNewRomanPSMT f1
(p) 303 169 sh
(p) 806 169 sh
(p) 1369 169 sh
(d) 1982 465 sh
(l) 2093 465 sh
(p) 1985 169 sh
(p) 2616 169 sh
(n) 303 893 sh
(n) 813 893 sh
(n) 1383 893 sh
(d) 1996 1189 sh
(l) 2107 1189 sh
(n) 1999 893 sh
(n) 2630 893 sh
384 /TimesNewRomanPSMT f1
(,) 455 442 sh
(,) 958 442 sh
(,) 1562 442 sh
(,) 2193 442 sh
(,) 462 1166 sh
(,) 972 1166 sh
(,) 1576 1166 sh
(,) 2207 1166 sh
end MTsave restore
