%!PS-Adobe-3.0 EPSF-3.0
%%BoundingBox: 0 0 17 44
%%Creator: MathType
%%Title: 6.eps
%%CreationDate: 09/17/18
%%DocumentFonts: TimesNewRomanPS-ItalicMT
%%+ TimesNewRomanPSMT
%%DocumentNeededFonts: TimesNewRomanPS-ItalicMT
%%+ TimesNewRomanPSMT
%%DocumentProcessColors: Black
%%Baseline: 19
%%Dimensions: H=0.611, W=0.236
%%EndComments
%MathType!MTEF!1!1!+-
%feaagKart1ev2aaatCvAUfeBSjuyZL2yd9gzLbvyNv2CaerbuL
%wBLnhiov2DGi1BTfMBaeXatLxBI9gBaerbd9wDYLwzYbItLDha
%rqqtubsr4rNCHbWexLMBbXgBd9gzLbvyNv2CaeHbl7mZLdGeaG
%qiVu0Je9sqqrpepC0xbbL8F4rqqrFfpeea0xe9Lq-Jc9vqaqpe
%pm0xbba9pwe9Q8fs0-yqaqpepae9pg0FirpepeKkFr0xfr-xfr
%-xb9adbaqaaeGaciGaaiaabeqaamaabaabauaakqaabeqaamaa
%naaabaGaamOuaaaadaqhaaWcbaGaamOzaaqaaiaabchaaaaake
%aadaqdaaqaaiaadkfaaaWaa0baaSqaaiaadAgaaeaacaqGUbaa
%aaaaaa!4516!
%MathType!MathML!1!1!+-
%<?xmlversion="1.0"?><!--MathType@Translator@5@5@Ma
%thML2(Clipboard).tdl@MathML2.0(Clipboard)@--><math
%display='block'xmlns='http://www.w3.org/1998/Math/
%MathML'><mtablecolumnalign='left'><mtr><mtd><msubs
%up><moveraccent='true'><mi>R</mi><mostretchy='true
%'>&#x00AF;</mo></mover><mi>f</mi><mtext>p</mtext><
%/msubsup></mtd></mtr><mtr><mtd><msubsup><moveracce
%nt='true'><mi>R</mi><mostretchy='true'>&#x00AF;</m
%o></mover><mi>f</mi><mtext>n</mtext></msubsup></mt
%d></mtr></mtable></math><!--MathType@End@5@5@-->!
/MTsave save def 50 dict begin
/bdef {bind def} bind def
/xdef {exch def} bdef
/rndpos { transform round exch round exch itransform } bdef
/rndvec { dtransform round exch round exch idtransform } bdef
/rnddist { 0 rndvec pop } bdef
/rndmvto { rndpos moveto } bdef
/rndlnto { rndpos lineto } bdef
64 -1319 .03125 -.03125 scale translate
0 setgray
/thick 0 def
/th { dup setlinewidth /thick xdef } bdef
19 th 0 85 rndmvto 234 0 rlineto stroke
0 809 rndmvto 234 0 rlineto stroke
/fs 0 def
/sf {exch dup /fs xdef dup neg matrix scale makefont setfont} bdef
/f1 {findfont dup /cf xdef sf} bdef
/ns {cf sf} bdef
/sh {rndmvto show} bdef
384 /TimesNewRomanPS-ItalicMT f1
(R) 6 442 sh
(R) 6 1166 sh
222 ns
(f) 302 459 sh
(f) 302 1183 sh
222 /TimesNewRomanPSMT f1
(p) 261 169 sh
(n) 261 893 sh
end MTsave restore
