%!PS-Adobe-3.0 EPSF-3.0
%%BoundingBox: 0 0 27 44
%%Creator: MathType
%%Title: 7.eps
%%CreationDate: 09/17/18
%%DocumentFonts: MT-Extra
%%+ TimesNewRomanPS-ItalicMT
%%+ TimesNewRomanPSMT
%%DocumentNeededFonts: MT-Extra
%%+ TimesNewRomanPS-ItalicMT
%%+ TimesNewRomanPSMT
%%DocumentProcessColors: Black
%%Baseline: 19
%%Dimensions: H=0.611, W=0.375
%%EndComments
%MathType!MTEF!1!1!+-
%feaagKart1ev2aaatCvAUfeBSjuyZL2yd9gzLbvyNv2CaerbuL
%wBLnhiov2DGi1BTfMBaeXatLxBI9gBaerbd9wDYLwzYbItLDha
%rqqtubsr4rNCHbWexLMBbXgBd9gzLbvyNv2CaeHbl7mZLdGeaG
%qiVu0Je9sqqrpepC0xbbL8F4rqqrFfpeea0xe9Lq-Jc9vqaqpe
%pm0xbba9pwe9Q8fs0-yqaqpepae9pg0FirpepeKkFr0xfr-xfr
%-xb9adbaqaaeGaciGaaiaabeqaamaabaabauaakqaabeqaamaa
%GaaabaGaam4yaaGaay5adaWaa0baaSqaaiaadohacaGGSaGaci
%yBaiaacggacaGG4baabaGaaeiCaaaaaOqaamaaGaaabaGaam4y
%aaGaay5adaWaa0baaSqaaiaadohacaGGSaGaciyBaiaacggaca
%GG4baabaGaaeOBaaaaaaaa!4DBC!
%MathType!MathML!1!1!+-
%<?xmlversion="1.0"?><!--MathType@Translator@5@5@Ma
%thML2(Clipboard).tdl@MathML2.0(Clipboard)@--><math
%display='block'xmlns='http://www.w3.org/1998/Math/
%MathML'><mtablecolumnalign='left'><mtr><mtd><msubs
%up><moveraccent='true'><mi>c</mi><mostretchy='true
%'>&#x02DC;</mo></mover><mrow><mi>s</mi><mo>,</mo><
%mi>max</mi></mrow><mtext>p</mtext></msubsup></mtd>
%</mtr><mtr><mtd><msubsup><moveraccent='true'><mi>c
%</mi><mostretchy='true'>&#x02DC;</mo></mover><mrow
%><mi>s</mi><mo>,</mo><mi>max</mi></mrow><mtext>n</
%mtext></msubsup></mtd></mtr></mtable></math><!--Ma
%thType@End@5@5@-->!
/MTsave save def 50 dict begin
/bdef {bind def} bind def
/xdef {exch def} bdef
/rndpos { transform round exch round exch itransform } bdef
/rndvec { dtransform round exch round exch idtransform } bdef
/rnddist { 0 rndvec pop } bdef
/rndmvto { rndpos moveto } bdef
/rndlnto { rndpos lineto } bdef
64 -1317 .03125 -.03125 scale translate
/fs 0 def
/sf {exch dup /fs xdef dup neg matrix scale makefont setfont} bdef
/f1 {findfont dup /cf xdef sf} bdef
/ns {cf sf} bdef
/sh {rndmvto show} bdef
0 setgray
384 /TimesNewRomanPS-ItalicMT f1
(c) -12 442 sh
(c) -12 1166 sh
222 ns
(s) 180 465 sh
(s) 180 1189 sh
384 /MT-Extra f1
(%) 12 322 sh
(%) 12 1046 sh
222 /TimesNewRomanPSMT f1
(,) 283 465 sh
(m) 349 465 sh
(a) 518 465 sh
(x) 615 465 sh
(,) 283 1189 sh
(m) 349 1189 sh
(a) 518 1189 sh
(x) 615 1189 sh
222 /TimesNewRomanPSMT f1
(p) 177 169 sh
(n) 177 893 sh
end MTsave restore
