%!PS-Adobe-3.0 EPSF-3.0
%%BoundingBox: 0 0 12 13
%%Creator: MathType
%%Title: 8.eps
%%CreationDate: 09/17/18
%%DocumentFonts: SymbolMT
%%DocumentNeededFonts: SymbolMT
%%DocumentProcessColors: Black
%%Baseline: 5
%%Dimensions: H=0.180, W=0.167
%%EndComments
%MathType!MTEF!1!1!+-
%feaagKart1ev2aaatCvAUfeBSjuyZL2yd9gzLbvyNv2CaerbuL
%wBLnhiov2DGi1BTfMBaeXatLxBI9gBaerbd9wDYLwzYbItLDha
%rqqtubsr4rNCHbWexLMBbXgBd9gzLbvyNv2CaeHbl7mZLdGeaG
%qiVu0Je9sqqrpepC0xbbL8F4rqqrFfpeea0xe9Lq-Jc9vqaqpe
%pm0xbba9pwe9Q8fs0-yqaqpepae9pg0FirpepeKkFr0xfr-xfr
%-xb9adbaqaaeGaciGaaiaabeqaamaabaabauaakeaacqaHipqE
%aaa!40EF!
%MathType!MathML!1!1!+-
%<?xmlversion="1.0"?><!--MathType@Translator@5@5@Ma
%thML2(Clipboard).tdl@MathML2.0(Clipboard)@--><math
%display='block'xmlns='http://www.w3.org/1998/Math/
%MathML'><mi>&#x03C8;</mi></math><!--MathType@End@5
%@5@-->!
/MTsave save def 50 dict begin
/bdef {bind def} bind def
/xdef {exch def} bdef
/rndpos { transform round exch round exch itransform } bdef
/rndvec { dtransform round exch round exch idtransform } bdef
/rnddist { 0 rndvec pop } bdef
/rndmvto { rndpos moveto } bdef
/rndlnto { rndpos lineto } bdef
64 -454 .03125 -.03125 scale translate
/fs 0 def
/sf {exch dup /fs xdef dup neg matrix scale makefont setfont} bdef
/f1 {findfont dup /cf xdef sf} bdef
/ns {cf sf} bdef
/sh {rndmvto show} bdef
0 setgray
/f2 {findfont matrix dup 2 .22 put makefont dup /cf xdef sf} bdef
384 /SymbolMT f2
(y) -66 294 sh
end MTsave restore
