%!PS-Adobe-3.0 EPSF-3.0
%%BoundingBox: 0 0 16 19
%%Creator: MathType
%%Title: sp.eps
%%CreationDate: 09/17/18
%%DocumentFonts: SymbolMT
%%+ TimesNewRomanPSMT
%%DocumentNeededFonts: SymbolMT
%%+ TimesNewRomanPSMT
%%DocumentProcessColors: Black
%%Baseline: 3
%%Dimensions: H=0.264, W=0.222
%%EndComments
%MathType!MTEF!1!1!+-
%feaagKart1ev2aaatCvAUfeBSjuyZL2yd9gzLbvyNv2CaerbuL
%wBLnhiov2DGi1BTfMBaeXatLxBI9gBaerbd9wDYLwzYbItLDha
%rqqtubsr4rNCHbWexLMBbXgBd9gzLbvyNv2CaeHbl7mZLdGeaG
%qiVu0Je9sqqrpepC0xbbL8F4rqqrFfpeea0xe9Lq-Jc9vqaqpe
%pm0xbba9pwe9Q8fs0-yqaqpepae9pg0FirpepeKkFr0xfr-xfr
%-xb9adbaqaaeGaciGaaiaabeqaamaabaabauaakeaadaqdaaqa
%aiabeo8aZbaadaahaaWcbeqaaiaabchaaaaaaa!4215!
%MathType!MathML!1!1!+-
%<?xmlversion="1.0"?><!--MathType@Translator@5@5@Ma
%thML2(Clipboard).tdl@MathML2.0(Clipboard)@--><math
%display='block'xmlns='http://www.w3.org/1998/Math/
%MathML'><mrow><msup><mrow><moveraccent='true'><mi>
%&#x03C3;</mi><mostretchy='true'>&#x00AF;</mo></mov
%er></mrow><mtext>p</mtext></msup></mrow></math><!-
%-MathType@End@5@5@-->!
/MTsave save def 50 dict begin
/bdef {bind def} bind def
/xdef {exch def} bdef
/rndpos { transform round exch round exch itransform } bdef
/rndvec { dtransform round exch round exch idtransform } bdef
/rnddist { 0 rndvec pop } bdef
/rndmvto { rndpos moveto } bdef
/rndlnto { rndpos lineto } bdef
64 -538 .03125 -.03125 scale translate
0 setgray
/thick 0 def
/th { dup setlinewidth /thick xdef } bdef
19 th 0 85 rndmvto 240 0 rlineto stroke
/fs 0 def
/sf {exch dup /fs xdef dup neg matrix scale makefont setfont} bdef
/f1 {findfont dup /cf xdef sf} bdef
/ns {cf sf} bdef
/sh {rndmvto show} bdef
/f2 {findfont matrix dup 2 .22 put makefont dup /cf xdef sf} bdef
384 /SymbolMT f2
(s) -36 442 sh
222 /TimesNewRomanPSMT f1
(p) 267 169 sh
end MTsave restore
