%!PS-Adobe-3.0 EPSF-3.0
%%BoundingBox: 0 0 19 19
%%Creator: MathType
%%Title: theta100n.eps
%%CreationDate: 09/18/18
%%DocumentFonts: SymbolMT
%%+ TimesNewRomanPSMT
%%DocumentNeededFonts: SymbolMT
%%+ TimesNewRomanPSMT
%%DocumentProcessColors: Black
%%Baseline: 6
%%Dimensions: H=0.264, W=0.264
%%EndComments
%MathType!MTEF!1!1!+-
%feaagKart1ev2aaatCvAUfeBSjuyZL2yd9gzLbvyNv2CaerbuL
%wBLnhiov2DGi1BTfMBaeXatLxBI9gBaerbd9wDYLwzYbItLDha
%rqqtubsr4rNCHbWexLMBbXgBd9gzLbvyNv2CaeHbl7mZLdGeaG
%qiVu0Je9sqqrpepC0xbbL8F4rqqrFfpeea0xe9Lq-Jc9vqaqpe
%pm0xbba9pwe9Q8fs0-yqaqpepae9pg0FirpepeKkFr0xfr-xfr
%-xb9adbaqaaeGaciGaaiaabeqaamaabaabauaakeaacqaH4oqC
%daqhaaWcbaGaaGymaiaaicdacaaIWaaabaGaaeOBaaaaaaa!4424!
%MathType!MathML!1!1!+-
%<?xmlversion="1.0"?><!--MathType@Translator@5@5@Ma
%thML2(Clipboard).tdl@MathML2.0(Clipboard)@--><math
%display='block'xmlns='http://www.w3.org/1998/Math/
%MathML'><mrow><msubsup><mi>&#x03B8;</mi><mrow><mn>
%100</mn></mrow><mtext>n</mtext></msubsup></mrow></
%math><!--MathType@End@5@5@-->!
/MTsave save def 50 dict begin
/bdef {bind def} bind def
/xdef {exch def} bdef
/rndpos { transform round exch round exch itransform } bdef
/rndvec { dtransform round exch round exch idtransform } bdef
/rnddist { 0 rndvec pop } bdef
/rndmvto { rndpos moveto } bdef
/rndlnto { rndpos lineto } bdef
64 -533 .03125 -.03125 scale translate
/fs 0 def
/sf {exch dup /fs xdef dup neg matrix scale makefont setfont} bdef
/f1 {findfont dup /cf xdef sf} bdef
/ns {cf sf} bdef
/sh {rndmvto show} bdef
0 setgray
/f2 {findfont matrix dup 2 .22 put makefont dup /cf xdef sf} bdef
384 /SymbolMT f2
(q) -42 341 sh
222 /TimesNewRomanPSMT f1
(1) 151 440 sh
(0) 262 440 sh
(0) 373 440 sh
222 /TimesNewRomanPSMT f1
(n) 219 169 sh
end MTsave restore
