%!PS-Adobe-3.0 EPSF-3.0
%%Creator: (MATLAB, The Mathworks, Inc. Version 9.3.0.713579 \(R2017b\). Operating System: Windows 7)
%%Title: F:/Lab/Git/Git_LMPROM2/Figures/EIS_pos_iden_result_zoom.eps
%%CreationDate: 2018-09-18T10:54:13
%%Pages: (atend)
%%BoundingBox: 0 0 240 180
%%LanguageLevel: 3
%%EndComments
%%BeginProlog
%%BeginResource: procset (Apache XML Graphics Std ProcSet) 1.2 0
%%Version: 1.2 0
%%Copyright: (Copyright 2001-2003,2010 The Apache Software Foundation. License terms: http://www.apache.org/licenses/LICENSE-2.0)
/bd{bind def}bind def
/ld{load def}bd
/GR/grestore ld
/GS/gsave ld
/RM/rmoveto ld
/C/curveto ld
/t/show ld
/L/lineto ld
/ML/setmiterlimit ld
/CT/concat ld
/f/fill ld
/N/newpath ld
/S/stroke ld
/CC/setcmykcolor ld
/A/ashow ld
/cp/closepath ld
/RC/setrgbcolor ld
/LJ/setlinejoin ld
/GC/setgray ld
/LW/setlinewidth ld
/M/moveto ld
/re {4 2 roll M
1 index 0 rlineto
0 exch rlineto
neg 0 rlineto
cp } bd
/_ctm matrix def
/_tm matrix def
/BT { _ctm currentmatrix pop matrix _tm copy pop 0 0 moveto } bd
/ET { _ctm setmatrix } bd
/iTm { _ctm setmatrix _tm concat } bd
/Tm { _tm astore pop iTm 0 0 moveto } bd
/ux 0.0 def
/uy 0.0 def
/F {
  /Tp exch def
  /Tf exch def
  Tf findfont Tp scalefont setfont
  /cf Tf def  /cs Tp def
} bd
/ULS {currentpoint /uy exch def /ux exch def} bd
/ULE {
  /Tcx currentpoint pop def
  gsave
  newpath
  cf findfont cs scalefont dup
  /FontMatrix get 0 get /Ts exch def /FontInfo get dup
  /UnderlinePosition get Ts mul /To exch def
  /UnderlineThickness get Ts mul /Tt exch def
  ux uy To add moveto  Tcx uy To add lineto
  Tt setlinewidth stroke
  grestore
} bd
/OLE {
  /Tcx currentpoint pop def
  gsave
  newpath
  cf findfont cs scalefont dup
  /FontMatrix get 0 get /Ts exch def /FontInfo get dup
  /UnderlinePosition get Ts mul /To exch def
  /UnderlineThickness get Ts mul /Tt exch def
  ux uy To add cs add moveto Tcx uy To add cs add lineto
  Tt setlinewidth stroke
  grestore
} bd
/SOE {
  /Tcx currentpoint pop def
  gsave
  newpath
  cf findfont cs scalefont dup
  /FontMatrix get 0 get /Ts exch def /FontInfo get dup
  /UnderlinePosition get Ts mul /To exch def
  /UnderlineThickness get Ts mul /Tt exch def
  ux uy To add cs 10 mul 26 idiv add moveto Tcx uy To add cs 10 mul 26 idiv add lineto
  Tt setlinewidth stroke
  grestore
} bd
/QT {
/Y22 exch store
/X22 exch store
/Y21 exch store
/X21 exch store
currentpoint
/Y21 load 2 mul add 3 div exch
/X21 load 2 mul add 3 div exch
/X21 load 2 mul /X22 load add 3 div
/Y21 load 2 mul /Y22 load add 3 div
/X22 load /Y22 load curveto
} bd
/SSPD {
dup length /d exch dict def
{
/v exch def
/k exch def
currentpagedevice k known {
/cpdv currentpagedevice k get def
v cpdv ne {
/upd false def
/nullv v type /nulltype eq def
/nullcpdv cpdv type /nulltype eq def
nullv nullcpdv or
{
/upd true def
} {
/sametype v type cpdv type eq def
sametype {
v type /arraytype eq {
/vlen v length def
/cpdvlen cpdv length def
vlen cpdvlen eq {
0 1 vlen 1 sub {
/i exch def
/obj v i get def
/cpdobj cpdv i get def
obj cpdobj ne {
/upd true def
exit
} if
} for
} {
/upd true def
} ifelse
} {
v type /dicttype eq {
v {
/dv exch def
/dk exch def
/cpddv cpdv dk get def
dv cpddv ne {
/upd true def
exit
} if
} forall
} {
/upd true def
} ifelse
} ifelse
} if
} ifelse
upd true eq {
d k v put
} if
} if
} if
} forall
d length 0 gt {
d setpagedevice
} if
} bd
/RE { % /NewFontName [NewEncodingArray] /FontName RE -
  findfont dup length dict begin
  {
    1 index /FID ne
    {def} {pop pop} ifelse
  } forall
  /Encoding exch def
  /FontName 1 index def
  currentdict definefont pop
  end
} bind def
%%EndResource
%%BeginResource: procset (Apache XML Graphics EPS ProcSet) 1.0 0
%%Version: 1.0 0
%%Copyright: (Copyright 2002-2003 The Apache Software Foundation. License terms: http://www.apache.org/licenses/LICENSE-2.0)
/BeginEPSF { %def
/b4_Inc_state save def         % Save state for cleanup
/dict_count countdictstack def % Count objects on dict stack
/op_count count 1 sub def      % Count objects on operand stack
userdict begin                 % Push userdict on dict stack
/showpage { } def              % Redefine showpage, { } = null proc
0 setgray 0 setlinecap         % Prepare graphics state
1 setlinewidth 0 setlinejoin
10 setmiterlimit [ ] 0 setdash newpath
/languagelevel where           % If level not equal to 1 then
{pop languagelevel             % set strokeadjust and
1 ne                           % overprint to their defaults.
{false setstrokeadjust false setoverprint
} if
} if
} bd
/EndEPSF { %def
count op_count sub {pop} repeat            % Clean up stacks
countdictstack dict_count sub {end} repeat
b4_Inc_state restore
} bd
%%EndResource
%FOPBeginFontDict
%%IncludeResource: font Courier-Oblique
%%IncludeResource: font Courier-BoldOblique
%%IncludeResource: font Courier-Bold
%%IncludeResource: font ZapfDingbats
%%IncludeResource: font Symbol
%%IncludeResource: font Helvetica
%%IncludeResource: font Helvetica-Oblique
%%IncludeResource: font Helvetica-Bold
%%IncludeResource: font Helvetica-BoldOblique
%%IncludeResource: font Times-Roman
%%IncludeResource: font Times-Italic
%%IncludeResource: font Times-Bold
%%IncludeResource: font Times-BoldItalic
%%IncludeResource: font Courier
%FOPEndFontDict
%%BeginResource: encoding WinAnsiEncoding
/WinAnsiEncoding [
/.notdef /.notdef /.notdef /.notdef /.notdef
/.notdef /.notdef /.notdef /.notdef /.notdef
/.notdef /.notdef /.notdef /.notdef /.notdef
/.notdef /.notdef /.notdef /.notdef /.notdef
/.notdef /.notdef /.notdef /.notdef /.notdef
/.notdef /.notdef /.notdef /.notdef /.notdef
/.notdef /.notdef /space /exclam /quotedbl
/numbersign /dollar /percent /ampersand /quotesingle
/parenleft /parenright /asterisk /plus /comma
/hyphen /period /slash /zero /one
/two /three /four /five /six
/seven /eight /nine /colon /semicolon
/less /equal /greater /question /at
/A /B /C /D /E
/F /G /H /I /J
/K /L /M /N /O
/P /Q /R /S /T
/U /V /W /X /Y
/Z /bracketleft /backslash /bracketright /asciicircum
/underscore /quoteleft /a /b /c
/d /e /f /g /h
/i /j /k /l /m
/n /o /p /q /r
/s /t /u /v /w
/x /y /z /braceleft /bar
/braceright /asciitilde /bullet /Euro /bullet
/quotesinglbase /florin /quotedblbase /ellipsis /dagger
/daggerdbl /circumflex /perthousand /Scaron /guilsinglleft
/OE /bullet /Zcaron /bullet /bullet
/quoteleft /quoteright /quotedblleft /quotedblright /bullet
/endash /emdash /asciitilde /trademark /scaron
/guilsinglright /oe /bullet /zcaron /Ydieresis
/space /exclamdown /cent /sterling /currency
/yen /brokenbar /section /dieresis /copyright
/ordfeminine /guillemotleft /logicalnot /sfthyphen /registered
/macron /degree /plusminus /twosuperior /threesuperior
/acute /mu /paragraph /middot /cedilla
/onesuperior /ordmasculine /guillemotright /onequarter /onehalf
/threequarters /questiondown /Agrave /Aacute /Acircumflex
/Atilde /Adieresis /Aring /AE /Ccedilla
/Egrave /Eacute /Ecircumflex /Edieresis /Igrave
/Iacute /Icircumflex /Idieresis /Eth /Ntilde
/Ograve /Oacute /Ocircumflex /Otilde /Odieresis
/multiply /Oslash /Ugrave /Uacute /Ucircumflex
/Udieresis /Yacute /Thorn /germandbls /agrave
/aacute /acircumflex /atilde /adieresis /aring
/ae /ccedilla /egrave /eacute /ecircumflex
/edieresis /igrave /iacute /icircumflex /idieresis
/eth /ntilde /ograve /oacute /ocircumflex
/otilde /odieresis /divide /oslash /ugrave
/uacute /ucircumflex /udieresis /yacute /thorn
/ydieresis
] def
%%EndResource
%FOPBeginFontReencode
/Courier-Oblique findfont
dup length dict begin
  {1 index /FID ne {def} {pop pop} ifelse} forall
  /Encoding WinAnsiEncoding def
  currentdict
end
/Courier-Oblique exch definefont pop
/Courier-BoldOblique findfont
dup length dict begin
  {1 index /FID ne {def} {pop pop} ifelse} forall
  /Encoding WinAnsiEncoding def
  currentdict
end
/Courier-BoldOblique exch definefont pop
/Courier-Bold findfont
dup length dict begin
  {1 index /FID ne {def} {pop pop} ifelse} forall
  /Encoding WinAnsiEncoding def
  currentdict
end
/Courier-Bold exch definefont pop
/Helvetica findfont
dup length dict begin
  {1 index /FID ne {def} {pop pop} ifelse} forall
  /Encoding WinAnsiEncoding def
  currentdict
end
/Helvetica exch definefont pop
/Helvetica-Oblique findfont
dup length dict begin
  {1 index /FID ne {def} {pop pop} ifelse} forall
  /Encoding WinAnsiEncoding def
  currentdict
end
/Helvetica-Oblique exch definefont pop
/Helvetica-Bold findfont
dup length dict begin
  {1 index /FID ne {def} {pop pop} ifelse} forall
  /Encoding WinAnsiEncoding def
  currentdict
end
/Helvetica-Bold exch definefont pop
/Helvetica-BoldOblique findfont
dup length dict begin
  {1 index /FID ne {def} {pop pop} ifelse} forall
  /Encoding WinAnsiEncoding def
  currentdict
end
/Helvetica-BoldOblique exch definefont pop
/Times-Roman findfont
dup length dict begin
  {1 index /FID ne {def} {pop pop} ifelse} forall
  /Encoding WinAnsiEncoding def
  currentdict
end
/Times-Roman exch definefont pop
/Times-Italic findfont
dup length dict begin
  {1 index /FID ne {def} {pop pop} ifelse} forall
  /Encoding WinAnsiEncoding def
  currentdict
end
/Times-Italic exch definefont pop
/Times-Bold findfont
dup length dict begin
  {1 index /FID ne {def} {pop pop} ifelse} forall
  /Encoding WinAnsiEncoding def
  currentdict
end
/Times-Bold exch definefont pop
/Times-BoldItalic findfont
dup length dict begin
  {1 index /FID ne {def} {pop pop} ifelse} forall
  /Encoding WinAnsiEncoding def
  currentdict
end
/Times-BoldItalic exch definefont pop
/Courier findfont
dup length dict begin
  {1 index /FID ne {def} {pop pop} ifelse} forall
  /Encoding WinAnsiEncoding def
  currentdict
end
/Courier exch definefont pop
%FOPEndFontReencode
%%EndProlog
%%Page: 1 1
%%PageBoundingBox: 0 0 240 180
%%BeginPageSetup
[1 0 0 -1 0 180] CT
%%EndPageSetup
GS
[0.75 0 0 0.75 0 0] CT
1 GC
N
0 0 320 240 re
f
GR
GS
[0.75 0 0 0.75 0 0] CT
1 GC
N
0 0 320 240 re
f
GR
GS
[0.75 0 0 0.75 0 0] CT
1 GC
N
58 202 M
298 202 L
298 22 L
58 22 L
cp
f
GR
GS
[0.75 0 0 0.75 0 0] CT
0.873 GC
1 LJ
0.667 LW
N
58 202 M
58 22 L
S
GR
GS
[0.75 0 0 0.75 0 0] CT
0.873 GC
1 LJ
0.667 LW
N
129.891 202 M
129.891 22 L
S
GR
GS
[0.75 0 0 0.75 0 0] CT
0.873 GC
1 LJ
0.667 LW
N
201.781 202 M
201.781 22 L
S
GR
GS
[0.75 0 0 0.75 0 0] CT
0.873 GC
1 LJ
0.667 LW
N
273.672 202 M
273.672 22 L
S
GR
GS
[0.75 0 0 0.75 0 0] CT
0.873 GC
1 LJ
0.667 LW
N
298 202 M
58 202 L
S
GR
GS
[0.75 0 0 0.75 0 0] CT
0.873 GC
1 LJ
0.667 LW
N
298 163.755 M
58 163.755 L
S
GR
GS
[0.75 0 0 0.75 0 0] CT
0.873 GC
1 LJ
0.667 LW
N
298 125.509 M
58 125.509 L
S
GR
GS
[0.75 0 0 0.75 0 0] CT
0.873 GC
1 LJ
0.667 LW
N
298 87.264 M
58 87.264 L
S
GR
GS
[0.75 0 0 0.75 0 0] CT
0.873 GC
1 LJ
0.667 LW
N
298 49.018 M
58 49.018 L
S
GR
GS
[0.75 0 0 0.75 0 0] CT
0.149 GC
2 setlinecap
1 LJ
0.667 LW
N
58 202 M
298 202 L
S
GR
GS
[0.75 0 0 0.75 0 0] CT
0.149 GC
2 setlinecap
1 LJ
0.667 LW
N
58 22 M
298 22 L
S
GR
GS
[0.75 0 0 0.75 0 0] CT
0.149 GC
2 setlinecap
1 LJ
0.667 LW
N
58 202 M
58 199.6 L
S
GR
GS
[0.75 0 0 0.75 0 0] CT
0.149 GC
2 setlinecap
1 LJ
0.667 LW
N
129.891 202 M
129.891 199.6 L
S
GR
GS
[0.75 0 0 0.75 0 0] CT
0.149 GC
2 setlinecap
1 LJ
0.667 LW
N
201.781 202 M
201.781 199.6 L
S
GR
GS
[0.75 0 0 0.75 0 0] CT
0.149 GC
2 setlinecap
1 LJ
0.667 LW
N
273.672 202 M
273.672 199.6 L
S
GR
GS
[0.75 0 0 0.75 0 0] CT
0.149 GC
2 setlinecap
1 LJ
0.667 LW
N
58 22 M
58 24.4 L
S
GR
GS
[0.75 0 0 0.75 0 0] CT
0.149 GC
2 setlinecap
1 LJ
0.667 LW
N
129.891 22 M
129.891 24.4 L
S
GR
GS
[0.75 0 0 0.75 0 0] CT
0.149 GC
2 setlinecap
1 LJ
0.667 LW
N
201.781 22 M
201.781 24.4 L
S
GR
GS
[0.75 0 0 0.75 0 0] CT
0.149 GC
2 setlinecap
1 LJ
0.667 LW
N
273.672 22 M
273.672 24.4 L
S
GR
GS
[0.75 0 0 0.75 43.5 155.5] CT
0.149 GC
/Times-Roman 13.333 F
GS
[1 0 0 1 0 0] CT
-3.5 13 moveto 
1 -1 scale
(3) t 
GR
GR
GS
[0.75 0 0 0.75 97.41798 155.5] CT
0.149 GC
/Times-Roman 13.333 F
GS
[1 0 0 1 0 0] CT
-8.5 13 moveto 
1 -1 scale
(3.5) t 
GR
GR
GS
[0.75 0 0 0.75 151.33595 155.5] CT
0.149 GC
/Times-Roman 13.333 F
GS
[1 0 0 1 0 0] CT
-3.5 13 moveto 
1 -1 scale
(4) t 
GR
GR
GS
[0.75 0 0 0.75 205.25393 155.5] CT
0.149 GC
/Times-Roman 13.333 F
GS
[1 0 0 1 0 0] CT
-8.5 13 moveto 
1 -1 scale
(4.5) t 
GR
GR
GS
[0.75 0 0 0.75 0 0] CT
0.149 GC
2 setlinecap
1 LJ
0.667 LW
N
58 202 M
58 22 L
S
GR
GS
[0.75 0 0 0.75 0 0] CT
0.149 GC
2 setlinecap
1 LJ
0.667 LW
N
298 202 M
298 22 L
S
GR
GS
[0.75 0 0 0.75 0 0] CT
0.149 GC
2 setlinecap
1 LJ
0.667 LW
N
58 202 M
60.4 202 L
S
GR
GS
[0.75 0 0 0.75 0 0] CT
0.149 GC
2 setlinecap
1 LJ
0.667 LW
N
58 163.755 M
60.4 163.755 L
S
GR
GS
[0.75 0 0 0.75 0 0] CT
0.149 GC
2 setlinecap
1 LJ
0.667 LW
N
58 125.509 M
60.4 125.509 L
S
GR
GS
[0.75 0 0 0.75 0 0] CT
0.149 GC
2 setlinecap
1 LJ
0.667 LW
N
58 87.264 M
60.4 87.264 L
S
GR
GS
[0.75 0 0 0.75 0 0] CT
0.149 GC
2 setlinecap
1 LJ
0.667 LW
N
58 49.018 M
60.4 49.018 L
S
GR
GS
[0.75 0 0 0.75 0 0] CT
0.149 GC
2 setlinecap
1 LJ
0.667 LW
N
298 202 M
295.6 202 L
S
GR
GS
[0.75 0 0 0.75 0 0] CT
0.149 GC
2 setlinecap
1 LJ
0.667 LW
N
298 163.755 M
295.6 163.755 L
S
GR
GS
[0.75 0 0 0.75 0 0] CT
0.149 GC
2 setlinecap
1 LJ
0.667 LW
N
298 125.509 M
295.6 125.509 L
S
GR
GS
[0.75 0 0 0.75 0 0] CT
0.149 GC
2 setlinecap
1 LJ
0.667 LW
N
298 87.264 M
295.6 87.264 L
S
GR
GS
[0.75 0 0 0.75 0 0] CT
0.149 GC
2 setlinecap
1 LJ
0.667 LW
N
298 49.018 M
295.6 49.018 L
S
GR
GS
[0.75 0 0 0.75 39.5 151.5] CT
0.149 GC
/Times-Roman 13.333 F
GS
[1 0 0 1 0 0] CT
-7 5 moveto 
1 -1 scale
(0) t 
GR
GR
GS
[0.75 0 0 0.75 39.5 122.81592] CT
0.149 GC
/Times-Roman 13.333 F
GS
[1 0 0 1 0 0] CT
-17 5 moveto 
1 -1 scale
(0.1) t 
GR
GR
GS
[0.75 0 0 0.75 39.5 94.13185] CT
0.149 GC
/Times-Roman 13.333 F
GS
[1 0 0 1 0 0] CT
-17 5 moveto 
1 -1 scale
(0.2) t 
GR
GR
GS
[0.75 0 0 0.75 39.5 65.44778] CT
0.149 GC
/Times-Roman 13.333 F
GS
[1 0 0 1 0 0] CT
-17 5 moveto 
1 -1 scale
(0.3) t 
GR
GR
GS
[0.75 0 0 0.75 39.5 36.7637] CT
0.149 GC
/Times-Roman 13.333 F
GS
[1 0 0 1 0 0] CT
-17 5 moveto 
1 -1 scale
(0.4) t 
GR
GR
GS
[0.75 0 0 0.75 219.52267 51.4689] CT
0.369 0.31 0.635 RC
10.0 ML
1.333 LW
N
4 0 M
4 -2.209 2.209 -4 0 -4 C
-2.209 -4 -4 -2.209 -4 0 C
-4 2.209 -2.209 4 0 4 C
2.209 4 4 2.209 4 0 C
S
GR
GS
[0.75 0 0 0.75 214.48647 42.78675] CT
0.369 0.31 0.635 RC
10.0 ML
1.333 LW
N
4 0 M
4 -2.209 2.209 -4 0 -4 C
-2.209 -4 -4 -2.209 -4 0 C
-4 2.209 -2.209 4 0 4 C
2.209 4 4 2.209 4 0 C
S
GR
GS
[0.75 0 0 0.75 208.58004 35.27899] CT
0.369 0.31 0.635 RC
10.0 ML
1.333 LW
N
4 0 M
4 -2.209 2.209 -4 0 -4 C
-2.209 -4 -4 -2.209 -4 0 C
-4 2.209 -2.209 4 0 4 C
2.209 4 4 2.209 4 0 C
S
GR
GS
[0.75 0 0 0.75 201.91244 29.6898] CT
0.369 0.31 0.635 RC
10.0 ML
1.333 LW
N
4 0 M
4 -2.209 2.209 -4 0 -4 C
-2.209 -4 -4 -2.209 -4 0 C
-4 2.209 -2.209 4 0 4 C
2.209 4 4 2.209 4 0 C
S
GR
GS
[0.75 0 0 0.75 194.70882 26.66854] CT
0.369 0.31 0.635 RC
10.0 ML
1.333 LW
N
4 0 M
4 -2.209 2.209 -4 0 -4 C
-2.209 -4 -4 -2.209 -4 0 C
-4 2.209 -2.209 4 0 4 C
2.209 4 4 2.209 4 0 C
S
GR
GS
[0.75 0 0 0.75 187.28915 26.61698] CT
0.369 0.31 0.635 RC
10.0 ML
1.333 LW
N
4 0 M
4 -2.209 2.209 -4 0 -4 C
-2.209 -4 -4 -2.209 -4 0 C
-4 2.209 -2.209 4 0 4 C
2.209 4 4 2.209 4 0 C
S
GR
GS
[0.75 0 0 0.75 180.01525 29.58266] CT
0.369 0.31 0.635 RC
10.0 ML
1.333 LW
N
4 0 M
4 -2.209 2.209 -4 0 -4 C
-2.209 -4 -4 -2.209 -4 0 C
-4 2.209 -2.209 4 0 4 C
2.209 4 4 2.209 4 0 C
S
GR
GS
[0.75 0 0 0.75 173.22218 35.2481] CT
0.369 0.31 0.635 RC
10.0 ML
1.333 LW
N
4 0 M
4 -2.209 2.209 -4 0 -4 C
-2.209 -4 -4 -2.209 -4 0 C
-4 2.209 -2.209 4 0 4 C
2.209 4 4 2.209 4 0 C
S
GR
GS
[0.75 0 0 0.75 167.16026 43.01979] CT
0.369 0.31 0.635 RC
10.0 ML
1.333 LW
N
4 0 M
4 -2.209 2.209 -4 0 -4 C
-2.209 -4 -4 -2.209 -4 0 C
-4 2.209 -2.209 4 0 4 C
2.209 4 4 2.209 4 0 C
S
GR
GS
[0.75 0 0 0.75 161.96708 52.17423] CT
0.369 0.31 0.635 RC
10.0 ML
1.333 LW
N
4 0 M
4 -2.209 2.209 -4 0 -4 C
-2.209 -4 -4 -2.209 -4 0 C
-4 2.209 -2.209 4 0 4 C
2.209 4 4 2.209 4 0 C
S
GR
GS
[0.75 0 0 0.75 157.67184 62.00162] CT
0.369 0.31 0.635 RC
10.0 ML
1.333 LW
N
4 0 M
4 -2.209 2.209 -4 0 -4 C
-2.209 -4 -4 -2.209 -4 0 C
-4 2.209 -2.209 4 0 4 C
2.209 4 4 2.209 4 0 C
S
GR
GS
[0.75 0 0 0.75 154.22175 71.90515] CT
0.369 0.31 0.635 RC
10.0 ML
1.333 LW
N
4 0 M
4 -2.209 2.209 -4 0 -4 C
-2.209 -4 -4 -2.209 -4 0 C
-4 2.209 -2.209 4 0 4 C
2.209 4 4 2.209 4 0 C
S
GR
GS
[0.75 0 0 0.75 151.51499 81.44456] CT
0.369 0.31 0.635 RC
10.0 ML
1.333 LW
N
4 0 M
4 -2.209 2.209 -4 0 -4 C
-2.209 -4 -4 -2.209 -4 0 C
-4 2.209 -2.209 4 0 4 C
2.209 4 4 2.209 4 0 C
S
GR
GS
[0.75 0 0 0.75 149.43016 90.33558] CT
0.369 0.31 0.635 RC
10.0 ML
1.333 LW
N
4 0 M
4 -2.209 2.209 -4 0 -4 C
-2.209 -4 -4 -2.209 -4 0 C
-4 2.209 -2.209 4 0 4 C
2.209 4 4 2.209 4 0 C
S
GR
GS
[0.75 0 0 0.75 147.84658 98.42445] CT
0.369 0.31 0.635 RC
10.0 ML
1.333 LW
N
4 0 M
4 -2.209 2.209 -4 0 -4 C
-2.209 -4 -4 -2.209 -4 0 C
-4 2.209 -2.209 4 0 4 C
2.209 4 4 2.209 4 0 C
S
GR
GS
[0.75 0 0 0.75 146.65591 105.65416] CT
0.369 0.31 0.635 RC
10.0 ML
1.333 LW
N
4 0 M
4 -2.209 2.209 -4 0 -4 C
-2.209 -4 -4 -2.209 -4 0 C
-4 2.209 -2.209 4 0 4 C
2.209 4 4 2.209 4 0 C
S
GR
GS
[0.75 0 0 0.75 145.76707 112.03249] CT
0.369 0.31 0.635 RC
10.0 ML
1.333 LW
N
4 0 M
4 -2.209 2.209 -4 0 -4 C
-2.209 -4 -4 -2.209 -4 0 C
-4 2.209 -2.209 4 0 4 C
2.209 4 4 2.209 4 0 C
S
GR
GS
[0.75 0 0 0.75 145.10658 117.60656] CT
0.369 0.31 0.635 RC
10.0 ML
1.333 LW
N
4 0 M
4 -2.209 2.209 -4 0 -4 C
-2.209 -4 -4 -2.209 -4 0 C
-4 2.209 -2.209 4 0 4 C
2.209 4 4 2.209 4 0 C
S
GR
GS
[0.75 0 0 0.75 144.61695 122.44426] CT
0.369 0.31 0.635 RC
10.0 ML
1.333 LW
N
4 0 M
4 -2.209 2.209 -4 0 -4 C
-2.209 -4 -4 -2.209 -4 0 C
-4 2.209 -2.209 4 0 4 C
2.209 4 4 2.209 4 0 C
S
GR
GS
[0.75 0 0 0.75 144.25425 126.62193] CT
0.369 0.31 0.635 RC
10.0 ML
1.333 LW
N
4 0 M
4 -2.209 2.209 -4 0 -4 C
-2.209 -4 -4 -2.209 -4 0 C
-4 2.209 -2.209 4 0 4 C
2.209 4 4 2.209 4 0 C
S
GR
GS
[0.75 0 0 0.75 143.98533 130.2166] CT
0.369 0.31 0.635 RC
10.0 ML
1.333 LW
N
4 0 M
4 -2.209 2.209 -4 0 -4 C
-2.209 -4 -4 -2.209 -4 0 C
-4 2.209 -2.209 4 0 4 C
2.209 4 4 2.209 4 0 C
S
GR
GS
[0.75 0 0 0.75 143.78546 133.30165] CT
0.369 0.31 0.635 RC
10.0 ML
1.333 LW
N
4 0 M
4 -2.209 2.209 -4 0 -4 C
-2.209 -4 -4 -2.209 -4 0 C
-4 2.209 -2.209 4 0 4 C
2.209 4 4 2.209 4 0 C
S
GR
GS
[0.75 0 0 0.75 143.63634 135.94447] CT
0.369 0.31 0.635 RC
10.0 ML
1.333 LW
N
4 0 M
4 -2.209 2.209 -4 0 -4 C
-2.209 -4 -4 -2.209 -4 0 C
-4 2.209 -2.209 4 0 4 C
2.209 4 4 2.209 4 0 C
S
GR
GS
[0.75 0 0 0.75 143.52448 138.20552] CT
0.369 0.31 0.635 RC
10.0 ML
1.333 LW
N
4 0 M
4 -2.209 2.209 -4 0 -4 C
-2.209 -4 -4 -2.209 -4 0 C
-4 2.209 -2.209 4 0 4 C
2.209 4 4 2.209 4 0 C
S
GR
GS
[0.75 0 0 0.75 143.43999 140.13821] CT
0.369 0.31 0.635 RC
10.0 ML
1.333 LW
N
4 0 M
4 -2.209 2.209 -4 0 -4 C
-2.209 -4 -4 -2.209 -4 0 C
-4 2.209 -2.209 4 0 4 C
2.209 4 4 2.209 4 0 C
S
GR
GS
[0.75 0 0 0.75 143.37564 141.78925] CT
0.369 0.31 0.635 RC
10.0 ML
1.333 LW
N
4 0 M
4 -2.209 2.209 -4 0 -4 C
-2.209 -4 -4 -2.209 -4 0 C
-4 2.209 -2.209 4 0 4 C
2.209 4 4 2.209 4 0 C
S
GR
GS
[0.75 0 0 0.75 143.32615 143.19914] CT
0.369 0.31 0.635 RC
10.0 ML
1.333 LW
N
4 0 M
4 -2.209 2.209 -4 0 -4 C
-2.209 -4 -4 -2.209 -4 0 C
-4 2.209 -2.209 4 0 4 C
2.209 4 4 2.209 4 0 C
S
GR
GS
[0.75 0 0 0.75 143.28766 144.40282] CT
0.369 0.31 0.635 RC
10.0 ML
1.333 LW
N
4 0 M
4 -2.209 2.209 -4 0 -4 C
-2.209 -4 -4 -2.209 -4 0 C
-4 2.209 -2.209 4 0 4 C
2.209 4 4 2.209 4 0 C
S
GR
GS
[0.75 0 0 0.75 143.25732 145.43036] CT
0.369 0.31 0.635 RC
10.0 ML
1.333 LW
N
4 0 M
4 -2.209 2.209 -4 0 -4 C
-2.209 -4 -4 -2.209 -4 0 C
-4 2.209 -2.209 4 0 4 C
2.209 4 4 2.209 4 0 C
S
GR
GS
[0.75 0 0 0.75 143.23311 146.30751] CT
0.369 0.31 0.635 RC
10.0 ML
1.333 LW
N
4 0 M
4 -2.209 2.209 -4 0 -4 C
-2.209 -4 -4 -2.209 -4 0 C
-4 2.209 -2.209 4 0 4 C
2.209 4 4 2.209 4 0 C
S
GR
GS
[0.75 0 0 0.75 143.21349 147.05633] CT
0.369 0.31 0.635 RC
10.0 ML
1.333 LW
N
4 0 M
4 -2.209 2.209 -4 0 -4 C
-2.209 -4 -4 -2.209 -4 0 C
-4 2.209 -2.209 4 0 4 C
2.209 4 4 2.209 4 0 C
S
GR
GS
[0.75 0 0 0.75 143.19737 147.69566] CT
0.369 0.31 0.635 RC
10.0 ML
1.333 LW
N
4 0 M
4 -2.209 2.209 -4 0 -4 C
-2.209 -4 -4 -2.209 -4 0 C
-4 2.209 -2.209 4 0 4 C
2.209 4 4 2.209 4 0 C
S
GR
GS
[0.75 0 0 0.75 143.18392 148.24162] CT
0.369 0.31 0.635 RC
10.0 ML
1.333 LW
N
4 0 M
4 -2.209 2.209 -4 0 -4 C
-2.209 -4 -4 -2.209 -4 0 C
-4 2.209 -2.209 4 0 4 C
2.209 4 4 2.209 4 0 C
S
GR
GS
[0.75 0 0 0.75 143.17256 148.7079] CT
0.369 0.31 0.635 RC
10.0 ML
1.333 LW
N
4 0 M
4 -2.209 2.209 -4 0 -4 C
-2.209 -4 -4 -2.209 -4 0 C
-4 2.209 -2.209 4 0 4 C
2.209 4 4 2.209 4 0 C
S
GR
GS
[0.75 0 0 0.75 143.16282 149.10626] CT
0.369 0.31 0.635 RC
10.0 ML
1.333 LW
N
4 0 M
4 -2.209 2.209 -4 0 -4 C
-2.209 -4 -4 -2.209 -4 0 C
-4 2.209 -2.209 4 0 4 C
2.209 4 4 2.209 4 0 C
S
GR
GS
[0.75 0 0 0.75 143.15435 149.44667] CT
0.369 0.31 0.635 RC
10.0 ML
1.333 LW
N
4 0 M
4 -2.209 2.209 -4 0 -4 C
-2.209 -4 -4 -2.209 -4 0 C
-4 2.209 -2.209 4 0 4 C
2.209 4 4 2.209 4 0 C
S
GR
GS
[0.75 0 0 0.75 143.14695 149.73764] CT
0.369 0.31 0.635 RC
10.0 ML
1.333 LW
N
4 0 M
4 -2.209 2.209 -4 0 -4 C
-2.209 -4 -4 -2.209 -4 0 C
-4 2.209 -2.209 4 0 4 C
2.209 4 4 2.209 4 0 C
S
GR
GS
[0.75 0 0 0.75 143.1404 149.98644] CT
0.369 0.31 0.635 RC
10.0 ML
1.333 LW
N
4 0 M
4 -2.209 2.209 -4 0 -4 C
-2.209 -4 -4 -2.209 -4 0 C
-4 2.209 -2.209 4 0 4 C
2.209 4 4 2.209 4 0 C
S
GR
GS
[0.75 0 0 0.75 143.13456 150.19925] CT
0.369 0.31 0.635 RC
10.0 ML
1.333 LW
N
4 0 M
4 -2.209 2.209 -4 0 -4 C
-2.209 -4 -4 -2.209 -4 0 C
-4 2.209 -2.209 4 0 4 C
2.209 4 4 2.209 4 0 C
S
GR
GS
[0.75 0 0 0.75 143.12931 150.38135] CT
0.369 0.31 0.635 RC
10.0 ML
1.333 LW
N
4 0 M
4 -2.209 2.209 -4 0 -4 C
-2.209 -4 -4 -2.209 -4 0 C
-4 2.209 -2.209 4 0 4 C
2.209 4 4 2.209 4 0 C
S
GR
GS
[0.75 0 0 0.75 143.12461 150.53723] CT
0.369 0.31 0.635 RC
10.0 ML
1.333 LW
N
4 0 M
4 -2.209 2.209 -4 0 -4 C
-2.209 -4 -4 -2.209 -4 0 C
-4 2.209 -2.209 4 0 4 C
2.209 4 4 2.209 4 0 C
S
GR
GS
[0.75 0 0 0.75 143.12032 150.67074] CT
0.369 0.31 0.635 RC
10.0 ML
1.333 LW
N
4 0 M
4 -2.209 2.209 -4 0 -4 C
-2.209 -4 -4 -2.209 -4 0 C
-4 2.209 -2.209 4 0 4 C
2.209 4 4 2.209 4 0 C
S
GR
GS
[0.75 0 0 0.75 143.11644 150.78512] CT
0.369 0.31 0.635 RC
10.0 ML
1.333 LW
N
4 0 M
4 -2.209 2.209 -4 0 -4 C
-2.209 -4 -4 -2.209 -4 0 C
-4 2.209 -2.209 4 0 4 C
2.209 4 4 2.209 4 0 C
S
GR
GS
[0.75 0 0 0.75 143.11285 150.88319] CT
0.369 0.31 0.635 RC
10.0 ML
1.333 LW
N
4 0 M
4 -2.209 2.209 -4 0 -4 C
-2.209 -4 -4 -2.209 -4 0 C
-4 2.209 -2.209 4 0 4 C
2.209 4 4 2.209 4 0 C
S
GR
GS
[0.75 0 0 0.75 143.10962 150.9673] CT
0.369 0.31 0.635 RC
10.0 ML
1.333 LW
N
4 0 M
4 -2.209 2.209 -4 0 -4 C
-2.209 -4 -4 -2.209 -4 0 C
-4 2.209 -2.209 4 0 4 C
2.209 4 4 2.209 4 0 C
S
GR
GS
[0.75 0 0 0.75 143.10664 151.03948] CT
0.369 0.31 0.635 RC
10.0 ML
1.333 LW
N
4 0 M
4 -2.209 2.209 -4 0 -4 C
-2.209 -4 -4 -2.209 -4 0 C
-4 2.209 -2.209 4 0 4 C
2.209 4 4 2.209 4 0 C
S
GR
GS
[0.75 0 0 0.75 143.10392 151.10147] CT
0.369 0.31 0.635 RC
10.0 ML
1.333 LW
N
4 0 M
4 -2.209 2.209 -4 0 -4 C
-2.209 -4 -4 -2.209 -4 0 C
-4 2.209 -2.209 4 0 4 C
2.209 4 4 2.209 4 0 C
S
GR
GS
[0.75 0 0 0.75 143.10142 151.15474] CT
0.369 0.31 0.635 RC
10.0 ML
1.333 LW
N
4 0 M
4 -2.209 2.209 -4 0 -4 C
-2.209 -4 -4 -2.209 -4 0 C
-4 2.209 -2.209 4 0 4 C
2.209 4 4 2.209 4 0 C
S
GR
GS
[0.75 0 0 0.75 223.09 50.67262] CT
0.369 0.31 0.635 RC
N
1.333 0 M
1.333 0.736 0.736 1.333 0 1.333 C
-0.736 1.333 -1.333 0.736 -1.333 0 C
-1.333 -0.736 -0.736 -1.333 0 -1.333 C
0.736 -1.333 1.333 -0.736 1.333 0 C
cp
f
GR
GS
[0.75 0 0 0.75 218.0864 41.62566] CT
0.369 0.31 0.635 RC
N
/f-1057828618{1.333 0 M
1.333 0.736 0.736 1.333 0 1.333 C
-0.736 1.333 -1.333 0.736 -1.333 0 C
-1.333 -0.736 -0.736 -1.333 0 -1.333 C
0.736 -1.333 1.333 -0.736 1.333 0 C
cp}def
f-1057828618
f
GR
GS
[0.75 0 0 0.75 212.17699 33.65435] CT
0.369 0.31 0.635 RC
N
f-1057828618
f
GR
GS
[0.75 0 0 0.75 205.45882 27.52457] CT
0.369 0.31 0.635 RC
N
f-1057828618
f
GR
GS
[0.75 0 0 0.75 198.14756 23.93045] CT
0.369 0.31 0.635 RC
N
f-1057828618
f
GR
GS
[0.75 0 0 0.75 190.54508 23.33669] CT
0.369 0.31 0.635 RC
N
f-1057828618
f
GR
GS
[0.75 0 0 0.75 183.03973 25.86089] CT
0.369 0.31 0.635 RC
N
f-1057828618
f
GR
GS
[0.75 0 0 0.75 175.96571 31.23915] CT
0.369 0.31 0.635 RC
N
f-1057828618
f
GR
GS
[0.75 0 0 0.75 169.60339 38.90353] CT
0.369 0.31 0.635 RC
N
f-1057828618
f
GR
GS
[0.75 0 0 0.75 164.12528 48.11973] CT
0.369 0.31 0.635 RC
N
f-1057828618
f
GR
GS
[0.75 0 0 0.75 159.56385 58.15342] CT
0.369 0.31 0.635 RC
N
f-1057828618
f
GR
GS
[0.75 0 0 0.75 155.88663 68.36495] CT
0.369 0.31 0.635 RC
N
f-1057828618
f
GR
GS
[0.75 0 0 0.75 152.99661 78.26669] CT
0.369 0.31 0.635 RC
N
f-1057828618
f
GR
GS
[0.75 0 0 0.75 150.77521 87.54313] CT
0.369 0.31 0.635 RC
N
f-1057828618
f
GR
GS
[0.75 0 0 0.75 149.08217 96.01065] CT
0.369 0.31 0.635 RC
N
f-1057828618
f
GR
GS
[0.75 0 0 0.75 147.82051 103.60047] CT
0.369 0.31 0.635 RC
N
f-1057828618
f
GR
GS
[0.75 0 0 0.75 146.87155 110.30394] CT
0.369 0.31 0.635 RC
N
f-1057828618
f
GR
GS
[0.75 0 0 0.75 146.18138 116.16982] CT
0.369 0.31 0.635 RC
N
f-1057828618
f
GR
GS
[0.75 0 0 0.75 145.66379 121.26125] CT
0.369 0.31 0.635 RC
N
f-1057828618
f
GR
GS
[0.75 0 0 0.75 145.29714 125.65852] CT
0.369 0.31 0.635 RC
N
f-1057828618
f
GR
GS
[0.75 0 0 0.75 145.02754 129.44052] CT
0.369 0.31 0.635 RC
N
f-1057828618
f
GR
GS
[0.75 0 0 0.75 144.82266 132.68439] CT
0.369 0.31 0.635 RC
N
f-1057828618
f
GR
GS
[0.75 0 0 0.75 144.68246 135.46044] CT
0.369 0.31 0.635 RC
N
f-1057828618
f
GR
GS
[0.75 0 0 0.75 144.57463 137.83261] CT
0.369 0.31 0.635 RC
N
f-1057828618
f
GR
GS
[0.75 0 0 0.75 144.49915 139.85771] CT
0.369 0.31 0.635 RC
N
f-1057828618
f
GR
GS
[0.75 0 0 0.75 144.44523 141.58507] CT
0.369 0.31 0.635 RC
N
f-1057828618
f
GR
GS
[0.75 0 0 0.75 144.40209 143.05742] CT
0.369 0.31 0.635 RC
N
f-1057828618
f
GR
GS
[0.75 0 0 0.75 144.36975 144.31177] CT
0.369 0.31 0.635 RC
N
f-1057828618
f
GR
GS
[0.75 0 0 0.75 144.35898 145.38054] CT
0.369 0.31 0.635 RC
N
f-1057828618
f
GR
GS
[0.75 0 0 0.75 144.33741 146.29068] CT
0.369 0.31 0.635 RC
N
f-1057828618
f
GR
GS
[0.75 0 0 0.75 144.3266 147.06572] CT
0.369 0.31 0.635 RC
N
f-1057828618
f
GR
GS
[0.75 0 0 0.75 144.31583 147.72546] CT
0.369 0.31 0.635 RC
N
f-1057828618
f
GR
GS
[0.75 0 0 0.75 144.31583 148.28709] CT
0.369 0.31 0.635 RC
N
f-1057828618
f
GR
GS
[0.75 0 0 0.75 144.30503 148.76523] CT
0.369 0.31 0.635 RC
N
f-1057828618
f
GR
GS
[0.75 0 0 0.75 144.30503 149.17226] CT
0.369 0.31 0.635 RC
N
f-1057828618
f
GR
GS
[0.75 0 0 0.75 144.30503 149.51873] CT
0.369 0.31 0.635 RC
N
f-1057828618
f
GR
GS
[0.75 0 0 0.75 144.30503 149.81363] CT
0.369 0.31 0.635 RC
N
f-1057828618
f
GR
GS
[0.75 0 0 0.75 144.30503 150.06465] CT
0.369 0.31 0.635 RC
N
f-1057828618
f
GR
GS
[0.75 0 0 0.75 144.30503 150.27832] CT
0.369 0.31 0.635 RC
N
f-1057828618
f
GR
GS
[0.75 0 0 0.75 144.30503 150.46018] CT
0.369 0.31 0.635 RC
N
f-1057828618
f
GR
GS
[0.75 0 0 0.75 144.30503 150.61495] CT
0.369 0.31 0.635 RC
N
f-1057828618
f
GR
GS
[0.75 0 0 0.75 144.29426 150.7467] CT
0.369 0.31 0.635 RC
N
f-1057828618
f
GR
GS
[0.75 0 0 0.75 144.29426 150.85882] CT
0.369 0.31 0.635 RC
N
f-1057828618
f
GR
GS
[0.75 0 0 0.75 144.29426 150.95429] CT
0.369 0.31 0.635 RC
N
f-1057828618
f
GR
GS
[0.75 0 0 0.75 144.29426 151.03552] CT
0.369 0.31 0.635 RC
N
f-1057828618
f
GR
GS
[0.75 0 0 0.75 144.29426 151.10465] CT
0.369 0.31 0.635 RC
N
f-1057828618
f
GR
GS
[0.75 0 0 0.75 144.29426 151.16351] CT
0.369 0.31 0.635 RC
N
f-1057828618
f
GR
GS
[0.75 0 0 0.75 144.29426 151.2136] CT
0.369 0.31 0.635 RC
N
f-1057828618
f
GR
GS
[0.75 0 0 0.75 143.80001 27.42155] CT
0.671 0.867 0.643 RC
10.0 ML
1.333 LW
N
4 0 M
4 -2.209 2.209 -4 0 -4 C
-2.209 -4 -4 -2.209 -4 0 C
-4 2.209 -2.209 4 0 4 C
2.209 4 4 2.209 4 0 C
S
GR
GS
[0.75 0 0 0.75 141.61263 40.02536] CT
0.671 0.867 0.643 RC
10.0 ML
1.333 LW
N
4 0 M
4 -2.209 2.209 -4 0 -4 C
-2.209 -4 -4 -2.209 -4 0 C
-4 2.209 -2.209 4 0 4 C
2.209 4 4 2.209 4 0 C
S
GR
GS
[0.75 0 0 0.75 139.54517 51.20463] CT
0.671 0.867 0.643 RC
10.0 ML
1.333 LW
N
4 0 M
4 -2.209 2.209 -4 0 -4 C
-2.209 -4 -4 -2.209 -4 0 C
-4 2.209 -2.209 4 0 4 C
2.209 4 4 2.209 4 0 C
S
GR
GS
[0.75 0 0 0.75 137.61535 61.14637] CT
0.671 0.867 0.643 RC
10.0 ML
1.333 LW
N
4 0 M
4 -2.209 2.209 -4 0 -4 C
-2.209 -4 -4 -2.209 -4 0 C
-4 2.209 -2.209 4 0 4 C
2.209 4 4 2.209 4 0 C
S
GR
GS
[0.75 0 0 0.75 135.82862 69.98836] CT
0.671 0.867 0.643 RC
10.0 ML
1.333 LW
N
4 0 M
4 -2.209 2.209 -4 0 -4 C
-2.209 -4 -4 -2.209 -4 0 C
-4 2.209 -2.209 4 0 4 C
2.209 4 4 2.209 4 0 C
S
GR
GS
[0.75 0 0 0.75 134.1811 77.84492] CT
0.671 0.867 0.643 RC
10.0 ML
1.333 LW
N
4 0 M
4 -2.209 2.209 -4 0 -4 C
-2.209 -4 -4 -2.209 -4 0 C
-4 2.209 -2.209 4 0 4 C
2.209 4 4 2.209 4 0 C
S
GR
GS
[0.75 0 0 0.75 132.66435 84.81885] CT
0.671 0.867 0.643 RC
10.0 ML
1.333 LW
N
4 0 M
4 -2.209 2.209 -4 0 -4 C
-2.209 -4 -4 -2.209 -4 0 C
-4 2.209 -2.209 4 0 4 C
2.209 4 4 2.209 4 0 C
S
GR
GS
[0.75 0 0 0.75 131.26927 91.00322] CT
0.671 0.867 0.643 RC
10.0 ML
1.333 LW
N
4 0 M
4 -2.209 2.209 -4 0 -4 C
-2.209 -4 -4 -2.209 -4 0 C
-4 2.209 -2.209 4 0 4 C
2.209 4 4 2.209 4 0 C
S
GR
GS
[0.75 0 0 0.75 129.98732 96.47924] CT
0.671 0.867 0.643 RC
10.0 ML
1.333 LW
N
4 0 M
4 -2.209 2.209 -4 0 -4 C
-2.209 -4 -4 -2.209 -4 0 C
-4 2.209 -2.209 4 0 4 C
2.209 4 4 2.209 4 0 C
S
GR
GS
[0.75 0 0 0.75 128.81041 101.31544] CT
0.671 0.867 0.643 RC
10.0 ML
1.333 LW
N
4 0 M
4 -2.209 2.209 -4 0 -4 C
-2.209 -4 -4 -2.209 -4 0 C
-4 2.209 -2.209 4 0 4 C
2.209 4 4 2.209 4 0 C
S
GR
GS
[0.75 0 0 0.75 127.73051 105.56879] CT
0.671 0.867 0.643 RC
10.0 ML
1.333 LW
N
4 0 M
4 -2.209 2.209 -4 0 -4 C
-2.209 -4 -4 -2.209 -4 0 C
-4 2.209 -2.209 4 0 4 C
2.209 4 4 2.209 4 0 C
S
GR
GS
[0.75 0 0 0.75 126.73933 109.28659] CT
0.671 0.867 0.643 RC
10.0 ML
1.333 LW
N
4 0 M
4 -2.209 2.209 -4 0 -4 C
-2.209 -4 -4 -2.209 -4 0 C
-4 2.209 -2.209 4 0 4 C
2.209 4 4 2.209 4 0 C
S
GR
GS
[0.75 0 0 0.75 125.82864 112.50795] CT
0.671 0.867 0.643 RC
10.0 ML
1.333 LW
N
4 0 M
4 -2.209 2.209 -4 0 -4 C
-2.209 -4 -4 -2.209 -4 0 C
-4 2.209 -2.209 4 0 4 C
2.209 4 4 2.209 4 0 C
S
GR
GS
[0.75 0 0 0.75 124.99005 115.26462] CT
0.671 0.867 0.643 RC
10.0 ML
1.333 LW
N
4 0 M
4 -2.209 2.209 -4 0 -4 C
-2.209 -4 -4 -2.209 -4 0 C
-4 2.209 -2.209 4 0 4 C
2.209 4 4 2.209 4 0 C
S
GR
GS
[0.75 0 0 0.75 124.21527 117.58143] CT
0.671 0.867 0.643 RC
10.0 ML
1.333 LW
N
4 0 M
4 -2.209 2.209 -4 0 -4 C
-2.209 -4 -4 -2.209 -4 0 C
-4 2.209 -2.209 4 0 4 C
2.209 4 4 2.209 4 0 C
S
GR
GS
[0.75 0 0 0.75 123.49591 119.47665] CT
0.671 0.867 0.643 RC
10.0 ML
1.333 LW
N
4 0 M
4 -2.209 2.209 -4 0 -4 C
-2.209 -4 -4 -2.209 -4 0 C
-4 2.209 -2.209 4 0 4 C
2.209 4 4 2.209 4 0 C
S
GR
GS
[0.75 0 0 0.75 122.82322 120.9621] CT
0.671 0.867 0.643 RC
10.0 ML
1.333 LW
N
4 0 M
4 -2.209 2.209 -4 0 -4 C
-2.209 -4 -4 -2.209 -4 0 C
-4 2.209 -2.209 4 0 4 C
2.209 4 4 2.209 4 0 C
S
GR
GS
[0.75 0 0 0.75 122.18782 122.04337] CT
0.671 0.867 0.643 RC
10.0 ML
1.333 LW
N
4 0 M
4 -2.209 2.209 -4 0 -4 C
-2.209 -4 -4 -2.209 -4 0 C
-4 2.209 -2.209 4 0 4 C
2.209 4 4 2.209 4 0 C
S
GR
GS
[0.75 0 0 0.75 121.5794 122.71994] CT
0.671 0.867 0.643 RC
10.0 ML
1.333 LW
N
4 0 M
4 -2.209 2.209 -4 0 -4 C
-2.209 -4 -4 -2.209 -4 0 C
-4 2.209 -2.209 4 0 4 C
2.209 4 4 2.209 4 0 C
S
GR
GS
[0.75 0 0 0.75 120.98591 122.98571] CT
0.671 0.867 0.643 RC
10.0 ML
1.333 LW
N
4 0 M
4 -2.209 2.209 -4 0 -4 C
-2.209 -4 -4 -2.209 -4 0 C
-4 2.209 -2.209 4 0 4 C
2.209 4 4 2.209 4 0 C
S
GR
GS
[0.75 0 0 0.75 120.39318 122.82939] CT
0.671 0.867 0.643 RC
10.0 ML
1.333 LW
N
4 0 M
4 -2.209 2.209 -4 0 -4 C
-2.209 -4 -4 -2.209 -4 0 C
-4 2.209 -2.209 4 0 4 C
2.209 4 4 2.209 4 0 C
S
GR
GS
[0.75 0 0 0.75 119.7838 122.23582] CT
0.671 0.867 0.643 RC
10.0 ML
1.333 LW
N
4 0 M
4 -2.209 2.209 -4 0 -4 C
-2.209 -4 -4 -2.209 -4 0 C
-4 2.209 -2.209 4 0 4 C
2.209 4 4 2.209 4 0 C
S
GR
GS
[0.75 0 0 0.75 119.13621 121.18776] CT
0.671 0.867 0.643 RC
10.0 ML
1.333 LW
N
4 0 M
4 -2.209 2.209 -4 0 -4 C
-2.209 -4 -4 -2.209 -4 0 C
-4 2.209 -2.209 4 0 4 C
2.209 4 4 2.209 4 0 C
S
GR
GS
[0.75 0 0 0.75 118.42338 119.66924] CT
0.671 0.867 0.643 RC
10.0 ML
1.333 LW
N
4 0 M
4 -2.209 2.209 -4 0 -4 C
-2.209 -4 -4 -2.209 -4 0 C
-4 2.209 -2.209 4 0 4 C
2.209 4 4 2.209 4 0 C
S
GR
GS
[0.75 0 0 0.75 117.61173 117.67076] CT
0.671 0.867 0.643 RC
10.0 ML
1.333 LW
N
4 0 M
4 -2.209 2.209 -4 0 -4 C
-2.209 -4 -4 -2.209 -4 0 C
-4 2.209 -2.209 4 0 4 C
2.209 4 4 2.209 4 0 C
S
GR
GS
[0.75 0 0 0.75 116.66005 115.1971] CT
0.671 0.867 0.643 RC
10.0 ML
1.333 LW
N
4 0 M
4 -2.209 2.209 -4 0 -4 C
-2.209 -4 -4 -2.209 -4 0 C
-4 2.209 -2.209 4 0 4 C
2.209 4 4 2.209 4 0 C
S
GR
GS
[0.75 0 0 0.75 115.51963 112.27832] CT
0.671 0.867 0.643 RC
10.0 ML
1.333 LW
N
4 0 M
4 -2.209 2.209 -4 0 -4 C
-2.209 -4 -4 -2.209 -4 0 C
-4 2.209 -2.209 4 0 4 C
2.209 4 4 2.209 4 0 C
S
GR
GS
[0.75 0 0 0.75 114.13566 108.98384] CT
0.671 0.867 0.643 RC
10.0 ML
1.333 LW
N
4 0 M
4 -2.209 2.209 -4 0 -4 C
-2.209 -4 -4 -2.209 -4 0 C
-4 2.209 -2.209 4 0 4 C
2.209 4 4 2.209 4 0 C
S
GR
GS
[0.75 0 0 0.75 112.45192 105.4381] CT
0.671 0.867 0.643 RC
10.0 ML
1.333 LW
N
4 0 M
4 -2.209 2.209 -4 0 -4 C
-2.209 -4 -4 -2.209 -4 0 C
-4 2.209 -2.209 4 0 4 C
2.209 4 4 2.209 4 0 C
S
GR
GS
[0.75 0 0 0.75 110.41916 101.83365] CT
0.671 0.867 0.643 RC
10.0 ML
1.333 LW
N
4 0 M
4 -2.209 2.209 -4 0 -4 C
-2.209 -4 -4 -2.209 -4 0 C
-4 2.209 -2.209 4 0 4 C
2.209 4 4 2.209 4 0 C
S
GR
GS
[0.75 0 0 0.75 108.00776 98.43449] CT
0.671 0.867 0.643 RC
10.0 ML
1.333 LW
N
4 0 M
4 -2.209 2.209 -4 0 -4 C
-2.209 -4 -4 -2.209 -4 0 C
-4 2.209 -2.209 4 0 4 C
2.209 4 4 2.209 4 0 C
S
GR
GS
[0.75 0 0 0.75 105.22302 95.5603] CT
0.671 0.867 0.643 RC
10.0 ML
1.333 LW
N
4 0 M
4 -2.209 2.209 -4 0 -4 C
-2.209 -4 -4 -2.209 -4 0 C
-4 2.209 -2.209 4 0 4 C
2.209 4 4 2.209 4 0 C
S
GR
GS
[0.75 0 0 0.75 102.11822 93.54502] CT
0.671 0.867 0.643 RC
10.0 ML
1.333 LW
N
4 0 M
4 -2.209 2.209 -4 0 -4 C
-2.209 -4 -4 -2.209 -4 0 C
-4 2.209 -2.209 4 0 4 C
2.209 4 4 2.209 4 0 C
S
GR
GS
[0.75 0 0 0.75 98.7984 92.67308] CT
0.671 0.867 0.643 RC
10.0 ML
1.333 LW
N
4 0 M
4 -2.209 2.209 -4 0 -4 C
-2.209 -4 -4 -2.209 -4 0 C
-4 2.209 -2.209 4 0 4 C
2.209 4 4 2.209 4 0 C
S
GR
GS
[0.75 0 0 0.75 95.40948 93.11126] CT
0.671 0.867 0.643 RC
10.0 ML
1.333 LW
N
4 0 M
4 -2.209 2.209 -4 0 -4 C
-2.209 -4 -4 -2.209 -4 0 C
-4 2.209 -2.209 4 0 4 C
2.209 4 4 2.209 4 0 C
S
GR
GS
[0.75 0 0 0.75 92.11329 94.86384] CT
0.671 0.867 0.643 RC
10.0 ML
1.333 LW
N
4 0 M
4 -2.209 2.209 -4 0 -4 C
-2.209 -4 -4 -2.209 -4 0 C
-4 2.209 -2.209 4 0 4 C
2.209 4 4 2.209 4 0 C
S
GR
GS
[0.75 0 0 0.75 89.05626 97.77244] CT
0.671 0.867 0.643 RC
10.0 ML
1.333 LW
N
4 0 M
4 -2.209 2.209 -4 0 -4 C
-2.209 -4 -4 -2.209 -4 0 C
-4 2.209 -2.209 4 0 4 C
2.209 4 4 2.209 4 0 C
S
GR
GS
[0.75 0 0 0.75 86.34425 101.56035] CT
0.671 0.867 0.643 RC
10.0 ML
1.333 LW
N
4 0 M
4 -2.209 2.209 -4 0 -4 C
-2.209 -4 -4 -2.209 -4 0 C
-4 2.209 -2.209 4 0 4 C
2.209 4 4 2.209 4 0 C
S
GR
GS
[0.75 0 0 0.75 84.03158 105.90067] CT
0.671 0.867 0.643 RC
10.0 ML
1.333 LW
N
4 0 M
4 -2.209 2.209 -4 0 -4 C
-2.209 -4 -4 -2.209 -4 0 C
-4 2.209 -2.209 4 0 4 C
2.209 4 4 2.209 4 0 C
S
GR
GS
[0.75 0 0 0.75 82.12443 110.48027] CT
0.671 0.867 0.643 RC
10.0 ML
1.333 LW
N
4 0 M
4 -2.209 2.209 -4 0 -4 C
-2.209 -4 -4 -2.209 -4 0 C
-4 2.209 -2.209 4 0 4 C
2.209 4 4 2.209 4 0 C
S
GR
GS
[0.75 0 0 0.75 80.59406 115.04192] CT
0.671 0.867 0.643 RC
10.0 ML
1.333 LW
N
4 0 M
4 -2.209 2.209 -4 0 -4 C
-2.209 -4 -4 -2.209 -4 0 C
-4 2.209 -2.209 4 0 4 C
2.209 4 4 2.209 4 0 C
S
GR
GS
[0.75 0 0 0.75 79.39178 119.4006] CT
0.671 0.867 0.643 RC
10.0 ML
1.333 LW
N
4 0 M
4 -2.209 2.209 -4 0 -4 C
-2.209 -4 -4 -2.209 -4 0 C
-4 2.209 -2.209 4 0 4 C
2.209 4 4 2.209 4 0 C
S
GR
GS
[0.75 0 0 0.75 78.46203 123.44075] CT
0.671 0.867 0.643 RC
10.0 ML
1.333 LW
N
4 0 M
4 -2.209 2.209 -4 0 -4 C
-2.209 -4 -4 -2.209 -4 0 C
-4 2.209 -2.209 4 0 4 C
2.209 4 4 2.209 4 0 C
S
GR
GS
[0.75 0 0 0.75 77.75086 127.10322] CT
0.671 0.867 0.643 RC
10.0 ML
1.333 LW
N
4 0 M
4 -2.209 2.209 -4 0 -4 C
-2.209 -4 -4 -2.209 -4 0 C
-4 2.209 -2.209 4 0 4 C
2.209 4 4 2.209 4 0 C
S
GR
GS
[0.75 0 0 0.75 77.21054 130.36981] CT
0.671 0.867 0.643 RC
10.0 ML
1.333 LW
N
4 0 M
4 -2.209 2.209 -4 0 -4 C
-2.209 -4 -4 -2.209 -4 0 C
-4 2.209 -2.209 4 0 4 C
2.209 4 4 2.209 4 0 C
S
GR
GS
[0.75 0 0 0.75 76.80139 133.24909] CT
0.671 0.867 0.643 RC
10.0 ML
1.333 LW
N
4 0 M
4 -2.209 2.209 -4 0 -4 C
-2.209 -4 -4 -2.209 -4 0 C
-4 2.209 -2.209 4 0 4 C
2.209 4 4 2.209 4 0 C
S
GR
GS
[0.75 0 0 0.75 76.49158 135.76537] CT
0.671 0.867 0.643 RC
10.0 ML
1.333 LW
N
4 0 M
4 -2.209 2.209 -4 0 -4 C
-2.209 -4 -4 -2.209 -4 0 C
-4 2.209 -2.209 4 0 4 C
2.209 4 4 2.209 4 0 C
S
GR
GS
[0.75 0 0 0.75 76.25644 137.95097] CT
0.671 0.867 0.643 RC
10.0 ML
1.333 LW
N
4 0 M
4 -2.209 2.209 -4 0 -4 C
-2.209 -4 -4 -2.209 -4 0 C
-4 2.209 -2.209 4 0 4 C
2.209 4 4 2.209 4 0 C
S
GR
GS
[0.75 0 0 0.75 76.07705 139.8411] CT
0.671 0.867 0.643 RC
10.0 ML
1.333 LW
N
4 0 M
4 -2.209 2.209 -4 0 -4 C
-2.209 -4 -4 -2.209 -4 0 C
-4 2.209 -2.209 4 0 4 C
2.209 4 4 2.209 4 0 C
S
GR
GS
[0.75 0 0 0.75 75.93925 141.47071] CT
0.671 0.867 0.643 RC
10.0 ML
1.333 LW
N
4 0 M
4 -2.209 2.209 -4 0 -4 C
-2.209 -4 -4 -2.209 -4 0 C
-4 2.209 -2.209 4 0 4 C
2.209 4 4 2.209 4 0 C
S
GR
GS
[0.75 0 0 0.75 75.83235 142.87276] CT
0.671 0.867 0.643 RC
10.0 ML
1.333 LW
N
4 0 M
4 -2.209 2.209 -4 0 -4 C
-2.209 -4 -4 -2.209 -4 0 C
-4 2.209 -2.209 4 0 4 C
2.209 4 4 2.209 4 0 C
S
GR
GS
[0.75 0 0 0.75 75.74856 144.07733] CT
0.671 0.867 0.643 RC
10.0 ML
1.333 LW
N
4 0 M
4 -2.209 2.209 -4 0 -4 C
-2.209 -4 -4 -2.209 -4 0 C
-4 2.209 -2.209 4 0 4 C
2.209 4 4 2.209 4 0 C
S
GR
GS
[0.75 0 0 0.75 75.68204 145.11134] CT
0.671 0.867 0.643 RC
10.0 ML
1.333 LW
N
4 0 M
4 -2.209 2.209 -4 0 -4 C
-2.209 -4 -4 -2.209 -4 0 C
-4 2.209 -2.209 4 0 4 C
2.209 4 4 2.209 4 0 C
S
GR
GS
[0.75 0 0 0.75 75.62852 145.99848] CT
0.671 0.867 0.643 RC
10.0 ML
1.333 LW
N
4 0 M
4 -2.209 2.209 -4 0 -4 C
-2.209 -4 -4 -2.209 -4 0 C
-4 2.209 -2.209 4 0 4 C
2.209 4 4 2.209 4 0 C
S
GR
GS
[0.75 0 0 0.75 75.58481 146.75947] CT
0.671 0.867 0.643 RC
10.0 ML
1.333 LW
N
4 0 M
4 -2.209 2.209 -4 0 -4 C
-2.209 -4 -4 -2.209 -4 0 C
-4 2.209 -2.209 4 0 4 C
2.209 4 4 2.209 4 0 C
S
GR
GS
[0.75 0 0 0.75 75.54864 147.41223] CT
0.671 0.867 0.643 RC
10.0 ML
1.333 LW
N
4 0 M
4 -2.209 2.209 -4 0 -4 C
-2.209 -4 -4 -2.209 -4 0 C
-4 2.209 -2.209 4 0 4 C
2.209 4 4 2.209 4 0 C
S
GR
GS
[0.75 0 0 0.75 75.51825 147.97227] CT
0.671 0.867 0.643 RC
10.0 ML
1.333 LW
N
4 0 M
4 -2.209 2.209 -4 0 -4 C
-2.209 -4 -4 -2.209 -4 0 C
-4 2.209 -2.209 4 0 4 C
2.209 4 4 2.209 4 0 C
S
GR
GS
[0.75 0 0 0.75 75.49235 148.4529] CT
0.671 0.867 0.643 RC
10.0 ML
1.333 LW
N
4 0 M
4 -2.209 2.209 -4 0 -4 C
-2.209 -4 -4 -2.209 -4 0 C
-4 2.209 -2.209 4 0 4 C
2.209 4 4 2.209 4 0 C
S
GR
GS
[0.75 0 0 0.75 75.47007 148.86555] CT
0.671 0.867 0.643 RC
10.0 ML
1.333 LW
N
4 0 M
4 -2.209 2.209 -4 0 -4 C
-2.209 -4 -4 -2.209 -4 0 C
-4 2.209 -2.209 4 0 4 C
2.209 4 4 2.209 4 0 C
S
GR
GS
[0.75 0 0 0.75 75.45063 149.22001] CT
0.671 0.867 0.643 RC
10.0 ML
1.333 LW
N
4 0 M
4 -2.209 2.209 -4 0 -4 C
-2.209 -4 -4 -2.209 -4 0 C
-4 2.209 -2.209 4 0 4 C
2.209 4 4 2.209 4 0 C
S
GR
GS
[0.75 0 0 0.75 75.43351 149.52466] CT
0.671 0.867 0.643 RC
10.0 ML
1.333 LW
N
4 0 M
4 -2.209 2.209 -4 0 -4 C
-2.209 -4 -4 -2.209 -4 0 C
-4 2.209 -2.209 4 0 4 C
2.209 4 4 2.209 4 0 C
S
GR
GS
[0.75 0 0 0.75 75.41831 149.78667] CT
0.671 0.867 0.643 RC
10.0 ML
1.333 LW
N
4 0 M
4 -2.209 2.209 -4 0 -4 C
-2.209 -4 -4 -2.209 -4 0 C
-4 2.209 -2.209 4 0 4 C
2.209 4 4 2.209 4 0 C
S
GR
GS
[0.75 0 0 0.75 75.40474 150.01218] CT
0.671 0.867 0.643 RC
10.0 ML
1.333 LW
N
4 0 M
4 -2.209 2.209 -4 0 -4 C
-2.209 -4 -4 -2.209 -4 0 C
-4 2.209 -2.209 4 0 4 C
2.209 4 4 2.209 4 0 C
S
GR
GS
[0.75 0 0 0.75 75.3925 150.20641] CT
0.671 0.867 0.643 RC
10.0 ML
1.333 LW
N
4 0 M
4 -2.209 2.209 -4 0 -4 C
-2.209 -4 -4 -2.209 -4 0 C
-4 2.209 -2.209 4 0 4 C
2.209 4 4 2.209 4 0 C
S
GR
GS
[0.75 0 0 0.75 75.38144 150.37382] CT
0.671 0.867 0.643 RC
10.0 ML
1.333 LW
N
4 0 M
4 -2.209 2.209 -4 0 -4 C
-2.209 -4 -4 -2.209 -4 0 C
-4 2.209 -2.209 4 0 4 C
2.209 4 4 2.209 4 0 C
S
GR
GS
[0.75 0 0 0.75 75.37142 150.51827] CT
0.671 0.867 0.643 RC
10.0 ML
1.333 LW
N
4 0 M
4 -2.209 2.209 -4 0 -4 C
-2.209 -4 -4 -2.209 -4 0 C
-4 2.209 -2.209 4 0 4 C
2.209 4 4 2.209 4 0 C
S
GR
GS
[0.75 0 0 0.75 75.36226 150.64301] CT
0.671 0.867 0.643 RC
10.0 ML
1.333 LW
N
4 0 M
4 -2.209 2.209 -4 0 -4 C
-2.209 -4 -4 -2.209 -4 0 C
-4 2.209 -2.209 4 0 4 C
2.209 4 4 2.209 4 0 C
S
GR
GS
[0.75 0 0 0.75 75.35391 150.75085] CT
0.671 0.867 0.643 RC
10.0 ML
1.333 LW
N
4 0 M
4 -2.209 2.209 -4 0 -4 C
-2.209 -4 -4 -2.209 -4 0 C
-4 2.209 -2.209 4 0 4 C
2.209 4 4 2.209 4 0 C
S
GR
GS
[0.75 0 0 0.75 75.34627 150.84414] CT
0.671 0.867 0.643 RC
10.0 ML
1.333 LW
N
4 0 M
4 -2.209 2.209 -4 0 -4 C
-2.209 -4 -4 -2.209 -4 0 C
-4 2.209 -2.209 4 0 4 C
2.209 4 4 2.209 4 0 C
S
GR
GS
[0.75 0 0 0.75 75.33925 150.92497] CT
0.671 0.867 0.643 RC
10.0 ML
1.333 LW
N
4 0 M
4 -2.209 2.209 -4 0 -4 C
-2.209 -4 -4 -2.209 -4 0 C
-4 2.209 -2.209 4 0 4 C
2.209 4 4 2.209 4 0 C
S
GR
GS
[0.75 0 0 0.75 75.33282 150.99506] CT
0.671 0.867 0.643 RC
10.0 ML
1.333 LW
N
4 0 M
4 -2.209 2.209 -4 0 -4 C
-2.209 -4 -4 -2.209 -4 0 C
-4 2.209 -2.209 4 0 4 C
2.209 4 4 2.209 4 0 C
S
GR
GS
[0.75 0 0 0.75 75.32691 151.05591] CT
0.671 0.867 0.643 RC
10.0 ML
1.333 LW
N
4 0 M
4 -2.209 2.209 -4 0 -4 C
-2.209 -4 -4 -2.209 -4 0 C
-4 2.209 -2.209 4 0 4 C
2.209 4 4 2.209 4 0 C
S
GR
GS
[0.75 0 0 0.75 75.32146 151.10882] CT
0.671 0.867 0.643 RC
10.0 ML
1.333 LW
N
4 0 M
4 -2.209 2.209 -4 0 -4 C
-2.209 -4 -4 -2.209 -4 0 C
-4 2.209 -2.209 4 0 4 C
2.209 4 4 2.209 4 0 C
S
GR
GS
[0.75 0 0 0.75 75.31647 151.15487] CT
0.671 0.867 0.643 RC
10.0 ML
1.333 LW
N
4 0 M
4 -2.209 2.209 -4 0 -4 C
-2.209 -4 -4 -2.209 -4 0 C
-4 2.209 -2.209 4 0 4 C
2.209 4 4 2.209 4 0 C
S
GR
GS
[0.75 0 0 0.75 75.31185 151.19501] CT
0.671 0.867 0.643 RC
10.0 ML
1.333 LW
N
4 0 M
4 -2.209 2.209 -4 0 -4 C
-2.209 -4 -4 -2.209 -4 0 C
-4 2.209 -2.209 4 0 4 C
2.209 4 4 2.209 4 0 C
S
GR
GS
[0.75 0 0 0.75 75.3076 151.23005] CT
0.671 0.867 0.643 RC
10.0 ML
1.333 LW
N
4 0 M
4 -2.209 2.209 -4 0 -4 C
-2.209 -4 -4 -2.209 -4 0 C
-4 2.209 -2.209 4 0 4 C
2.209 4 4 2.209 4 0 C
S
GR
GS
[0.75 0 0 0.75 144.39132 27.2492] CT
0.671 0.867 0.643 RC
N
f-1057828618
f
GR
GS
[0.75 0 0 0.75 142.06206 39.66367] CT
0.671 0.867 0.643 RC
N
f-1057828618
f
GR
GS
[0.75 0 0 0.75 139.87297 50.81316] CT
0.671 0.867 0.643 RC
N
f-1057828618
f
GR
GS
[0.75 0 0 0.75 137.84569 60.83538] CT
0.671 0.867 0.643 RC
N
f-1057828618
f
GR
GS
[0.75 0 0 0.75 135.99091 69.82497] CT
0.671 0.867 0.643 RC
N
f-1057828618
f
GR
GS
[0.75 0 0 0.75 134.31944 77.8479] CT
0.671 0.867 0.643 RC
N
f-1057828618
f
GR
GS
[0.75 0 0 0.75 132.79895 84.98451] CT
0.671 0.867 0.643 RC
N
f-1057828618
f
GR
GS
[0.75 0 0 0.75 131.42942 91.3036] CT
0.671 0.867 0.643 RC
N
f-1057828618
f
GR
GS
[0.75 0 0 0.75 130.17855 96.87691] CT
0.671 0.867 0.643 RC
N
f-1057828618
f
GR
GS
[0.75 0 0 0.75 129.04625 101.76755] CT
0.671 0.867 0.643 RC
N
f-1057828618
f
GR
GS
[0.75 0 0 0.75 128.01104 106.03575] CT
0.671 0.867 0.643 RC
N
f-1057828618
f
GR
GS
[0.75 0 0 0.75 127.07287 109.73312] CT
0.671 0.867 0.643 RC
N
f-1057828618
f
GR
GS
[0.75 0 0 0.75 126.1994 112.91132] CT
0.671 0.867 0.643 RC
N
f-1057828618
f
GR
GS
[0.75 0 0 0.75 125.39061 115.60475] CT
0.671 0.867 0.643 RC
N
f-1057828618
f
GR
GS
[0.75 0 0 0.75 124.63576 117.84497] CT
0.671 0.867 0.643 RC
N
f-1057828618
f
GR
GS
[0.75 0 0 0.75 123.93482 119.65781] CT
0.671 0.867 0.643 RC
N
f-1057828618
f
GR
GS
[0.75 0 0 0.75 123.26626 121.06333] CT
0.671 0.867 0.643 RC
N
f-1057828618
f
GR
GS
[0.75 0 0 0.75 122.63001 122.0644] CT
0.671 0.867 0.643 RC
N
f-1057828618
f
GR
GS
[0.75 0 0 0.75 122.02613 122.66963] CT
0.671 0.867 0.643 RC
N
f-1057828618
f
GR
GS
[0.75 0 0 0.75 121.42226 122.86842] CT
0.671 0.867 0.643 RC
N
f-1057828618
f
GR
GS
[0.75 0 0 0.75 120.81838 122.65243] CT
0.671 0.867 0.643 RC
N
f-1057828618
f
GR
GS
[0.75 0 0 0.75 120.2037 122.00417] CT
0.671 0.867 0.643 RC
N
f-1057828618
f
GR
GS
[0.75 0 0 0.75 119.54591 120.90557] CT
0.671 0.867 0.643 RC
N
f-1057828618
f
GR
GS
[0.75 0 0 0.75 118.8234 119.33655] CT
0.671 0.867 0.643 RC
N
f-1057828618
f
GR
GS
[0.75 0 0 0.75 118.00386 117.28563] CT
0.671 0.867 0.643 RC
N
f-1057828618
f
GR
GS
[0.75 0 0 0.75 117.04411 114.75283] CT
0.671 0.867 0.643 RC
N
f-1057828618
f
GR
GS
[0.75 0 0 0.75 115.90107 111.76682] CT
0.671 0.867 0.643 RC
N
f-1057828618
f
GR
GS
[0.75 0 0 0.75 114.50997 108.38784] CT
0.671 0.867 0.643 RC
N
f-1057828618
f
GR
GS
[0.75 0 0 0.75 112.82774 104.73349] CT
0.671 0.867 0.643 RC
N
f-1057828618
f
GR
GS
[0.75 0 0 0.75 110.77884 100.99308] CT
0.671 0.867 0.643 RC
N
f-1057828618
f
GR
GS
[0.75 0 0 0.75 108.35252 97.42192] CT
0.671 0.867 0.643 RC
N
f-1057828618
f
GR
GS
[0.75 0 0 0.75 105.53802 94.34125] CT
0.671 0.867 0.643 RC
N
f-1057828618
f
GR
GS
[0.75 0 0 0.75 102.37843 92.10102] CT
0.671 0.867 0.643 RC
N
f-1057828618
f
GR
GS
[0.75 0 0 0.75 98.98159 91.00529] CT
0.671 0.867 0.643 RC
N
f-1057828618
f
GR
GS
[0.75 0 0 0.75 95.47694 91.24911] CT
0.671 0.867 0.643 RC
N
f-1057828618
f
GR
GS
[0.75 0 0 0.75 92.04775 92.86975] CT
0.671 0.867 0.643 RC
N
f-1057828618
f
GR
GS
[0.75 0 0 0.75 88.84502 95.72669] CT
0.671 0.867 0.643 RC
N
f-1057828618
f
GR
GS
[0.75 0 0 0.75 85.98737 99.55601] CT
0.671 0.867 0.643 RC
N
f-1057828618
f
GR
GS
[0.75 0 0 0.75 83.53948 104.01639] CT
0.671 0.867 0.643 RC
N
f-1057828618
f
GR
GS
[0.75 0 0 0.75 81.51217 108.77795] CT
0.671 0.867 0.643 RC
N
f-1057828618
f
GR
GS
[0.75 0 0 0.75 79.89464 113.55957] CT
0.671 0.867 0.643 RC
N
f-1057828618
f
GR
GS
[0.75 0 0 0.75 78.62218 118.15477] CT
0.671 0.867 0.643 RC
N
f-1057828618
f
GR
GS
[0.75 0 0 0.75 77.65164 122.42869] CT
0.671 0.867 0.643 RC
N
f-1057828618
f
GR
GS
[0.75 0 0 0.75 76.90757 126.31137] CT
0.671 0.867 0.643 RC
N
f-1057828618
f
GR
GS
[0.75 0 0 0.75 76.3576 129.77784] CT
0.671 0.867 0.643 RC
N
f-1057828618
f
GR
GS
[0.75 0 0 0.75 75.94783 132.83241] CT
0.671 0.867 0.643 RC
N
f-1057828618
f
GR
GS
[0.75 0 0 0.75 75.6459 135.49888] CT
0.671 0.867 0.643 RC
N
f-1057828618
f
GR
GS
[0.75 0 0 0.75 75.41944 137.81082] CT
0.671 0.867 0.643 RC
N
f-1057828618
f
GR
GS
[0.75 0 0 0.75 75.2577 139.80493] CT
0.671 0.867 0.643 RC
N
f-1057828618
f
GR
GS
[0.75 0 0 0.75 75.13907 141.51881] CT
0.671 0.867 0.643 RC
N
f-1057828618
f
GR
GS
[0.75 0 0 0.75 75.05279 142.98771] CT
0.671 0.867 0.643 RC
N
f-1057828618
f
GR
GS
[0.75 0 0 0.75 74.99888 144.24437] CT
0.671 0.867 0.643 RC
N
f-1057828618
f
GR
GS
[0.75 0 0 0.75 74.94496 145.318] CT
0.671 0.867 0.643 RC
N
f-1057828618
f
GR
GS
[0.75 0 0 0.75 74.91262 146.23447] CT
0.671 0.867 0.643 RC
N
f-1057828618
f
GR
GS
[0.75 0 0 0.75 74.89105 147.01582] CT
0.671 0.867 0.643 RC
N
f-1057828618
f
GR
GS
[0.75 0 0 0.75 74.86947 147.68186] CT
0.671 0.867 0.643 RC
N
f-1057828618
f
GR
GS
[0.75 0 0 0.75 74.85871 148.24924] CT
0.671 0.867 0.643 RC
N
f-1057828618
f
GR
GS
[0.75 0 0 0.75 74.84791 148.73259] CT
0.671 0.867 0.643 RC
N
f-1057828618
f
GR
GS
[0.75 0 0 0.75 74.84791 149.14421] CT
0.671 0.867 0.643 RC
N
f-1057828618
f
GR
GS
[0.75 0 0 0.75 74.83713 149.49466] CT
0.671 0.867 0.643 RC
N
f-1057828618
f
GR
GS
[0.75 0 0 0.75 74.83713 149.79305] CT
0.671 0.867 0.643 RC
N
f-1057828618
f
GR
GS
[0.75 0 0 0.75 74.83713 150.04707] CT
0.671 0.867 0.643 RC
N
f-1057828618
f
GR
GS
[0.75 0 0 0.75 74.83713 150.26332] CT
0.671 0.867 0.643 RC
N
f-1057828618
f
GR
GS
[0.75 0 0 0.75 74.83713 150.44738] CT
0.671 0.867 0.643 RC
N
f-1057828618
f
GR
GS
[0.75 0 0 0.75 74.82634 150.60405] CT
0.671 0.867 0.643 RC
N
f-1057828618
f
GR
GS
[0.75 0 0 0.75 74.82634 150.7374] CT
0.671 0.867 0.643 RC
N
f-1057828618
f
GR
GS
[0.75 0 0 0.75 74.82634 150.8509] CT
0.671 0.867 0.643 RC
N
f-1057828618
f
GR
GS
[0.75 0 0 0.75 74.82634 150.94755] CT
0.671 0.867 0.643 RC
N
f-1057828618
f
GR
GS
[0.75 0 0 0.75 74.82634 151.02979] CT
0.671 0.867 0.643 RC
N
f-1057828618
f
GR
GS
[0.75 0 0 0.75 74.82634 151.09977] CT
0.671 0.867 0.643 RC
N
f-1057828618
f
GR
GS
[0.75 0 0 0.75 74.82634 151.15934] CT
0.671 0.867 0.643 RC
N
f-1057828618
f
GR
GS
[0.75 0 0 0.75 74.82634 151.21006] CT
0.671 0.867 0.643 RC
N
f-1057828618
f
GR
GS
[0.75 0 0 0.75 74.82634 151.25322] CT
0.671 0.867 0.643 RC
N
f-1057828618
f
GR
GS
[0.75 0 0 0.75 74.82634 151.28996] CT
0.671 0.867 0.643 RC
N
f-1057828618
f
GR
GS
[0.75 0 0 0.75 74.82634 151.32122] CT
0.671 0.867 0.643 RC
N
f-1057828618
f
GR
GS
[0.75 0 0 0.75 74.82634 151.34784] CT
0.671 0.867 0.643 RC
N
f-1057828618
f
GR
GS
[0.75 0 0 0.75 129.11266 24.40489] CT
0.996 0.878 0.545 RC
10.0 ML
1.333 LW
N
4 0 M
4 -2.209 2.209 -4 0 -4 C
-2.209 -4 -4 -2.209 -4 0 C
-4 2.209 -2.209 4 0 4 C
2.209 4 4 2.209 4 0 C
S
GR
GS
[0.75 0 0 0.75 126.28568 35.96481] CT
0.996 0.878 0.545 RC
10.0 ML
1.333 LW
N
4 0 M
4 -2.209 2.209 -4 0 -4 C
-2.209 -4 -4 -2.209 -4 0 C
-4 2.209 -2.209 4 0 4 C
2.209 4 4 2.209 4 0 C
S
GR
GS
[0.75 0 0 0.75 123.66248 46.31512] CT
0.996 0.878 0.545 RC
10.0 ML
1.333 LW
N
4 0 M
4 -2.209 2.209 -4 0 -4 C
-2.209 -4 -4 -2.209 -4 0 C
-4 2.209 -2.209 4 0 4 C
2.209 4 4 2.209 4 0 C
S
GR
GS
[0.75 0 0 0.75 121.23229 55.58791] CT
0.996 0.878 0.545 RC
10.0 ML
1.333 LW
N
4 0 M
4 -2.209 2.209 -4 0 -4 C
-2.209 -4 -4 -2.209 -4 0 C
-4 2.209 -2.209 4 0 4 C
2.209 4 4 2.209 4 0 C
S
GR
GS
[0.75 0 0 0.75 118.9846 63.89472] CT
0.996 0.878 0.545 RC
10.0 ML
1.333 LW
N
4 0 M
4 -2.209 2.209 -4 0 -4 C
-2.209 -4 -4 -2.209 -4 0 C
-4 2.209 -2.209 4 0 4 C
2.209 4 4 2.209 4 0 C
S
GR
GS
[0.75 0 0 0.75 116.90849 71.32906] CT
0.996 0.878 0.545 RC
10.0 ML
1.333 LW
N
4 0 M
4 -2.209 2.209 -4 0 -4 C
-2.209 -4 -4 -2.209 -4 0 C
-4 2.209 -2.209 4 0 4 C
2.209 4 4 2.209 4 0 C
S
GR
GS
[0.75 0 0 0.75 114.99236 77.97007] CT
0.996 0.878 0.545 RC
10.0 ML
1.333 LW
N
4 0 M
4 -2.209 2.209 -4 0 -4 C
-2.209 -4 -4 -2.209 -4 0 C
-4 2.209 -2.209 4 0 4 C
2.209 4 4 2.209 4 0 C
S
GR
GS
[0.75 0 0 0.75 113.22421 83.88519] CT
0.996 0.878 0.545 RC
10.0 ML
1.333 LW
N
4 0 M
4 -2.209 2.209 -4 0 -4 C
-2.209 -4 -4 -2.209 -4 0 C
-4 2.209 -2.209 4 0 4 C
2.209 4 4 2.209 4 0 C
S
GR
GS
[0.75 0 0 0.75 111.59203 89.13172] CT
0.996 0.878 0.545 RC
10.0 ML
1.333 LW
N
4 0 M
4 -2.209 2.209 -4 0 -4 C
-2.209 -4 -4 -2.209 -4 0 C
-4 2.209 -2.209 4 0 4 C
2.209 4 4 2.209 4 0 C
S
GR
GS
[0.75 0 0 0.75 110.08384 93.75796] CT
0.996 0.878 0.545 RC
10.0 ML
1.333 LW
N
4 0 M
4 -2.209 2.209 -4 0 -4 C
-2.209 -4 -4 -2.209 -4 0 C
-4 2.209 -2.209 4 0 4 C
2.209 4 4 2.209 4 0 C
S
GR
GS
[0.75 0 0 0.75 108.68769 97.80391] CT
0.996 0.878 0.545 RC
10.0 ML
1.333 LW
N
4 0 M
4 -2.209 2.209 -4 0 -4 C
-2.209 -4 -4 -2.209 -4 0 C
-4 2.209 -2.209 4 0 4 C
2.209 4 4 2.209 4 0 C
S
GR
GS
[0.75 0 0 0.75 107.39169 101.30184] CT
0.996 0.878 0.545 RC
10.0 ML
1.333 LW
N
4 0 M
4 -2.209 2.209 -4 0 -4 C
-2.209 -4 -4 -2.209 -4 0 C
-4 2.209 -2.209 4 0 4 C
2.209 4 4 2.209 4 0 C
S
GR
GS
[0.75 0 0 0.75 106.18371 104.27674] CT
0.996 0.878 0.545 RC
10.0 ML
1.333 LW
N
4 0 M
4 -2.209 2.209 -4 0 -4 C
-2.209 -4 -4 -2.209 -4 0 C
-4 2.209 -2.209 4 0 4 C
2.209 4 4 2.209 4 0 C
S
GR
GS
[0.75 0 0 0.75 105.05107 106.74676] CT
0.996 0.878 0.545 RC
10.0 ML
1.333 LW
N
4 0 M
4 -2.209 2.209 -4 0 -4 C
-2.209 -4 -4 -2.209 -4 0 C
-4 2.209 -2.209 4 0 4 C
2.209 4 4 2.209 4 0 C
S
GR
GS
[0.75 0 0 0.75 103.98022 108.72364] CT
0.996 0.878 0.545 RC
10.0 ML
1.333 LW
N
4 0 M
4 -2.209 2.209 -4 0 -4 C
-2.209 -4 -4 -2.209 -4 0 C
-4 2.209 -2.209 4 0 4 C
2.209 4 4 2.209 4 0 C
S
GR
GS
[0.75 0 0 0.75 102.95611 110.21345] CT
0.996 0.878 0.545 RC
10.0 ML
1.333 LW
N
4 0 M
4 -2.209 2.209 -4 0 -4 C
-2.209 -4 -4 -2.209 -4 0 C
-4 2.209 -2.209 4 0 4 C
2.209 4 4 2.209 4 0 C
S
GR
GS
[0.75 0 0 0.75 101.96151 111.21747] CT
0.996 0.878 0.545 RC
10.0 ML
1.333 LW
N
4 0 M
4 -2.209 2.209 -4 0 -4 C
-2.209 -4 -4 -2.209 -4 0 C
-4 2.209 -2.209 4 0 4 C
2.209 4 4 2.209 4 0 C
S
GR
GS
[0.75 0 0 0.75 100.9762 111.73396] CT
0.996 0.878 0.545 RC
10.0 ML
1.333 LW
N
4 0 M
4 -2.209 2.209 -4 0 -4 C
-2.209 -4 -4 -2.209 -4 0 C
-4 2.209 -2.209 4 0 4 C
2.209 4 4 2.209 4 0 C
S
GR
GS
[0.75 0 0 0.75 99.97593 111.7606] CT
0.996 0.878 0.545 RC
10.0 ML
1.333 LW
N
4 0 M
4 -2.209 2.209 -4 0 -4 C
-2.209 -4 -4 -2.209 -4 0 C
-4 2.209 -2.209 4 0 4 C
2.209 4 4 2.209 4 0 C
S
GR
GS
[0.75 0 0 0.75 98.93147 111.29871] CT
0.996 0.878 0.545 RC
10.0 ML
1.333 LW
N
4 0 M
4 -2.209 2.209 -4 0 -4 C
-2.209 -4 -4 -2.209 -4 0 C
-4 2.209 -2.209 4 0 4 C
2.209 4 4 2.209 4 0 C
S
GR
GS
[0.75 0 0 0.75 97.80785 110.3593] CT
0.996 0.878 0.545 RC
10.0 ML
1.333 LW
N
4 0 M
4 -2.209 2.209 -4 0 -4 C
-2.209 -4 -4 -2.209 -4 0 C
-4 2.209 -2.209 4 0 4 C
2.209 4 4 2.209 4 0 C
S
GR
GS
[0.75 0 0 0.75 96.56399 108.97167] CT
0.996 0.878 0.545 RC
10.0 ML
1.333 LW
N
4 0 M
4 -2.209 2.209 -4 0 -4 C
-2.209 -4 -4 -2.209 -4 0 C
-4 2.209 -2.209 4 0 4 C
2.209 4 4 2.209 4 0 C
S
GR
GS
[0.75 0 0 0.75 95.15402 107.19456] CT
0.996 0.878 0.545 RC
10.0 ML
1.333 LW
N
4 0 M
4 -2.209 2.209 -4 0 -4 C
-2.209 -4 -4 -2.209 -4 0 C
-4 2.209 -2.209 4 0 4 C
2.209 4 4 2.209 4 0 C
S
GR
GS
[0.75 0 0 0.75 93.53025 105.12886] CT
0.996 0.878 0.545 RC
10.0 ML
1.333 LW
N
4 0 M
4 -2.209 2.209 -4 0 -4 C
-2.209 -4 -4 -2.209 -4 0 C
-4 2.209 -2.209 4 0 4 C
2.209 4 4 2.209 4 0 C
S
GR
GS
[0.75 0 0 0.75 91.64968 102.92885] CT
0.996 0.878 0.545 RC
10.0 ML
1.333 LW
N
4 0 M
4 -2.209 2.209 -4 0 -4 C
-2.209 -4 -4 -2.209 -4 0 C
-4 2.209 -2.209 4 0 4 C
2.209 4 4 2.209 4 0 C
S
GR
GS
[0.75 0 0 0.75 89.48379 100.80663] CT
0.996 0.878 0.545 RC
10.0 ML
1.333 LW
N
4 0 M
4 -2.209 2.209 -4 0 -4 C
-2.209 -4 -4 -2.209 -4 0 C
-4 2.209 -2.209 4 0 4 C
2.209 4 4 2.209 4 0 C
S
GR
GS
[0.75 0 0 0.75 87.03069 99.02213] CT
0.996 0.878 0.545 RC
10.0 ML
1.333 LW
N
4 0 M
4 -2.209 2.209 -4 0 -4 C
-2.209 -4 -4 -2.209 -4 0 C
-4 2.209 -2.209 4 0 4 C
2.209 4 4 2.209 4 0 C
S
GR
GS
[0.75 0 0 0.75 84.3264 97.8527] CT
0.996 0.878 0.545 RC
10.0 ML
1.333 LW
N
4 0 M
4 -2.209 2.209 -4 0 -4 C
-2.209 -4 -4 -2.209 -4 0 C
-4 2.209 -2.209 4 0 4 C
2.209 4 4 2.209 4 0 C
S
GR
GS
[0.75 0 0 0.75 81.44949 97.54328] CT
0.996 0.878 0.545 RC
10.0 ML
1.333 LW
N
4 0 M
4 -2.209 2.209 -4 0 -4 C
-2.209 -4 -4 -2.209 -4 0 C
-4 2.209 -2.209 4 0 4 C
2.209 4 4 2.209 4 0 C
S
GR
GS
[0.75 0 0 0.75 78.51414 98.25] CT
0.996 0.878 0.545 RC
10.0 ML
1.333 LW
N
4 0 M
4 -2.209 2.209 -4 0 -4 C
-2.209 -4 -4 -2.209 -4 0 C
-4 2.209 -2.209 4 0 4 C
2.209 4 4 2.209 4 0 C
S
GR
GS
[0.75 0 0 0.75 75.65104 99.99928] CT
0.996 0.878 0.545 RC
10.0 ML
1.333 LW
N
4 0 M
4 -2.209 2.209 -4 0 -4 C
-2.209 -4 -4 -2.209 -4 0 C
-4 2.209 -2.209 4 0 4 C
2.209 4 4 2.209 4 0 C
S
GR
GS
[0.75 0 0 0.75 72.9821 102.68158] CT
0.996 0.878 0.545 RC
10.0 ML
1.333 LW
N
4 0 M
4 -2.209 2.209 -4 0 -4 C
-2.209 -4 -4 -2.209 -4 0 C
-4 2.209 -2.209 4 0 4 C
2.209 4 4 2.209 4 0 C
S
GR
GS
[0.75 0 0 0.75 70.59834 106.08332] CT
0.996 0.878 0.545 RC
10.0 ML
1.333 LW
N
4 0 M
4 -2.209 2.209 -4 0 -4 C
-2.209 -4 -4 -2.209 -4 0 C
-4 2.209 -2.209 4 0 4 C
2.209 4 4 2.209 4 0 C
S
GR
GS
[0.75 0 0 0.75 68.54903 109.94132] CT
0.996 0.878 0.545 RC
10.0 ML
1.333 LW
N
4 0 M
4 -2.209 2.209 -4 0 -4 C
-2.209 -4 -4 -2.209 -4 0 C
-4 2.209 -2.209 4 0 4 C
2.209 4 4 2.209 4 0 C
S
GR
GS
[0.75 0 0 0.75 66.84309 113.99714] CT
0.996 0.878 0.545 RC
10.0 ML
1.333 LW
N
4 0 M
4 -2.209 2.209 -4 0 -4 C
-2.209 -4 -4 -2.209 -4 0 C
-4 2.209 -2.209 4 0 4 C
2.209 4 4 2.209 4 0 C
S
GR
GS
[0.75 0 0 0.75 65.45904 118.03476] CT
0.996 0.878 0.545 RC
10.0 ML
1.333 LW
N
4 0 M
4 -2.209 2.209 -4 0 -4 C
-2.209 -4 -4 -2.209 -4 0 C
-4 2.209 -2.209 4 0 4 C
2.209 4 4 2.209 4 0 C
S
GR
GS
[0.75 0 0 0.75 64.35754 121.89671] CT
0.996 0.878 0.545 RC
10.0 ML
1.333 LW
N
4 0 M
4 -2.209 2.209 -4 0 -4 C
-2.209 -4 -4 -2.209 -4 0 C
-4 2.209 -2.209 4 0 4 C
2.209 4 4 2.209 4 0 C
S
GR
GS
[0.75 0 0 0.75 63.4924 125.48338] CT
0.996 0.878 0.545 RC
10.0 ML
1.333 LW
N
4 0 M
4 -2.209 2.209 -4 0 -4 C
-2.209 -4 -4 -2.209 -4 0 C
-4 2.209 -2.209 4 0 4 C
2.209 4 4 2.209 4 0 C
S
GR
GS
[0.75 0 0 0.75 62.8182 128.74313] CT
0.996 0.878 0.545 RC
10.0 ML
1.333 LW
N
4 0 M
4 -2.209 2.209 -4 0 -4 C
-2.209 -4 -4 -2.209 -4 0 C
-4 2.209 -2.209 4 0 4 C
2.209 4 4 2.209 4 0 C
S
GR
GS
[0.75 0 0 0.75 62.29439 131.65942] CT
0.996 0.878 0.545 RC
10.0 ML
1.333 LW
N
4 0 M
4 -2.209 2.209 -4 0 -4 C
-2.209 -4 -4 -2.209 -4 0 C
-4 2.209 -2.209 4 0 4 C
2.209 4 4 2.209 4 0 C
S
GR
GS
[0.75 0 0 0.75 61.88696 134.2389] CT
0.996 0.878 0.545 RC
10.0 ML
1.333 LW
N
4 0 M
4 -2.209 2.209 -4 0 -4 C
-2.209 -4 -4 -2.209 -4 0 C
-4 2.209 -2.209 4 0 4 C
2.209 4 4 2.209 4 0 C
S
GR
GS
[0.75 0 0 0.75 61.56864 136.502] CT
0.996 0.878 0.545 RC
10.0 ML
1.333 LW
N
4 0 M
4 -2.209 2.209 -4 0 -4 C
-2.209 -4 -4 -2.209 -4 0 C
-4 2.209 -2.209 4 0 4 C
2.209 4 4 2.209 4 0 C
S
GR
GS
[0.75 0 0 0.75 61.31799 138.47621] CT
0.996 0.878 0.545 RC
10.0 ML
1.333 LW
N
4 0 M
4 -2.209 2.209 -4 0 -4 C
-2.209 -4 -4 -2.209 -4 0 C
-4 2.209 -2.209 4 0 4 C
2.209 4 4 2.209 4 0 C
S
GR
GS
[0.75 0 0 0.75 61.11872 140.19167] CT
0.996 0.878 0.545 RC
10.0 ML
1.333 LW
N
4 0 M
4 -2.209 2.209 -4 0 -4 C
-2.209 -4 -4 -2.209 -4 0 C
-4 2.209 -2.209 4 0 4 C
2.209 4 4 2.209 4 0 C
S
GR
GS
[0.75 0 0 0.75 60.95833 141.67837] CT
0.996 0.878 0.545 RC
10.0 ML
1.333 LW
N
4 0 M
4 -2.209 2.209 -4 0 -4 C
-2.209 -4 -4 -2.209 -4 0 C
-4 2.209 -2.209 4 0 4 C
2.209 4 4 2.209 4 0 C
S
GR
GS
[0.75 0 0 0.75 60.8276 142.96472] CT
0.996 0.878 0.545 RC
10.0 ML
1.333 LW
N
4 0 M
4 -2.209 2.209 -4 0 -4 C
-2.209 -4 -4 -2.209 -4 0 C
-4 2.209 -2.209 4 0 4 C
2.209 4 4 2.209 4 0 C
S
GR
GS
[0.75 0 0 0.75 60.71954 144.07666] CT
0.996 0.878 0.545 RC
10.0 ML
1.333 LW
N
4 0 M
4 -2.209 2.209 -4 0 -4 C
-2.209 -4 -4 -2.209 -4 0 C
-4 2.209 -2.209 4 0 4 C
2.209 4 4 2.209 4 0 C
S
GR
GS
[0.75 0 0 0.75 60.62899 145.03749] CT
0.996 0.878 0.545 RC
10.0 ML
1.333 LW
N
4 0 M
4 -2.209 2.209 -4 0 -4 C
-2.209 -4 -4 -2.209 -4 0 C
-4 2.209 -2.209 4 0 4 C
2.209 4 4 2.209 4 0 C
S
GR
GS
[0.75 0 0 0.75 60.55206 145.8677] CT
0.996 0.878 0.545 RC
10.0 ML
1.333 LW
N
4 0 M
4 -2.209 2.209 -4 0 -4 C
-2.209 -4 -4 -2.209 -4 0 C
-4 2.209 -2.209 4 0 4 C
2.209 4 4 2.209 4 0 C
S
GR
GS
[0.75 0 0 0.75 60.48592 146.58528] CT
0.996 0.878 0.545 RC
10.0 ML
1.333 LW
N
4 0 M
4 -2.209 2.209 -4 0 -4 C
-2.209 -4 -4 -2.209 -4 0 C
-4 2.209 -2.209 4 0 4 C
2.209 4 4 2.209 4 0 C
S
GR
GS
[0.75 0 0 0.75 60.42835 147.20584] CT
0.996 0.878 0.545 RC
10.0 ML
1.333 LW
N
4 0 M
4 -2.209 2.209 -4 0 -4 C
-2.209 -4 -4 -2.209 -4 0 C
-4 2.209 -2.209 4 0 4 C
2.209 4 4 2.209 4 0 C
S
GR
GS
[0.75 0 0 0.75 60.37778 147.74287] CT
0.996 0.878 0.545 RC
10.0 ML
1.333 LW
N
4 0 M
4 -2.209 2.209 -4 0 -4 C
-2.209 -4 -4 -2.209 -4 0 C
-4 2.209 -2.209 4 0 4 C
2.209 4 4 2.209 4 0 C
S
GR
GS
[0.75 0 0 0.75 60.33291 148.20802] CT
0.996 0.878 0.545 RC
10.0 ML
1.333 LW
N
4 0 M
4 -2.209 2.209 -4 0 -4 C
-2.209 -4 -4 -2.209 -4 0 C
-4 2.209 -2.209 4 0 4 C
2.209 4 4 2.209 4 0 C
S
GR
GS
[0.75 0 0 0.75 60.29285 148.61128] CT
0.996 0.878 0.545 RC
10.0 ML
1.333 LW
N
4 0 M
4 -2.209 2.209 -4 0 -4 C
-2.209 -4 -4 -2.209 -4 0 C
-4 2.209 -2.209 4 0 4 C
2.209 4 4 2.209 4 0 C
S
GR
GS
[0.75 0 0 0.75 60.25686 148.96127] CT
0.996 0.878 0.545 RC
10.0 ML
1.333 LW
N
4 0 M
4 -2.209 2.209 -4 0 -4 C
-2.209 -4 -4 -2.209 -4 0 C
-4 2.209 -2.209 4 0 4 C
2.209 4 4 2.209 4 0 C
S
GR
GS
[0.75 0 0 0.75 60.22432 149.26537] CT
0.996 0.878 0.545 RC
10.0 ML
1.333 LW
N
4 0 M
4 -2.209 2.209 -4 0 -4 C
-2.209 -4 -4 -2.209 -4 0 C
-4 2.209 -2.209 4 0 4 C
2.209 4 4 2.209 4 0 C
S
GR
GS
[0.75 0 0 0.75 60.1948 149.52992] CT
0.996 0.878 0.545 RC
10.0 ML
1.333 LW
N
4 0 M
4 -2.209 2.209 -4 0 -4 C
-2.209 -4 -4 -2.209 -4 0 C
-4 2.209 -2.209 4 0 4 C
2.209 4 4 2.209 4 0 C
S
GR
GS
[0.75 0 0 0.75 60.16791 149.76037] CT
0.996 0.878 0.545 RC
10.0 ML
1.333 LW
N
4 0 M
4 -2.209 2.209 -4 0 -4 C
-2.209 -4 -4 -2.209 -4 0 C
-4 2.209 -2.209 4 0 4 C
2.209 4 4 2.209 4 0 C
S
GR
GS
[0.75 0 0 0.75 60.14335 149.96136] CT
0.996 0.878 0.545 RC
10.0 ML
1.333 LW
N
4 0 M
4 -2.209 2.209 -4 0 -4 C
-2.209 -4 -4 -2.209 -4 0 C
-4 2.209 -2.209 4 0 4 C
2.209 4 4 2.209 4 0 C
S
GR
GS
[0.75 0 0 0.75 60.12091 150.13693] CT
0.996 0.878 0.545 RC
10.0 ML
1.333 LW
N
4 0 M
4 -2.209 2.209 -4 0 -4 C
-2.209 -4 -4 -2.209 -4 0 C
-4 2.209 -2.209 4 0 4 C
2.209 4 4 2.209 4 0 C
S
GR
GS
[0.75 0 0 0.75 60.10031 150.29049] CT
0.996 0.878 0.545 RC
10.0 ML
1.333 LW
N
4 0 M
4 -2.209 2.209 -4 0 -4 C
-2.209 -4 -4 -2.209 -4 0 C
-4 2.209 -2.209 4 0 4 C
2.209 4 4 2.209 4 0 C
S
GR
GS
[0.75 0 0 0.75 60.08142 150.42501] CT
0.996 0.878 0.545 RC
10.0 ML
1.333 LW
N
4 0 M
4 -2.209 2.209 -4 0 -4 C
-2.209 -4 -4 -2.209 -4 0 C
-4 2.209 -2.209 4 0 4 C
2.209 4 4 2.209 4 0 C
S
GR
GS
[0.75 0 0 0.75 60.06404 150.54302] CT
0.996 0.878 0.545 RC
10.0 ML
1.333 LW
N
4 0 M
4 -2.209 2.209 -4 0 -4 C
-2.209 -4 -4 -2.209 -4 0 C
-4 2.209 -2.209 4 0 4 C
2.209 4 4 2.209 4 0 C
S
GR
GS
[0.75 0 0 0.75 60.04807 150.64672] CT
0.996 0.878 0.545 RC
10.0 ML
1.333 LW
N
4 0 M
4 -2.209 2.209 -4 0 -4 C
-2.209 -4 -4 -2.209 -4 0 C
-4 2.209 -2.209 4 0 4 C
2.209 4 4 2.209 4 0 C
S
GR
GS
[0.75 0 0 0.75 60.03337 150.73797] CT
0.996 0.878 0.545 RC
10.0 ML
1.333 LW
N
4 0 M
4 -2.209 2.209 -4 0 -4 C
-2.209 -4 -4 -2.209 -4 0 C
-4 2.209 -2.209 4 0 4 C
2.209 4 4 2.209 4 0 C
S
GR
GS
[0.75 0 0 0.75 60.01984 150.81841] CT
0.996 0.878 0.545 RC
10.0 ML
1.333 LW
N
4 0 M
4 -2.209 2.209 -4 0 -4 C
-2.209 -4 -4 -2.209 -4 0 C
-4 2.209 -2.209 4 0 4 C
2.209 4 4 2.209 4 0 C
S
GR
GS
[0.75 0 0 0.75 60.00737 150.88943] CT
0.996 0.878 0.545 RC
10.0 ML
1.333 LW
N
4 0 M
4 -2.209 2.209 -4 0 -4 C
-2.209 -4 -4 -2.209 -4 0 C
-4 2.209 -2.209 4 0 4 C
2.209 4 4 2.209 4 0 C
S
GR
GS
[0.75 0 0 0.75 59.99588 150.95223] CT
0.996 0.878 0.545 RC
10.0 ML
1.333 LW
N
4 0 M
4 -2.209 2.209 -4 0 -4 C
-2.209 -4 -4 -2.209 -4 0 C
-4 2.209 -2.209 4 0 4 C
2.209 4 4 2.209 4 0 C
S
GR
GS
[0.75 0 0 0.75 59.98529 151.00786] CT
0.996 0.878 0.545 RC
10.0 ML
1.333 LW
N
4 0 M
4 -2.209 2.209 -4 0 -4 C
-2.209 -4 -4 -2.209 -4 0 C
-4 2.209 -2.209 4 0 4 C
2.209 4 4 2.209 4 0 C
S
GR
GS
[0.75 0 0 0.75 59.97552 151.05722] CT
0.996 0.878 0.545 RC
10.0 ML
1.333 LW
N
4 0 M
4 -2.209 2.209 -4 0 -4 C
-2.209 -4 -4 -2.209 -4 0 C
-4 2.209 -2.209 4 0 4 C
2.209 4 4 2.209 4 0 C
S
GR
GS
[0.75 0 0 0.75 59.96649 151.10107] CT
0.996 0.878 0.545 RC
10.0 ML
1.333 LW
N
4 0 M
4 -2.209 2.209 -4 0 -4 C
-2.209 -4 -4 -2.209 -4 0 C
-4 2.209 -2.209 4 0 4 C
2.209 4 4 2.209 4 0 C
S
GR
GS
[0.75 0 0 0.75 128.86293 23.55182] CT
0.996 0.878 0.545 RC
N
f-1057828618
f
GR
GS
[0.75 0 0 0.75 126.00529 35.33811] CT
0.996 0.878 0.545 RC
N
f-1057828618
f
GR
GS
[0.75 0 0 0.75 123.38486 45.88238] CT
0.996 0.878 0.545 RC
N
f-1057828618
f
GR
GS
[0.75 0 0 0.75 120.96935 55.30222] CT
0.996 0.878 0.545 RC
N
f-1057828618
f
GR
GS
[0.75 0 0 0.75 118.75872 63.70378] CT
0.996 0.878 0.545 RC
N
f-1057828618
f
GR
GS
[0.75 0 0 0.75 116.70982 71.18459] CT
0.996 0.878 0.545 RC
N
f-1057828618
f
GR
GS
[0.75 0 0 0.75 114.8227 77.82783] CT
0.996 0.878 0.545 RC
N
f-1057828618
f
GR
GS
[0.75 0 0 0.75 113.07575 83.71379] CT
0.996 0.878 0.545 RC
N
f-1057828618
f
GR
GS
[0.75 0 0 0.75 111.45821 88.90562] CT
0.996 0.878 0.545 RC
N
f-1057828618
f
GR
GS
[0.75 0 0 0.75 109.95931 93.46064] CT
0.996 0.878 0.545 RC
N
f-1057828618
f
GR
GS
[0.75 0 0 0.75 108.55744 97.42765] CT
0.996 0.878 0.545 RC
N
f-1057828618
f
GR
GS
[0.75 0 0 0.75 107.25262 100.84106] CT
0.996 0.878 0.545 RC
N
f-1057828618
f
GR
GS
[0.75 0 0 0.75 106.03407 103.73242] CT
0.996 0.878 0.545 RC
N
f-1057828618
f
GR
GS
[0.75 0 0 0.75 104.86943 106.1218] CT
0.996 0.878 0.545 RC
N
f-1057828618
f
GR
GS
[0.75 0 0 0.75 103.7803 108.02068] CT
0.996 0.878 0.545 RC
N
f-1057828618
f
GR
GS
[0.75 0 0 0.75 102.72351 109.4348] CT
0.996 0.878 0.545 RC
N
f-1057828618
f
GR
GS
[0.75 0 0 0.75 101.69907 110.36704] CT
0.996 0.878 0.545 RC
N
f-1057828618
f
GR
GS
[0.75 0 0 0.75 100.68539 110.81451] CT
0.996 0.878 0.545 RC
N
f-1057828618
f
GR
GS
[0.75 0 0 0.75 99.65017 110.77148] CT
0.996 0.878 0.545 RC
N
f-1057828618
f
GR
GS
[0.75 0 0 0.75 98.56105 110.23796] CT
0.996 0.878 0.545 RC
N
f-1057828618
f
GR
GS
[0.75 0 0 0.75 97.4072 109.22255] CT
0.996 0.878 0.545 RC
N
f-1057828618
f
GR
GS
[0.75 0 0 0.75 96.12394 107.75105] CT
0.996 0.878 0.545 RC
N
f-1057828618
f
GR
GS
[0.75 0 0 0.75 94.66815 105.88371] CT
0.996 0.878 0.545 RC
N
f-1057828618
f
GR
GS
[0.75 0 0 0.75 92.99672 103.71233] CT
0.996 0.878 0.545 RC
N
f-1057828618
f
GR
GS
[0.75 0 0 0.75 91.06642 101.39466] CT
0.996 0.878 0.545 RC
N
f-1057828618
f
GR
GS
[0.75 0 0 0.75 88.84502 99.13435] CT
0.996 0.878 0.545 RC
N
f-1057828618
f
GR
GS
[0.75 0 0 0.75 86.31088 97.20105] CT
0.996 0.878 0.545 RC
N
f-1057828618
f
GR
GS
[0.75 0 0 0.75 83.51792 95.88158] CT
0.996 0.878 0.545 RC
N
f-1057828618
f
GR
GS
[0.75 0 0 0.75 80.53087 95.43698] CT
0.996 0.878 0.545 RC
N
f-1057828618
f
GR
GS
[0.75 0 0 0.75 77.45753 96.05368] CT
0.996 0.878 0.545 RC
N
f-1057828618
f
GR
GS
[0.75 0 0 0.75 74.44891 97.78047] CT
0.996 0.878 0.545 RC
N
f-1057828618
f
GR
GS
[0.75 0 0 0.75 71.6236 100.5284] CT
0.996 0.878 0.545 RC
N
f-1057828618
f
GR
GS
[0.75 0 0 0.75 69.08946 104.08236] CT
0.996 0.878 0.545 RC
N
f-1057828618
f
GR
GS
[0.75 0 0 0.75 66.91117 108.1727] CT
0.996 0.878 0.545 RC
N
f-1057828618
f
GR
GS
[0.75 0 0 0.75 65.09954 112.51547] CT
0.996 0.878 0.545 RC
N
f-1057828618
f
GR
GS
[0.75 0 0 0.75 63.64375 116.86972] CT
0.996 0.878 0.545 RC
N
f-1057828618
f
GR
GS
[0.75 0 0 0.75 62.50068 121.05186] CT
0.996 0.878 0.545 RC
N
f-1057828618
f
GR
GS
[0.75 0 0 0.75 61.61644 124.94687] CT
0.996 0.878 0.545 RC
N
f-1057828618
f
GR
GS
[0.75 0 0 0.75 60.94785 128.48705] CT
0.996 0.878 0.545 RC
N
f-1057828618
f
GR
GS
[0.75 0 0 0.75 60.45182 131.64918] CT
0.996 0.878 0.545 RC
N
f-1057828618
f
GR
GS
[0.75 0 0 0.75 60.0744 134.43757] CT
0.996 0.878 0.545 RC
N
f-1057828618
f
GR
GS
[0.75 0 0 0.75 59.8048 136.87256] CT
0.996 0.878 0.545 RC
N
f-1057828618
f
GR
GS
[0.75 0 0 0.75 59.59992 138.98457] CT
0.996 0.878 0.545 RC
N
f-1057828618
f
GR
GS
[0.75 0 0 0.75 59.44895 140.80687] CT
0.996 0.878 0.545 RC
N
f-1057828618
f
GR
GS
[0.75 0 0 0.75 59.34109 142.3733] CT
0.996 0.878 0.545 RC
N
f-1057828618
f
GR
GS
[0.75 0 0 0.75 59.26561 143.71629] CT
0.996 0.878 0.545 RC
N
f-1057828618
f
GR
GS
[0.75 0 0 0.75 59.2117 144.86508] CT
0.996 0.878 0.545 RC
N
f-1057828618
f
GR
GS
[0.75 0 0 0.75 59.16855 145.84694] CT
0.996 0.878 0.545 RC
N
f-1057828618
f
GR
GS
[0.75 0 0 0.75 59.13621 146.68452] CT
0.996 0.878 0.545 RC
N
f-1057828618
f
GR
GS
[0.75 0 0 0.75 59.11464 147.39903] CT
0.996 0.878 0.545 RC
N
f-1057828618
f
GR
GS
[0.75 0 0 0.75 59.10386 148.00829] CT
0.996 0.878 0.545 RC
N
f-1057828618
f
GR
GS
[0.75 0 0 0.75 59.09307 148.52718] CT
0.996 0.878 0.545 RC
N
f-1057828618
f
GR
GS
[0.75 0 0 0.75 59.0823 148.96915] CT
0.996 0.878 0.545 RC
N
f-1057828618
f
GR
GS
[0.75 0 0 0.75 59.0715 149.34557] CT
0.996 0.878 0.545 RC
N
f-1057828618
f
GR
GS
[0.75 0 0 0.75 59.0715 149.66605] CT
0.996 0.878 0.545 RC
N
f-1057828618
f
GR
GS
[0.75 0 0 0.75 59.0715 149.93896] CT
0.996 0.878 0.545 RC
N
f-1057828618
f
GR
GS
[0.75 0 0 0.75 59.06073 150.17124] CT
0.996 0.878 0.545 RC
N
f-1057828618
f
GR
GS
[0.75 0 0 0.75 59.06073 150.36899] CT
0.996 0.878 0.545 RC
N
f-1057828618
f
GR
GS
[0.75 0 0 0.75 59.06073 150.53733] CT
0.996 0.878 0.545 RC
N
f-1057828618
f
GR
GS
[0.75 0 0 0.75 59.06073 150.68061] CT
0.996 0.878 0.545 RC
N
f-1057828618
f
GR
GS
[0.75 0 0 0.75 59.06073 150.80257] CT
0.996 0.878 0.545 RC
N
f-1057828618
f
GR
GS
[0.75 0 0 0.75 59.06073 150.90638] CT
0.996 0.878 0.545 RC
N
f-1057828618
f
GR
GS
[0.75 0 0 0.75 59.06073 150.99475] CT
0.996 0.878 0.545 RC
N
f-1057828618
f
GR
GS
[0.75 0 0 0.75 59.06073 151.06997] CT
0.996 0.878 0.545 RC
N
f-1057828618
f
GR
GS
[0.75 0 0 0.75 59.06073 151.134] CT
0.996 0.878 0.545 RC
N
f-1057828618
f
GR
GS
[0.75 0 0 0.75 59.06073 151.18846] CT
0.996 0.878 0.545 RC
N
f-1057828618
f
GR
GS
[0.75 0 0 0.75 59.06073 151.23484] CT
0.996 0.878 0.545 RC
N
f-1057828618
f
GR
GS
[0.75 0 0 0.75 59.06073 151.27431] CT
0.996 0.878 0.545 RC
N
f-1057828618
f
GR
GS
[0.75 0 0 0.75 59.06073 151.30791] CT
0.996 0.878 0.545 RC
N
f-1057828618
f
GR
GS
[0.75 0 0 0.75 59.06073 151.3365] CT
0.996 0.878 0.545 RC
N
f-1057828618
f
GR
GS
[0.75 0 0 0.75 59.06073 151.36084] CT
0.996 0.878 0.545 RC
N
f-1057828618
f
GR
GS
[0.75 0 0 0.75 135.81086 27.32221] CT
0.835 0.243 0.31 RC
10.0 ML
1.333 LW
N
4 0 M
4 -2.209 2.209 -4 0 -4 C
-2.209 -4 -4 -2.209 -4 0 C
-4 2.209 -2.209 4 0 4 C
2.209 4 4 2.209 4 0 C
S
GR
GS
[0.75 0 0 0.75 132.6753 37.26515] CT
0.835 0.243 0.31 RC
10.0 ML
1.333 LW
N
4 0 M
4 -2.209 2.209 -4 0 -4 C
-2.209 -4 -4 -2.209 -4 0 C
-4 2.209 -2.209 4 0 4 C
2.209 4 4 2.209 4 0 C
S
GR
GS
[0.75 0 0 0.75 129.77107 46.19233] CT
0.835 0.243 0.31 RC
10.0 ML
1.333 LW
N
4 0 M
4 -2.209 2.209 -4 0 -4 C
-2.209 -4 -4 -2.209 -4 0 C
-4 2.209 -2.209 4 0 4 C
2.209 4 4 2.209 4 0 C
S
GR
GS
[0.75 0 0 0.75 127.08063 54.18462] CT
0.835 0.243 0.31 RC
10.0 ML
1.333 LW
N
4 0 M
4 -2.209 2.209 -4 0 -4 C
-2.209 -4 -4 -2.209 -4 0 C
-4 2.209 -2.209 4 0 4 C
2.209 4 4 2.209 4 0 C
S
GR
GS
[0.75 0 0 0.75 124.58647 61.31066] CT
0.835 0.243 0.31 RC
10.0 ML
1.333 LW
N
4 0 M
4 -2.209 2.209 -4 0 -4 C
-2.209 -4 -4 -2.209 -4 0 C
-4 2.209 -2.209 4 0 4 C
2.209 4 4 2.209 4 0 C
S
GR
GS
[0.75 0 0 0.75 122.27115 67.62807] CT
0.835 0.243 0.31 RC
10.0 ML
1.333 LW
N
4 0 M
4 -2.209 2.209 -4 0 -4 C
-2.209 -4 -4 -2.209 -4 0 C
-4 2.209 -2.209 4 0 4 C
2.209 4 4 2.209 4 0 C
S
GR
GS
[0.75 0 0 0.75 120.11708 73.18433] CT
0.835 0.243 0.31 RC
10.0 ML
1.333 LW
N
4 0 M
4 -2.209 2.209 -4 0 -4 C
-2.209 -4 -4 -2.209 -4 0 C
-4 2.209 -2.209 4 0 4 C
2.209 4 4 2.209 4 0 C
S
GR
GS
[0.75 0 0 0.75 118.10632 78.01774] CT
0.835 0.243 0.31 RC
10.0 ML
1.333 LW
N
4 0 M
4 -2.209 2.209 -4 0 -4 C
-2.209 -4 -4 -2.209 -4 0 C
-4 2.209 -2.209 4 0 4 C
2.209 4 4 2.209 4 0 C
S
GR
GS
[0.75 0 0 0.75 116.22015 82.15812] CT
0.835 0.243 0.31 RC
10.0 ML
1.333 LW
N
4 0 M
4 -2.209 2.209 -4 0 -4 C
-2.209 -4 -4 -2.209 -4 0 C
-4 2.209 -2.209 4 0 4 C
2.209 4 4 2.209 4 0 C
S
GR
GS
[0.75 0 0 0.75 114.43857 85.62786] CT
0.835 0.243 0.31 RC
10.0 ML
1.333 LW
N
4 0 M
4 -2.209 2.209 -4 0 -4 C
-2.209 -4 -4 -2.209 -4 0 C
-4 2.209 -2.209 4 0 4 C
2.209 4 4 2.209 4 0 C
S
GR
GS
[0.75 0 0 0.75 112.73955 88.44311] CT
0.835 0.243 0.31 RC
10.0 ML
1.333 LW
N
4 0 M
4 -2.209 2.209 -4 0 -4 C
-2.209 -4 -4 -2.209 -4 0 C
-4 2.209 -2.209 4 0 4 C
2.209 4 4 2.209 4 0 C
S
GR
GS
[0.75 0 0 0.75 111.09819 90.61576] CT
0.835 0.243 0.31 RC
10.0 ML
1.333 LW
N
4 0 M
4 -2.209 2.209 -4 0 -4 C
-2.209 -4 -4 -2.209 -4 0 C
-4 2.209 -2.209 4 0 4 C
2.209 4 4 2.209 4 0 C
S
GR
GS
[0.75 0 0 0.75 109.48573 92.15631] CT
0.835 0.243 0.31 RC
10.0 ML
1.333 LW
N
4 0 M
4 -2.209 2.209 -4 0 -4 C
-2.209 -4 -4 -2.209 -4 0 C
-4 2.209 -2.209 4 0 4 C
2.209 4 4 2.209 4 0 C
S
GR
GS
[0.75 0 0 0.75 107.86856 93.07828] CT
0.835 0.243 0.31 RC
10.0 ML
1.333 LW
N
4 0 M
4 -2.209 2.209 -4 0 -4 C
-2.209 -4 -4 -2.209 -4 0 C
-4 2.209 -2.209 4 0 4 C
2.209 4 4 2.209 4 0 C
S
GR
GS
[0.75 0 0 0.75 106.20741 93.4047] CT
0.835 0.243 0.31 RC
10.0 ML
1.333 LW
N
4 0 M
4 -2.209 2.209 -4 0 -4 C
-2.209 -4 -4 -2.209 -4 0 C
-4 2.209 -2.209 4 0 4 C
2.209 4 4 2.209 4 0 C
S
GR
GS
[0.75 0 0 0.75 104.4573 93.17706] CT
0.835 0.243 0.31 RC
10.0 ML
1.333 LW
N
4 0 M
4 -2.209 2.209 -4 0 -4 C
-2.209 -4 -4 -2.209 -4 0 C
-4 2.209 -2.209 4 0 4 C
2.209 4 4 2.209 4 0 C
S
GR
GS
[0.75 0 0 0.75 102.56858 92.46681] CT
0.835 0.243 0.31 RC
10.0 ML
1.333 LW
N
4 0 M
4 -2.209 2.209 -4 0 -4 C
-2.209 -4 -4 -2.209 -4 0 C
-4 2.209 -2.209 4 0 4 C
2.209 4 4 2.209 4 0 C
S
GR
GS
[0.75 0 0 0.75 100.49059 91.38832] CT
0.835 0.243 0.31 RC
10.0 ML
1.333 LW
N
4 0 M
4 -2.209 2.209 -4 0 -4 C
-2.209 -4 -4 -2.209 -4 0 C
-4 2.209 -2.209 4 0 4 C
2.209 4 4 2.209 4 0 C
S
GR
GS
[0.75 0 0 0.75 98.17804 90.11004] CT
0.835 0.243 0.31 RC
10.0 ML
1.333 LW
N
4 0 M
4 -2.209 2.209 -4 0 -4 C
-2.209 -4 -4 -2.209 -4 0 C
-4 2.209 -2.209 4 0 4 C
2.209 4 4 2.209 4 0 C
S
GR
GS
[0.75 0 0 0.75 95.60143 88.85829] CT
0.835 0.243 0.31 RC
10.0 ML
1.333 LW
N
4 0 M
4 -2.209 2.209 -4 0 -4 C
-2.209 -4 -4 -2.209 -4 0 C
-4 2.209 -2.209 4 0 4 C
2.209 4 4 2.209 4 0 C
S
GR
GS
[0.75 0 0 0.75 92.75931 87.90608] CT
0.835 0.243 0.31 RC
10.0 ML
1.333 LW
N
4 0 M
4 -2.209 2.209 -4 0 -4 C
-2.209 -4 -4 -2.209 -4 0 C
-4 2.209 -2.209 4 0 4 C
2.209 4 4 2.209 4 0 C
S
GR
GS
[0.75 0 0 0.75 89.68952 87.54101] CT
0.835 0.243 0.31 RC
10.0 ML
1.333 LW
N
4 0 M
4 -2.209 2.209 -4 0 -4 C
-2.209 -4 -4 -2.209 -4 0 C
-4 2.209 -2.209 4 0 4 C
2.209 4 4 2.209 4 0 C
S
GR
GS
[0.75 0 0 0.75 86.47334 88.01368] CT
0.835 0.243 0.31 RC
10.0 ML
1.333 LW
N
4 0 M
4 -2.209 2.209 -4 0 -4 C
-2.209 -4 -4 -2.209 -4 0 C
-4 2.209 -2.209 4 0 4 C
2.209 4 4 2.209 4 0 C
S
GR
GS
[0.75 0 0 0.75 83.22767 89.48052] CT
0.835 0.243 0.31 RC
10.0 ML
1.333 LW
N
4 0 M
4 -2.209 2.209 -4 0 -4 C
-2.209 -4 -4 -2.209 -4 0 C
-4 2.209 -2.209 4 0 4 C
2.209 4 4 2.209 4 0 C
S
GR
GS
[0.75 0 0 0.75 80.08515 91.96343] CT
0.835 0.243 0.31 RC
10.0 ML
1.333 LW
N
4 0 M
4 -2.209 2.209 -4 0 -4 C
-2.209 -4 -4 -2.209 -4 0 C
-4 2.209 -2.209 4 0 4 C
2.209 4 4 2.209 4 0 C
S
GR
GS
[0.75 0 0 0.75 77.16791 95.34564] CT
0.835 0.243 0.31 RC
10.0 ML
1.333 LW
N
4 0 M
4 -2.209 2.209 -4 0 -4 C
-2.209 -4 -4 -2.209 -4 0 C
-4 2.209 -2.209 4 0 4 C
2.209 4 4 2.209 4 0 C
S
GR
GS
[0.75 0 0 0.75 74.56563 99.40602] CT
0.835 0.243 0.31 RC
10.0 ML
1.333 LW
N
4 0 M
4 -2.209 2.209 -4 0 -4 C
-2.209 -4 -4 -2.209 -4 0 C
-4 2.209 -2.209 4 0 4 C
2.209 4 4 2.209 4 0 C
S
GR
GS
[0.75 0 0 0.75 72.32482 103.87561] CT
0.835 0.243 0.31 RC
10.0 ML
1.333 LW
N
4 0 M
4 -2.209 2.209 -4 0 -4 C
-2.209 -4 -4 -2.209 -4 0 C
-4 2.209 -2.209 4 0 4 C
2.209 4 4 2.209 4 0 C
S
GR
GS
[0.75 0 0 0.75 70.45107 108.4929] CT
0.835 0.243 0.31 RC
10.0 ML
1.333 LW
N
4 0 M
4 -2.209 2.209 -4 0 -4 C
-2.209 -4 -4 -2.209 -4 0 C
-4 2.209 -2.209 4 0 4 C
2.209 4 4 2.209 4 0 C
S
GR
GS
[0.75 0 0 0.75 68.91928 113.04151] CT
0.835 0.243 0.31 RC
10.0 ML
1.333 LW
N
4 0 M
4 -2.209 2.209 -4 0 -4 C
-2.209 -4 -4 -2.209 -4 0 C
-4 2.209 -2.209 4 0 4 C
2.209 4 4 2.209 4 0 C
S
GR
GS
[0.75 0 0 0.75 67.68693 117.36573] CT
0.835 0.243 0.31 RC
10.0 ML
1.333 LW
N
4 0 M
4 -2.209 2.209 -4 0 -4 C
-2.209 -4 -4 -2.209 -4 0 C
-4 2.209 -2.209 4 0 4 C
2.209 4 4 2.209 4 0 C
S
GR
GS
[0.75 0 0 0.75 66.70506 121.36914] CT
0.835 0.243 0.31 RC
10.0 ML
1.333 LW
N
4 0 M
4 -2.209 2.209 -4 0 -4 C
-2.209 -4 -4 -2.209 -4 0 C
-4 2.209 -2.209 4 0 4 C
2.209 4 4 2.209 4 0 C
S
GR
GS
[0.75 0 0 0.75 65.92594 125.00391] CT
0.835 0.243 0.31 RC
10.0 ML
1.333 LW
N
4 0 M
4 -2.209 2.209 -4 0 -4 C
-2.209 -4 -4 -2.209 -4 0 C
-4 2.209 -2.209 4 0 4 C
2.209 4 4 2.209 4 0 C
S
GR
GS
[0.75 0 0 0.75 65.30723 128.25756] CT
0.835 0.243 0.31 RC
10.0 ML
1.333 LW
N
4 0 M
4 -2.209 2.209 -4 0 -4 C
-2.209 -4 -4 -2.209 -4 0 C
-4 2.209 -2.209 4 0 4 C
2.209 4 4 2.209 4 0 C
S
GR
GS
[0.75 0 0 0.75 64.81354 131.14069] CT
0.835 0.243 0.31 RC
10.0 ML
1.333 LW
N
4 0 M
4 -2.209 2.209 -4 0 -4 C
-2.209 -4 -4 -2.209 -4 0 C
-4 2.209 -2.209 4 0 4 C
2.209 4 4 2.209 4 0 C
S
GR
GS
[0.75 0 0 0.75 64.41642 133.67737] CT
0.835 0.243 0.31 RC
10.0 ML
1.333 LW
N
4 0 M
4 -2.209 2.209 -4 0 -4 C
-2.209 -4 -4 -2.209 -4 0 C
-4 2.209 -2.209 4 0 4 C
2.209 4 4 2.209 4 0 C
S
GR
GS
[0.75 0 0 0.75 64.09363 135.89843] CT
0.835 0.243 0.31 RC
10.0 ML
1.333 LW
N
4 0 M
4 -2.209 2.209 -4 0 -4 C
-2.209 -4 -4 -2.209 -4 0 C
-4 2.209 -2.209 4 0 4 C
2.209 4 4 2.209 4 0 C
S
GR
GS
[0.75 0 0 0.75 63.82804 137.83696] CT
0.835 0.243 0.31 RC
10.0 ML
1.333 LW
N
4 0 M
4 -2.209 2.209 -4 0 -4 C
-2.209 -4 -4 -2.209 -4 0 C
-4 2.209 -2.209 4 0 4 C
2.209 4 4 2.209 4 0 C
S
GR
GS
[0.75 0 0 0.75 63.60671 139.52557] CT
0.835 0.243 0.31 RC
10.0 ML
1.333 LW
N
4 0 M
4 -2.209 2.209 -4 0 -4 C
-2.209 -4 -4 -2.209 -4 0 C
-4 2.209 -2.209 4 0 4 C
2.209 4 4 2.209 4 0 C
S
GR
GS
[0.75 0 0 0.75 63.41977 140.99493] CT
0.835 0.243 0.31 RC
10.0 ML
1.333 LW
N
4 0 M
4 -2.209 2.209 -4 0 -4 C
-2.209 -4 -4 -2.209 -4 0 C
-4 2.209 -2.209 4 0 4 C
2.209 4 4 2.209 4 0 C
S
GR
GS
[0.75 0 0 0.75 63.25991 142.27304] CT
0.835 0.243 0.31 RC
10.0 ML
1.333 LW
N
4 0 M
4 -2.209 2.209 -4 0 -4 C
-2.209 -4 -4 -2.209 -4 0 C
-4 2.209 -2.209 4 0 4 C
2.209 4 4 2.209 4 0 C
S
GR
GS
[0.75 0 0 0.75 63.12156 143.38489] CT
0.835 0.243 0.31 RC
10.0 ML
1.333 LW
N
4 0 M
4 -2.209 2.209 -4 0 -4 C
-2.209 -4 -4 -2.209 -4 0 C
-4 2.209 -2.209 4 0 4 C
2.209 4 4 2.209 4 0 C
S
GR
GS
[0.75 0 0 0.75 63.00051 144.35259] CT
0.835 0.243 0.31 RC
10.0 ML
1.333 LW
N
4 0 M
4 -2.209 2.209 -4 0 -4 C
-2.209 -4 -4 -2.209 -4 0 C
-4 2.209 -2.209 4 0 4 C
2.209 4 4 2.209 4 0 C
S
GR
GS
[0.75 0 0 0.75 62.89364 145.19546] CT
0.835 0.243 0.31 RC
10.0 ML
1.333 LW
N
4 0 M
4 -2.209 2.209 -4 0 -4 C
-2.209 -4 -4 -2.209 -4 0 C
-4 2.209 -2.209 4 0 4 C
2.209 4 4 2.209 4 0 C
S
GR
GS
[0.75 0 0 0.75 62.79849 145.93032] CT
0.835 0.243 0.31 RC
10.0 ML
1.333 LW
N
4 0 M
4 -2.209 2.209 -4 0 -4 C
-2.209 -4 -4 -2.209 -4 0 C
-4 2.209 -2.209 4 0 4 C
2.209 4 4 2.209 4 0 C
S
GR
GS
[0.75 0 0 0.75 62.71318 146.57172] CT
0.835 0.243 0.31 RC
10.0 ML
1.333 LW
N
4 0 M
4 -2.209 2.209 -4 0 -4 C
-2.209 -4 -4 -2.209 -4 0 C
-4 2.209 -2.209 4 0 4 C
2.209 4 4 2.209 4 0 C
S
GR
GS
[0.75 0 0 0.75 62.63628 147.13225] CT
0.835 0.243 0.31 RC
10.0 ML
1.333 LW
N
4 0 M
4 -2.209 2.209 -4 0 -4 C
-2.209 -4 -4 -2.209 -4 0 C
-4 2.209 -2.209 4 0 4 C
2.209 4 4 2.209 4 0 C
S
GR
GS
[0.75 0 0 0.75 62.56663 147.62276] CT
0.835 0.243 0.31 RC
10.0 ML
1.333 LW
N
4 0 M
4 -2.209 2.209 -4 0 -4 C
-2.209 -4 -4 -2.209 -4 0 C
-4 2.209 -2.209 4 0 4 C
2.209 4 4 2.209 4 0 C
S
GR
GS
[0.75 0 0 0.75 62.50328 148.05263] CT
0.835 0.243 0.31 RC
10.0 ML
1.333 LW
N
4 0 M
4 -2.209 2.209 -4 0 -4 C
-2.209 -4 -4 -2.209 -4 0 C
-4 2.209 -2.209 4 0 4 C
2.209 4 4 2.209 4 0 C
S
GR
GS
[0.75 0 0 0.75 62.44551 148.42989] CT
0.835 0.243 0.31 RC
10.0 ML
1.333 LW
N
4 0 M
4 -2.209 2.209 -4 0 -4 C
-2.209 -4 -4 -2.209 -4 0 C
-4 2.209 -2.209 4 0 4 C
2.209 4 4 2.209 4 0 C
S
GR
GS
[0.75 0 0 0.75 62.39268 148.7615] CT
0.835 0.243 0.31 RC
10.0 ML
1.333 LW
N
4 0 M
4 -2.209 2.209 -4 0 -4 C
-2.209 -4 -4 -2.209 -4 0 C
-4 2.209 -2.209 4 0 4 C
2.209 4 4 2.209 4 0 C
S
GR
GS
[0.75 0 0 0.75 62.34429 149.05344] CT
0.835 0.243 0.31 RC
10.0 ML
1.333 LW
N
4 0 M
4 -2.209 2.209 -4 0 -4 C
-2.209 -4 -4 -2.209 -4 0 C
-4 2.209 -2.209 4 0 4 C
2.209 4 4 2.209 4 0 C
S
GR
GS
[0.75 0 0 0.75 62.29991 149.31085] CT
0.835 0.243 0.31 RC
10.0 ML
1.333 LW
N
4 0 M
4 -2.209 2.209 -4 0 -4 C
-2.209 -4 -4 -2.209 -4 0 C
-4 2.209 -2.209 4 0 4 C
2.209 4 4 2.209 4 0 C
S
GR
GS
[0.75 0 0 0.75 62.25912 149.5382] CT
0.835 0.243 0.31 RC
10.0 ML
1.333 LW
N
4 0 M
4 -2.209 2.209 -4 0 -4 C
-2.209 -4 -4 -2.209 -4 0 C
-4 2.209 -2.209 4 0 4 C
2.209 4 4 2.209 4 0 C
S
GR
GS
[0.75 0 0 0.75 62.22163 149.73932] CT
0.835 0.243 0.31 RC
10.0 ML
1.333 LW
N
4 0 M
4 -2.209 2.209 -4 0 -4 C
-2.209 -4 -4 -2.209 -4 0 C
-4 2.209 -2.209 4 0 4 C
2.209 4 4 2.209 4 0 C
S
GR
GS
[0.75 0 0 0.75 62.18713 149.91753] CT
0.835 0.243 0.31 RC
10.0 ML
1.333 LW
N
4 0 M
4 -2.209 2.209 -4 0 -4 C
-2.209 -4 -4 -2.209 -4 0 C
-4 2.209 -2.209 4 0 4 C
2.209 4 4 2.209 4 0 C
S
GR
GS
[0.75 0 0 0.75 62.15535 150.07569] CT
0.835 0.243 0.31 RC
10.0 ML
1.333 LW
N
4 0 M
4 -2.209 2.209 -4 0 -4 C
-2.209 -4 -4 -2.209 -4 0 C
-4 2.209 -2.209 4 0 4 C
2.209 4 4 2.209 4 0 C
S
GR
GS
[0.75 0 0 0.75 62.12609 150.2163] CT
0.835 0.243 0.31 RC
10.0 ML
1.333 LW
N
4 0 M
4 -2.209 2.209 -4 0 -4 C
-2.209 -4 -4 -2.209 -4 0 C
-4 2.209 -2.209 4 0 4 C
2.209 4 4 2.209 4 0 C
S
GR
GS
[0.75 0 0 0.75 62.09912 150.3415] CT
0.835 0.243 0.31 RC
10.0 ML
1.333 LW
N
4 0 M
4 -2.209 2.209 -4 0 -4 C
-2.209 -4 -4 -2.209 -4 0 C
-4 2.209 -2.209 4 0 4 C
2.209 4 4 2.209 4 0 C
S
GR
GS
[0.75 0 0 0.75 62.07426 150.45316] CT
0.835 0.243 0.31 RC
10.0 ML
1.333 LW
N
4 0 M
4 -2.209 2.209 -4 0 -4 C
-2.209 -4 -4 -2.209 -4 0 C
-4 2.209 -2.209 4 0 4 C
2.209 4 4 2.209 4 0 C
S
GR
GS
[0.75 0 0 0.75 62.05135 150.5529] CT
0.835 0.243 0.31 RC
10.0 ML
1.333 LW
N
4 0 M
4 -2.209 2.209 -4 0 -4 C
-2.209 -4 -4 -2.209 -4 0 C
-4 2.209 -2.209 4 0 4 C
2.209 4 4 2.209 4 0 C
S
GR
GS
[0.75 0 0 0.75 62.03022 150.64214] CT
0.835 0.243 0.31 RC
10.0 ML
1.333 LW
N
4 0 M
4 -2.209 2.209 -4 0 -4 C
-2.209 -4 -4 -2.209 -4 0 C
-4 2.209 -2.209 4 0 4 C
2.209 4 4 2.209 4 0 C
S
GR
GS
[0.75 0 0 0.75 62.01073 150.72209] CT
0.835 0.243 0.31 RC
10.0 ML
1.333 LW
N
4 0 M
4 -2.209 2.209 -4 0 -4 C
-2.209 -4 -4 -2.209 -4 0 C
-4 2.209 -2.209 4 0 4 C
2.209 4 4 2.209 4 0 C
S
GR
GS
[0.75 0 0 0.75 61.99275 150.79383] CT
0.835 0.243 0.31 RC
10.0 ML
1.333 LW
N
4 0 M
4 -2.209 2.209 -4 0 -4 C
-2.209 -4 -4 -2.209 -4 0 C
-4 2.209 -2.209 4 0 4 C
2.209 4 4 2.209 4 0 C
S
GR
GS
[0.75 0 0 0.75 61.97617 150.85831] CT
0.835 0.243 0.31 RC
10.0 ML
1.333 LW
N
4 0 M
4 -2.209 2.209 -4 0 -4 C
-2.209 -4 -4 -2.209 -4 0 C
-4 2.209 -2.209 4 0 4 C
2.209 4 4 2.209 4 0 C
S
GR
GS
[0.75 0 0 0.75 135.82914 26.29689] CT
0.835 0.243 0.31 RC
N
f-1057828618
f
GR
GS
[0.75 0 0 0.75 132.69112 36.21871] CT
0.835 0.243 0.31 RC
N
f-1057828618
f
GR
GS
[0.75 0 0 0.75 129.76876 45.09643] CT
0.835 0.243 0.31 RC
N
f-1057828618
f
GR
GS
[0.75 0 0 0.75 127.06207 53.0161] CT
0.835 0.243 0.31 RC
N
f-1057828618
f
GR
GS
[0.75 0 0 0.75 124.5387 60.05804] CT
0.835 0.243 0.31 RC
N
f-1057828618
f
GR
GS
[0.75 0 0 0.75 122.1771 66.28249] CT
0.835 0.243 0.31 RC
N
f-1057828618
f
GR
GS
[0.75 0 0 0.75 119.97725 71.74107] CT
0.835 0.243 0.31 RC
N
f-1057828618
f
GR
GS
[0.75 0 0 0.75 117.91759 76.47394] CT
0.835 0.243 0.31 RC
N
f-1057828618
f
GR
GS
[0.75 0 0 0.75 115.97655 80.51552] CT
0.835 0.243 0.31 RC
N
f-1057828618
f
GR
GS
[0.75 0 0 0.75 114.13255 83.8859] CT
0.835 0.243 0.31 RC
N
f-1057828618
f
GR
GS
[0.75 0 0 0.75 112.36404 86.60228] CT
0.835 0.243 0.31 RC
N
f-1057828618
f
GR
GS
[0.75 0 0 0.75 110.64944 88.67327] CT
0.835 0.243 0.31 RC
N
f-1057828618
f
GR
GS
[0.75 0 0 0.75 108.96721 90.11034] CT
0.835 0.243 0.31 RC
N
f-1057828618
f
GR
GS
[0.75 0 0 0.75 107.27417 90.92497] CT
0.835 0.243 0.31 RC
N
f-1057828618
f
GR
GS
[0.75 0 0 0.75 105.52725 91.13724] CT
0.835 0.243 0.31 RC
N
f-1057828618
f
GR
GS
[0.75 0 0 0.75 103.69401 90.79302] CT
0.835 0.243 0.31 RC
N
f-1057828618
f
GR
GS
[0.75 0 0 0.75 101.70984 89.95832] CT
0.835 0.243 0.31 RC
N
f-1057828618
f
GR
GS
[0.75 0 0 0.75 99.52077 88.75072] CT
0.835 0.243 0.31 RC
N
f-1057828618
f
GR
GS
[0.75 0 0 0.75 97.10526 87.33373] CT
0.835 0.243 0.31 RC
N
f-1057828618
f
GR
GS
[0.75 0 0 0.75 94.39855 85.94255] CT
0.835 0.243 0.31 RC
N
f-1057828618
f
GR
GS
[0.75 0 0 0.75 91.41151 84.8583] CT
0.835 0.243 0.31 RC
N
f-1057828618
f
GR
GS
[0.75 0 0 0.75 88.17643 84.37927] CT
0.835 0.243 0.31 RC
N
f-1057828618
f
GR
GS
[0.75 0 0 0.75 84.77961 84.78371] CT
0.835 0.243 0.31 RC
N
f-1057828618
f
GR
GS
[0.75 0 0 0.75 81.32886 86.25521] CT
0.835 0.243 0.31 RC
N
f-1057828618
f
GR
GS
[0.75 0 0 0.75 77.97515 88.84538] CT
0.835 0.243 0.31 RC
N
f-1057828618
f
GR
GS
[0.75 0 0 0.75 74.84791 92.4481] CT
0.835 0.243 0.31 RC
N
f-1057828618
f
GR
GS
[0.75 0 0 0.75 72.05497 96.8425] CT
0.835 0.243 0.31 RC
N
f-1057828618
f
GR
GS
[0.75 0 0 0.75 69.65022 101.74174] CT
0.835 0.243 0.31 RC
N
f-1057828618
f
GR
GS
[0.75 0 0 0.75 67.66605 106.8475] CT
0.835 0.243 0.31 RC
N
f-1057828618
f
GR
GS
[0.75 0 0 0.75 66.05927 111.91024] CT
0.835 0.243 0.31 RC
N
f-1057828618
f
GR
GS
[0.75 0 0 0.75 64.80837 116.74064] CT
0.835 0.243 0.31 RC
N
f-1057828618
f
GR
GS
[0.75 0 0 0.75 63.83787 121.21535] CT
0.835 0.243 0.31 RC
N
f-1057828618
f
GR
GS
[0.75 0 0 0.75 63.10456 125.27043] CT
0.835 0.243 0.31 RC
N
f-1057828618
f
GR
GS
[0.75 0 0 0.75 62.55462 128.88548] CT
0.835 0.243 0.31 RC
N
f-1057828618
f
GR
GS
[0.75 0 0 0.75 62.14483 132.06884] CT
0.835 0.243 0.31 RC
N
f-1057828618
f
GR
GS
[0.75 0 0 0.75 61.84289 134.84603] CT
0.835 0.243 0.31 RC
N
f-1057828618
f
GR
GS
[0.75 0 0 0.75 61.61644 137.25319] CT
0.835 0.243 0.31 RC
N
f-1057828618
f
GR
GS
[0.75 0 0 0.75 61.45469 139.32906] CT
0.835 0.243 0.31 RC
N
f-1057828618
f
GR
GS
[0.75 0 0 0.75 61.33607 141.11292] CT
0.835 0.243 0.31 RC
N
f-1057828618
f
GR
GS
[0.75 0 0 0.75 61.24979 142.64178] CT
0.835 0.243 0.31 RC
N
f-1057828618
f
GR
GS
[0.75 0 0 0.75 61.19587 143.94978] CT
0.835 0.243 0.31 RC
N
f-1057828618
f
GR
GS
[0.75 0 0 0.75 61.14196 145.06702] CT
0.835 0.243 0.31 RC
N
f-1057828618
f
GR
GS
[0.75 0 0 0.75 61.10961 146.02076] CT
0.835 0.243 0.31 RC
N
f-1057828618
f
GR
GS
[0.75 0 0 0.75 61.08804 146.83367] CT
0.835 0.243 0.31 RC
N
f-1057828618
f
GR
GS
[0.75 0 0 0.75 61.06647 147.52697] CT
0.835 0.243 0.31 RC
N
f-1057828618
f
GR
GS
[0.75 0 0 0.75 61.0557 148.11729] CT
0.835 0.243 0.31 RC
N
f-1057828618
f
GR
GS
[0.75 0 0 0.75 61.0449 148.6204] CT
0.835 0.243 0.31 RC
N
f-1057828618
f
GR
GS
[0.75 0 0 0.75 61.0449 149.04861] CT
0.835 0.243 0.31 RC
N
f-1057828618
f
GR
GS
[0.75 0 0 0.75 61.03413 149.4133] CT
0.835 0.243 0.31 RC
N
f-1057828618
f
GR
GS
[0.75 0 0 0.75 61.03413 149.7238] CT
0.835 0.243 0.31 RC
N
f-1057828618
f
GR
GS
[0.75 0 0 0.75 61.03413 149.98812] CT
0.835 0.243 0.31 RC
N
f-1057828618
f
GR
GS
[0.75 0 0 0.75 61.03413 150.21312] CT
0.835 0.243 0.31 RC
N
f-1057828618
f
GR
GS
[0.75 0 0 0.75 61.02333 150.40464] CT
0.835 0.243 0.31 RC
N
f-1057828618
f
GR
GS
[0.75 0 0 0.75 61.02333 150.56768] CT
0.835 0.243 0.31 RC
N
f-1057828618
f
GR
GS
[0.75 0 0 0.75 61.02333 150.70646] CT
0.835 0.243 0.31 RC
N
f-1057828618
f
GR
GS
[0.75 0 0 0.75 61.02333 150.82458] CT
0.835 0.243 0.31 RC
N
f-1057828618
f
GR
GS
[0.75 0 0 0.75 61.02333 150.92512] CT
0.835 0.243 0.31 RC
N
f-1057828618
f
GR
GS
[0.75 0 0 0.75 61.02333 151.01071] CT
0.835 0.243 0.31 RC
N
f-1057828618
f
GR
GS
[0.75 0 0 0.75 61.02333 151.08354] CT
0.835 0.243 0.31 RC
N
f-1057828618
f
GR
GS
[0.75 0 0 0.75 61.02333 151.14552] CT
0.835 0.243 0.31 RC
N
f-1057828618
f
GR
GS
[0.75 0 0 0.75 61.02333 151.1983] CT
0.835 0.243 0.31 RC
N
f-1057828618
f
GR
GS
[0.75 0 0 0.75 61.02333 151.24321] CT
0.835 0.243 0.31 RC
N
f-1057828618
f
GR
GS
[0.75 0 0 0.75 61.02333 151.28143] CT
0.835 0.243 0.31 RC
N
f-1057828618
f
GR
GS
[0.75 0 0 0.75 61.02333 151.31396] CT
0.835 0.243 0.31 RC
N
f-1057828618
f
GR
GS
[0.75 0 0 0.75 61.02333 151.34166] CT
0.835 0.243 0.31 RC
N
f-1057828618
f
GR
GS
[0.75 0 0 0.75 110.25 175.5] CT
0.149 GC
/Times-Roman 14.667 F
GS
[1 0 0 1 0 0] CT
0 0 moveto 
1 -1 scale
(Real / m) t 
GR
GR
GS
[0.75 0 0 0.75 147.75 175.5] CT
0.149 GC
N
1.156 0 M
0.656 -2.484 L
1.094 -2.484 L
1.172 -2.063 1.242 -1.727 QT
1.313 -1.391 1.422 -1.258 QT
1.531 -1.125 1.766 -1.078 QT
2 -1.031 2.531 -1.031 QT
3.453 -1.031 L
3.234 -1.875 2.359 -3.242 QT
1.484 -4.609 1.164 -5.234 QT
0.844 -5.859 0.844 -6.828 QT
0.844 -7.969 1.516 -8.82 QT
2.188 -9.672 3.258 -10.125 QT
4.328 -10.578 5.406 -10.578 QT
6.5 -10.578 7.563 -10.125 QT
8.625 -9.672 9.297 -8.813 QT
9.969 -7.953 9.969 -6.828 QT
9.969 -6.063 9.695 -5.391 QT
9.422 -4.719 8.992 -4.047 QT
8.563 -3.375 8.055 -2.547 QT
7.547 -1.719 7.375 -1.031 QT
8.281 -1.031 L
8.828 -1.031 9.07 -1.078 QT
9.313 -1.125 9.414 -1.258 QT
9.516 -1.391 9.578 -1.727 QT
9.641 -2.063 9.719 -2.484 QT
10.156 -2.484 L
9.656 0 L
7 0 L
6.859 0 6.859 -0.203 QT
6.859 -0.953 7.047 -1.688 QT
7.234 -2.422 7.602 -3.461 QT
7.969 -4.5 8.172 -5.297 QT
8.375 -6.094 8.375 -6.828 QT
8.375 -7.734 8.023 -8.5 QT
7.672 -9.266 7 -9.727 QT
6.328 -10.188 5.406 -10.188 QT
4.047 -10.188 3.25 -9.211 QT
2.453 -8.234 2.453 -6.828 QT
2.453 -6.063 2.633 -5.375 QT
2.813 -4.688 3.203 -3.555 QT
3.594 -2.422 3.781 -1.688 QT
3.969 -0.953 3.969 -0.203 QT
3.969 0 3.813 0 QT
1.156 0 L
cp
f
GR
GS
[0 -0.75 0.75 0 16.5 110.25] CT
0.149 GC
/Times-Roman 14.667 F
GS
[1 0 0 1 0 0] CT
0 0 moveto 
1 -1 scale
(-Imag / m) t 
GR
GR
GS
[0 -0.75 0.75 0 16.5 66.75] CT
0.149 GC
N
/f1102960448{1.156 0 M
0.656 -2.484 L
1.094 -2.484 L
1.172 -2.063 1.242 -1.727 QT
1.313 -1.391 1.422 -1.258 QT
1.531 -1.125 1.766 -1.078 QT
2 -1.031 2.531 -1.031 QT
3.453 -1.031 L
3.234 -1.875 2.359 -3.242 QT
1.484 -4.609 1.164 -5.234 QT
0.844 -5.859 0.844 -6.828 QT
0.844 -7.969 1.516 -8.82 QT
2.188 -9.672 3.258 -10.125 QT
4.328 -10.578 5.406 -10.578 QT
6.5 -10.578 7.563 -10.125 QT
8.625 -9.672 9.297 -8.813 QT
9.969 -7.953 9.969 -6.828 QT
9.969 -6.063 9.695 -5.391 QT
9.422 -4.719 8.992 -4.047 QT
8.563 -3.375 8.055 -2.547 QT
7.547 -1.719 7.375 -1.031 QT
8.281 -1.031 L
8.828 -1.031 9.07 -1.078 QT
9.313 -1.125 9.414 -1.258 QT
9.516 -1.391 9.578 -1.727 QT
9.641 -2.063 9.719 -2.484 QT
10.156 -2.484 L
9.656 0 L
7 0 L
6.859 0 6.859 -0.203 QT
6.859 -0.953 7.047 -1.688 QT
7.234 -2.422 7.602 -3.461 QT
7.969 -4.5 8.172 -5.297 QT
8.375 -6.094 8.375 -6.828 QT
8.375 -7.734 8.023 -8.5 QT
7.672 -9.266 7 -9.727 QT
6.328 -10.188 5.406 -10.188 QT
4.047 -10.188 3.25 -9.211 QT
2.453 -8.234 2.453 -6.828 QT
2.453 -6.063 2.633 -5.375 QT
2.813 -4.688 3.203 -3.555 QT
3.594 -2.422 3.781 -1.688 QT
3.969 -0.953 3.969 -0.203 QT
3.969 0 3.813 0 QT
1.156 0 L
cp}def
f1102960448
f
GR
%%Trailer
%%Pages: 1
%%EOF
