%!PS-Adobe-3.0 EPSF-3.0
%%Creator: (MATLAB, The Mathworks, Inc. Version 9.3.0.713579 \(R2017b\). Operating System: Windows 7)
%%Title: F:/Lab/Git/Git_LMPROM2/Figures/EIS_neg_iden_result_zoom.eps
%%CreationDate: 2018-09-18T10:45:31
%%Pages: (atend)
%%BoundingBox: 0 0 240 180
%%LanguageLevel: 3
%%EndComments
%%BeginProlog
%%BeginResource: procset (Apache XML Graphics Std ProcSet) 1.2 0
%%Version: 1.2 0
%%Copyright: (Copyright 2001-2003,2010 The Apache Software Foundation. License terms: http://www.apache.org/licenses/LICENSE-2.0)
/bd{bind def}bind def
/ld{load def}bd
/GR/grestore ld
/GS/gsave ld
/RM/rmoveto ld
/C/curveto ld
/t/show ld
/L/lineto ld
/ML/setmiterlimit ld
/CT/concat ld
/f/fill ld
/N/newpath ld
/S/stroke ld
/CC/setcmykcolor ld
/A/ashow ld
/cp/closepath ld
/RC/setrgbcolor ld
/LJ/setlinejoin ld
/GC/setgray ld
/LW/setlinewidth ld
/M/moveto ld
/re {4 2 roll M
1 index 0 rlineto
0 exch rlineto
neg 0 rlineto
cp } bd
/_ctm matrix def
/_tm matrix def
/BT { _ctm currentmatrix pop matrix _tm copy pop 0 0 moveto } bd
/ET { _ctm setmatrix } bd
/iTm { _ctm setmatrix _tm concat } bd
/Tm { _tm astore pop iTm 0 0 moveto } bd
/ux 0.0 def
/uy 0.0 def
/F {
  /Tp exch def
  /Tf exch def
  Tf findfont Tp scalefont setfont
  /cf Tf def  /cs Tp def
} bd
/ULS {currentpoint /uy exch def /ux exch def} bd
/ULE {
  /Tcx currentpoint pop def
  gsave
  newpath
  cf findfont cs scalefont dup
  /FontMatrix get 0 get /Ts exch def /FontInfo get dup
  /UnderlinePosition get Ts mul /To exch def
  /UnderlineThickness get Ts mul /Tt exch def
  ux uy To add moveto  Tcx uy To add lineto
  Tt setlinewidth stroke
  grestore
} bd
/OLE {
  /Tcx currentpoint pop def
  gsave
  newpath
  cf findfont cs scalefont dup
  /FontMatrix get 0 get /Ts exch def /FontInfo get dup
  /UnderlinePosition get Ts mul /To exch def
  /UnderlineThickness get Ts mul /Tt exch def
  ux uy To add cs add moveto Tcx uy To add cs add lineto
  Tt setlinewidth stroke
  grestore
} bd
/SOE {
  /Tcx currentpoint pop def
  gsave
  newpath
  cf findfont cs scalefont dup
  /FontMatrix get 0 get /Ts exch def /FontInfo get dup
  /UnderlinePosition get Ts mul /To exch def
  /UnderlineThickness get Ts mul /Tt exch def
  ux uy To add cs 10 mul 26 idiv add moveto Tcx uy To add cs 10 mul 26 idiv add lineto
  Tt setlinewidth stroke
  grestore
} bd
/QT {
/Y22 exch store
/X22 exch store
/Y21 exch store
/X21 exch store
currentpoint
/Y21 load 2 mul add 3 div exch
/X21 load 2 mul add 3 div exch
/X21 load 2 mul /X22 load add 3 div
/Y21 load 2 mul /Y22 load add 3 div
/X22 load /Y22 load curveto
} bd
/SSPD {
dup length /d exch dict def
{
/v exch def
/k exch def
currentpagedevice k known {
/cpdv currentpagedevice k get def
v cpdv ne {
/upd false def
/nullv v type /nulltype eq def
/nullcpdv cpdv type /nulltype eq def
nullv nullcpdv or
{
/upd true def
} {
/sametype v type cpdv type eq def
sametype {
v type /arraytype eq {
/vlen v length def
/cpdvlen cpdv length def
vlen cpdvlen eq {
0 1 vlen 1 sub {
/i exch def
/obj v i get def
/cpdobj cpdv i get def
obj cpdobj ne {
/upd true def
exit
} if
} for
} {
/upd true def
} ifelse
} {
v type /dicttype eq {
v {
/dv exch def
/dk exch def
/cpddv cpdv dk get def
dv cpddv ne {
/upd true def
exit
} if
} forall
} {
/upd true def
} ifelse
} ifelse
} if
} ifelse
upd true eq {
d k v put
} if
} if
} if
} forall
d length 0 gt {
d setpagedevice
} if
} bd
/RE { % /NewFontName [NewEncodingArray] /FontName RE -
  findfont dup length dict begin
  {
    1 index /FID ne
    {def} {pop pop} ifelse
  } forall
  /Encoding exch def
  /FontName 1 index def
  currentdict definefont pop
  end
} bind def
%%EndResource
%%BeginResource: procset (Apache XML Graphics EPS ProcSet) 1.0 0
%%Version: 1.0 0
%%Copyright: (Copyright 2002-2003 The Apache Software Foundation. License terms: http://www.apache.org/licenses/LICENSE-2.0)
/BeginEPSF { %def
/b4_Inc_state save def         % Save state for cleanup
/dict_count countdictstack def % Count objects on dict stack
/op_count count 1 sub def      % Count objects on operand stack
userdict begin                 % Push userdict on dict stack
/showpage { } def              % Redefine showpage, { } = null proc
0 setgray 0 setlinecap         % Prepare graphics state
1 setlinewidth 0 setlinejoin
10 setmiterlimit [ ] 0 setdash newpath
/languagelevel where           % If level not equal to 1 then
{pop languagelevel             % set strokeadjust and
1 ne                           % overprint to their defaults.
{false setstrokeadjust false setoverprint
} if
} if
} bd
/EndEPSF { %def
count op_count sub {pop} repeat            % Clean up stacks
countdictstack dict_count sub {end} repeat
b4_Inc_state restore
} bd
%%EndResource
%FOPBeginFontDict
%%IncludeResource: font Courier-Oblique
%%IncludeResource: font Courier-BoldOblique
%%IncludeResource: font Courier-Bold
%%IncludeResource: font ZapfDingbats
%%IncludeResource: font Symbol
%%IncludeResource: font Helvetica
%%IncludeResource: font Helvetica-Oblique
%%IncludeResource: font Helvetica-Bold
%%IncludeResource: font Helvetica-BoldOblique
%%IncludeResource: font Times-Roman
%%IncludeResource: font Times-Italic
%%IncludeResource: font Times-Bold
%%IncludeResource: font Times-BoldItalic
%%IncludeResource: font Courier
%FOPEndFontDict
%%BeginResource: encoding WinAnsiEncoding
/WinAnsiEncoding [
/.notdef /.notdef /.notdef /.notdef /.notdef
/.notdef /.notdef /.notdef /.notdef /.notdef
/.notdef /.notdef /.notdef /.notdef /.notdef
/.notdef /.notdef /.notdef /.notdef /.notdef
/.notdef /.notdef /.notdef /.notdef /.notdef
/.notdef /.notdef /.notdef /.notdef /.notdef
/.notdef /.notdef /space /exclam /quotedbl
/numbersign /dollar /percent /ampersand /quotesingle
/parenleft /parenright /asterisk /plus /comma
/hyphen /period /slash /zero /one
/two /three /four /five /six
/seven /eight /nine /colon /semicolon
/less /equal /greater /question /at
/A /B /C /D /E
/F /G /H /I /J
/K /L /M /N /O
/P /Q /R /S /T
/U /V /W /X /Y
/Z /bracketleft /backslash /bracketright /asciicircum
/underscore /quoteleft /a /b /c
/d /e /f /g /h
/i /j /k /l /m
/n /o /p /q /r
/s /t /u /v /w
/x /y /z /braceleft /bar
/braceright /asciitilde /bullet /Euro /bullet
/quotesinglbase /florin /quotedblbase /ellipsis /dagger
/daggerdbl /circumflex /perthousand /Scaron /guilsinglleft
/OE /bullet /Zcaron /bullet /bullet
/quoteleft /quoteright /quotedblleft /quotedblright /bullet
/endash /emdash /asciitilde /trademark /scaron
/guilsinglright /oe /bullet /zcaron /Ydieresis
/space /exclamdown /cent /sterling /currency
/yen /brokenbar /section /dieresis /copyright
/ordfeminine /guillemotleft /logicalnot /sfthyphen /registered
/macron /degree /plusminus /twosuperior /threesuperior
/acute /mu /paragraph /middot /cedilla
/onesuperior /ordmasculine /guillemotright /onequarter /onehalf
/threequarters /questiondown /Agrave /Aacute /Acircumflex
/Atilde /Adieresis /Aring /AE /Ccedilla
/Egrave /Eacute /Ecircumflex /Edieresis /Igrave
/Iacute /Icircumflex /Idieresis /Eth /Ntilde
/Ograve /Oacute /Ocircumflex /Otilde /Odieresis
/multiply /Oslash /Ugrave /Uacute /Ucircumflex
/Udieresis /Yacute /Thorn /germandbls /agrave
/aacute /acircumflex /atilde /adieresis /aring
/ae /ccedilla /egrave /eacute /ecircumflex
/edieresis /igrave /iacute /icircumflex /idieresis
/eth /ntilde /ograve /oacute /ocircumflex
/otilde /odieresis /divide /oslash /ugrave
/uacute /ucircumflex /udieresis /yacute /thorn
/ydieresis
] def
%%EndResource
%FOPBeginFontReencode
/Courier-Oblique findfont
dup length dict begin
  {1 index /FID ne {def} {pop pop} ifelse} forall
  /Encoding WinAnsiEncoding def
  currentdict
end
/Courier-Oblique exch definefont pop
/Courier-BoldOblique findfont
dup length dict begin
  {1 index /FID ne {def} {pop pop} ifelse} forall
  /Encoding WinAnsiEncoding def
  currentdict
end
/Courier-BoldOblique exch definefont pop
/Courier-Bold findfont
dup length dict begin
  {1 index /FID ne {def} {pop pop} ifelse} forall
  /Encoding WinAnsiEncoding def
  currentdict
end
/Courier-Bold exch definefont pop
/Helvetica findfont
dup length dict begin
  {1 index /FID ne {def} {pop pop} ifelse} forall
  /Encoding WinAnsiEncoding def
  currentdict
end
/Helvetica exch definefont pop
/Helvetica-Oblique findfont
dup length dict begin
  {1 index /FID ne {def} {pop pop} ifelse} forall
  /Encoding WinAnsiEncoding def
  currentdict
end
/Helvetica-Oblique exch definefont pop
/Helvetica-Bold findfont
dup length dict begin
  {1 index /FID ne {def} {pop pop} ifelse} forall
  /Encoding WinAnsiEncoding def
  currentdict
end
/Helvetica-Bold exch definefont pop
/Helvetica-BoldOblique findfont
dup length dict begin
  {1 index /FID ne {def} {pop pop} ifelse} forall
  /Encoding WinAnsiEncoding def
  currentdict
end
/Helvetica-BoldOblique exch definefont pop
/Times-Roman findfont
dup length dict begin
  {1 index /FID ne {def} {pop pop} ifelse} forall
  /Encoding WinAnsiEncoding def
  currentdict
end
/Times-Roman exch definefont pop
/Times-Italic findfont
dup length dict begin
  {1 index /FID ne {def} {pop pop} ifelse} forall
  /Encoding WinAnsiEncoding def
  currentdict
end
/Times-Italic exch definefont pop
/Times-Bold findfont
dup length dict begin
  {1 index /FID ne {def} {pop pop} ifelse} forall
  /Encoding WinAnsiEncoding def
  currentdict
end
/Times-Bold exch definefont pop
/Times-BoldItalic findfont
dup length dict begin
  {1 index /FID ne {def} {pop pop} ifelse} forall
  /Encoding WinAnsiEncoding def
  currentdict
end
/Times-BoldItalic exch definefont pop
/Courier findfont
dup length dict begin
  {1 index /FID ne {def} {pop pop} ifelse} forall
  /Encoding WinAnsiEncoding def
  currentdict
end
/Courier exch definefont pop
%FOPEndFontReencode
%%EndProlog
%%Page: 1 1
%%PageBoundingBox: 0 0 240 180
%%BeginPageSetup
[1 0 0 -1 0 180] CT
%%EndPageSetup
GS
[0.75 0 0 0.75 0 0] CT
1 GC
N
0 0 320 240 re
f
GR
GS
[0.75 0 0 0.75 0 0] CT
1 GC
N
0 0 320 240 re
f
GR
GS
[0.75 0 0 0.75 0 0] CT
1 GC
N
58 202 M
298 202 L
298 22 L
58 22 L
cp
f
GR
GS
[0.75 0 0 0.75 0 0] CT
0.873 GC
1 LJ
0.667 LW
N
91.827 202 M
91.827 22 L
S
GR
GS
[0.75 0 0 0.75 0 0] CT
0.873 GC
1 LJ
0.667 LW
N
165.549 202 M
165.549 22 L
S
GR
GS
[0.75 0 0 0.75 0 0] CT
0.873 GC
1 LJ
0.667 LW
N
239.27 202 M
239.27 22 L
S
GR
GS
[0.75 0 0 0.75 0 0] CT
0.873 GC
1 LJ
0.667 LW
N
298 202 M
58 202 L
S
GR
GS
[0.75 0 0 0.75 0 0] CT
0.873 GC
1 LJ
0.667 LW
N
298 164.62 M
58 164.62 L
S
GR
GS
[0.75 0 0 0.75 0 0] CT
0.873 GC
1 LJ
0.667 LW
N
298 127.24 M
58 127.24 L
S
GR
GS
[0.75 0 0 0.75 0 0] CT
0.873 GC
1 LJ
0.667 LW
N
298 89.86 M
58 89.86 L
S
GR
GS
[0.75 0 0 0.75 0 0] CT
0.873 GC
1 LJ
0.667 LW
N
298 52.48 M
58 52.48 L
S
GR
GS
[0.75 0 0 0.75 0 0] CT
0.149 GC
2 setlinecap
1 LJ
0.667 LW
N
58 202 M
298 202 L
S
GR
GS
[0.75 0 0 0.75 0 0] CT
0.149 GC
2 setlinecap
1 LJ
0.667 LW
N
58 22 M
298 22 L
S
GR
GS
[0.75 0 0 0.75 0 0] CT
0.149 GC
2 setlinecap
1 LJ
0.667 LW
N
91.827 202 M
91.827 199.6 L
S
GR
GS
[0.75 0 0 0.75 0 0] CT
0.149 GC
2 setlinecap
1 LJ
0.667 LW
N
165.549 202 M
165.549 199.6 L
S
GR
GS
[0.75 0 0 0.75 0 0] CT
0.149 GC
2 setlinecap
1 LJ
0.667 LW
N
239.27 202 M
239.27 199.6 L
S
GR
GS
[0.75 0 0 0.75 0 0] CT
0.149 GC
2 setlinecap
1 LJ
0.667 LW
N
91.827 22 M
91.827 24.4 L
S
GR
GS
[0.75 0 0 0.75 0 0] CT
0.149 GC
2 setlinecap
1 LJ
0.667 LW
N
165.549 22 M
165.549 24.4 L
S
GR
GS
[0.75 0 0 0.75 0 0] CT
0.149 GC
2 setlinecap
1 LJ
0.667 LW
N
239.27 22 M
239.27 24.4 L
S
GR
GS
[0.75 0 0 0.75 68.87011 155.5] CT
0.149 GC
/Times-Roman 13.333 F
GS
[1 0 0 1 0 0] CT
-8.5 13 moveto 
1 -1 scale
(3.5) t 
GR
GR
GS
[0.75 0 0 0.75 124.16139 155.5] CT
0.149 GC
/Times-Roman 13.333 F
GS
[1 0 0 1 0 0] CT
-3.5 13 moveto 
1 -1 scale
(4) t 
GR
GR
GS
[0.75 0 0 0.75 179.45267 155.5] CT
0.149 GC
/Times-Roman 13.333 F
GS
[1 0 0 1 0 0] CT
-8.5 13 moveto 
1 -1 scale
(4.5) t 
GR
GR
GS
[0.75 0 0 0.75 0 0] CT
0.149 GC
2 setlinecap
1 LJ
0.667 LW
N
58 202 M
58 22 L
S
GR
GS
[0.75 0 0 0.75 0 0] CT
0.149 GC
2 setlinecap
1 LJ
0.667 LW
N
298 202 M
298 22 L
S
GR
GS
[0.75 0 0 0.75 0 0] CT
0.149 GC
2 setlinecap
1 LJ
0.667 LW
N
58 202 M
60.4 202 L
S
GR
GS
[0.75 0 0 0.75 0 0] CT
0.149 GC
2 setlinecap
1 LJ
0.667 LW
N
58 164.62 M
60.4 164.62 L
S
GR
GS
[0.75 0 0 0.75 0 0] CT
0.149 GC
2 setlinecap
1 LJ
0.667 LW
N
58 127.24 M
60.4 127.24 L
S
GR
GS
[0.75 0 0 0.75 0 0] CT
0.149 GC
2 setlinecap
1 LJ
0.667 LW
N
58 89.86 M
60.4 89.86 L
S
GR
GS
[0.75 0 0 0.75 0 0] CT
0.149 GC
2 setlinecap
1 LJ
0.667 LW
N
58 52.48 M
60.4 52.48 L
S
GR
GS
[0.75 0 0 0.75 0 0] CT
0.149 GC
2 setlinecap
1 LJ
0.667 LW
N
298 202 M
295.6 202 L
S
GR
GS
[0.75 0 0 0.75 0 0] CT
0.149 GC
2 setlinecap
1 LJ
0.667 LW
N
298 164.62 M
295.6 164.62 L
S
GR
GS
[0.75 0 0 0.75 0 0] CT
0.149 GC
2 setlinecap
1 LJ
0.667 LW
N
298 127.24 M
295.6 127.24 L
S
GR
GS
[0.75 0 0 0.75 0 0] CT
0.149 GC
2 setlinecap
1 LJ
0.667 LW
N
298 89.86 M
295.6 89.86 L
S
GR
GS
[0.75 0 0 0.75 0 0] CT
0.149 GC
2 setlinecap
1 LJ
0.667 LW
N
298 52.48 M
295.6 52.48 L
S
GR
GS
[0.75 0 0 0.75 39.49999 151.5] CT
0.149 GC
/Times-Roman 13.333 F
GS
[1 0 0 1 0 0] CT
-7 5 moveto 
1 -1 scale
(0) t 
GR
GR
GS
[0.75 0 0 0.75 39.49999 123.46497] CT
0.149 GC
/Times-Roman 13.333 F
GS
[1 0 0 1 0 0] CT
-17 5 moveto 
1 -1 scale
(0.1) t 
GR
GR
GS
[0.75 0 0 0.75 39.49999 95.42994] CT
0.149 GC
/Times-Roman 13.333 F
GS
[1 0 0 1 0 0] CT
-17 5 moveto 
1 -1 scale
(0.2) t 
GR
GR
GS
[0.75 0 0 0.75 39.49999 67.39491] CT
0.149 GC
/Times-Roman 13.333 F
GS
[1 0 0 1 0 0] CT
-17 5 moveto 
1 -1 scale
(0.3) t 
GR
GR
GS
[0.75 0 0 0.75 39.49999 39.35988] CT
0.149 GC
/Times-Roman 13.333 F
GS
[1 0 0 1 0 0] CT
-17 5 moveto 
1 -1 scale
(0.4) t 
GR
GR
GS
[0.75 0 0 0.75 220.44246 19.12686] CT
0.369 0.31 0.635 RC
10.0 ML
1.333 LW
N
4 0 M
4 -2.209 2.209 -4 0 -4 C
-2.209 -4 -4 -2.209 -4 0 C
-4 2.209 -2.209 4 0 4 C
2.209 4 4 2.209 4 0 C
S
GR
GS
[0.75 0 0 0.75 216.44774 27.82445] CT
0.369 0.31 0.635 RC
10.0 ML
1.333 LW
N
4 0 M
4 -2.209 2.209 -4 0 -4 C
-2.209 -4 -4 -2.209 -4 0 C
-4 2.209 -2.209 4 0 4 C
2.209 4 4 2.209 4 0 C
S
GR
GS
[0.75 0 0 0.75 213.03232 35.17292] CT
0.369 0.31 0.635 RC
10.0 ML
1.333 LW
N
4 0 M
4 -2.209 2.209 -4 0 -4 C
-2.209 -4 -4 -2.209 -4 0 C
-4 2.209 -2.209 4 0 4 C
2.209 4 4 2.209 4 0 C
S
GR
GS
[0.75 0 0 0.75 210.05077 40.97091] CT
0.369 0.31 0.635 RC
10.0 ML
1.333 LW
N
4 0 M
4 -2.209 2.209 -4 0 -4 C
-2.209 -4 -4 -2.209 -4 0 C
-4 2.209 -2.209 4 0 4 C
2.209 4 4 2.209 4 0 C
S
GR
GS
[0.75 0 0 0.75 207.35374 45.1086] CT
0.369 0.31 0.635 RC
10.0 ML
1.333 LW
N
4 0 M
4 -2.209 2.209 -4 0 -4 C
-2.209 -4 -4 -2.209 -4 0 C
-4 2.209 -2.209 4 0 4 C
2.209 4 4 2.209 4 0 C
S
GR
GS
[0.75 0 0 0.75 204.79303 47.5478] CT
0.369 0.31 0.635 RC
10.0 ML
1.333 LW
N
4 0 M
4 -2.209 2.209 -4 0 -4 C
-2.209 -4 -4 -2.209 -4 0 C
-4 2.209 -2.209 4 0 4 C
2.209 4 4 2.209 4 0 C
S
GR
GS
[0.75 0 0 0.75 202.22111 48.30988] CT
0.369 0.31 0.635 RC
10.0 ML
1.333 LW
N
4 0 M
4 -2.209 2.209 -4 0 -4 C
-2.209 -4 -4 -2.209 -4 0 C
-4 2.209 -2.209 4 0 4 C
2.209 4 4 2.209 4 0 C
S
GR
GS
[0.75 0 0 0.75 199.4894 47.47542] CT
0.369 0.31 0.635 RC
10.0 ML
1.333 LW
N
4 0 M
4 -2.209 2.209 -4 0 -4 C
-2.209 -4 -4 -2.209 -4 0 C
-4 2.209 -2.209 4 0 4 C
2.209 4 4 2.209 4 0 C
S
GR
GS
[0.75 0 0 0.75 196.44678 45.19616] CT
0.369 0.31 0.635 RC
10.0 ML
1.333 LW
N
4 0 M
4 -2.209 2.209 -4 0 -4 C
-2.209 -4 -4 -2.209 -4 0 C
-4 2.209 -2.209 4 0 4 C
2.209 4 4 2.209 4 0 C
S
GR
GS
[0.75 0 0 0.75 192.94288 41.71712] CT
0.369 0.31 0.635 RC
10.0 ML
1.333 LW
N
4 0 M
4 -2.209 2.209 -4 0 -4 C
-2.209 -4 -4 -2.209 -4 0 C
-4 2.209 -2.209 4 0 4 C
2.209 4 4 2.209 4 0 C
S
GR
GS
[0.75 0 0 0.75 188.83823 37.40263] CT
0.369 0.31 0.635 RC
10.0 ML
1.333 LW
N
4 0 M
4 -2.209 2.209 -4 0 -4 C
-2.209 -4 -4 -2.209 -4 0 C
-4 2.209 -2.209 4 0 4 C
2.209 4 4 2.209 4 0 C
S
GR
GS
[0.75 0 0 0.75 184.02382 32.75448] CT
0.369 0.31 0.635 RC
10.0 ML
1.333 LW
N
4 0 M
4 -2.209 2.209 -4 0 -4 C
-2.209 -4 -4 -2.209 -4 0 C
-4 2.209 -2.209 4 0 4 C
2.209 4 4 2.209 4 0 C
S
GR
GS
[0.75 0 0 0.75 178.44912 28.40431] CT
0.369 0.31 0.635 RC
10.0 ML
1.333 LW
N
4 0 M
4 -2.209 2.209 -4 0 -4 C
-2.209 -4 -4 -2.209 -4 0 C
-4 2.209 -2.209 4 0 4 C
2.209 4 4 2.209 4 0 C
S
GR
GS
[0.75 0 0 0.75 172.15233 25.06209] CT
0.369 0.31 0.635 RC
10.0 ML
1.333 LW
N
4 0 M
4 -2.209 2.209 -4 0 -4 C
-2.209 -4 -4 -2.209 -4 0 C
-4 2.209 -2.209 4 0 4 C
2.209 4 4 2.209 4 0 C
S
GR
GS
[0.75 0 0 0.75 165.28074 23.41324] CT
0.369 0.31 0.635 RC
10.0 ML
1.333 LW
N
4 0 M
4 -2.209 2.209 -4 0 -4 C
-2.209 -4 -4 -2.209 -4 0 C
-4 2.209 -2.209 4 0 4 C
2.209 4 4 2.209 4 0 C
S
GR
GS
[0.75 0 0 0.75 158.08648 23.9828] CT
0.369 0.31 0.635 RC
10.0 ML
1.333 LW
N
4 0 M
4 -2.209 2.209 -4 0 -4 C
-2.209 -4 -4 -2.209 -4 0 C
-4 2.209 -2.209 4 0 4 C
2.209 4 4 2.209 4 0 C
S
GR
GS
[0.75 0 0 0.75 150.89017 27.01327] CT
0.369 0.31 0.635 RC
10.0 ML
1.333 LW
N
4 0 M
4 -2.209 2.209 -4 0 -4 C
-2.209 -4 -4 -2.209 -4 0 C
-4 2.209 -2.209 4 0 4 C
2.209 4 4 2.209 4 0 C
S
GR
GS
[0.75 0 0 0.75 144.02046 32.40958] CT
0.369 0.31 0.635 RC
10.0 ML
1.333 LW
N
4 0 M
4 -2.209 2.209 -4 0 -4 C
-2.209 -4 -4 -2.209 -4 0 C
-4 2.209 -2.209 4 0 4 C
2.209 4 4 2.209 4 0 C
S
GR
GS
[0.75 0 0 0.75 137.75162 39.77784] CT
0.369 0.31 0.635 RC
10.0 ML
1.333 LW
N
4 0 M
4 -2.209 2.209 -4 0 -4 C
-2.209 -4 -4 -2.209 -4 0 C
-4 2.209 -2.209 4 0 4 C
2.209 4 4 2.209 4 0 C
S
GR
GS
[0.75 0 0 0.75 132.26191 48.53814] CT
0.369 0.31 0.635 RC
10.0 ML
1.333 LW
N
4 0 M
4 -2.209 2.209 -4 0 -4 C
-2.209 -4 -4 -2.209 -4 0 C
-4 2.209 -2.209 4 0 4 C
2.209 4 4 2.209 4 0 C
S
GR
GS
[0.75 0 0 0.75 127.62342 58.06076] CT
0.369 0.31 0.635 RC
10.0 ML
1.333 LW
N
4 0 M
4 -2.209 2.209 -4 0 -4 C
-2.209 -4 -4 -2.209 -4 0 C
-4 2.209 -2.209 4 0 4 C
2.209 4 4 2.209 4 0 C
S
GR
GS
[0.75 0 0 0.75 123.81857 67.7774] CT
0.369 0.31 0.635 RC
10.0 ML
1.333 LW
N
4 0 M
4 -2.209 2.209 -4 0 -4 C
-2.209 -4 -4 -2.209 -4 0 C
-4 2.209 -2.209 4 0 4 C
2.209 4 4 2.209 4 0 C
S
GR
GS
[0.75 0 0 0.75 120.76955 77.24379] CT
0.369 0.31 0.635 RC
10.0 ML
1.333 LW
N
4 0 M
4 -2.209 2.209 -4 0 -4 C
-2.209 -4 -4 -2.209 -4 0 C
-4 2.209 -2.209 4 0 4 C
2.209 4 4 2.209 4 0 C
S
GR
GS
[0.75 0 0 0.75 118.36826 86.15616] CT
0.369 0.31 0.635 RC
10.0 ML
1.333 LW
N
4 0 M
4 -2.209 2.209 -4 0 -4 C
-2.209 -4 -4 -2.209 -4 0 C
-4 2.209 -2.209 4 0 4 C
2.209 4 4 2.209 4 0 C
S
GR
GS
[0.75 0 0 0.75 116.49958 94.33709] CT
0.369 0.31 0.635 RC
10.0 ML
1.333 LW
N
4 0 M
4 -2.209 2.209 -4 0 -4 C
-2.209 -4 -4 -2.209 -4 0 C
-4 2.209 -2.209 4 0 4 C
2.209 4 4 2.209 4 0 C
S
GR
GS
[0.75 0 0 0.75 115.05579 101.70774] CT
0.369 0.31 0.635 RC
10.0 ML
1.333 LW
N
4 0 M
4 -2.209 2.209 -4 0 -4 C
-2.209 -4 -4 -2.209 -4 0 C
-4 2.209 -2.209 4 0 4 C
2.209 4 4 2.209 4 0 C
S
GR
GS
[0.75 0 0 0.75 113.94358 108.25824] CT
0.369 0.31 0.635 RC
10.0 ML
1.333 LW
N
4 0 M
4 -2.209 2.209 -4 0 -4 C
-2.209 -4 -4 -2.209 -4 0 C
-4 2.209 -2.209 4 0 4 C
2.209 4 4 2.209 4 0 C
S
GR
GS
[0.75 0 0 0.75 113.08625 114.02237] CT
0.369 0.31 0.635 RC
10.0 ML
1.333 LW
N
4 0 M
4 -2.209 2.209 -4 0 -4 C
-2.209 -4 -4 -2.209 -4 0 C
-4 2.209 -2.209 4 0 4 C
2.209 4 4 2.209 4 0 C
S
GR
GS
[0.75 0 0 0.75 112.42286 119.05849] CT
0.369 0.31 0.635 RC
10.0 ML
1.333 LW
N
4 0 M
4 -2.209 2.209 -4 0 -4 C
-2.209 -4 -4 -2.209 -4 0 C
-4 2.209 -2.209 4 0 4 C
2.209 4 4 2.209 4 0 C
S
GR
GS
[0.75 0 0 0.75 111.90618 123.43633] CT
0.369 0.31 0.635 RC
10.0 ML
1.333 LW
N
4 0 M
4 -2.209 2.209 -4 0 -4 C
-2.209 -4 -4 -2.209 -4 0 C
-4 2.209 -2.209 4 0 4 C
2.209 4 4 2.209 4 0 C
S
GR
GS
[0.75 0 0 0.75 111.50013 127.22853] CT
0.369 0.31 0.635 RC
10.0 ML
1.333 LW
N
4 0 M
4 -2.209 2.209 -4 0 -4 C
-2.209 -4 -4 -2.209 -4 0 C
-4 2.209 -2.209 4 0 4 C
2.209 4 4 2.209 4 0 C
S
GR
GS
[0.75 0 0 0.75 111.17761 130.50556] CT
0.369 0.31 0.635 RC
10.0 ML
1.333 LW
N
4 0 M
4 -2.209 2.209 -4 0 -4 C
-2.209 -4 -4 -2.209 -4 0 C
-4 2.209 -2.209 4 0 4 C
2.209 4 4 2.209 4 0 C
S
GR
GS
[0.75 0 0 0.75 110.91823 133.33298] CT
0.369 0.31 0.635 RC
10.0 ML
1.333 LW
N
4 0 M
4 -2.209 2.209 -4 0 -4 C
-2.209 -4 -4 -2.209 -4 0 C
-4 2.209 -2.209 4 0 4 C
2.209 4 4 2.209 4 0 C
S
GR
GS
[0.75 0 0 0.75 110.70684 135.7702] CT
0.369 0.31 0.635 RC
10.0 ML
1.333 LW
N
4 0 M
4 -2.209 2.209 -4 0 -4 C
-2.209 -4 -4 -2.209 -4 0 C
-4 2.209 -2.209 4 0 4 C
2.209 4 4 2.209 4 0 C
S
GR
GS
[0.75 0 0 0.75 110.5322 137.87005] CT
0.369 0.31 0.635 RC
10.0 ML
1.333 LW
N
4 0 M
4 -2.209 2.209 -4 0 -4 C
-2.209 -4 -4 -2.209 -4 0 C
-4 2.209 -2.209 4 0 4 C
2.209 4 4 2.209 4 0 C
S
GR
GS
[0.75 0 0 0.75 110.3859 139.67901] CT
0.369 0.31 0.635 RC
10.0 ML
1.333 LW
N
4 0 M
4 -2.209 2.209 -4 0 -4 C
-2.209 -4 -4 -2.209 -4 0 C
-4 2.209 -2.209 4 0 4 C
2.209 4 4 2.209 4 0 C
S
GR
GS
[0.75 0 0 0.75 110.26174 141.23758] CT
0.369 0.31 0.635 RC
10.0 ML
1.333 LW
N
4 0 M
4 -2.209 2.209 -4 0 -4 C
-2.209 -4 -4 -2.209 -4 0 C
-4 2.209 -2.209 4 0 4 C
2.209 4 4 2.209 4 0 C
S
GR
GS
[0.75 0 0 0.75 110.15503 142.58086] CT
0.369 0.31 0.635 RC
10.0 ML
1.333 LW
N
4 0 M
4 -2.209 2.209 -4 0 -4 C
-2.209 -4 -4 -2.209 -4 0 C
-4 2.209 -2.209 4 0 4 C
2.209 4 4 2.209 4 0 C
S
GR
GS
[0.75 0 0 0.75 110.06229 143.73921] CT
0.369 0.31 0.635 RC
10.0 ML
1.333 LW
N
4 0 M
4 -2.209 2.209 -4 0 -4 C
-2.209 -4 -4 -2.209 -4 0 C
-4 2.209 -2.209 4 0 4 C
2.209 4 4 2.209 4 0 C
S
GR
GS
[0.75 0 0 0.75 109.98086 144.73869] CT
0.369 0.31 0.635 RC
10.0 ML
1.333 LW
N
4 0 M
4 -2.209 2.209 -4 0 -4 C
-2.209 -4 -4 -2.209 -4 0 C
-4 2.209 -2.209 4 0 4 C
2.209 4 4 2.209 4 0 C
S
GR
GS
[0.75 0 0 0.75 109.90875 145.60174] CT
0.369 0.31 0.635 RC
10.0 ML
1.333 LW
N
4 0 M
4 -2.209 2.209 -4 0 -4 C
-2.209 -4 -4 -2.209 -4 0 C
-4 2.209 -2.209 4 0 4 C
2.209 4 4 2.209 4 0 C
S
GR
GS
[0.75 0 0 0.75 109.84439 146.34762] CT
0.369 0.31 0.635 RC
10.0 ML
1.333 LW
N
4 0 M
4 -2.209 2.209 -4 0 -4 C
-2.209 -4 -4 -2.209 -4 0 C
-4 2.209 -2.209 4 0 4 C
2.209 4 4 2.209 4 0 C
S
GR
GS
[0.75 0 0 0.75 109.78659 146.99281] CT
0.369 0.31 0.635 RC
10.0 ML
1.333 LW
N
4 0 M
4 -2.209 2.209 -4 0 -4 C
-2.209 -4 -4 -2.209 -4 0 C
-4 2.209 -2.209 4 0 4 C
2.209 4 4 2.209 4 0 C
S
GR
GS
[0.75 0 0 0.75 109.73442 147.55147] CT
0.369 0.31 0.635 RC
10.0 ML
1.333 LW
N
4 0 M
4 -2.209 2.209 -4 0 -4 C
-2.209 -4 -4 -2.209 -4 0 C
-4 2.209 -2.209 4 0 4 C
2.209 4 4 2.209 4 0 C
S
GR
GS
[0.75 0 0 0.75 109.68715 148.0357] CT
0.369 0.31 0.635 RC
10.0 ML
1.333 LW
N
4 0 M
4 -2.209 2.209 -4 0 -4 C
-2.209 -4 -4 -2.209 -4 0 C
-4 2.209 -2.209 4 0 4 C
2.209 4 4 2.209 4 0 C
S
GR
GS
[0.75 0 0 0.75 109.64412 148.45591] CT
0.369 0.31 0.635 RC
10.0 ML
1.333 LW
N
4 0 M
4 -2.209 2.209 -4 0 -4 C
-2.209 -4 -4 -2.209 -4 0 C
-4 2.209 -2.209 4 0 4 C
2.209 4 4 2.209 4 0 C
S
GR
GS
[0.75 0 0 0.75 109.60486 148.82097] CT
0.369 0.31 0.635 RC
10.0 ML
1.333 LW
N
4 0 M
4 -2.209 2.209 -4 0 -4 C
-2.209 -4 -4 -2.209 -4 0 C
-4 2.209 -2.209 4 0 4 C
2.209 4 4 2.209 4 0 C
S
GR
GS
[0.75 0 0 0.75 109.56895 149.13853] CT
0.369 0.31 0.635 RC
10.0 ML
1.333 LW
N
4 0 M
4 -2.209 2.209 -4 0 -4 C
-2.209 -4 -4 -2.209 -4 0 C
-4 2.209 -2.209 4 0 4 C
2.209 4 4 2.209 4 0 C
S
GR
GS
[0.75 0 0 0.75 109.53607 149.41513] CT
0.369 0.31 0.635 RC
10.0 ML
1.333 LW
N
4 0 M
4 -2.209 2.209 -4 0 -4 C
-2.209 -4 -4 -2.209 -4 0 C
-4 2.209 -2.209 4 0 4 C
2.209 4 4 2.209 4 0 C
S
GR
GS
[0.75 0 0 0.75 109.50592 149.65635] CT
0.369 0.31 0.635 RC
10.0 ML
1.333 LW
N
4 0 M
4 -2.209 2.209 -4 0 -4 C
-2.209 -4 -4 -2.209 -4 0 C
-4 2.209 -2.209 4 0 4 C
2.209 4 4 2.209 4 0 C
S
GR
GS
[0.75 0 0 0.75 109.47818 149.86702] CT
0.369 0.31 0.635 RC
10.0 ML
1.333 LW
N
4 0 M
4 -2.209 2.209 -4 0 -4 C
-2.209 -4 -4 -2.209 -4 0 C
-4 2.209 -2.209 4 0 4 C
2.209 4 4 2.209 4 0 C
S
GR
GS
[0.75 0 0 0.75 109.45271 150.05127] CT
0.369 0.31 0.635 RC
10.0 ML
1.333 LW
N
4 0 M
4 -2.209 2.209 -4 0 -4 C
-2.209 -4 -4 -2.209 -4 0 C
-4 2.209 -2.209 4 0 4 C
2.209 4 4 2.209 4 0 C
S
GR
GS
[0.75 0 0 0.75 213.22458 21.86322] CT
0.369 0.31 0.635 RC
N
1.333 0 M
1.333 0.736 0.736 1.333 0 1.333 C
-0.736 1.333 -1.333 0.736 -1.333 0 C
-1.333 -0.736 -0.736 -1.333 0 -1.333 C
0.736 -1.333 1.333 -0.736 1.333 0 C
cp
f
GR
GS
[0.75 0 0 0.75 209.38737 30.42511] CT
0.369 0.31 0.635 RC
N
/f-1057828618{1.333 0 M
1.333 0.736 0.736 1.333 0 1.333 C
-0.736 1.333 -1.333 0.736 -1.333 0 C
-1.333 -0.736 -0.736 -1.333 0 -1.333 C
0.736 -1.333 1.333 -0.736 1.333 0 C
cp}def
f-1057828618
f
GR
GS
[0.75 0 0 0.75 206.09203 37.63292] CT
0.369 0.31 0.635 RC
N
f-1057828618
f
GR
GS
[0.75 0 0 0.75 203.21688 43.29599] CT
0.369 0.31 0.635 RC
N
f-1057828618
f
GR
GS
[0.75 0 0 0.75 200.61818 47.28538] CT
0.369 0.31 0.635 RC
N
f-1057828618
f
GR
GS
[0.75 0 0 0.75 198.14115 49.55062] CT
0.369 0.31 0.635 RC
N
f-1057828618
f
GR
GS
[0.75 0 0 0.75 195.63089 50.09449] CT
0.369 0.31 0.635 RC
N
f-1057828618
f
GR
GS
[0.75 0 0 0.75 192.92162 49.01795] CT
0.369 0.31 0.635 RC
N
f-1057828618
f
GR
GS
[0.75 0 0 0.75 189.8364 46.51722] CT
0.369 0.31 0.635 RC
N
f-1057828618
f
GR
GS
[0.75 0 0 0.75 186.22034 42.91752] CT
0.369 0.31 0.635 RC
N
f-1057828618
f
GR
GS
[0.75 0 0 0.75 181.94079 38.67863] CT
0.369 0.31 0.635 RC
N
f-1057828618
f
GR
GS
[0.75 0 0 0.75 176.90931 34.40329] CT
0.369 0.31 0.635 RC
N
f-1057828618
f
GR
GS
[0.75 0 0 0.75 171.12578 30.79798] CT
0.369 0.31 0.635 RC
N
f-1057828618
f
GR
GS
[0.75 0 0 0.75 164.70097 28.58601] CT
0.369 0.31 0.635 RC
N
f-1057828618
f
GR
GS
[0.75 0 0 0.75 157.84481 28.38416] CT
0.369 0.31 0.635 RC
N
f-1057828618
f
GR
GS
[0.75 0 0 0.75 150.856 30.55407] CT
0.369 0.31 0.635 RC
N
f-1057828618
f
GR
GS
[0.75 0 0 0.75 144.0773 35.135] CT
0.369 0.31 0.635 RC
N
f-1057828618
f
GR
GS
[0.75 0 0 0.75 137.8073 41.83817] CT
0.369 0.31 0.635 RC
N
f-1057828618
f
GR
GS
[0.75 0 0 0.75 132.24498 50.13094] CT
0.369 0.31 0.635 RC
N
f-1057828618
f
GR
GS
[0.75 0 0 0.75 127.53415 59.39371] CT
0.369 0.31 0.635 RC
N
f-1057828618
f
GR
GS
[0.75 0 0 0.75 123.6527 69.01814] CT
0.369 0.31 0.635 RC
N
f-1057828618
f
GR
GS
[0.75 0 0 0.75 120.55641 78.5136] CT
0.369 0.31 0.635 RC
N
f-1057828618
f
GR
GS
[0.75 0 0 0.75 118.1457 87.52967] CT
0.369 0.31 0.635 RC
N
f-1057828618
f
GR
GS
[0.75 0 0 0.75 116.29897 95.84486] CT
0.369 0.31 0.635 RC
N
f-1057828618
f
GR
GS
[0.75 0 0 0.75 114.90564 103.35544] CT
0.369 0.31 0.635 RC
N
f-1057828618
f
GR
GS
[0.75 0 0 0.75 113.86615 110.02778] CT
0.369 0.31 0.635 RC
N
f-1057828618
f
GR
GS
[0.75 0 0 0.75 113.09207 115.8899] CT
0.369 0.31 0.635 RC
N
f-1057828618
f
GR
GS
[0.75 0 0 0.75 112.52811 120.99509] CT
0.369 0.31 0.635 RC
N
f-1057828618
f
GR
GS
[0.75 0 0 0.75 112.1079 125.41397] CT
0.369 0.31 0.635 RC
N
f-1057828618
f
GR
GS
[0.75 0 0 0.75 111.79827 129.22112] CT
0.369 0.31 0.635 RC
N
f-1057828618
f
GR
GS
[0.75 0 0 0.75 111.57709 132.49056] CT
0.369 0.31 0.635 RC
N
f-1057828618
f
GR
GS
[0.75 0 0 0.75 111.42228 135.29126] CT
0.369 0.31 0.635 RC
N
f-1057828618
f
GR
GS
[0.75 0 0 0.75 111.30062 137.68602] CT
0.369 0.31 0.635 RC
N
f-1057828618
f
GR
GS
[0.75 0 0 0.75 111.21217 139.73117] CT
0.369 0.31 0.635 RC
N
f-1057828618
f
GR
GS
[0.75 0 0 0.75 111.15689 141.47607] CT
0.369 0.31 0.635 RC
N
f-1057828618
f
GR
GS
[0.75 0 0 0.75 111.11264 142.96417] CT
0.369 0.31 0.635 RC
N
f-1057828618
f
GR
GS
[0.75 0 0 0.75 111.07948 144.2322] CT
0.369 0.31 0.635 RC
N
f-1057828618
f
GR
GS
[0.75 0 0 0.75 111.05736 145.31239] CT
0.369 0.31 0.635 RC
N
f-1057828618
f
GR
GS
[0.75 0 0 0.75 111.03524 146.2325] CT
0.369 0.31 0.635 RC
N
f-1057828618
f
GR
GS
[0.75 0 0 0.75 111.02419 147.01608] CT
0.369 0.31 0.635 RC
N
f-1057828618
f
GR
GS
[0.75 0 0 0.75 111.01311 147.68303] CT
0.369 0.31 0.635 RC
N
f-1057828618
f
GR
GS
[0.75 0 0 0.75 111.01311 148.25102] CT
0.369 0.31 0.635 RC
N
f-1057828618
f
GR
GS
[0.75 0 0 0.75 111.00207 148.73459] CT
0.369 0.31 0.635 RC
N
f-1057828618
f
GR
GS
[0.75 0 0 0.75 111.00207 149.14616] CT
0.369 0.31 0.635 RC
N
f-1057828618
f
GR
GS
[0.75 0 0 0.75 111.00207 149.49651] CT
0.369 0.31 0.635 RC
N
f-1057828618
f
GR
GS
[0.75 0 0 0.75 111.00207 149.79472] CT
0.369 0.31 0.635 RC
N
f-1057828618
f
GR
GS
[0.75 0 0 0.75 110.991 150.04855] CT
0.369 0.31 0.635 RC
N
f-1057828618
f
GR
GS
[0.75 0 0 0.75 110.991 150.26461] CT
0.369 0.31 0.635 RC
N
f-1057828618
f
GR
GS
[0.75 0 0 0.75 110.991 150.44849] CT
0.369 0.31 0.635 RC
N
f-1057828618
f
GR
GS
[0.75 0 0 0.75 110.991 150.60501] CT
0.369 0.31 0.635 RC
N
f-1057828618
f
GR
GS
[0.75 0 0 0.75 110.991 150.73824] CT
0.369 0.31 0.635 RC
N
f-1057828618
f
GR
GS
[0.75 0 0 0.75 209.26167 19.10646] CT
0.671 0.867 0.643 RC
10.0 ML
1.333 LW
N
4 0 M
4 -2.209 2.209 -4 0 -4 C
-2.209 -4 -4 -2.209 -4 0 C
-4 2.209 -2.209 4 0 4 C
2.209 4 4 2.209 4 0 C
S
GR
GS
[0.75 0 0 0.75 203.81703 22.74494] CT
0.671 0.867 0.643 RC
10.0 ML
1.333 LW
N
4 0 M
4 -2.209 2.209 -4 0 -4 C
-2.209 -4 -4 -2.209 -4 0 C
-4 2.209 -2.209 4 0 4 C
2.209 4 4 2.209 4 0 C
S
GR
GS
[0.75 0 0 0.75 198.41281 27.01411] CT
0.671 0.867 0.643 RC
10.0 ML
1.333 LW
N
4 0 M
4 -2.209 2.209 -4 0 -4 C
-2.209 -4 -4 -2.209 -4 0 C
-4 2.209 -2.209 4 0 4 C
2.209 4 4 2.209 4 0 C
S
GR
GS
[0.75 0 0 0.75 193.20515 31.98086] CT
0.671 0.867 0.643 RC
10.0 ML
1.333 LW
N
4 0 M
4 -2.209 2.209 -4 0 -4 C
-2.209 -4 -4 -2.209 -4 0 C
-4 2.209 -2.209 4 0 4 C
2.209 4 4 2.209 4 0 C
S
GR
GS
[0.75 0 0 0.75 188.34462 37.52838] CT
0.671 0.867 0.643 RC
10.0 ML
1.333 LW
N
4 0 M
4 -2.209 2.209 -4 0 -4 C
-2.209 -4 -4 -2.209 -4 0 C
-4 2.209 -2.209 4 0 4 C
2.209 4 4 2.209 4 0 C
S
GR
GS
[0.75 0 0 0.75 183.9441 43.38627] CT
0.671 0.867 0.643 RC
10.0 ML
1.333 LW
N
4 0 M
4 -2.209 2.209 -4 0 -4 C
-2.209 -4 -4 -2.209 -4 0 C
-4 2.209 -2.209 4 0 4 C
2.209 4 4 2.209 4 0 C
S
GR
GS
[0.75 0 0 0.75 180.05918 49.19701] CT
0.671 0.867 0.643 RC
10.0 ML
1.333 LW
N
4 0 M
4 -2.209 2.209 -4 0 -4 C
-2.209 -4 -4 -2.209 -4 0 C
-4 2.209 -2.209 4 0 4 C
2.209 4 4 2.209 4 0 C
S
GR
GS
[0.75 0 0 0.75 176.68562 54.58943] CT
0.671 0.867 0.643 RC
10.0 ML
1.333 LW
N
4 0 M
4 -2.209 2.209 -4 0 -4 C
-2.209 -4 -4 -2.209 -4 0 C
-4 2.209 -2.209 4 0 4 C
2.209 4 4 2.209 4 0 C
S
GR
GS
[0.75 0 0 0.75 173.7705 59.2343] CT
0.671 0.867 0.643 RC
10.0 ML
1.333 LW
N
4 0 M
4 -2.209 2.209 -4 0 -4 C
-2.209 -4 -4 -2.209 -4 0 C
-4 2.209 -2.209 4 0 4 C
2.209 4 4 2.209 4 0 C
S
GR
GS
[0.75 0 0 0.75 171.22782 62.87209] CT
0.671 0.867 0.643 RC
10.0 ML
1.333 LW
N
4 0 M
4 -2.209 2.209 -4 0 -4 C
-2.209 -4 -4 -2.209 -4 0 C
-4 2.209 -2.209 4 0 4 C
2.209 4 4 2.209 4 0 C
S
GR
GS
[0.75 0 0 0.75 168.95279 65.31746] CT
0.671 0.867 0.643 RC
10.0 ML
1.333 LW
N
4 0 M
4 -2.209 2.209 -4 0 -4 C
-2.209 -4 -4 -2.209 -4 0 C
-4 2.209 -2.209 4 0 4 C
2.209 4 4 2.209 4 0 C
S
GR
GS
[0.75 0 0 0.75 166.83094 66.45142] CT
0.671 0.867 0.643 RC
10.0 ML
1.333 LW
N
4 0 M
4 -2.209 2.209 -4 0 -4 C
-2.209 -4 -4 -2.209 -4 0 C
-4 2.209 -2.209 4 0 4 C
2.209 4 4 2.209 4 0 C
S
GR
GS
[0.75 0 0 0.75 164.74199 66.21153] CT
0.671 0.867 0.643 RC
10.0 ML
1.333 LW
N
4 0 M
4 -2.209 2.209 -4 0 -4 C
-2.209 -4 -4 -2.209 -4 0 C
-4 2.209 -2.209 4 0 4 C
2.209 4 4 2.209 4 0 C
S
GR
GS
[0.75 0 0 0.75 162.55997 64.58724] CT
0.671 0.867 0.643 RC
10.0 ML
1.333 LW
N
4 0 M
4 -2.209 2.209 -4 0 -4 C
-2.209 -4 -4 -2.209 -4 0 C
-4 2.209 -2.209 4 0 4 C
2.209 4 4 2.209 4 0 C
S
GR
GS
[0.75 0 0 0.75 160.15227 61.62469] CT
0.671 0.867 0.643 RC
10.0 ML
1.333 LW
N
4 0 M
4 -2.209 2.209 -4 0 -4 C
-2.209 -4 -4 -2.209 -4 0 C
-4 2.209 -2.209 4 0 4 C
2.209 4 4 2.209 4 0 C
S
GR
GS
[0.75 0 0 0.75 157.37894 57.44186] CT
0.671 0.867 0.643 RC
10.0 ML
1.333 LW
N
4 0 M
4 -2.209 2.209 -4 0 -4 C
-2.209 -4 -4 -2.209 -4 0 C
-4 2.209 -2.209 4 0 4 C
2.209 4 4 2.209 4 0 C
S
GR
GS
[0.75 0 0 0.75 154.09731 52.25273] CT
0.671 0.867 0.643 RC
10.0 ML
1.333 LW
N
4 0 M
4 -2.209 2.209 -4 0 -4 C
-2.209 -4 -4 -2.209 -4 0 C
-4 2.209 -2.209 4 0 4 C
2.209 4 4 2.209 4 0 C
S
GR
GS
[0.75 0 0 0.75 150.17246 46.39467] CT
0.671 0.867 0.643 RC
10.0 ML
1.333 LW
N
4 0 M
4 -2.209 2.209 -4 0 -4 C
-2.209 -4 -4 -2.209 -4 0 C
-4 2.209 -2.209 4 0 4 C
2.209 4 4 2.209 4 0 C
S
GR
GS
[0.75 0 0 0.75 145.49769 40.34762] CT
0.671 0.867 0.643 RC
10.0 ML
1.333 LW
N
4 0 M
4 -2.209 2.209 -4 0 -4 C
-2.209 -4 -4 -2.209 -4 0 C
-4 2.209 -2.209 4 0 4 C
2.209 4 4 2.209 4 0 C
S
GR
GS
[0.75 0 0 0.75 140.02312 34.72751] CT
0.671 0.867 0.643 RC
10.0 ML
1.333 LW
N
4 0 M
4 -2.209 2.209 -4 0 -4 C
-2.209 -4 -4 -2.209 -4 0 C
-4 2.209 -2.209 4 0 4 C
2.209 4 4 2.209 4 0 C
S
GR
GS
[0.75 0 0 0.75 133.78686 30.23539] CT
0.671 0.867 0.643 RC
10.0 ML
1.333 LW
N
4 0 M
4 -2.209 2.209 -4 0 -4 C
-2.209 -4 -4 -2.209 -4 0 C
-4 2.209 -2.209 4 0 4 C
2.209 4 4 2.209 4 0 C
S
GR
GS
[0.75 0 0 0.75 126.93636 27.55492] CT
0.671 0.867 0.643 RC
10.0 ML
1.333 LW
N
4 0 M
4 -2.209 2.209 -4 0 -4 C
-2.209 -4 -4 -2.209 -4 0 C
-4 2.209 -2.209 4 0 4 C
2.209 4 4 2.209 4 0 C
S
GR
GS
[0.75 0 0 0.75 119.72541 27.21566] CT
0.671 0.867 0.643 RC
10.0 ML
1.333 LW
N
4 0 M
4 -2.209 2.209 -4 0 -4 C
-2.209 -4 -4 -2.209 -4 0 C
-4 2.209 -2.209 4 0 4 C
2.209 4 4 2.209 4 0 C
S
GR
GS
[0.75 0 0 0.75 112.47887 29.46833] CT
0.671 0.867 0.643 RC
10.0 ML
1.333 LW
N
4 0 M
4 -2.209 2.209 -4 0 -4 C
-2.209 -4 -4 -2.209 -4 0 C
-4 2.209 -2.209 4 0 4 C
2.209 4 4 2.209 4 0 C
S
GR
GS
[0.75 0 0 0.75 105.53288 34.2256] CT
0.671 0.867 0.643 RC
10.0 ML
1.333 LW
N
4 0 M
4 -2.209 2.209 -4 0 -4 C
-2.209 -4 -4 -2.209 -4 0 C
-4 2.209 -2.209 4 0 4 C
2.209 4 4 2.209 4 0 C
S
GR
GS
[0.75 0 0 0.75 99.17181 41.09596] CT
0.671 0.867 0.643 RC
10.0 ML
1.333 LW
N
4 0 M
4 -2.209 2.209 -4 0 -4 C
-2.209 -4 -4 -2.209 -4 0 C
-4 2.209 -2.209 4 0 4 C
2.209 4 4 2.209 4 0 C
S
GR
GS
[0.75 0 0 0.75 93.58526 49.49301] CT
0.671 0.867 0.643 RC
10.0 ML
1.333 LW
N
4 0 M
4 -2.209 2.209 -4 0 -4 C
-2.209 -4 -4 -2.209 -4 0 C
-4 2.209 -2.209 4 0 4 C
2.209 4 4 2.209 4 0 C
S
GR
GS
[0.75 0 0 0.75 88.85563 58.77134] CT
0.671 0.867 0.643 RC
10.0 ML
1.333 LW
N
4 0 M
4 -2.209 2.209 -4 0 -4 C
-2.209 -4 -4 -2.209 -4 0 C
-4 2.209 -2.209 4 0 4 C
2.209 4 4 2.209 4 0 C
S
GR
GS
[0.75 0 0 0.75 84.97294 68.34024] CT
0.671 0.867 0.643 RC
10.0 ML
1.333 LW
N
4 0 M
4 -2.209 2.209 -4 0 -4 C
-2.209 -4 -4 -2.209 -4 0 C
-4 2.209 -2.209 4 0 4 C
2.209 4 4 2.209 4 0 C
S
GR
GS
[0.75 0 0 0.75 81.86352 77.73067] CT
0.671 0.867 0.643 RC
10.0 ML
1.333 LW
N
4 0 M
4 -2.209 2.209 -4 0 -4 C
-2.209 -4 -4 -2.209 -4 0 C
-4 2.209 -2.209 4 0 4 C
2.209 4 4 2.209 4 0 C
S
GR
GS
[0.75 0 0 0.75 79.42035 86.61561] CT
0.671 0.867 0.643 RC
10.0 ML
1.333 LW
N
4 0 M
4 -2.209 2.209 -4 0 -4 C
-2.209 -4 -4 -2.209 -4 0 C
-4 2.209 -2.209 4 0 4 C
2.209 4 4 2.209 4 0 C
S
GR
GS
[0.75 0 0 0.75 77.52701 94.79843] CT
0.671 0.867 0.643 RC
10.0 ML
1.333 LW
N
4 0 M
4 -2.209 2.209 -4 0 -4 C
-2.209 -4 -4 -2.209 -4 0 C
-4 2.209 -2.209 4 0 4 C
2.209 4 4 2.209 4 0 C
S
GR
GS
[0.75 0 0 0.75 76.07322 102.18593] CT
0.671 0.867 0.643 RC
10.0 ML
1.333 LW
N
4 0 M
4 -2.209 2.209 -4 0 -4 C
-2.209 -4 -4 -2.209 -4 0 C
-4 2.209 -2.209 4 0 4 C
2.209 4 4 2.209 4 0 C
S
GR
GS
[0.75 0 0 0.75 74.9627 108.7585] CT
0.671 0.867 0.643 RC
10.0 ML
1.333 LW
N
4 0 M
4 -2.209 2.209 -4 0 -4 C
-2.209 -4 -4 -2.209 -4 0 C
-4 2.209 -2.209 4 0 4 C
2.209 4 4 2.209 4 0 C
S
GR
GS
[0.75 0 0 0.75 74.11584 114.54385] CT
0.671 0.867 0.643 RC
10.0 ML
1.333 LW
N
4 0 M
4 -2.209 2.209 -4 0 -4 C
-2.209 -4 -4 -2.209 -4 0 C
-4 2.209 -2.209 4 0 4 C
2.209 4 4 2.209 4 0 C
S
GR
GS
[0.75 0 0 0.75 73.46913 119.59696] CT
0.671 0.867 0.643 RC
10.0 ML
1.333 LW
N
4 0 M
4 -2.209 2.209 -4 0 -4 C
-2.209 -4 -4 -2.209 -4 0 C
-4 2.209 -2.209 4 0 4 C
2.209 4 4 2.209 4 0 C
S
GR
GS
[0.75 0 0 0.75 72.97326 123.98607] CT
0.671 0.867 0.643 RC
10.0 ML
1.333 LW
N
4 0 M
4 -2.209 2.209 -4 0 -4 C
-2.209 -4 -4 -2.209 -4 0 C
-4 2.209 -2.209 4 0 4 C
2.209 4 4 2.209 4 0 C
S
GR
GS
[0.75 0 0 0.75 72.59052 127.7834] CT
0.671 0.867 0.643 RC
10.0 ML
1.333 LW
N
4 0 M
4 -2.209 2.209 -4 0 -4 C
-2.209 -4 -4 -2.209 -4 0 C
-4 2.209 -2.209 4 0 4 C
2.209 4 4 2.209 4 0 C
S
GR
GS
[0.75 0 0 0.75 72.29257 131.05975] CT
0.671 0.867 0.643 RC
10.0 ML
1.333 LW
N
4 0 M
4 -2.209 2.209 -4 0 -4 C
-2.209 -4 -4 -2.209 -4 0 C
-4 2.209 -2.209 4 0 4 C
2.209 4 4 2.209 4 0 C
S
GR
GS
[0.75 0 0 0.75 72.05816 133.88132] CT
0.671 0.867 0.643 RC
10.0 ML
1.333 LW
N
4 0 M
4 -2.209 2.209 -4 0 -4 C
-2.209 -4 -4 -2.209 -4 0 C
-4 2.209 -2.209 4 0 4 C
2.209 4 4 2.209 4 0 C
S
GR
GS
[0.75 0 0 0.75 71.87149 136.30828] CT
0.671 0.867 0.643 RC
10.0 ML
1.333 LW
N
4 0 M
4 -2.209 2.209 -4 0 -4 C
-2.209 -4 -4 -2.209 -4 0 C
-4 2.209 -2.209 4 0 4 C
2.209 4 4 2.209 4 0 C
S
GR
GS
[0.75 0 0 0.75 71.7209 138.39429] CT
0.671 0.867 0.643 RC
10.0 ML
1.333 LW
N
4 0 M
4 -2.209 2.209 -4 0 -4 C
-2.209 -4 -4 -2.209 -4 0 C
-4 2.209 -2.209 4 0 4 C
2.209 4 4 2.209 4 0 C
S
GR
GS
[0.75 0 0 0.75 71.59769 140.18661] CT
0.671 0.867 0.643 RC
10.0 ML
1.333 LW
N
4 0 M
4 -2.209 2.209 -4 0 -4 C
-2.209 -4 -4 -2.209 -4 0 C
-4 2.209 -2.209 4 0 4 C
2.209 4 4 2.209 4 0 C
S
GR
GS
[0.75 0 0 0.75 71.49548 141.72643] CT
0.671 0.867 0.643 RC
10.0 ML
1.333 LW
N
4 0 M
4 -2.209 2.209 -4 0 -4 C
-2.209 -4 -4 -2.209 -4 0 C
-4 2.209 -2.209 4 0 4 C
2.209 4 4 2.209 4 0 C
S
GR
GS
[0.75 0 0 0.75 71.40953 143.04947] CT
0.671 0.867 0.643 RC
10.0 ML
1.333 LW
N
4 0 M
4 -2.209 2.209 -4 0 -4 C
-2.209 -4 -4 -2.209 -4 0 C
-4 2.209 -2.209 4 0 4 C
2.209 4 4 2.209 4 0 C
S
GR
GS
[0.75 0 0 0.75 71.33629 144.18656] CT
0.671 0.867 0.643 RC
10.0 ML
1.333 LW
N
4 0 M
4 -2.209 2.209 -4 0 -4 C
-2.209 -4 -4 -2.209 -4 0 C
-4 2.209 -2.209 4 0 4 C
2.209 4 4 2.209 4 0 C
S
GR
GS
[0.75 0 0 0.75 71.27309 145.16425] CT
0.671 0.867 0.643 RC
10.0 ML
1.333 LW
N
4 0 M
4 -2.209 2.209 -4 0 -4 C
-2.209 -4 -4 -2.209 -4 0 C
-4 2.209 -2.209 4 0 4 C
2.209 4 4 2.209 4 0 C
S
GR
GS
[0.75 0 0 0.75 71.21799 146.00533] CT
0.671 0.867 0.643 RC
10.0 ML
1.333 LW
N
4 0 M
4 -2.209 2.209 -4 0 -4 C
-2.209 -4 -4 -2.209 -4 0 C
-4 2.209 -2.209 4 0 4 C
2.209 4 4 2.209 4 0 C
S
GR
GS
[0.75 0 0 0.75 71.16948 146.72929] CT
0.671 0.867 0.643 RC
10.0 ML
1.333 LW
N
4 0 M
4 -2.209 2.209 -4 0 -4 C
-2.209 -4 -4 -2.209 -4 0 C
-4 2.209 -2.209 4 0 4 C
2.209 4 4 2.209 4 0 C
S
GR
GS
[0.75 0 0 0.75 71.1264 147.3529] CT
0.671 0.867 0.643 RC
10.0 ML
1.333 LW
N
4 0 M
4 -2.209 2.209 -4 0 -4 C
-2.209 -4 -4 -2.209 -4 0 C
-4 2.209 -2.209 4 0 4 C
2.209 4 4 2.209 4 0 C
S
GR
GS
[0.75 0 0 0.75 71.08788 147.89046] CT
0.671 0.867 0.643 RC
10.0 ML
1.333 LW
N
4 0 M
4 -2.209 2.209 -4 0 -4 C
-2.209 -4 -4 -2.209 -4 0 C
-4 2.209 -2.209 4 0 4 C
2.209 4 4 2.209 4 0 C
S
GR
GS
[0.75 0 0 0.75 71.05324 148.35424] CT
0.671 0.867 0.643 RC
10.0 ML
1.333 LW
N
4 0 M
4 -2.209 2.209 -4 0 -4 C
-2.209 -4 -4 -2.209 -4 0 C
-4 2.209 -2.209 4 0 4 C
2.209 4 4 2.209 4 0 C
S
GR
GS
[0.75 0 0 0.75 71.02188 148.7547] CT
0.671 0.867 0.643 RC
10.0 ML
1.333 LW
N
4 0 M
4 -2.209 2.209 -4 0 -4 C
-2.209 -4 -4 -2.209 -4 0 C
-4 2.209 -2.209 4 0 4 C
2.209 4 4 2.209 4 0 C
S
GR
GS
[0.75 0 0 0.75 70.99346 149.10083] CT
0.671 0.867 0.643 RC
10.0 ML
1.333 LW
N
4 0 M
4 -2.209 2.209 -4 0 -4 C
-2.209 -4 -4 -2.209 -4 0 C
-4 2.209 -2.209 4 0 4 C
2.209 4 4 2.209 4 0 C
S
GR
GS
[0.75 0 0 0.75 70.96757 149.4003] CT
0.671 0.867 0.643 RC
10.0 ML
1.333 LW
N
4 0 M
4 -2.209 2.209 -4 0 -4 C
-2.209 -4 -4 -2.209 -4 0 C
-4 2.209 -2.209 4 0 4 C
2.209 4 4 2.209 4 0 C
S
GR
GS
[0.75 0 0 0.75 70.94392 149.65965] CT
0.671 0.867 0.643 RC
10.0 ML
1.333 LW
N
4 0 M
4 -2.209 2.209 -4 0 -4 C
-2.209 -4 -4 -2.209 -4 0 C
-4 2.209 -2.209 4 0 4 C
2.209 4 4 2.209 4 0 C
S
GR
GS
[0.75 0 0 0.75 70.92228 149.88454] CT
0.671 0.867 0.643 RC
10.0 ML
1.333 LW
N
4 0 M
4 -2.209 2.209 -4 0 -4 C
-2.209 -4 -4 -2.209 -4 0 C
-4 2.209 -2.209 4 0 4 C
2.209 4 4 2.209 4 0 C
S
GR
GS
[0.75 0 0 0.75 70.90245 150.07974] CT
0.671 0.867 0.643 RC
10.0 ML
1.333 LW
N
4 0 M
4 -2.209 2.209 -4 0 -4 C
-2.209 -4 -4 -2.209 -4 0 C
-4 2.209 -2.209 4 0 4 C
2.209 4 4 2.209 4 0 C
S
GR
GS
[0.75 0 0 0.75 70.88426 150.2494] CT
0.671 0.867 0.643 RC
10.0 ML
1.333 LW
N
4 0 M
4 -2.209 2.209 -4 0 -4 C
-2.209 -4 -4 -2.209 -4 0 C
-4 2.209 -2.209 4 0 4 C
2.209 4 4 2.209 4 0 C
S
GR
GS
[0.75 0 0 0.75 203.32745 19.10457] CT
0.671 0.867 0.643 RC
N
f-1057828618
f
GR
GS
[0.75 0 0 0.75 197.68771 22.90612] CT
0.671 0.867 0.643 RC
N
f-1057828618
f
GR
GS
[0.75 0 0 0.75 192.18073 27.48704] CT
0.671 0.867 0.643 RC
N
f-1057828618
f
GR
GS
[0.75 0 0 0.75 186.96125 32.78846] CT
0.671 0.867 0.643 RC
N
f-1057828618
f
GR
GS
[0.75 0 0 0.75 182.173 38.59172] CT
0.671 0.867 0.643 RC
N
f-1057828618
f
GR
GS
[0.75 0 0 0.75 177.88237 44.5772] CT
0.671 0.867 0.643 RC
N
f-1057828618
f
GR
GS
[0.75 0 0 0.75 174.11156 50.38325] CT
0.671 0.867 0.643 RC
N
f-1057828618
f
GR
GS
[0.75 0 0 0.75 170.83829 55.67347] CT
0.671 0.867 0.643 RC
N
f-1057828618
f
GR
GS
[0.75 0 0 0.75 167.99632 60.15907] CT
0.671 0.867 0.643 RC
N
f-1057828618
f
GR
GS
[0.75 0 0 0.75 165.51928 63.61018] CT
0.671 0.867 0.643 RC
N
f-1057828618
f
GR
GS
[0.75 0 0 0.75 163.28548 65.85298] CT
0.671 0.867 0.643 RC
N
f-1057828618
f
GR
GS
[0.75 0 0 0.75 161.19548 66.75291] CT
0.671 0.867 0.643 RC
N
f-1057828618
f
GR
GS
[0.75 0 0 0.75 159.10548 66.24547] CT
0.671 0.867 0.643 RC
N
f-1057828618
f
GR
GS
[0.75 0 0 0.75 156.89383 64.31667] CT
0.671 0.867 0.643 RC
N
f-1057828618
f
GR
GS
[0.75 0 0 0.75 154.40572 61.03657] CT
0.671 0.867 0.643 RC
N
f-1057828618
f
GR
GS
[0.75 0 0 0.75 151.48634 56.57339] CT
0.671 0.867 0.643 RC
N
f-1057828618
f
GR
GS
[0.75 0 0 0.75 147.99192 51.2215] CT
0.671 0.867 0.643 RC
N
f-1057828618
f
GR
GS
[0.75 0 0 0.75 143.77875 45.41545] CT
0.671 0.867 0.643 RC
N
f-1057828618
f
GR
GS
[0.75 0 0 0.75 138.78038 39.73275] CT
0.671 0.867 0.643 RC
N
f-1057828618
f
GR
GS
[0.75 0 0 0.75 132.9859 34.86867] CT
0.671 0.867 0.643 RC
N
f-1057828618
f
GR
GS
[0.75 0 0 0.75 126.51678 31.5353] CT
0.671 0.867 0.643 RC
N
f-1057828618
f
GR
GS
[0.75 0 0 0.75 119.57221 30.34942] CT
0.671 0.867 0.643 RC
N
f-1057828618
f
GR
GS
[0.75 0 0 0.75 112.46177 31.67828] CT
0.671 0.867 0.643 RC
N
f-1057828618
f
GR
GS
[0.75 0 0 0.75 105.52824 35.56954] CT
0.671 0.867 0.643 RC
N
f-1057828618
f
GR
GS
[0.75 0 0 0.75 99.08128 41.73164] CT
0.671 0.867 0.643 RC
N
f-1057828618
f
GR
GS
[0.75 0 0 0.75 93.3531 49.63752] CT
0.671 0.867 0.643 RC
N
f-1057828618
f
GR
GS
[0.75 0 0 0.75 88.46535 58.64237] CT
0.671 0.867 0.643 RC
N
f-1057828618
f
GR
GS
[0.75 0 0 0.75 84.44013 68.12662] CT
0.671 0.867 0.643 RC
N
f-1057828618
f
GR
GS
[0.75 0 0 0.75 81.21111 77.57162] CT
0.671 0.867 0.643 RC
N
f-1057828618
f
GR
GS
[0.75 0 0 0.75 78.67879 86.5961] CT
0.671 0.867 0.643 RC
N
f-1057828618
f
GR
GS
[0.75 0 0 0.75 76.74358 94.96175] CT
0.671 0.867 0.643 RC
N
f-1057828618
f
GR
GS
[0.75 0 0 0.75 75.28391 102.54243] CT
0.671 0.867 0.643 RC
N
f-1057828618
f
GR
GS
[0.75 0 0 0.75 74.17809 109.29887] CT
0.671 0.867 0.643 RC
N
f-1057828618
f
GR
GS
[0.75 0 0 0.75 73.37082 115.2423] CT
0.671 0.867 0.643 RC
N
f-1057828618
f
GR
GS
[0.75 0 0 0.75 72.77368 120.42878] CT
0.671 0.867 0.643 RC
N
f-1057828618
f
GR
GS
[0.75 0 0 0.75 72.33135 124.92196] CT
0.671 0.867 0.643 RC
N
f-1057828618
f
GR
GS
[0.75 0 0 0.75 72.01065 128.79611] CT
0.671 0.867 0.643 RC
N
f-1057828618
f
GR
GS
[0.75 0 0 0.75 71.76738 132.12471] CT
0.671 0.867 0.643 RC
N
f-1057828618
f
GR
GS
[0.75 0 0 0.75 71.60149 134.97727] CT
0.671 0.867 0.643 RC
N
f-1057828618
f
GR
GS
[0.75 0 0 0.75 71.47987 137.41744] CT
0.671 0.867 0.643 RC
N
f-1057828618
f
GR
GS
[0.75 0 0 0.75 71.39139 139.50157] CT
0.671 0.867 0.643 RC
N
f-1057828618
f
GR
GS
[0.75 0 0 0.75 71.32506 141.28011] CT
0.671 0.867 0.643 RC
N
f-1057828618
f
GR
GS
[0.75 0 0 0.75 71.26974 142.79709] CT
0.671 0.867 0.643 RC
N
f-1057828618
f
GR
GS
[0.75 0 0 0.75 71.23658 144.08978] CT
0.671 0.867 0.643 RC
N
f-1057828618
f
GR
GS
[0.75 0 0 0.75 71.21445 145.191] CT
0.671 0.867 0.643 RC
N
f-1057828618
f
GR
GS
[0.75 0 0 0.75 71.19233 146.12905] CT
0.671 0.867 0.643 RC
N
f-1057828618
f
GR
GS
[0.75 0 0 0.75 71.18129 146.92805] CT
0.671 0.867 0.643 RC
N
f-1057828618
f
GR
GS
[0.75 0 0 0.75 71.17024 147.60817] CT
0.671 0.867 0.643 RC
N
f-1057828618
f
GR
GS
[0.75 0 0 0.75 71.17024 148.1871] CT
0.671 0.867 0.643 RC
N
f-1057828618
f
GR
GS
[0.75 0 0 0.75 71.15917 148.68023] CT
0.671 0.867 0.643 RC
N
f-1057828618
f
GR
GS
[0.75 0 0 0.75 71.15917 149.09989] CT
0.671 0.867 0.643 RC
N
f-1057828618
f
GR
GS
[0.75 0 0 0.75 71.15917 149.45712] CT
0.671 0.867 0.643 RC
N
f-1057828618
f
GR
GS
[0.75 0 0 0.75 71.15917 149.76118] CT
0.671 0.867 0.643 RC
N
f-1057828618
f
GR
GS
[0.75 0 0 0.75 71.14812 150.02] CT
0.671 0.867 0.643 RC
N
f-1057828618
f
GR
GS
[0.75 0 0 0.75 71.14812 150.2403] CT
0.671 0.867 0.643 RC
N
f-1057828618
f
GR
GS
[0.75 0 0 0.75 71.14812 150.42783] CT
0.671 0.867 0.643 RC
N
f-1057828618
f
GR
GS
[0.75 0 0 0.75 71.14812 150.58744] CT
0.671 0.867 0.643 RC
N
f-1057828618
f
GR
GS
[0.75 0 0 0.75 71.14812 150.72327] CT
0.671 0.867 0.643 RC
N
f-1057828618
f
GR
GS
[0.75 0 0 0.75 219.05782 19.3913] CT
0.996 0.878 0.545 RC
10.0 ML
1.333 LW
N
4 0 M
4 -2.209 2.209 -4 0 -4 C
-2.209 -4 -4 -2.209 -4 0 C
-4 2.209 -2.209 4 0 4 C
2.209 4 4 2.209 4 0 C
S
GR
GS
[0.75 0 0 0.75 215.55608 26.69915] CT
0.996 0.878 0.545 RC
10.0 ML
1.333 LW
N
4 0 M
4 -2.209 2.209 -4 0 -4 C
-2.209 -4 -4 -2.209 -4 0 C
-4 2.209 -2.209 4 0 4 C
2.209 4 4 2.209 4 0 C
S
GR
GS
[0.75 0 0 0.75 212.17536 32.723] CT
0.996 0.878 0.545 RC
10.0 ML
1.333 LW
N
4 0 M
4 -2.209 2.209 -4 0 -4 C
-2.209 -4 -4 -2.209 -4 0 C
-4 2.209 -2.209 4 0 4 C
2.209 4 4 2.209 4 0 C
S
GR
GS
[0.75 0 0 0.75 208.85555 37.55251] CT
0.996 0.878 0.545 RC
10.0 ML
1.333 LW
N
4 0 M
4 -2.209 2.209 -4 0 -4 C
-2.209 -4 -4 -2.209 -4 0 C
-4 2.209 -2.209 4 0 4 C
2.209 4 4 2.209 4 0 C
S
GR
GS
[0.75 0 0 0.75 205.53202 41.29544] CT
0.996 0.878 0.545 RC
10.0 ML
1.333 LW
N
4 0 M
4 -2.209 2.209 -4 0 -4 C
-2.209 -4 -4 -2.209 -4 0 C
-4 2.209 -2.209 4 0 4 C
2.209 4 4 2.209 4 0 C
S
GR
GS
[0.75 0 0 0.75 202.13844 44.09066] CT
0.996 0.878 0.545 RC
10.0 ML
1.333 LW
N
4 0 M
4 -2.209 2.209 -4 0 -4 C
-2.209 -4 -4 -2.209 -4 0 C
-4 2.209 -2.209 4 0 4 C
2.209 4 4 2.209 4 0 C
S
GR
GS
[0.75 0 0 0.75 198.61192 46.12086] CT
0.996 0.878 0.545 RC
10.0 ML
1.333 LW
N
4 0 M
4 -2.209 2.209 -4 0 -4 C
-2.209 -4 -4 -2.209 -4 0 C
-4 2.209 -2.209 4 0 4 C
2.209 4 4 2.209 4 0 C
S
GR
GS
[0.75 0 0 0.75 194.90222 47.62087] CT
0.996 0.878 0.545 RC
10.0 ML
1.333 LW
N
4 0 M
4 -2.209 2.209 -4 0 -4 C
-2.209 -4 -4 -2.209 -4 0 C
-4 2.209 -2.209 4 0 4 C
2.209 4 4 2.209 4 0 C
S
GR
GS
[0.75 0 0 0.75 190.98406 48.87443] CT
0.996 0.878 0.545 RC
10.0 ML
1.333 LW
N
4 0 M
4 -2.209 2.209 -4 0 -4 C
-2.209 -4 -4 -2.209 -4 0 C
-4 2.209 -2.209 4 0 4 C
2.209 4 4 2.209 4 0 C
S
GR
GS
[0.75 0 0 0.75 186.87067 50.19151] CT
0.996 0.878 0.545 RC
10.0 ML
1.333 LW
N
4 0 M
4 -2.209 2.209 -4 0 -4 C
-2.209 -4 -4 -2.209 -4 0 C
-4 2.209 -2.209 4 0 4 C
2.209 4 4 2.209 4 0 C
S
GR
GS
[0.75 0 0 0.75 182.62216 51.86292] CT
0.996 0.878 0.545 RC
10.0 ML
1.333 LW
N
4 0 M
4 -2.209 2.209 -4 0 -4 C
-2.209 -4 -4 -2.209 -4 0 C
-4 2.209 -2.209 4 0 4 C
2.209 4 4 2.209 4 0 C
S
GR
GS
[0.75 0 0 0.75 178.34387 54.09984] CT
0.996 0.878 0.545 RC
10.0 ML
1.333 LW
N
4 0 M
4 -2.209 2.209 -4 0 -4 C
-2.209 -4 -4 -2.209 -4 0 C
-4 2.209 -2.209 4 0 4 C
2.209 4 4 2.209 4 0 C
S
GR
GS
[0.75 0 0 0.75 174.16945 56.97907] CT
0.996 0.878 0.545 RC
10.0 ML
1.333 LW
N
4 0 M
4 -2.209 2.209 -4 0 -4 C
-2.209 -4 -4 -2.209 -4 0 C
-4 2.209 -2.209 4 0 4 C
2.209 4 4 2.209 4 0 C
S
GR
GS
[0.75 0 0 0.75 170.23302 60.41852] CT
0.996 0.878 0.545 RC
10.0 ML
1.333 LW
N
4 0 M
4 -2.209 2.209 -4 0 -4 C
-2.209 -4 -4 -2.209 -4 0 C
-4 2.209 -2.209 4 0 4 C
2.209 4 4 2.209 4 0 C
S
GR
GS
[0.75 0 0 0.75 166.64032 64.19597] CT
0.996 0.878 0.545 RC
10.0 ML
1.333 LW
N
4 0 M
4 -2.209 2.209 -4 0 -4 C
-2.209 -4 -4 -2.209 -4 0 C
-4 2.209 -2.209 4 0 4 C
2.209 4 4 2.209 4 0 C
S
GR
GS
[0.75 0 0 0.75 163.44915 68.00228] CT
0.996 0.878 0.545 RC
10.0 ML
1.333 LW
N
4 0 M
4 -2.209 2.209 -4 0 -4 C
-2.209 -4 -4 -2.209 -4 0 C
-4 2.209 -2.209 4 0 4 C
2.209 4 4 2.209 4 0 C
S
GR
GS
[0.75 0 0 0.75 160.66518 71.50504] CT
0.996 0.878 0.545 RC
10.0 ML
1.333 LW
N
4 0 M
4 -2.209 2.209 -4 0 -4 C
-2.209 -4 -4 -2.209 -4 0 C
-4 2.209 -2.209 4 0 4 C
2.209 4 4 2.209 4 0 C
S
GR
GS
[0.75 0 0 0.75 158.24889 74.39971] CT
0.996 0.878 0.545 RC
10.0 ML
1.333 LW
N
4 0 M
4 -2.209 2.209 -4 0 -4 C
-2.209 -4 -4 -2.209 -4 0 C
-4 2.209 -2.209 4 0 4 C
2.209 4 4 2.209 4 0 C
S
GR
GS
[0.75 0 0 0.75 156.12904 76.43764] CT
0.996 0.878 0.545 RC
10.0 ML
1.333 LW
N
4 0 M
4 -2.209 2.209 -4 0 -4 C
-2.209 -4 -4 -2.209 -4 0 C
-4 2.209 -2.209 4 0 4 C
2.209 4 4 2.209 4 0 C
S
GR
GS
[0.75 0 0 0.75 154.21431 77.43348] CT
0.996 0.878 0.545 RC
10.0 ML
1.333 LW
N
4 0 M
4 -2.209 2.209 -4 0 -4 C
-2.209 -4 -4 -2.209 -4 0 C
-4 2.209 -2.209 4 0 4 C
2.209 4 4 2.209 4 0 C
S
GR
GS
[0.75 0 0 0.75 152.40199 77.26089] CT
0.996 0.878 0.545 RC
10.0 ML
1.333 LW
N
4 0 M
4 -2.209 2.209 -4 0 -4 C
-2.209 -4 -4 -2.209 -4 0 C
-4 2.209 -2.209 4 0 4 C
2.209 4 4 2.209 4 0 C
S
GR
GS
[0.75 0 0 0.75 150.58102 75.84577] CT
0.996 0.878 0.545 RC
10.0 ML
1.333 LW
N
4 0 M
4 -2.209 2.209 -4 0 -4 C
-2.209 -4 -4 -2.209 -4 0 C
-4 2.209 -2.209 4 0 4 C
2.209 4 4 2.209 4 0 C
S
GR
GS
[0.75 0 0 0.75 148.63275 73.1641] CT
0.996 0.878 0.545 RC
10.0 ML
1.333 LW
N
4 0 M
4 -2.209 2.209 -4 0 -4 C
-2.209 -4 -4 -2.209 -4 0 C
-4 2.209 -2.209 4 0 4 C
2.209 4 4 2.209 4 0 C
S
GR
GS
[0.75 0 0 0.75 146.4298 69.24822] CT
0.996 0.878 0.545 RC
10.0 ML
1.333 LW
N
4 0 M
4 -2.209 2.209 -4 0 -4 C
-2.209 -4 -4 -2.209 -4 0 C
-4 2.209 -2.209 4 0 4 C
2.209 4 4 2.209 4 0 C
S
GR
GS
[0.75 0 0 0.75 143.83628 64.20295] CT
0.996 0.878 0.545 RC
10.0 ML
1.333 LW
N
4 0 M
4 -2.209 2.209 -4 0 -4 C
-2.209 -4 -4 -2.209 -4 0 C
-4 2.209 -2.209 4 0 4 C
2.209 4 4 2.209 4 0 C
S
GR
GS
[0.75 0 0 0.75 140.71199 58.23038] CT
0.996 0.878 0.545 RC
10.0 ML
1.333 LW
N
4 0 M
4 -2.209 2.209 -4 0 -4 C
-2.209 -4 -4 -2.209 -4 0 C
-4 2.209 -2.209 4 0 4 C
2.209 4 4 2.209 4 0 C
S
GR
GS
[0.75 0 0 0.75 136.92366 51.65769] CT
0.996 0.878 0.545 RC
10.0 ML
1.333 LW
N
4 0 M
4 -2.209 2.209 -4 0 -4 C
-2.209 -4 -4 -2.209 -4 0 C
-4 2.209 -2.209 4 0 4 C
2.209 4 4 2.209 4 0 C
S
GR
GS
[0.75 0 0 0.75 132.36552 44.9566] CT
0.996 0.878 0.545 RC
10.0 ML
1.333 LW
N
4 0 M
4 -2.209 2.209 -4 0 -4 C
-2.209 -4 -4 -2.209 -4 0 C
-4 2.209 -2.209 4 0 4 C
2.209 4 4 2.209 4 0 C
S
GR
GS
[0.75 0 0 0.75 126.98792 38.73719] CT
0.996 0.878 0.545 RC
10.0 ML
1.333 LW
N
4 0 M
4 -2.209 2.209 -4 0 -4 C
-2.209 -4 -4 -2.209 -4 0 C
-4 2.209 -2.209 4 0 4 C
2.209 4 4 2.209 4 0 C
S
GR
GS
[0.75 0 0 0.75 120.8291 33.69727] CT
0.996 0.878 0.545 RC
10.0 ML
1.333 LW
N
4 0 M
4 -2.209 2.209 -4 0 -4 C
-2.209 -4 -4 -2.209 -4 0 C
-4 2.209 -2.209 4 0 4 C
2.209 4 4 2.209 4 0 C
S
GR
GS
[0.75 0 0 0.75 114.03672 30.51997] CT
0.996 0.878 0.545 RC
10.0 ML
1.333 LW
N
4 0 M
4 -2.209 2.209 -4 0 -4 C
-2.209 -4 -4 -2.209 -4 0 C
-4 2.209 -2.209 4 0 4 C
2.209 4 4 2.209 4 0 C
S
GR
GS
[0.75 0 0 0.75 106.86539 29.73681] CT
0.996 0.878 0.545 RC
10.0 ML
1.333 LW
N
4 0 M
4 -2.209 2.209 -4 0 -4 C
-2.209 -4 -4 -2.209 -4 0 C
-4 2.209 -2.209 4 0 4 C
2.209 4 4 2.209 4 0 C
S
GR
GS
[0.75 0 0 0.75 99.64178 31.60196] CT
0.996 0.878 0.545 RC
10.0 ML
1.333 LW
N
4 0 M
4 -2.209 2.209 -4 0 -4 C
-2.209 -4 -4 -2.209 -4 0 C
-4 2.209 -2.209 4 0 4 C
2.209 4 4 2.209 4 0 C
S
GR
GS
[0.75 0 0 0.75 92.70523 36.03135] CT
0.996 0.878 0.545 RC
10.0 ML
1.333 LW
N
4 0 M
4 -2.209 2.209 -4 0 -4 C
-2.209 -4 -4 -2.209 -4 0 C
-4 2.209 -2.209 4 0 4 C
2.209 4 4 2.209 4 0 C
S
GR
GS
[0.75 0 0 0.75 86.3444 42.63461] CT
0.996 0.878 0.545 RC
10.0 ML
1.333 LW
N
4 0 M
4 -2.209 2.209 -4 0 -4 C
-2.209 -4 -4 -2.209 -4 0 C
-4 2.209 -2.209 4 0 4 C
2.209 4 4 2.209 4 0 C
S
GR
GS
[0.75 0 0 0.75 80.75366 50.82287] CT
0.996 0.878 0.545 RC
10.0 ML
1.333 LW
N
4 0 M
4 -2.209 2.209 -4 0 -4 C
-2.209 -4 -4 -2.209 -4 0 C
-4 2.209 -2.209 4 0 4 C
2.209 4 4 2.209 4 0 C
S
GR
GS
[0.75 0 0 0.75 76.01983 59.94429] CT
0.996 0.878 0.545 RC
10.0 ML
1.333 LW
N
4 0 M
4 -2.209 2.209 -4 0 -4 C
-2.209 -4 -4 -2.209 -4 0 C
-4 2.209 -2.209 4 0 4 C
2.209 4 4 2.209 4 0 C
S
GR
GS
[0.75 0 0 0.75 72.13628 69.39892] CT
0.996 0.878 0.545 RC
10.0 ML
1.333 LW
N
4 0 M
4 -2.209 2.209 -4 0 -4 C
-2.209 -4 -4 -2.209 -4 0 C
-4 2.209 -2.209 4 0 4 C
2.209 4 4 2.209 4 0 C
S
GR
GS
[0.75 0 0 0.75 69.03123 78.70732] CT
0.996 0.878 0.545 RC
10.0 ML
1.333 LW
N
4 0 M
4 -2.209 2.209 -4 0 -4 C
-2.209 -4 -4 -2.209 -4 0 C
-4 2.209 -2.209 4 0 4 C
2.209 4 4 2.209 4 0 C
S
GR
GS
[0.75 0 0 0.75 66.59817 87.53271] CT
0.996 0.878 0.545 RC
10.0 ML
1.333 LW
N
4 0 M
4 -2.209 2.209 -4 0 -4 C
-2.209 -4 -4 -2.209 -4 0 C
-4 2.209 -2.209 4 0 4 C
2.209 4 4 2.209 4 0 C
S
GR
GS
[0.75 0 0 0.75 64.7203 95.67033] CT
0.996 0.878 0.545 RC
10.0 ML
1.333 LW
N
4 0 M
4 -2.209 2.209 -4 0 -4 C
-2.209 -4 -4 -2.209 -4 0 C
-4 2.209 -2.209 4 0 4 C
2.209 4 4 2.209 4 0 C
S
GR
GS
[0.75 0 0 0.75 63.28628 103.02097] CT
0.996 0.878 0.545 RC
10.0 ML
1.333 LW
N
4 0 M
4 -2.209 2.209 -4 0 -4 C
-2.209 -4 -4 -2.209 -4 0 C
-4 2.209 -2.209 4 0 4 C
2.209 4 4 2.209 4 0 C
S
GR
GS
[0.75 0 0 0.75 62.19872 109.56089] CT
0.996 0.878 0.545 RC
10.0 ML
1.333 LW
N
4 0 M
4 -2.209 2.209 -4 0 -4 C
-2.209 -4 -4 -2.209 -4 0 C
-4 2.209 -2.209 4 0 4 C
2.209 4 4 2.209 4 0 C
S
GR
GS
[0.75 0 0 0.75 61.37683 115.31527] CT
0.996 0.878 0.545 RC
10.0 ML
1.333 LW
N
4 0 M
4 -2.209 2.209 -4 0 -4 C
-2.209 -4 -4 -2.209 -4 0 C
-4 2.209 -2.209 4 0 4 C
2.209 4 4 2.209 4 0 C
S
GR
GS
[0.75 0 0 0.75 60.75615 120.33772] CT
0.996 0.878 0.545 RC
10.0 ML
1.333 LW
N
4 0 M
4 -2.209 2.209 -4 0 -4 C
-2.209 -4 -4 -2.209 -4 0 C
-4 2.209 -2.209 4 0 4 C
2.209 4 4 2.209 4 0 C
S
GR
GS
[0.75 0 0 0.75 60.28653 124.6958] CT
0.996 0.878 0.545 RC
10.0 ML
1.333 LW
N
4 0 M
4 -2.209 2.209 -4 0 -4 C
-2.209 -4 -4 -2.209 -4 0 C
-4 2.209 -2.209 4 0 4 C
2.209 4 4 2.209 4 0 C
S
GR
GS
[0.75 0 0 0.75 59.92978 128.46159] CT
0.996 0.878 0.545 RC
10.0 ML
1.333 LW
N
4 0 M
4 -2.209 2.209 -4 0 -4 C
-2.209 -4 -4 -2.209 -4 0 C
-4 2.209 -2.209 4 0 4 C
2.209 4 4 2.209 4 0 C
S
GR
GS
[0.75 0 0 0.75 59.65704 131.70594] CT
0.996 0.878 0.545 RC
10.0 ML
1.333 LW
N
4 0 M
4 -2.209 2.209 -4 0 -4 C
-2.209 -4 -4 -2.209 -4 0 C
-4 2.209 -2.209 4 0 4 C
2.209 4 4 2.209 4 0 C
S
GR
GS
[0.75 0 0 0.75 59.44683 134.49532] CT
0.996 0.878 0.545 RC
10.0 ML
1.333 LW
N
4 0 M
4 -2.209 2.209 -4 0 -4 C
-2.209 -4 -4 -2.209 -4 0 C
-4 2.209 -2.209 4 0 4 C
2.209 4 4 2.209 4 0 C
S
GR
GS
[0.75 0 0 0.75 59.28319 136.89013] CT
0.996 0.878 0.545 RC
10.0 ML
1.333 LW
N
4 0 M
4 -2.209 2.209 -4 0 -4 C
-2.209 -4 -4 -2.209 -4 0 C
-4 2.209 -2.209 4 0 4 C
2.209 4 4 2.209 4 0 C
S
GR
GS
[0.75 0 0 0.75 59.15432 138.94432] CT
0.996 0.878 0.545 RC
10.0 ML
1.333 LW
N
4 0 M
4 -2.209 2.209 -4 0 -4 C
-2.209 -4 -4 -2.209 -4 0 C
-4 2.209 -2.209 4 0 4 C
2.209 4 4 2.209 4 0 C
S
GR
GS
[0.75 0 0 0.75 59.05154 140.70537] CT
0.996 0.878 0.545 RC
10.0 ML
1.333 LW
N
4 0 M
4 -2.209 2.209 -4 0 -4 C
-2.209 -4 -4 -2.209 -4 0 C
-4 2.209 -2.209 4 0 4 C
2.209 4 4 2.209 4 0 C
S
GR
GS
[0.75 0 0 0.75 58.96842 142.2147] CT
0.996 0.878 0.545 RC
10.0 ML
1.333 LW
N
4 0 M
4 -2.209 2.209 -4 0 -4 C
-2.209 -4 -4 -2.209 -4 0 C
-4 2.209 -2.209 4 0 4 C
2.209 4 4 2.209 4 0 C
S
GR
GS
[0.75 0 0 0.75 58.90026 143.50819] CT
0.996 0.878 0.545 RC
10.0 ML
1.333 LW
N
4 0 M
4 -2.209 2.209 -4 0 -4 C
-2.209 -4 -4 -2.209 -4 0 C
-4 2.209 -2.209 4 0 4 C
2.209 4 4 2.209 4 0 C
S
GR
GS
[0.75 0 0 0.75 58.84355 144.61681] CT
0.996 0.878 0.545 RC
10.0 ML
1.333 LW
N
4 0 M
4 -2.209 2.209 -4 0 -4 C
-2.209 -4 -4 -2.209 -4 0 C
-4 2.209 -2.209 4 0 4 C
2.209 4 4 2.209 4 0 C
S
GR
GS
[0.75 0 0 0.75 58.79573 145.56718] CT
0.996 0.878 0.545 RC
10.0 ML
1.333 LW
N
4 0 M
4 -2.209 2.209 -4 0 -4 C
-2.209 -4 -4 -2.209 -4 0 C
-4 2.209 -2.209 4 0 4 C
2.209 4 4 2.209 4 0 C
S
GR
GS
[0.75 0 0 0.75 58.75489 146.38214] CT
0.996 0.878 0.545 RC
10.0 ML
1.333 LW
N
4 0 M
4 -2.209 2.209 -4 0 -4 C
-2.209 -4 -4 -2.209 -4 0 C
-4 2.209 -2.209 4 0 4 C
2.209 4 4 2.209 4 0 C
S
GR
GS
[0.75 0 0 0.75 58.71955 147.08129] CT
0.996 0.878 0.545 RC
10.0 ML
1.333 LW
N
4 0 M
4 -2.209 2.209 -4 0 -4 C
-2.209 -4 -4 -2.209 -4 0 C
-4 2.209 -2.209 4 0 4 C
2.209 4 4 2.209 4 0 C
S
GR
GS
[0.75 0 0 0.75 58.68868 147.68132] CT
0.996 0.878 0.545 RC
10.0 ML
1.333 LW
N
4 0 M
4 -2.209 2.209 -4 0 -4 C
-2.209 -4 -4 -2.209 -4 0 C
-4 2.209 -2.209 4 0 4 C
2.209 4 4 2.209 4 0 C
S
GR
GS
[0.75 0 0 0.75 58.66142 148.19661] CT
0.996 0.878 0.545 RC
10.0 ML
1.333 LW
N
4 0 M
4 -2.209 2.209 -4 0 -4 C
-2.209 -4 -4 -2.209 -4 0 C
-4 2.209 -2.209 4 0 4 C
2.209 4 4 2.209 4 0 C
S
GR
GS
[0.75 0 0 0.75 58.63722 148.63934] CT
0.996 0.878 0.545 RC
10.0 ML
1.333 LW
N
4 0 M
4 -2.209 2.209 -4 0 -4 C
-2.209 -4 -4 -2.209 -4 0 C
-4 2.209 -2.209 4 0 4 C
2.209 4 4 2.209 4 0 C
S
GR
GS
[0.75 0 0 0.75 58.61552 149.02001] CT
0.996 0.878 0.545 RC
10.0 ML
1.333 LW
N
4 0 M
4 -2.209 2.209 -4 0 -4 C
-2.209 -4 -4 -2.209 -4 0 C
-4 2.209 -2.209 4 0 4 C
2.209 4 4 2.209 4 0 C
S
GR
GS
[0.75 0 0 0.75 58.59599 149.34753] CT
0.996 0.878 0.545 RC
10.0 ML
1.333 LW
N
4 0 M
4 -2.209 2.209 -4 0 -4 C
-2.209 -4 -4 -2.209 -4 0 C
-4 2.209 -2.209 4 0 4 C
2.209 4 4 2.209 4 0 C
S
GR
GS
[0.75 0 0 0.75 58.57829 149.62953] CT
0.996 0.878 0.545 RC
10.0 ML
1.333 LW
N
4 0 M
4 -2.209 2.209 -4 0 -4 C
-2.209 -4 -4 -2.209 -4 0 C
-4 2.209 -2.209 4 0 4 C
2.209 4 4 2.209 4 0 C
S
GR
GS
[0.75 0 0 0.75 58.56224 149.87254] CT
0.996 0.878 0.545 RC
10.0 ML
1.333 LW
N
4 0 M
4 -2.209 2.209 -4 0 -4 C
-2.209 -4 -4 -2.209 -4 0 C
-4 2.209 -2.209 4 0 4 C
2.209 4 4 2.209 4 0 C
S
GR
GS
[0.75 0 0 0.75 58.54761 150.08212] CT
0.996 0.878 0.545 RC
10.0 ML
1.333 LW
N
4 0 M
4 -2.209 2.209 -4 0 -4 C
-2.209 -4 -4 -2.209 -4 0 C
-4 2.209 -2.209 4 0 4 C
2.209 4 4 2.209 4 0 C
S
GR
GS
[0.75 0 0 0.75 58.53424 150.26304] CT
0.996 0.878 0.545 RC
10.0 ML
1.333 LW
N
4 0 M
4 -2.209 2.209 -4 0 -4 C
-2.209 -4 -4 -2.209 -4 0 C
-4 2.209 -2.209 4 0 4 C
2.209 4 4 2.209 4 0 C
S
GR
GS
[0.75 0 0 0.75 58.52198 150.41937] CT
0.996 0.878 0.545 RC
10.0 ML
1.333 LW
N
4 0 M
4 -2.209 2.209 -4 0 -4 C
-2.209 -4 -4 -2.209 -4 0 C
-4 2.209 -2.209 4 0 4 C
2.209 4 4 2.209 4 0 C
S
GR
GS
[0.75 0 0 0.75 219.12968 19.24755] CT
0.996 0.878 0.545 RC
N
f-1057828618
f
GR
GS
[0.75 0 0 0.75 215.64635 26.50581] CT
0.996 0.878 0.545 RC
N
f-1057828618
f
GR
GS
[0.75 0 0 0.75 212.28461 32.45485] CT
0.996 0.878 0.545 RC
N
f-1057828618
f
GR
GS
[0.75 0 0 0.75 208.97825 37.18716] CT
0.996 0.878 0.545 RC
N
f-1057828618
f
GR
GS
[0.75 0 0 0.75 205.67182 40.80649] CT
0.996 0.878 0.545 RC
N
f-1057828618
f
GR
GS
[0.75 0 0 0.75 202.28799 43.44739] CT
0.996 0.878 0.545 RC
N
f-1057828618
f
GR
GS
[0.75 0 0 0.75 198.77142 45.28649] CT
0.996 0.878 0.545 RC
N
f-1057828618
f
GR
GS
[0.75 0 0 0.75 195.05587 46.54526] CT
0.996 0.878 0.545 RC
N
f-1057828618
f
GR
GS
[0.75 0 0 0.75 191.11916 47.50405] CT
0.996 0.878 0.545 RC
N
f-1057828618
f
GR
GS
[0.75 0 0 0.75 186.96125 48.47687] CT
0.996 0.878 0.545 RC
N
f-1057828618
f
GR
GS
[0.75 0 0 0.75 182.62638 49.76649] CT
0.996 0.878 0.545 RC
N
f-1057828618
f
GR
GS
[0.75 0 0 0.75 178.21416 51.6224] CT
0.996 0.878 0.545 RC
N
f-1057828618
f
GR
GS
[0.75 0 0 0.75 173.84612 54.16798] CT
0.996 0.878 0.545 RC
N
f-1057828618
f
GR
GS
[0.75 0 0 0.75 169.67719 57.36958] CT
0.996 0.878 0.545 RC
N
f-1057828618
f
GR
GS
[0.75 0 0 0.75 165.80676 61.05619] CT
0.996 0.878 0.545 RC
N
f-1057828618
f
GR
GS
[0.75 0 0 0.75 162.32343 64.94745] CT
0.996 0.878 0.545 RC
N
f-1057828618
f
GR
GS
[0.75 0 0 0.75 159.2603 68.71816] CT
0.996 0.878 0.545 RC
N
f-1057828618
f
GR
GS
[0.75 0 0 0.75 156.5842 72.05994] CT
0.996 0.878 0.545 RC
N
f-1057828618
f
GR
GS
[0.75 0 0 0.75 154.25091 74.70645] CT
0.996 0.878 0.545 RC
N
f-1057828618
f
GR
GS
[0.75 0 0 0.75 152.19407 76.4306] CT
0.996 0.878 0.545 RC
N
f-1057828618
f
GR
GS
[0.75 0 0 0.75 150.30312 77.06699] CT
0.996 0.878 0.545 RC
N
f-1057828618
f
GR
GS
[0.75 0 0 0.75 148.48953 76.49508] CT
0.996 0.878 0.545 RC
N
f-1057828618
f
GR
GS
[0.75 0 0 0.75 146.62073 74.64477] CT
0.996 0.878 0.545 RC
N
f-1057828618
f
GR
GS
[0.75 0 0 0.75 144.57492 71.50204] CT
0.996 0.878 0.545 RC
N
f-1057828618
f
GR
GS
[0.75 0 0 0.75 142.21953 67.13698] CT
0.996 0.878 0.545 RC
N
f-1057828618
f
GR
GS
[0.75 0 0 0.75 139.38863 61.7066] CT
0.996 0.878 0.545 RC
N
f-1057828618
f
GR
GS
[0.75 0 0 0.75 135.94947 55.48844] CT
0.996 0.878 0.545 RC
N
f-1057828618
f
GR
GS
[0.75 0 0 0.75 131.78055 48.91422] CT
0.996 0.878 0.545 RC
N
f-1057828618
f
GR
GS
[0.75 0 0 0.75 126.80433 42.55027] CT
0.996 0.878 0.545 RC
N
f-1057828618
f
GR
GS
[0.75 0 0 0.75 121.00978 37.07783] CT
0.996 0.878 0.545 RC
N
f-1057828618
f
GR
GS
[0.75 0 0 0.75 114.5186 33.20899] CT
0.996 0.878 0.545 RC
N
f-1057828618
f
GR
GS
[0.75 0 0 0.75 107.54083 31.55493] CT
0.996 0.878 0.545 RC
N
f-1057828618
f
GR
GS
[0.75 0 0 0.75 100.38615 32.48289] CT
0.996 0.878 0.545 RC
N
f-1057828618
f
GR
GS
[0.75 0 0 0.75 93.39733 36.04053] CT
0.996 0.878 0.545 RC
N
f-1057828618
f
GR
GS
[0.75 0 0 0.75 86.89508 41.9391] CT
0.996 0.878 0.545 RC
N
f-1057828618
f
GR
GS
[0.75 0 0 0.75 81.10054 49.64593] CT
0.996 0.878 0.545 RC
N
f-1057828618
f
GR
GS
[0.75 0 0 0.75 76.13539 58.51622] CT
0.996 0.878 0.545 RC
N
f-1057828618
f
GR
GS
[0.75 0 0 0.75 72.04384 67.91356] CT
0.996 0.878 0.545 RC
N
f-1057828618
f
GR
GS
[0.75 0 0 0.75 68.75954 77.3109] CT
0.996 0.878 0.545 RC
N
f-1057828618
f
GR
GS
[0.75 0 0 0.75 66.18295 86.32136] CT
0.996 0.878 0.545 RC
N
f-1057828618
f
GR
GS
[0.75 0 0 0.75 64.21459 94.68982] CT
0.996 0.878 0.545 RC
N
f-1057828618
f
GR
GS
[0.75 0 0 0.75 62.71065 102.2845] CT
0.996 0.878 0.545 RC
N
f-1057828618
f
GR
GS
[0.75 0 0 0.75 61.59378 109.06057] CT
0.996 0.878 0.545 RC
N
f-1057828618
f
GR
GS
[0.75 0 0 0.75 60.76442 115.02922] CT
0.996 0.878 0.545 RC
N
f-1057828618
f
GR
GS
[0.75 0 0 0.75 60.15621 120.24094] CT
0.996 0.878 0.545 RC
N
f-1057828618
f
GR
GS
[0.75 0 0 0.75 59.70281 124.75766] CT
0.996 0.878 0.545 RC
N
f-1057828618
f
GR
GS
[0.75 0 0 0.75 59.37106 128.65369] CT
0.996 0.878 0.545 RC
N
f-1057828618
f
GR
GS
[0.75 0 0 0.75 59.13884 132.00164] CT
0.996 0.878 0.545 RC
N
f-1057828618
f
GR
GS
[0.75 0 0 0.75 58.96191 134.87159] CT
0.996 0.878 0.545 RC
N
f-1057828618
f
GR
GS
[0.75 0 0 0.75 58.82921 137.32661] CT
0.996 0.878 0.545 RC
N
f-1057828618
f
GR
GS
[0.75 0 0 0.75 58.74076 139.42391] CT
0.996 0.878 0.545 RC
N
f-1057828618
f
GR
GS
[0.75 0 0 0.75 58.6744 141.21395] CT
0.996 0.878 0.545 RC
N
f-1057828618
f
GR
GS
[0.75 0 0 0.75 58.6191 142.74045] CT
0.996 0.878 0.545 RC
N
f-1057828618
f
GR
GS
[0.75 0 0 0.75 58.58594 144.04128] CT
0.996 0.878 0.545 RC
N
f-1057828618
f
GR
GS
[0.75 0 0 0.75 58.56382 145.14979] CT
0.996 0.878 0.545 RC
N
f-1057828618
f
GR
GS
[0.75 0 0 0.75 58.5417 146.09401] CT
0.996 0.878 0.545 RC
N
f-1057828618
f
GR
GS
[0.75 0 0 0.75 58.53065 146.89804] CT
0.996 0.878 0.545 RC
N
f-1057828618
f
GR
GS
[0.75 0 0 0.75 58.51958 147.58266] CT
0.996 0.878 0.545 RC
N
f-1057828618
f
GR
GS
[0.75 0 0 0.75 58.51958 148.16551] CT
0.996 0.878 0.545 RC
N
f-1057828618
f
GR
GS
[0.75 0 0 0.75 58.50853 148.66173] CT
0.996 0.878 0.545 RC
N
f-1057828618
f
GR
GS
[0.75 0 0 0.75 58.50853 149.0842] CT
0.996 0.878 0.545 RC
N
f-1057828618
f
GR
GS
[0.75 0 0 0.75 58.50853 149.44374] CT
0.996 0.878 0.545 RC
N
f-1057828618
f
GR
GS
[0.75 0 0 0.75 58.49746 149.7498] CT
0.996 0.878 0.545 RC
N
f-1057828618
f
GR
GS
[0.75 0 0 0.75 58.49746 150.01033] CT
0.996 0.878 0.545 RC
N
f-1057828618
f
GR
GS
[0.75 0 0 0.75 58.49746 150.23206] CT
0.996 0.878 0.545 RC
N
f-1057828618
f
GR
GS
[0.75 0 0 0.75 58.49746 150.42079] CT
0.996 0.878 0.545 RC
N
f-1057828618
f
GR
GS
[0.75 0 0 0.75 58.49746 150.58146] CT
0.996 0.878 0.545 RC
N
f-1057828618
f
GR
GS
[0.75 0 0 0.75 58.49746 150.71819] CT
0.996 0.878 0.545 RC
N
f-1057828618
f
GR
GS
[0.75 0 0 0.75 220.60265 22.80077] CT
0.835 0.243 0.31 RC
10.0 ML
1.333 LW
N
4 0 M
4 -2.209 2.209 -4 0 -4 C
-2.209 -4 -4 -2.209 -4 0 C
-4 2.209 -2.209 4 0 4 C
2.209 4 4 2.209 4 0 C
S
GR
GS
[0.75 0 0 0.75 217.44756 32.21857] CT
0.835 0.243 0.31 RC
10.0 ML
1.333 LW
N
4 0 M
4 -2.209 2.209 -4 0 -4 C
-2.209 -4 -4 -2.209 -4 0 C
-4 2.209 -2.209 4 0 4 C
2.209 4 4 2.209 4 0 C
S
GR
GS
[0.75 0 0 0.75 214.50181 40.29286] CT
0.835 0.243 0.31 RC
10.0 ML
1.333 LW
N
4 0 M
4 -2.209 2.209 -4 0 -4 C
-2.209 -4 -4 -2.209 -4 0 C
-4 2.209 -2.209 4 0 4 C
2.209 4 4 2.209 4 0 C
S
GR
GS
[0.75 0 0 0.75 211.72952 47.12466] CT
0.835 0.243 0.31 RC
10.0 ML
1.333 LW
N
4 0 M
4 -2.209 2.209 -4 0 -4 C
-2.209 -4 -4 -2.209 -4 0 C
-4 2.209 -2.209 4 0 4 C
2.209 4 4 2.209 4 0 C
S
GR
GS
[0.75 0 0 0.75 209.09461 52.78945] CT
0.835 0.243 0.31 RC
10.0 ML
1.333 LW
N
4 0 M
4 -2.209 2.209 -4 0 -4 C
-2.209 -4 -4 -2.209 -4 0 C
-4 2.209 -2.209 4 0 4 C
2.209 4 4 2.209 4 0 C
S
GR
GS
[0.75 0 0 0.75 206.55624 57.34634] CT
0.835 0.243 0.31 RC
10.0 ML
1.333 LW
N
4 0 M
4 -2.209 2.209 -4 0 -4 C
-2.209 -4 -4 -2.209 -4 0 C
-4 2.209 -2.209 4 0 4 C
2.209 4 4 2.209 4 0 C
S
GR
GS
[0.75 0 0 0.75 204.0672 60.84997] CT
0.835 0.243 0.31 RC
10.0 ML
1.333 LW
N
4 0 M
4 -2.209 2.209 -4 0 -4 C
-2.209 -4 -4 -2.209 -4 0 C
-4 2.209 -2.209 4 0 4 C
2.209 4 4 2.209 4 0 C
S
GR
GS
[0.75 0 0 0.75 201.57312 63.36285] CT
0.835 0.243 0.31 RC
10.0 ML
1.333 LW
N
4 0 M
4 -2.209 2.209 -4 0 -4 C
-2.209 -4 -4 -2.209 -4 0 C
-4 2.209 -2.209 4 0 4 C
2.209 4 4 2.209 4 0 C
S
GR
GS
[0.75 0 0 0.75 199.01399 64.96807] CT
0.835 0.243 0.31 RC
10.0 ML
1.333 LW
N
4 0 M
4 -2.209 2.209 -4 0 -4 C
-2.209 -4 -4 -2.209 -4 0 C
-4 2.209 -2.209 4 0 4 C
2.209 4 4 2.209 4 0 C
S
GR
GS
[0.75 0 0 0.75 196.32655 65.78259] CT
0.835 0.243 0.31 RC
10.0 ML
1.333 LW
N
4 0 M
4 -2.209 2.209 -4 0 -4 C
-2.209 -4 -4 -2.209 -4 0 C
-4 2.209 -2.209 4 0 4 C
2.209 4 4 2.209 4 0 C
S
GR
GS
[0.75 0 0 0.75 193.45024 65.97021] CT
0.835 0.243 0.31 RC
10.0 ML
1.333 LW
N
4 0 M
4 -2.209 2.209 -4 0 -4 C
-2.209 -4 -4 -2.209 -4 0 C
-4 2.209 -2.209 4 0 4 C
2.209 4 4 2.209 4 0 C
S
GR
GS
[0.75 0 0 0.75 190.33586 65.7505] CT
0.835 0.243 0.31 RC
10.0 ML
1.333 LW
N
4 0 M
4 -2.209 2.209 -4 0 -4 C
-2.209 -4 -4 -2.209 -4 0 C
-4 2.209 -2.209 4 0 4 C
2.209 4 4 2.209 4 0 C
S
GR
GS
[0.75 0 0 0.75 186.95867 65.39625] CT
0.835 0.243 0.31 RC
10.0 ML
1.333 LW
N
4 0 M
4 -2.209 2.209 -4 0 -4 C
-2.209 -4 -4 -2.209 -4 0 C
-4 2.209 -2.209 4 0 4 C
2.209 4 4 2.209 4 0 C
S
GR
GS
[0.75 0 0 0.75 183.33206 65.2113] CT
0.835 0.243 0.31 RC
10.0 ML
1.333 LW
N
4 0 M
4 -2.209 2.209 -4 0 -4 C
-2.209 -4 -4 -2.209 -4 0 C
-4 2.209 -2.209 4 0 4 C
2.209 4 4 2.209 4 0 C
S
GR
GS
[0.75 0 0 0.75 179.51732 65.48482] CT
0.835 0.243 0.31 RC
10.0 ML
1.333 LW
N
4 0 M
4 -2.209 2.209 -4 0 -4 C
-2.209 -4 -4 -2.209 -4 0 C
-4 2.209 -2.209 4 0 4 C
2.209 4 4 2.209 4 0 C
S
GR
GS
[0.75 0 0 0.75 175.6218 66.42969] CT
0.835 0.243 0.31 RC
10.0 ML
1.333 LW
N
4 0 M
4 -2.209 2.209 -4 0 -4 C
-2.209 -4 -4 -2.209 -4 0 C
-4 2.209 -2.209 4 0 4 C
2.209 4 4 2.209 4 0 C
S
GR
GS
[0.75 0 0 0.75 171.783 68.12556] CT
0.835 0.243 0.31 RC
10.0 ML
1.333 LW
N
4 0 M
4 -2.209 2.209 -4 0 -4 C
-2.209 -4 -4 -2.209 -4 0 C
-4 2.209 -2.209 4 0 4 C
2.209 4 4 2.209 4 0 C
S
GR
GS
[0.75 0 0 0.75 168.14037 70.49205] CT
0.835 0.243 0.31 RC
10.0 ML
1.333 LW
N
4 0 M
4 -2.209 2.209 -4 0 -4 C
-2.209 -4 -4 -2.209 -4 0 C
-4 2.209 -2.209 4 0 4 C
2.209 4 4 2.209 4 0 C
S
GR
GS
[0.75 0 0 0.75 164.80584 73.30564] CT
0.835 0.243 0.31 RC
10.0 ML
1.333 LW
N
4 0 M
4 -2.209 2.209 -4 0 -4 C
-2.209 -4 -4 -2.209 -4 0 C
-4 2.209 -2.209 4 0 4 C
2.209 4 4 2.209 4 0 C
S
GR
GS
[0.75 0 0 0.75 161.84364 76.25233] CT
0.835 0.243 0.31 RC
10.0 ML
1.333 LW
N
4 0 M
4 -2.209 2.209 -4 0 -4 C
-2.209 -4 -4 -2.209 -4 0 C
-4 2.209 -2.209 4 0 4 C
2.209 4 4 2.209 4 0 C
S
GR
GS
[0.75 0 0 0.75 159.26505 78.99174] CT
0.835 0.243 0.31 RC
10.0 ML
1.333 LW
N
4 0 M
4 -2.209 2.209 -4 0 -4 C
-2.209 -4 -4 -2.209 -4 0 C
-4 2.209 -2.209 4 0 4 C
2.209 4 4 2.209 4 0 C
S
GR
GS
[0.75 0 0 0.75 157.03536 81.20946] CT
0.835 0.243 0.31 RC
10.0 ML
1.333 LW
N
4 0 M
4 -2.209 2.209 -4 0 -4 C
-2.209 -4 -4 -2.209 -4 0 C
-4 2.209 -2.209 4 0 4 C
2.209 4 4 2.209 4 0 C
S
GR
GS
[0.75 0 0 0.75 155.08673 82.6464] CT
0.835 0.243 0.31 RC
10.0 ML
1.333 LW
N
4 0 M
4 -2.209 2.209 -4 0 -4 C
-2.209 -4 -4 -2.209 -4 0 C
-4 2.209 -2.209 4 0 4 C
2.209 4 4 2.209 4 0 C
S
GR
GS
[0.75 0 0 0.75 153.33056 83.10719] CT
0.835 0.243 0.31 RC
10.0 ML
1.333 LW
N
4 0 M
4 -2.209 2.209 -4 0 -4 C
-2.209 -4 -4 -2.209 -4 0 C
-4 2.209 -2.209 4 0 4 C
2.209 4 4 2.209 4 0 C
S
GR
GS
[0.75 0 0 0.75 151.66561 82.45642] CT
0.835 0.243 0.31 RC
10.0 ML
1.333 LW
N
4 0 M
4 -2.209 2.209 -4 0 -4 C
-2.209 -4 -4 -2.209 -4 0 C
-4 2.209 -2.209 4 0 4 C
2.209 4 4 2.209 4 0 C
S
GR
GS
[0.75 0 0 0.75 149.98216 80.61228] CT
0.835 0.243 0.31 RC
10.0 ML
1.333 LW
N
4 0 M
4 -2.209 2.209 -4 0 -4 C
-2.209 -4 -4 -2.209 -4 0 C
-4 2.209 -2.209 4 0 4 C
2.209 4 4 2.209 4 0 C
S
GR
GS
[0.75 0 0 0.75 148.1624 77.54432] CT
0.835 0.243 0.31 RC
10.0 ML
1.333 LW
N
4 0 M
4 -2.209 2.209 -4 0 -4 C
-2.209 -4 -4 -2.209 -4 0 C
-4 2.209 -2.209 4 0 4 C
2.209 4 4 2.209 4 0 C
S
GR
GS
[0.75 0 0 0.75 146.07946 73.27955] CT
0.835 0.243 0.31 RC
10.0 ML
1.333 LW
N
4 0 M
4 -2.209 2.209 -4 0 -4 C
-2.209 -4 -4 -2.209 -4 0 C
-4 2.209 -2.209 4 0 4 C
2.209 4 4 2.209 4 0 C
S
GR
GS
[0.75 0 0 0.75 143.59805 67.91854] CT
0.835 0.243 0.31 RC
10.0 ML
1.333 LW
N
4 0 M
4 -2.209 2.209 -4 0 -4 C
-2.209 -4 -4 -2.209 -4 0 C
-4 2.209 -2.209 4 0 4 C
2.209 4 4 2.209 4 0 C
S
GR
GS
[0.75 0 0 0.75 140.57837 61.65986] CT
0.835 0.243 0.31 RC
10.0 ML
1.333 LW
N
4 0 M
4 -2.209 2.209 -4 0 -4 C
-2.209 -4 -4 -2.209 -4 0 C
-4 2.209 -2.209 4 0 4 C
2.209 4 4 2.209 4 0 C
S
GR
GS
[0.75 0 0 0.75 136.88775 54.82781] CT
0.835 0.243 0.31 RC
10.0 ML
1.333 LW
N
4 0 M
4 -2.209 2.209 -4 0 -4 C
-2.209 -4 -4 -2.209 -4 0 C
-4 2.209 -2.209 4 0 4 C
2.209 4 4 2.209 4 0 C
S
GR
GS
[0.75 0 0 0.75 132.42079 47.89175] CT
0.835 0.243 0.31 RC
10.0 ML
1.333 LW
N
4 0 M
4 -2.209 2.209 -4 0 -4 C
-2.209 -4 -4 -2.209 -4 0 C
-4 2.209 -2.209 4 0 4 C
2.209 4 4 2.209 4 0 C
S
GR
GS
[0.75 0 0 0.75 127.12866 41.45962] CT
0.835 0.243 0.31 RC
10.0 ML
1.333 LW
N
4 0 M
4 -2.209 2.209 -4 0 -4 C
-2.209 -4 -4 -2.209 -4 0 C
-4 2.209 -2.209 4 0 4 C
2.209 4 4 2.209 4 0 C
S
GR
GS
[0.75 0 0 0.75 121.05006 36.2273] CT
0.835 0.243 0.31 RC
10.0 ML
1.333 LW
N
4 0 M
4 -2.209 2.209 -4 0 -4 C
-2.209 -4 -4 -2.209 -4 0 C
-4 2.209 -2.209 4 0 4 C
2.209 4 4 2.209 4 0 C
S
GR
GS
[0.75 0 0 0.75 114.33344 32.87595] CT
0.835 0.243 0.31 RC
10.0 ML
1.333 LW
N
4 0 M
4 -2.209 2.209 -4 0 -4 C
-2.209 -4 -4 -2.209 -4 0 C
-4 2.209 -2.209 4 0 4 C
2.209 4 4 2.209 4 0 C
S
GR
GS
[0.75 0 0 0.75 107.23397 31.93495] CT
0.835 0.243 0.31 RC
10.0 ML
1.333 LW
N
4 0 M
4 -2.209 2.209 -4 0 -4 C
-2.209 -4 -4 -2.209 -4 0 C
-4 2.209 -2.209 4 0 4 C
2.209 4 4 2.209 4 0 C
S
GR
GS
[0.75 0 0 0.75 100.07897 33.65616] CT
0.835 0.243 0.31 RC
10.0 ML
1.333 LW
N
4 0 M
4 -2.209 2.209 -4 0 -4 C
-2.209 -4 -4 -2.209 -4 0 C
-4 2.209 -2.209 4 0 4 C
2.209 4 4 2.209 4 0 C
S
GR
GS
[0.75 0 0 0.75 93.20809 37.95302] CT
0.835 0.243 0.31 RC
10.0 ML
1.333 LW
N
4 0 M
4 -2.209 2.209 -4 0 -4 C
-2.209 -4 -4 -2.209 -4 0 C
-4 2.209 -2.209 4 0 4 C
2.209 4 4 2.209 4 0 C
S
GR
GS
[0.75 0 0 0.75 86.91016 44.43274] CT
0.835 0.243 0.31 RC
10.0 ML
1.333 LW
N
4 0 M
4 -2.209 2.209 -4 0 -4 C
-2.209 -4 -4 -2.209 -4 0 C
-4 2.209 -2.209 4 0 4 C
2.209 4 4 2.209 4 0 C
S
GR
GS
[0.75 0 0 0.75 81.37943 52.50437] CT
0.835 0.243 0.31 RC
10.0 ML
1.333 LW
N
4 0 M
4 -2.209 2.209 -4 0 -4 C
-2.209 -4 -4 -2.209 -4 0 C
-4 2.209 -2.209 4 0 4 C
2.209 4 4 2.209 4 0 C
S
GR
GS
[0.75 0 0 0.75 76.70253 61.51458] CT
0.835 0.243 0.31 RC
10.0 ML
1.333 LW
N
4 0 M
4 -2.209 2.209 -4 0 -4 C
-2.209 -4 -4 -2.209 -4 0 C
-4 2.209 -2.209 4 0 4 C
2.209 4 4 2.209 4 0 C
S
GR
GS
[0.75 0 0 0.75 72.87244 70.86263] CT
0.835 0.243 0.31 RC
10.0 ML
1.333 LW
N
4 0 M
4 -2.209 2.209 -4 0 -4 C
-2.209 -4 -4 -2.209 -4 0 C
-4 2.209 -2.209 4 0 4 C
2.209 4 4 2.209 4 0 C
S
GR
GS
[0.75 0 0 0.75 69.81722 80.06886] CT
0.835 0.243 0.31 RC
10.0 ML
1.333 LW
N
4 0 M
4 -2.209 2.209 -4 0 -4 C
-2.209 -4 -4 -2.209 -4 0 C
-4 2.209 -2.209 4 0 4 C
2.209 4 4 2.209 4 0 C
S
GR
GS
[0.75 0 0 0.75 67.43021 88.79661] CT
0.835 0.243 0.31 RC
10.0 ML
1.333 LW
N
4 0 M
4 -2.209 2.209 -4 0 -4 C
-2.209 -4 -4 -2.209 -4 0 C
-4 2.209 -2.209 4 0 4 C
2.209 4 4 2.209 4 0 C
S
GR
GS
[0.75 0 0 0.75 65.59464 96.84143] CT
0.835 0.243 0.31 RC
10.0 ML
1.333 LW
N
4 0 M
4 -2.209 2.209 -4 0 -4 C
-2.209 -4 -4 -2.209 -4 0 C
-4 2.209 -2.209 4 0 4 C
2.209 4 4 2.209 4 0 C
S
GR
GS
[0.75 0 0 0.75 64.19932 104.10437] CT
0.835 0.243 0.31 RC
10.0 ML
1.333 LW
N
4 0 M
4 -2.209 2.209 -4 0 -4 C
-2.209 -4 -4 -2.209 -4 0 C
-4 2.209 -2.209 4 0 4 C
2.209 4 4 2.209 4 0 C
S
GR
GS
[0.75 0 0 0.75 63.14713 110.5619] CT
0.835 0.243 0.31 RC
10.0 ML
1.333 LW
N
4 0 M
4 -2.209 2.209 -4 0 -4 C
-2.209 -4 -4 -2.209 -4 0 C
-4 2.209 -2.209 4 0 4 C
2.209 4 4 2.209 4 0 C
S
GR
GS
[0.75 0 0 0.75 62.35747 116.23925] CT
0.835 0.243 0.31 RC
10.0 ML
1.333 LW
N
4 0 M
4 -2.209 2.209 -4 0 -4 C
-2.209 -4 -4 -2.209 -4 0 C
-4 2.209 -2.209 4 0 4 C
2.209 4 4 2.209 4 0 C
S
GR
GS
[0.75 0 0 0.75 61.76618 121.18997] CT
0.835 0.243 0.31 RC
10.0 ML
1.333 LW
N
4 0 M
4 -2.209 2.209 -4 0 -4 C
-2.209 -4 -4 -2.209 -4 0 C
-4 2.209 -2.209 4 0 4 C
2.209 4 4 2.209 4 0 C
S
GR
GS
[0.75 0 0 0.75 61.32344 125.48147] CT
0.835 0.243 0.31 RC
10.0 ML
1.333 LW
N
4 0 M
4 -2.209 2.209 -4 0 -4 C
-2.209 -4 -4 -2.209 -4 0 C
-4 2.209 -2.209 4 0 4 C
2.209 4 4 2.209 4 0 C
S
GR
GS
[0.75 0 0 0.75 60.99121 129.1856] CT
0.835 0.243 0.31 RC
10.0 ML
1.333 LW
N
4 0 M
4 -2.209 2.209 -4 0 -4 C
-2.209 -4 -4 -2.209 -4 0 C
-4 2.209 -2.209 4 0 4 C
2.209 4 4 2.209 4 0 C
S
GR
GS
[0.75 0 0 0.75 60.7409 132.37299] CT
0.835 0.243 0.31 RC
10.0 ML
1.333 LW
N
4 0 M
4 -2.209 2.209 -4 0 -4 C
-2.209 -4 -4 -2.209 -4 0 C
-4 2.209 -2.209 4 0 4 C
2.209 4 4 2.209 4 0 C
S
GR
GS
[0.75 0 0 0.75 60.55123 135.10976] CT
0.835 0.243 0.31 RC
10.0 ML
1.333 LW
N
4 0 M
4 -2.209 2.209 -4 0 -4 C
-2.209 -4 -4 -2.209 -4 0 C
-4 2.209 -2.209 4 0 4 C
2.209 4 4 2.209 4 0 C
S
GR
GS
[0.75 0 0 0.75 60.40641 137.45607] CT
0.835 0.243 0.31 RC
10.0 ML
1.333 LW
N
4 0 M
4 -2.209 2.209 -4 0 -4 C
-2.209 -4 -4 -2.209 -4 0 C
-4 2.209 -2.209 4 0 4 C
2.209 4 4 2.209 4 0 C
S
GR
GS
[0.75 0 0 0.75 60.29481 139.46559] CT
0.835 0.243 0.31 RC
10.0 ML
1.333 LW
N
4 0 M
4 -2.209 2.209 -4 0 -4 C
-2.209 -4 -4 -2.209 -4 0 C
-4 2.209 -2.209 4 0 4 C
2.209 4 4 2.209 4 0 C
S
GR
GS
[0.75 0 0 0.75 60.20786 141.18547] CT
0.835 0.243 0.31 RC
10.0 ML
1.333 LW
N
4 0 M
4 -2.209 2.209 -4 0 -4 C
-2.209 -4 -4 -2.209 -4 0 C
-4 2.209 -2.209 4 0 4 C
2.209 4 4 2.209 4 0 C
S
GR
GS
[0.75 0 0 0.75 60.13931 142.65691] CT
0.835 0.243 0.31 RC
10.0 ML
1.333 LW
N
4 0 M
4 -2.209 2.209 -4 0 -4 C
-2.209 -4 -4 -2.209 -4 0 C
-4 2.209 -2.209 4 0 4 C
2.209 4 4 2.209 4 0 C
S
GR
GS
[0.75 0 0 0.75 60.08455 143.91551] CT
0.835 0.243 0.31 RC
10.0 ML
1.333 LW
N
4 0 M
4 -2.209 2.209 -4 0 -4 C
-2.209 -4 -4 -2.209 -4 0 C
-4 2.209 -2.209 4 0 4 C
2.209 4 4 2.209 4 0 C
S
GR
GS
[0.75 0 0 0.75 60.04017 144.99201] CT
0.835 0.243 0.31 RC
10.0 ML
1.333 LW
N
4 0 M
4 -2.209 2.209 -4 0 -4 C
-2.209 -4 -4 -2.209 -4 0 C
-4 2.209 -2.209 4 0 4 C
2.209 4 4 2.209 4 0 C
S
GR
GS
[0.75 0 0 0.75 60.00369 145.91282] CT
0.835 0.243 0.31 RC
10.0 ML
1.333 LW
N
4 0 M
4 -2.209 2.209 -4 0 -4 C
-2.209 -4 -4 -2.209 -4 0 C
-4 2.209 -2.209 4 0 4 C
2.209 4 4 2.209 4 0 C
S
GR
GS
[0.75 0 0 0.75 59.97326 146.70058] CT
0.835 0.243 0.31 RC
10.0 ML
1.333 LW
N
4 0 M
4 -2.209 2.209 -4 0 -4 C
-2.209 -4 -4 -2.209 -4 0 C
-4 2.209 -2.209 4 0 4 C
2.209 4 4 2.209 4 0 C
S
GR
GS
[0.75 0 0 0.75 59.94756 147.37467] CT
0.835 0.243 0.31 RC
10.0 ML
1.333 LW
N
4 0 M
4 -2.209 2.209 -4 0 -4 C
-2.209 -4 -4 -2.209 -4 0 C
-4 2.209 -2.209 4 0 4 C
2.209 4 4 2.209 4 0 C
S
GR
GS
[0.75 0 0 0.75 59.92554 147.95166] CT
0.835 0.243 0.31 RC
10.0 ML
1.333 LW
N
4 0 M
4 -2.209 2.209 -4 0 -4 C
-2.209 -4 -4 -2.209 -4 0 C
-4 2.209 -2.209 4 0 4 C
2.209 4 4 2.209 4 0 C
S
GR
GS
[0.75 0 0 0.75 59.90648 148.4457] CT
0.835 0.243 0.31 RC
10.0 ML
1.333 LW
N
4 0 M
4 -2.209 2.209 -4 0 -4 C
-2.209 -4 -4 -2.209 -4 0 C
-4 2.209 -2.209 4 0 4 C
2.209 4 4 2.209 4 0 C
S
GR
GS
[0.75 0 0 0.75 59.88976 148.8689] CT
0.835 0.243 0.31 RC
10.0 ML
1.333 LW
N
4 0 M
4 -2.209 2.209 -4 0 -4 C
-2.209 -4 -4 -2.209 -4 0 C
-4 2.209 -2.209 4 0 4 C
2.209 4 4 2.209 4 0 C
S
GR
GS
[0.75 0 0 0.75 59.87502 149.23156] CT
0.835 0.243 0.31 RC
10.0 ML
1.333 LW
N
4 0 M
4 -2.209 2.209 -4 0 -4 C
-2.209 -4 -4 -2.209 -4 0 C
-4 2.209 -2.209 4 0 4 C
2.209 4 4 2.209 4 0 C
S
GR
GS
[0.75 0 0 0.75 59.86187 149.54251] CT
0.835 0.243 0.31 RC
10.0 ML
1.333 LW
N
4 0 M
4 -2.209 2.209 -4 0 -4 C
-2.209 -4 -4 -2.209 -4 0 C
-4 2.209 -2.209 4 0 4 C
2.209 4 4 2.209 4 0 C
S
GR
GS
[0.75 0 0 0.75 59.85009 149.80925] CT
0.835 0.243 0.31 RC
10.0 ML
1.333 LW
N
4 0 M
4 -2.209 2.209 -4 0 -4 C
-2.209 -4 -4 -2.209 -4 0 C
-4 2.209 -2.209 4 0 4 C
2.209 4 4 2.209 4 0 C
S
GR
GS
[0.75 0 0 0.75 59.83946 150.0382] CT
0.835 0.243 0.31 RC
10.0 ML
1.333 LW
N
4 0 M
4 -2.209 2.209 -4 0 -4 C
-2.209 -4 -4 -2.209 -4 0 C
-4 2.209 -2.209 4 0 4 C
2.209 4 4 2.209 4 0 C
S
GR
GS
[0.75 0 0 0.75 59.82984 150.23483] CT
0.835 0.243 0.31 RC
10.0 ML
1.333 LW
N
4 0 M
4 -2.209 2.209 -4 0 -4 C
-2.209 -4 -4 -2.209 -4 0 C
-4 2.209 -2.209 4 0 4 C
2.209 4 4 2.209 4 0 C
S
GR
GS
[0.75 0 0 0.75 59.82108 150.40383] CT
0.835 0.243 0.31 RC
10.0 ML
1.333 LW
N
4 0 M
4 -2.209 2.209 -4 0 -4 C
-2.209 -4 -4 -2.209 -4 0 C
-4 2.209 -2.209 4 0 4 C
2.209 4 4 2.209 4 0 C
S
GR
GS
[0.75 0 0 0.75 59.81312 150.54917] CT
0.835 0.243 0.31 RC
10.0 ML
1.333 LW
N
4 0 M
4 -2.209 2.209 -4 0 -4 C
-2.209 -4 -4 -2.209 -4 0 C
-4 2.209 -2.209 4 0 4 C
2.209 4 4 2.209 4 0 C
S
GR
GS
[0.75 0 0 0.75 221.52933 21.53801] CT
0.835 0.243 0.31 RC
N
f-1057828618
f
GR
GS
[0.75 0 0 0.75 218.30031 31.1316] CT
0.835 0.243 0.31 RC
N
f-1057828618
f
GR
GS
[0.75 0 0 0.75 215.29248 39.39913] CT
0.835 0.243 0.31 RC
N
f-1057828618
f
GR
GS
[0.75 0 0 0.75 212.49474 46.41349] CT
0.835 0.243 0.31 RC
N
f-1057828618
f
GR
GS
[0.75 0 0 0.75 209.8629 52.23357] CT
0.835 0.243 0.31 RC
N
f-1057828618
f
GR
GS
[0.75 0 0 0.75 207.33053 56.91261] CT
0.835 0.243 0.31 RC
N
f-1057828618
f
GR
GS
[0.75 0 0 0.75 204.86458 60.50389] CT
0.835 0.243 0.31 RC
N
f-1057828618
f
GR
GS
[0.75 0 0 0.75 202.38748 63.06911] CT
0.835 0.243 0.31 RC
N
f-1057828618
f
GR
GS
[0.75 0 0 0.75 199.86621 64.68953] CT
0.835 0.243 0.31 RC
N
f-1057828618
f
GR
GS
[0.75 0 0 0.75 197.21226 65.47731] CT
0.835 0.243 0.31 RC
N
f-1057828618
f
GR
GS
[0.75 0 0 0.75 194.38136 65.58945] CT
0.835 0.243 0.31 RC
N
f-1057828618
f
GR
GS
[0.75 0 0 0.75 191.29607 65.2306] CT
0.835 0.243 0.31 RC
N
f-1057828618
f
GR
GS
[0.75 0 0 0.75 187.9454 64.67271] CT
0.835 0.243 0.31 RC
N
f-1057828618
f
GR
GS
[0.75 0 0 0.75 184.31833 64.21573] CT
0.835 0.243 0.31 RC
N
f-1057828618
f
GR
GS
[0.75 0 0 0.75 180.47004 64.16527] CT
0.835 0.243 0.31 RC
N
f-1057828618
f
GR
GS
[0.75 0 0 0.75 176.50012 64.76522] CT
0.835 0.243 0.31 RC
N
f-1057828618
f
GR
GS
[0.75 0 0 0.75 172.53019 66.14174] CT
0.835 0.243 0.31 RC
N
f-1057828618
f
GR
GS
[0.75 0 0 0.75 168.70406 68.264] CT
0.835 0.243 0.31 RC
N
f-1057828618
f
GR
GS
[0.75 0 0 0.75 165.16541 70.95536] CT
0.835 0.243 0.31 RC
N
f-1057828618
f
GR
GS
[0.75 0 0 0.75 161.96956 73.92427] CT
0.835 0.243 0.31 RC
N
f-1057828618
f
GR
GS
[0.75 0 0 0.75 159.17181 76.84272] CT
0.835 0.243 0.31 RC
N
f-1057828618
f
GR
GS
[0.75 0 0 0.75 156.73901 79.38549] CT
0.835 0.243 0.31 RC
N
f-1057828618
f
GR
GS
[0.75 0 0 0.75 154.61585 81.27225] CT
0.835 0.243 0.31 RC
N
f-1057828618
f
GR
GS
[0.75 0 0 0.75 152.74699 82.28431] CT
0.835 0.243 0.31 RC
N
f-1057828618
f
GR
GS
[0.75 0 0 0.75 151.02189 82.24787] CT
0.835 0.243 0.31 RC
N
f-1057828618
f
GR
GS
[0.75 0 0 0.75 149.32999 81.04797] CT
0.835 0.243 0.31 RC
N
f-1057828618
f
GR
GS
[0.75 0 0 0.75 147.57171 78.62014] CT
0.835 0.243 0.31 RC
N
f-1057828618
f
GR
GS
[0.75 0 0 0.75 145.61438 74.95876] CT
0.835 0.243 0.31 RC
N
f-1057828618
f
GR
GS
[0.75 0 0 0.75 143.3143 70.12553] CT
0.835 0.243 0.31 RC
N
f-1057828618
f
GR
GS
[0.75 0 0 0.75 140.53865 64.28583] CT
0.835 0.243 0.31 RC
N
f-1057828618
f
GR
GS
[0.75 0 0 0.75 137.13273 57.71441] CT
0.835 0.243 0.31 RC
N
f-1057828618
f
GR
GS
[0.75 0 0 0.75 132.9859 50.83182] CT
0.835 0.243 0.31 RC
N
f-1057828618
f
GR
GS
[0.75 0 0 0.75 128.03176 44.20713] CT
0.835 0.243 0.31 RC
N
f-1057828618
f
GR
GS
[0.75 0 0 0.75 122.25937 38.51883] CT
0.835 0.243 0.31 RC
N
f-1057828618
f
GR
GS
[0.75 0 0 0.75 115.77924 34.46496] CT
0.835 0.243 0.31 RC
N
f-1057828618
f
GR
GS
[0.75 0 0 0.75 108.81254 32.6539] CT
0.835 0.243 0.31 RC
N
f-1057828618
f
GR
GS
[0.75 0 0 0.75 101.67995 33.4529] CT
0.835 0.243 0.31 RC
N
f-1057828618
f
GR
GS
[0.75 0 0 0.75 94.70219 36.8984] CT
0.835 0.243 0.31 RC
N
f-1057828618
f
GR
GS
[0.75 0 0 0.75 88.19994 42.69605] CT
0.835 0.243 0.31 RC
N
f-1057828618
f
GR
GS
[0.75 0 0 0.75 82.41647 50.31596] CT
0.835 0.243 0.31 RC
N
f-1057828618
f
GR
GS
[0.75 0 0 0.75 77.47344 59.10495] CT
0.835 0.243 0.31 RC
N
f-1057828618
f
GR
GS
[0.75 0 0 0.75 73.38189 68.43221] CT
0.835 0.243 0.31 RC
N
f-1057828618
f
GR
GS
[0.75 0 0 0.75 70.10863 77.76507] CT
0.835 0.243 0.31 RC
N
f-1057828618
f
GR
GS
[0.75 0 0 0.75 67.54311 86.71385] CT
0.835 0.243 0.31 RC
N
f-1057828618
f
GR
GS
[0.75 0 0 0.75 65.57476 95.02904] CT
0.835 0.243 0.31 RC
N
f-1057828618
f
GR
GS
[0.75 0 0 0.75 64.0819 102.57888] CT
0.835 0.243 0.31 RC
N
f-1057828618
f
GR
GS
[0.75 0 0 0.75 62.97607 109.31289] CT
0.835 0.243 0.31 RC
N
f-1057828618
f
GR
GS
[0.75 0 0 0.75 62.14668 115.2479] CT
0.835 0.243 0.31 RC
N
f-1057828618
f
GR
GS
[0.75 0 0 0.75 61.52743 120.42597] CT
0.835 0.243 0.31 RC
N
f-1057828618
f
GR
GS
[0.75 0 0 0.75 61.0851 124.91635] CT
0.835 0.243 0.31 RC
N
f-1057828618
f
GR
GS
[0.75 0 0 0.75 60.75335 128.7891] CT
0.835 0.243 0.31 RC
N
f-1057828618
f
GR
GS
[0.75 0 0 0.75 60.52112 132.11742] CT
0.835 0.243 0.31 RC
N
f-1057828618
f
GR
GS
[0.75 0 0 0.75 60.34419 134.96998] CT
0.835 0.243 0.31 RC
N
f-1057828618
f
GR
GS
[0.75 0 0 0.75 60.2115 137.41072] CT
0.835 0.243 0.31 RC
N
f-1057828618
f
GR
GS
[0.75 0 0 0.75 60.12304 139.4954] CT
0.835 0.243 0.31 RC
N
f-1057828618
f
GR
GS
[0.75 0 0 0.75 60.05668 141.27478] CT
0.835 0.243 0.31 RC
N
f-1057828618
f
GR
GS
[0.75 0 0 0.75 60.01244 142.79232] CT
0.835 0.243 0.31 RC
N
f-1057828618
f
GR
GS
[0.75 0 0 0.75 59.97927 144.08558] CT
0.835 0.243 0.31 RC
N
f-1057828618
f
GR
GS
[0.75 0 0 0.75 59.94611 145.18735] CT
0.835 0.243 0.31 RC
N
f-1057828618
f
GR
GS
[0.75 0 0 0.75 59.93503 146.12597] CT
0.835 0.243 0.31 RC
N
f-1057828618
f
GR
GS
[0.75 0 0 0.75 59.91292 146.92525] CT
0.835 0.243 0.31 RC
N
f-1057828618
f
GR
GS
[0.75 0 0 0.75 59.90187 147.60593] CT
0.835 0.243 0.31 RC
N
f-1057828618
f
GR
GS
[0.75 0 0 0.75 59.90187 148.18541] CT
0.835 0.243 0.31 RC
N
f-1057828618
f
GR
GS
[0.75 0 0 0.75 59.89082 148.67855] CT
0.835 0.243 0.31 RC
N
f-1057828618
f
GR
GS
[0.75 0 0 0.75 59.89082 149.09849] CT
0.835 0.243 0.31 RC
N
f-1057828618
f
GR
GS
[0.75 0 0 0.75 59.89082 149.45591] CT
0.835 0.243 0.31 RC
N
f-1057828618
f
GR
GS
[0.75 0 0 0.75 59.89082 149.76018] CT
0.835 0.243 0.31 RC
N
f-1057828618
f
GR
GS
[0.75 0 0 0.75 59.89082 150.01913] CT
0.835 0.243 0.31 RC
N
f-1057828618
f
GR
GS
[0.75 0 0 0.75 59.87975 150.23957] CT
0.835 0.243 0.31 RC
N
f-1057828618
f
GR
GS
[0.75 0 0 0.75 59.87975 150.42719] CT
0.835 0.243 0.31 RC
N
f-1057828618
f
GR
GS
[0.75 0 0 0.75 59.87975 150.5869] CT
0.835 0.243 0.31 RC
N
f-1057828618
f
GR
GS
[0.75 0 0 0.75 59.87975 150.72281] CT
0.835 0.243 0.31 RC
N
f-1057828618
f
GR
GS
[0.75 0 0 0.75 110.25 175.5] CT
0.149 GC
/Times-Roman 14.667 F
GS
[1 0 0 1 0 0] CT
0 0 moveto 
1 -1 scale
(Real / m) t 
GR
GR
GS
[0.75 0 0 0.75 147.75 175.5] CT
0.149 GC
N
1.156 0 M
0.656 -2.484 L
1.094 -2.484 L
1.172 -2.063 1.242 -1.727 QT
1.313 -1.391 1.422 -1.258 QT
1.531 -1.125 1.766 -1.078 QT
2 -1.031 2.531 -1.031 QT
3.453 -1.031 L
3.234 -1.875 2.359 -3.242 QT
1.484 -4.609 1.164 -5.234 QT
0.844 -5.859 0.844 -6.828 QT
0.844 -7.969 1.516 -8.82 QT
2.188 -9.672 3.258 -10.125 QT
4.328 -10.578 5.406 -10.578 QT
6.5 -10.578 7.563 -10.125 QT
8.625 -9.672 9.297 -8.813 QT
9.969 -7.953 9.969 -6.828 QT
9.969 -6.063 9.695 -5.391 QT
9.422 -4.719 8.992 -4.047 QT
8.563 -3.375 8.055 -2.547 QT
7.547 -1.719 7.375 -1.031 QT
8.281 -1.031 L
8.828 -1.031 9.07 -1.078 QT
9.313 -1.125 9.414 -1.258 QT
9.516 -1.391 9.578 -1.727 QT
9.641 -2.063 9.719 -2.484 QT
10.156 -2.484 L
9.656 0 L
7 0 L
6.859 0 6.859 -0.203 QT
6.859 -0.953 7.047 -1.688 QT
7.234 -2.422 7.602 -3.461 QT
7.969 -4.5 8.172 -5.297 QT
8.375 -6.094 8.375 -6.828 QT
8.375 -7.734 8.023 -8.5 QT
7.672 -9.266 7 -9.727 QT
6.328 -10.188 5.406 -10.188 QT
4.047 -10.188 3.25 -9.211 QT
2.453 -8.234 2.453 -6.828 QT
2.453 -6.063 2.633 -5.375 QT
2.813 -4.688 3.203 -3.555 QT
3.594 -2.422 3.781 -1.688 QT
3.969 -0.953 3.969 -0.203 QT
3.969 0 3.813 0 QT
1.156 0 L
cp
f
GR
GS
[0 -0.75 0.75 0 16.5 110.25] CT
0.149 GC
/Times-Roman 14.667 F
GS
[1 0 0 1 0 0] CT
0 0 moveto 
1 -1 scale
(-Imag / m) t 
GR
GR
GS
[0 -0.75 0.75 0 16.5 66.75] CT
0.149 GC
N
/f1102960448{1.156 0 M
0.656 -2.484 L
1.094 -2.484 L
1.172 -2.063 1.242 -1.727 QT
1.313 -1.391 1.422 -1.258 QT
1.531 -1.125 1.766 -1.078 QT
2 -1.031 2.531 -1.031 QT
3.453 -1.031 L
3.234 -1.875 2.359 -3.242 QT
1.484 -4.609 1.164 -5.234 QT
0.844 -5.859 0.844 -6.828 QT
0.844 -7.969 1.516 -8.82 QT
2.188 -9.672 3.258 -10.125 QT
4.328 -10.578 5.406 -10.578 QT
6.5 -10.578 7.563 -10.125 QT
8.625 -9.672 9.297 -8.813 QT
9.969 -7.953 9.969 -6.828 QT
9.969 -6.063 9.695 -5.391 QT
9.422 -4.719 8.992 -4.047 QT
8.563 -3.375 8.055 -2.547 QT
7.547 -1.719 7.375 -1.031 QT
8.281 -1.031 L
8.828 -1.031 9.07 -1.078 QT
9.313 -1.125 9.414 -1.258 QT
9.516 -1.391 9.578 -1.727 QT
9.641 -2.063 9.719 -2.484 QT
10.156 -2.484 L
9.656 0 L
7 0 L
6.859 0 6.859 -0.203 QT
6.859 -0.953 7.047 -1.688 QT
7.234 -2.422 7.602 -3.461 QT
7.969 -4.5 8.172 -5.297 QT
8.375 -6.094 8.375 -6.828 QT
8.375 -7.734 8.023 -8.5 QT
7.672 -9.266 7 -9.727 QT
6.328 -10.188 5.406 -10.188 QT
4.047 -10.188 3.25 -9.211 QT
2.453 -8.234 2.453 -6.828 QT
2.453 -6.063 2.633 -5.375 QT
2.813 -4.688 3.203 -3.555 QT
3.594 -2.422 3.781 -1.688 QT
3.969 -0.953 3.969 -0.203 QT
3.969 0 3.813 0 QT
1.156 0 L
cp}def
f1102960448
f
GR
%%Trailer
%%Pages: 1
%%EOF
