%!PS-Adobe-3.0 EPSF-3.0
%%Creator: (MATLAB, The Mathworks, Inc. Version 9.5.0.1033004 \(R2018b\) Update 2. Operating System: Mac OS X)
%%Title: ../OCVs.eps
%%CreationDate: 2019-07-23T10:47:07
%%Pages: (atend)
%%BoundingBox:     4     2  1104   764
%%LanguageLevel: 2
%%EndComments
%%BeginProlog
%%BeginResource: procset (Apache XML Graphics Std ProcSet) 1.2 0
%%Version: 1.2 0
%%Copyright: (Copyright 2001-2003,2010 The Apache Software Foundation. License terms: http://www.apache.org/licenses/LICENSE-2.0)
/bd{bind def}bind def
/ld{load def}bd
/GR/grestore ld
/GS/gsave ld
/RM/rmoveto ld
/C/curveto ld
/t/show ld
/L/lineto ld
/ML/setmiterlimit ld
/CT/concat ld
/f/fill ld
/N/newpath ld
/S/stroke ld
/CC/setcmykcolor ld
/A/ashow ld
/cp/closepath ld
/RC/setrgbcolor ld
/LJ/setlinejoin ld
/GC/setgray ld
/LW/setlinewidth ld
/M/moveto ld
/re {4 2 roll M
1 index 0 rlineto
0 exch rlineto
neg 0 rlineto
cp } bd
/_ctm matrix def
/_tm matrix def
/BT { _ctm currentmatrix pop matrix _tm copy pop 0 0 moveto } bd
/ET { _ctm setmatrix } bd
/iTm { _ctm setmatrix _tm concat } bd
/Tm { _tm astore pop iTm 0 0 moveto } bd
/ux 0.0 def
/uy 0.0 def
/F {
  /Tp exch def
  /Tf exch def
  Tf findfont Tp scalefont setfont
  /cf Tf def  /cs Tp def
} bd
/ULS {currentpoint /uy exch def /ux exch def} bd
/ULE {
  /Tcx currentpoint pop def
  gsave
  newpath
  cf findfont cs scalefont dup
  /FontMatrix get 0 get /Ts exch def /FontInfo get dup
  /UnderlinePosition get Ts mul /To exch def
  /UnderlineThickness get Ts mul /Tt exch def
  ux uy To add moveto  Tcx uy To add lineto
  Tt setlinewidth stroke
  grestore
} bd
/OLE {
  /Tcx currentpoint pop def
  gsave
  newpath
  cf findfont cs scalefont dup
  /FontMatrix get 0 get /Ts exch def /FontInfo get dup
  /UnderlinePosition get Ts mul /To exch def
  /UnderlineThickness get Ts mul /Tt exch def
  ux uy To add cs add moveto Tcx uy To add cs add lineto
  Tt setlinewidth stroke
  grestore
} bd
/SOE {
  /Tcx currentpoint pop def
  gsave
  newpath
  cf findfont cs scalefont dup
  /FontMatrix get 0 get /Ts exch def /FontInfo get dup
  /UnderlinePosition get Ts mul /To exch def
  /UnderlineThickness get Ts mul /Tt exch def
  ux uy To add cs 10 mul 26 idiv add moveto Tcx uy To add cs 10 mul 26 idiv add lineto
  Tt setlinewidth stroke
  grestore
} bd
/QT {
/Y22 exch store
/X22 exch store
/Y21 exch store
/X21 exch store
currentpoint
/Y21 load 2 mul add 3 div exch
/X21 load 2 mul add 3 div exch
/X21 load 2 mul /X22 load add 3 div
/Y21 load 2 mul /Y22 load add 3 div
/X22 load /Y22 load curveto
} bd
/SSPD {
dup length /d exch dict def
{
/v exch def
/k exch def
currentpagedevice k known {
/cpdv currentpagedevice k get def
v cpdv ne {
/upd false def
/nullv v type /nulltype eq def
/nullcpdv cpdv type /nulltype eq def
nullv nullcpdv or
{
/upd true def
} {
/sametype v type cpdv type eq def
sametype {
v type /arraytype eq {
/vlen v length def
/cpdvlen cpdv length def
vlen cpdvlen eq {
0 1 vlen 1 sub {
/i exch def
/obj v i get def
/cpdobj cpdv i get def
obj cpdobj ne {
/upd true def
exit
} if
} for
} {
/upd true def
} ifelse
} {
v type /dicttype eq {
v {
/dv exch def
/dk exch def
/cpddv cpdv dk get def
dv cpddv ne {
/upd true def
exit
} if
} forall
} {
/upd true def
} ifelse
} ifelse
} if
} ifelse
upd true eq {
d k v put
} if
} if
} if
} forall
d length 0 gt {
d setpagedevice
} if
} bd
/RE { % /NewFontName [NewEncodingArray] /FontName RE -
  findfont dup length dict begin
  {
    1 index /FID ne
    {def} {pop pop} ifelse
  } forall
  /Encoding exch def
  /FontName 1 index def
  currentdict definefont pop
  end
} bind def
%%EndResource
%%BeginResource: procset (Apache XML Graphics EPS ProcSet) 1.0 0
%%Version: 1.0 0
%%Copyright: (Copyright 2002-2003 The Apache Software Foundation. License terms: http://www.apache.org/licenses/LICENSE-2.0)
/BeginEPSF { %def
/b4_Inc_state save def         % Save state for cleanup
/dict_count countdictstack def % Count objects on dict stack
/op_count count 1 sub def      % Count objects on operand stack
userdict begin                 % Push userdict on dict stack
/showpage { } def              % Redefine showpage, { } = null proc
0 setgray 0 setlinecap         % Prepare graphics state
1 setlinewidth 0 setlinejoin
10 setmiterlimit [ ] 0 setdash newpath
/languagelevel where           % If level not equal to 1 then
{pop languagelevel             % set strokeadjust and
1 ne                           % overprint to their defaults.
{false setstrokeadjust false setoverprint
} if
} if
} bd
/EndEPSF { %def
count op_count sub {pop} repeat            % Clean up stacks
countdictstack dict_count sub {end} repeat
b4_Inc_state restore
} bd
%%EndResource
%FOPBeginFontDict
%%IncludeResource: font Courier-Oblique
%%IncludeResource: font Courier-BoldOblique
%%IncludeResource: font Courier-Bold
%%IncludeResource: font ZapfDingbats
%%IncludeResource: font Symbol
%%IncludeResource: font Helvetica
%%IncludeResource: font Helvetica-Oblique
%%IncludeResource: font Helvetica-Bold
%%IncludeResource: font Helvetica-BoldOblique
%%IncludeResource: font Times-Roman
%%IncludeResource: font Times-Italic
%%IncludeResource: font Times-Bold
%%IncludeResource: font Times-BoldItalic
%%IncludeResource: font Courier
%FOPEndFontDict
%%BeginResource: encoding WinAnsiEncoding
/WinAnsiEncoding [
/.notdef /.notdef /.notdef /.notdef /.notdef
/.notdef /.notdef /.notdef /.notdef /.notdef
/.notdef /.notdef /.notdef /.notdef /.notdef
/.notdef /.notdef /.notdef /.notdef /.notdef
/.notdef /.notdef /.notdef /.notdef /.notdef
/.notdef /.notdef /.notdef /.notdef /.notdef
/.notdef /.notdef /space /exclam /quotedbl
/numbersign /dollar /percent /ampersand /quotesingle
/parenleft /parenright /asterisk /plus /comma
/hyphen /period /slash /zero /one
/two /three /four /five /six
/seven /eight /nine /colon /semicolon
/less /equal /greater /question /at
/A /B /C /D /E
/F /G /H /I /J
/K /L /M /N /O
/P /Q /R /S /T
/U /V /W /X /Y
/Z /bracketleft /backslash /bracketright /asciicircum
/underscore /quoteleft /a /b /c
/d /e /f /g /h
/i /j /k /l /m
/n /o /p /q /r
/s /t /u /v /w
/x /y /z /braceleft /bar
/braceright /asciitilde /bullet /Euro /bullet
/quotesinglbase /florin /quotedblbase /ellipsis /dagger
/daggerdbl /circumflex /perthousand /Scaron /guilsinglleft
/OE /bullet /Zcaron /bullet /bullet
/quoteleft /quoteright /quotedblleft /quotedblright /bullet
/endash /emdash /asciitilde /trademark /scaron
/guilsinglright /oe /bullet /zcaron /Ydieresis
/space /exclamdown /cent /sterling /currency
/yen /brokenbar /section /dieresis /copyright
/ordfeminine /guillemotleft /logicalnot /sfthyphen /registered
/macron /degree /plusminus /twosuperior /threesuperior
/acute /mu /paragraph /middot /cedilla
/onesuperior /ordmasculine /guillemotright /onequarter /onehalf
/threequarters /questiondown /Agrave /Aacute /Acircumflex
/Atilde /Adieresis /Aring /AE /Ccedilla
/Egrave /Eacute /Ecircumflex /Edieresis /Igrave
/Iacute /Icircumflex /Idieresis /Eth /Ntilde
/Ograve /Oacute /Ocircumflex /Otilde /Odieresis
/multiply /Oslash /Ugrave /Uacute /Ucircumflex
/Udieresis /Yacute /Thorn /germandbls /agrave
/aacute /acircumflex /atilde /adieresis /aring
/ae /ccedilla /egrave /eacute /ecircumflex
/edieresis /igrave /iacute /icircumflex /idieresis
/eth /ntilde /ograve /oacute /ocircumflex
/otilde /odieresis /divide /oslash /ugrave
/uacute /ucircumflex /udieresis /yacute /thorn
/ydieresis
] def
%%EndResource
%FOPBeginFontReencode
/Courier-Oblique findfont
dup length dict begin
  {1 index /FID ne {def} {pop pop} ifelse} forall
  /Encoding WinAnsiEncoding def
  currentdict
end
/Courier-Oblique exch definefont pop
/Courier-BoldOblique findfont
dup length dict begin
  {1 index /FID ne {def} {pop pop} ifelse} forall
  /Encoding WinAnsiEncoding def
  currentdict
end
/Courier-BoldOblique exch definefont pop
/Courier-Bold findfont
dup length dict begin
  {1 index /FID ne {def} {pop pop} ifelse} forall
  /Encoding WinAnsiEncoding def
  currentdict
end
/Courier-Bold exch definefont pop
/Helvetica findfont
dup length dict begin
  {1 index /FID ne {def} {pop pop} ifelse} forall
  /Encoding WinAnsiEncoding def
  currentdict
end
/Helvetica exch definefont pop
/Helvetica-Oblique findfont
dup length dict begin
  {1 index /FID ne {def} {pop pop} ifelse} forall
  /Encoding WinAnsiEncoding def
  currentdict
end
/Helvetica-Oblique exch definefont pop
/Helvetica-Bold findfont
dup length dict begin
  {1 index /FID ne {def} {pop pop} ifelse} forall
  /Encoding WinAnsiEncoding def
  currentdict
end
/Helvetica-Bold exch definefont pop
/Helvetica-BoldOblique findfont
dup length dict begin
  {1 index /FID ne {def} {pop pop} ifelse} forall
  /Encoding WinAnsiEncoding def
  currentdict
end
/Helvetica-BoldOblique exch definefont pop
/Times-Roman findfont
dup length dict begin
  {1 index /FID ne {def} {pop pop} ifelse} forall
  /Encoding WinAnsiEncoding def
  currentdict
end
/Times-Roman exch definefont pop
/Times-Italic findfont
dup length dict begin
  {1 index /FID ne {def} {pop pop} ifelse} forall
  /Encoding WinAnsiEncoding def
  currentdict
end
/Times-Italic exch definefont pop
/Times-Bold findfont
dup length dict begin
  {1 index /FID ne {def} {pop pop} ifelse} forall
  /Encoding WinAnsiEncoding def
  currentdict
end
/Times-Bold exch definefont pop
/Times-BoldItalic findfont
dup length dict begin
  {1 index /FID ne {def} {pop pop} ifelse} forall
  /Encoding WinAnsiEncoding def
  currentdict
end
/Times-BoldItalic exch definefont pop
/Courier findfont
dup length dict begin
  {1 index /FID ne {def} {pop pop} ifelse} forall
  /Encoding WinAnsiEncoding def
  currentdict
end
/Courier exch definefont pop
%FOPEndFontReencode
%%EndProlog
%%Page: 1 1
%%PageBoundingBox: 0 0 1111 764
%%BeginPageSetup
[1 0 0 -1 0 764] CT
%%EndPageSetup
GS
[0.99978 0 0 1.00027 0 -0.20483] CT
1 GC
N
0 0 1111 764 re
f
GR
GS
[0.99978 0 0 1.00027 0 -0.20483] CT
1 GC
N
0 0 1111 764 re
f
GR
GS
[0.99978 0 0 1.00027 0 -0.20483] CT
1 GC
N
56 712 M
533 712 L
533 424 L
56 424 L
cp
f
GR
GS
[0.99978 0 0 1.00027 0 -0.20483] CT
0.873 GC
1 LJ
1.225 LW
N
56 712 M
56 424 L
S
GR
GS
[0.99978 0 0 1.00027 0 -0.20483] CT
0.873 GC
1 LJ
1.225 LW
N
175.25 712 M
175.25 424 L
S
GR
GS
[0.99978 0 0 1.00027 0 -0.20483] CT
0.873 GC
1 LJ
1.225 LW
N
294.5 712 M
294.5 424 L
S
GR
GS
[0.99978 0 0 1.00027 0 -0.20483] CT
0.873 GC
1 LJ
1.225 LW
N
413.75 712 M
413.75 424 L
S
GR
GS
[0.99978 0 0 1.00027 0 -0.20483] CT
0.873 GC
1 LJ
1.225 LW
N
533 712 M
533 424 L
S
GR
GS
[0.99978 0 0 1.00027 0 -0.20483] CT
0.873 GC
1 LJ
1.225 LW
N
533 712 M
56 712 L
S
GR
GS
[0.99978 0 0 1.00027 0 -0.20483] CT
0.873 GC
1 LJ
1.225 LW
N
533 640 M
56 640 L
S
GR
GS
[0.99978 0 0 1.00027 0 -0.20483] CT
0.873 GC
1 LJ
1.225 LW
N
533 568 M
56 568 L
S
GR
GS
[0.99978 0 0 1.00027 0 -0.20483] CT
0.873 GC
1 LJ
1.225 LW
N
533 496 M
56 496 L
S
GR
GS
[0.99978 0 0 1.00027 0 -0.20483] CT
0.873 GC
1 LJ
1.225 LW
N
533 424 M
56 424 L
S
GR
GS
[0.99978 0 0 1.00027 0 -0.20483] CT
0.149 GC
2 setlinecap
1 LJ
1.225 LW
N
56 712 M
533 712 L
S
GR
GS
[0.99978 0 0 1.00027 0 -0.20483] CT
0.149 GC
2 setlinecap
1 LJ
1.225 LW
N
56 424 M
533 424 L
S
GR
GS
[0.99978 0 0 1.00027 0 -0.20483] CT
0.149 GC
2 setlinecap
1 LJ
1.225 LW
N
56 712 M
56 707.23 L
S
GR
GS
[0.99978 0 0 1.00027 0 -0.20483] CT
0.149 GC
2 setlinecap
1 LJ
1.225 LW
N
175.25 712 M
175.25 707.23 L
S
GR
GS
[0.99978 0 0 1.00027 0 -0.20483] CT
0.149 GC
2 setlinecap
1 LJ
1.225 LW
N
294.5 712 M
294.5 707.23 L
S
GR
GS
[0.99978 0 0 1.00027 0 -0.20483] CT
0.149 GC
2 setlinecap
1 LJ
1.225 LW
N
413.75 712 M
413.75 707.23 L
S
GR
GS
[0.99978 0 0 1.00027 0 -0.20483] CT
0.149 GC
2 setlinecap
1 LJ
1.225 LW
N
533 712 M
533 707.23 L
S
GR
GS
[0.99978 0 0 1.00027 0 -0.20483] CT
0.149 GC
2 setlinecap
1 LJ
1.225 LW
N
56 424 M
56 428.77 L
S
GR
GS
[0.99978 0 0 1.00027 0 -0.20483] CT
0.149 GC
2 setlinecap
1 LJ
1.225 LW
N
175.25 424 M
175.25 428.77 L
S
GR
GS
[0.99978 0 0 1.00027 0 -0.20483] CT
0.149 GC
2 setlinecap
1 LJ
1.225 LW
N
294.5 424 M
294.5 428.77 L
S
GR
GS
[0.99978 0 0 1.00027 0 -0.20483] CT
0.149 GC
2 setlinecap
1 LJ
1.225 LW
N
413.75 424 M
413.75 428.77 L
S
GR
GS
[0.99978 0 0 1.00027 0 -0.20483] CT
0.149 GC
2 setlinecap
1 LJ
1.225 LW
N
533 424 M
533 428.77 L
S
GR
GS
[0.99978 0 0 1.00027 0 -0.20483] CT
0.149 GC
2 setlinecap
1 LJ
1.225 LW
N
79.85 712 M
79.85 709.615 L
S
GR
GS
[0.99978 0 0 1.00027 0 -0.20483] CT
0.149 GC
2 setlinecap
1 LJ
1.225 LW
N
103.7 712 M
103.7 709.615 L
S
GR
GS
[0.99978 0 0 1.00027 0 -0.20483] CT
0.149 GC
2 setlinecap
1 LJ
1.225 LW
N
127.55 712 M
127.55 709.615 L
S
GR
GS
[0.99978 0 0 1.00027 0 -0.20483] CT
0.149 GC
2 setlinecap
1 LJ
1.225 LW
N
151.4 712 M
151.4 709.615 L
S
GR
GS
[0.99978 0 0 1.00027 0 -0.20483] CT
0.149 GC
2 setlinecap
1 LJ
1.225 LW
N
199.1 712 M
199.1 709.615 L
S
GR
GS
[0.99978 0 0 1.00027 0 -0.20483] CT
0.149 GC
2 setlinecap
1 LJ
1.225 LW
N
222.95 712 M
222.95 709.615 L
S
GR
GS
[0.99978 0 0 1.00027 0 -0.20483] CT
0.149 GC
2 setlinecap
1 LJ
1.225 LW
N
246.8 712 M
246.8 709.615 L
S
GR
GS
[0.99978 0 0 1.00027 0 -0.20483] CT
0.149 GC
2 setlinecap
1 LJ
1.225 LW
N
270.65 712 M
270.65 709.615 L
S
GR
GS
[0.99978 0 0 1.00027 0 -0.20483] CT
0.149 GC
2 setlinecap
1 LJ
1.225 LW
N
318.35 712 M
318.35 709.615 L
S
GR
GS
[0.99978 0 0 1.00027 0 -0.20483] CT
0.149 GC
2 setlinecap
1 LJ
1.225 LW
N
342.2 712 M
342.2 709.615 L
S
GR
GS
[0.99978 0 0 1.00027 0 -0.20483] CT
0.149 GC
2 setlinecap
1 LJ
1.225 LW
N
366.05 712 M
366.05 709.615 L
S
GR
GS
[0.99978 0 0 1.00027 0 -0.20483] CT
0.149 GC
2 setlinecap
1 LJ
1.225 LW
N
389.9 712 M
389.9 709.615 L
S
GR
GS
[0.99978 0 0 1.00027 0 -0.20483] CT
0.149 GC
2 setlinecap
1 LJ
1.225 LW
N
437.6 712 M
437.6 709.615 L
S
GR
GS
[0.99978 0 0 1.00027 0 -0.20483] CT
0.149 GC
2 setlinecap
1 LJ
1.225 LW
N
461.45 712 M
461.45 709.615 L
S
GR
GS
[0.99978 0 0 1.00027 0 -0.20483] CT
0.149 GC
2 setlinecap
1 LJ
1.225 LW
N
485.3 712 M
485.3 709.615 L
S
GR
GS
[0.99978 0 0 1.00027 0 -0.20483] CT
0.149 GC
2 setlinecap
1 LJ
1.225 LW
N
509.15 712 M
509.15 709.615 L
S
GR
GS
[0.99978 0 0 1.00027 0 -0.20483] CT
0.149 GC
2 setlinecap
1 LJ
1.225 LW
N
79.85 424 M
79.85 426.385 L
S
GR
GS
[0.99978 0 0 1.00027 0 -0.20483] CT
0.149 GC
2 setlinecap
1 LJ
1.225 LW
N
103.7 424 M
103.7 426.385 L
S
GR
GS
[0.99978 0 0 1.00027 0 -0.20483] CT
0.149 GC
2 setlinecap
1 LJ
1.225 LW
N
127.55 424 M
127.55 426.385 L
S
GR
GS
[0.99978 0 0 1.00027 0 -0.20483] CT
0.149 GC
2 setlinecap
1 LJ
1.225 LW
N
151.4 424 M
151.4 426.385 L
S
GR
GS
[0.99978 0 0 1.00027 0 -0.20483] CT
0.149 GC
2 setlinecap
1 LJ
1.225 LW
N
199.1 424 M
199.1 426.385 L
S
GR
GS
[0.99978 0 0 1.00027 0 -0.20483] CT
0.149 GC
2 setlinecap
1 LJ
1.225 LW
N
222.95 424 M
222.95 426.385 L
S
GR
GS
[0.99978 0 0 1.00027 0 -0.20483] CT
0.149 GC
2 setlinecap
1 LJ
1.225 LW
N
246.8 424 M
246.8 426.385 L
S
GR
GS
[0.99978 0 0 1.00027 0 -0.20483] CT
0.149 GC
2 setlinecap
1 LJ
1.225 LW
N
270.65 424 M
270.65 426.385 L
S
GR
GS
[0.99978 0 0 1.00027 0 -0.20483] CT
0.149 GC
2 setlinecap
1 LJ
1.225 LW
N
318.35 424 M
318.35 426.385 L
S
GR
GS
[0.99978 0 0 1.00027 0 -0.20483] CT
0.149 GC
2 setlinecap
1 LJ
1.225 LW
N
342.2 424 M
342.2 426.385 L
S
GR
GS
[0.99978 0 0 1.00027 0 -0.20483] CT
0.149 GC
2 setlinecap
1 LJ
1.225 LW
N
366.05 424 M
366.05 426.385 L
S
GR
GS
[0.99978 0 0 1.00027 0 -0.20483] CT
0.149 GC
2 setlinecap
1 LJ
1.225 LW
N
389.9 424 M
389.9 426.385 L
S
GR
GS
[0.99978 0 0 1.00027 0 -0.20483] CT
0.149 GC
2 setlinecap
1 LJ
1.225 LW
N
437.6 424 M
437.6 426.385 L
S
GR
GS
[0.99978 0 0 1.00027 0 -0.20483] CT
0.149 GC
2 setlinecap
1 LJ
1.225 LW
N
461.45 424 M
461.45 426.385 L
S
GR
GS
[0.99978 0 0 1.00027 0 -0.20483] CT
0.149 GC
2 setlinecap
1 LJ
1.225 LW
N
485.3 424 M
485.3 426.385 L
S
GR
GS
[0.99978 0 0 1.00027 0 -0.20483] CT
0.149 GC
2 setlinecap
1 LJ
1.225 LW
N
509.15 424 M
509.15 426.385 L
S
GR
GS
[0.99978 0 0 1.00027 55.9879 717.8376] CT
0.149 GC
/Times-Roman 19.25 F
GS
[1 0 0 1 0 0] CT
-5 18 moveto 
1 -1 scale
(0) t 
GR
GR
GS
[0.99978 0 0 1.00027 175.21214 717.8376] CT
0.149 GC
/Times-Roman 19.25 F
GS
[1 0 0 1 0 0] CT
-17 18 moveto 
1 -1 scale
(0.25) t 
GR
GR
GS
[0.99978 0 0 1.00027 294.43638 717.8376] CT
0.149 GC
/Times-Roman 19.25 F
GS
[1 0 0 1 0 0] CT
-12.5 18 moveto 
1 -1 scale
(0.5) t 
GR
GR
GS
[0.99978 0 0 1.00027 413.66062 717.8376] CT
0.149 GC
/Times-Roman 19.25 F
GS
[1 0 0 1 0 0] CT
-17 18 moveto 
1 -1 scale
(0.75) t 
GR
GR
GS
[0.99978 0 0 1.00027 532.88487 717.8376] CT
0.149 GC
/Times-Roman 19.25 F
GS
[1 0 0 1 0 0] CT
-5 18 moveto 
1 -1 scale
(1) t 
GR
GR
GS
[0.99978 0 0 1.00027 294.4366 762.31205] CT
0.149 GC
/Times-Roman 21 F
GS
[1 0 0 1 0 0] CT
-106.5 -5 moveto 
1 -1 scale
(Degree of lithiation NEG) t 
GR
GR
GS
[0.99978 0 0 1.00027 0 -0.20483] CT
0.149 GC
2 setlinecap
1 LJ
1.225 LW
N
56 712 M
56 424 L
S
GR
GS
[0.99978 0 0 1.00027 0 -0.20483] CT
0.149 GC
2 setlinecap
1 LJ
1.225 LW
N
533 712 M
533 424 L
S
GR
GS
[0.99978 0 0 1.00027 0 -0.20483] CT
0.149 GC
2 setlinecap
1 LJ
1.225 LW
N
56 712 M
60.77 712 L
S
GR
GS
[0.99978 0 0 1.00027 0 -0.20483] CT
0.149 GC
2 setlinecap
1 LJ
1.225 LW
N
56 640 M
60.77 640 L
S
GR
GS
[0.99978 0 0 1.00027 0 -0.20483] CT
0.149 GC
2 setlinecap
1 LJ
1.225 LW
N
56 568 M
60.77 568 L
S
GR
GS
[0.99978 0 0 1.00027 0 -0.20483] CT
0.149 GC
2 setlinecap
1 LJ
1.225 LW
N
56 496 M
60.77 496 L
S
GR
GS
[0.99978 0 0 1.00027 0 -0.20483] CT
0.149 GC
2 setlinecap
1 LJ
1.225 LW
N
56 424 M
60.77 424 L
S
GR
GS
[0.99978 0 0 1.00027 0 -0.20483] CT
0.149 GC
2 setlinecap
1 LJ
1.225 LW
N
533 712 M
528.23 712 L
S
GR
GS
[0.99978 0 0 1.00027 0 -0.20483] CT
0.149 GC
2 setlinecap
1 LJ
1.225 LW
N
533 640 M
528.23 640 L
S
GR
GS
[0.99978 0 0 1.00027 0 -0.20483] CT
0.149 GC
2 setlinecap
1 LJ
1.225 LW
N
533 568 M
528.23 568 L
S
GR
GS
[0.99978 0 0 1.00027 0 -0.20483] CT
0.149 GC
2 setlinecap
1 LJ
1.225 LW
N
533 496 M
528.23 496 L
S
GR
GS
[0.99978 0 0 1.00027 0 -0.20483] CT
0.149 GC
2 setlinecap
1 LJ
1.225 LW
N
533 424 M
528.23 424 L
S
GR
GS
[0.99978 0 0 1.00027 0 -0.20483] CT
0.149 GC
2 setlinecap
1 LJ
1.225 LW
N
56 697.6 M
58.385 697.6 L
S
GR
GS
[0.99978 0 0 1.00027 0 -0.20483] CT
0.149 GC
2 setlinecap
1 LJ
1.225 LW
N
56 683.2 M
58.385 683.2 L
S
GR
GS
[0.99978 0 0 1.00027 0 -0.20483] CT
0.149 GC
2 setlinecap
1 LJ
1.225 LW
N
56 668.8 M
58.385 668.8 L
S
GR
GS
[0.99978 0 0 1.00027 0 -0.20483] CT
0.149 GC
2 setlinecap
1 LJ
1.225 LW
N
56 654.4 M
58.385 654.4 L
S
GR
GS
[0.99978 0 0 1.00027 0 -0.20483] CT
0.149 GC
2 setlinecap
1 LJ
1.225 LW
N
56 625.6 M
58.385 625.6 L
S
GR
GS
[0.99978 0 0 1.00027 0 -0.20483] CT
0.149 GC
2 setlinecap
1 LJ
1.225 LW
N
56 611.2 M
58.385 611.2 L
S
GR
GS
[0.99978 0 0 1.00027 0 -0.20483] CT
0.149 GC
2 setlinecap
1 LJ
1.225 LW
N
56 596.8 M
58.385 596.8 L
S
GR
GS
[0.99978 0 0 1.00027 0 -0.20483] CT
0.149 GC
2 setlinecap
1 LJ
1.225 LW
N
56 582.4 M
58.385 582.4 L
S
GR
GS
[0.99978 0 0 1.00027 0 -0.20483] CT
0.149 GC
2 setlinecap
1 LJ
1.225 LW
N
56 553.6 M
58.385 553.6 L
S
GR
GS
[0.99978 0 0 1.00027 0 -0.20483] CT
0.149 GC
2 setlinecap
1 LJ
1.225 LW
N
56 539.2 M
58.385 539.2 L
S
GR
GS
[0.99978 0 0 1.00027 0 -0.20483] CT
0.149 GC
2 setlinecap
1 LJ
1.225 LW
N
56 524.8 M
58.385 524.8 L
S
GR
GS
[0.99978 0 0 1.00027 0 -0.20483] CT
0.149 GC
2 setlinecap
1 LJ
1.225 LW
N
56 510.4 M
58.385 510.4 L
S
GR
GS
[0.99978 0 0 1.00027 0 -0.20483] CT
0.149 GC
2 setlinecap
1 LJ
1.225 LW
N
56 481.6 M
58.385 481.6 L
S
GR
GS
[0.99978 0 0 1.00027 0 -0.20483] CT
0.149 GC
2 setlinecap
1 LJ
1.225 LW
N
56 467.2 M
58.385 467.2 L
S
GR
GS
[0.99978 0 0 1.00027 0 -0.20483] CT
0.149 GC
2 setlinecap
1 LJ
1.225 LW
N
56 452.8 M
58.385 452.8 L
S
GR
GS
[0.99978 0 0 1.00027 0 -0.20483] CT
0.149 GC
2 setlinecap
1 LJ
1.225 LW
N
56 438.4 M
58.385 438.4 L
S
GR
GS
[0.99978 0 0 1.00027 0 -0.20483] CT
0.149 GC
2 setlinecap
1 LJ
1.225 LW
N
533 697.6 M
530.615 697.6 L
S
GR
GS
[0.99978 0 0 1.00027 0 -0.20483] CT
0.149 GC
2 setlinecap
1 LJ
1.225 LW
N
533 683.2 M
530.615 683.2 L
S
GR
GS
[0.99978 0 0 1.00027 0 -0.20483] CT
0.149 GC
2 setlinecap
1 LJ
1.225 LW
N
533 668.8 M
530.615 668.8 L
S
GR
GS
[0.99978 0 0 1.00027 0 -0.20483] CT
0.149 GC
2 setlinecap
1 LJ
1.225 LW
N
533 654.4 M
530.615 654.4 L
S
GR
GS
[0.99978 0 0 1.00027 0 -0.20483] CT
0.149 GC
2 setlinecap
1 LJ
1.225 LW
N
533 625.6 M
530.615 625.6 L
S
GR
GS
[0.99978 0 0 1.00027 0 -0.20483] CT
0.149 GC
2 setlinecap
1 LJ
1.225 LW
N
533 611.2 M
530.615 611.2 L
S
GR
GS
[0.99978 0 0 1.00027 0 -0.20483] CT
0.149 GC
2 setlinecap
1 LJ
1.225 LW
N
533 596.8 M
530.615 596.8 L
S
GR
GS
[0.99978 0 0 1.00027 0 -0.20483] CT
0.149 GC
2 setlinecap
1 LJ
1.225 LW
N
533 582.4 M
530.615 582.4 L
S
GR
GS
[0.99978 0 0 1.00027 0 -0.20483] CT
0.149 GC
2 setlinecap
1 LJ
1.225 LW
N
533 553.6 M
530.615 553.6 L
S
GR
GS
[0.99978 0 0 1.00027 0 -0.20483] CT
0.149 GC
2 setlinecap
1 LJ
1.225 LW
N
533 539.2 M
530.615 539.2 L
S
GR
GS
[0.99978 0 0 1.00027 0 -0.20483] CT
0.149 GC
2 setlinecap
1 LJ
1.225 LW
N
533 524.8 M
530.615 524.8 L
S
GR
GS
[0.99978 0 0 1.00027 0 -0.20483] CT
0.149 GC
2 setlinecap
1 LJ
1.225 LW
N
533 510.4 M
530.615 510.4 L
S
GR
GS
[0.99978 0 0 1.00027 0 -0.20483] CT
0.149 GC
2 setlinecap
1 LJ
1.225 LW
N
533 481.6 M
530.615 481.6 L
S
GR
GS
[0.99978 0 0 1.00027 0 -0.20483] CT
0.149 GC
2 setlinecap
1 LJ
1.225 LW
N
533 467.2 M
530.615 467.2 L
S
GR
GS
[0.99978 0 0 1.00027 0 -0.20483] CT
0.149 GC
2 setlinecap
1 LJ
1.225 LW
N
533 452.8 M
530.615 452.8 L
S
GR
GS
[0.99978 0 0 1.00027 0 -0.20483] CT
0.149 GC
2 setlinecap
1 LJ
1.225 LW
N
533 438.4 M
530.615 438.4 L
S
GR
GS
[0.99978 0 0 1.00027 50.13916 711.98606] CT
0.149 GC
/Times-Roman 19.25 F
GS
[1 0 0 1 0 0] CT
-10 6.5 moveto 
1 -1 scale
(0) t 
GR
GR
GS
[0.99978 0 0 1.00027 50.13916 639.96675] CT
0.149 GC
/Times-Roman 19.25 F
GS
[1 0 0 1 0 0] CT
-25 6.5 moveto 
1 -1 scale
(0.5) t 
GR
GR
GS
[0.99978 0 0 1.00027 50.13916 567.94745] CT
0.149 GC
/Times-Roman 19.25 F
GS
[1 0 0 1 0 0] CT
-10 6.5 moveto 
1 -1 scale
(1) t 
GR
GR
GS
[0.99978 0 0 1.00027 50.13916 495.92815] CT
0.149 GC
/Times-Roman 19.25 F
GS
[1 0 0 1 0 0] CT
-25 6.5 moveto 
1 -1 scale
(1.5) t 
GR
GR
GS
[0.99978 0 0 1.00027 50.13916 423.90884] CT
0.149 GC
/Times-Roman 19.25 F
GS
[1 0 0 1 0 0] CT
-10 6.5 moveto 
1 -1 scale
(2) t 
GR
GR
GS
[0 -1.00027 0.99978 0 0.11114 567.94733] CT
0.149 GC
/Times-Roman 21 F
GS
[1 0 0 1 0 0] CT
-110 19 moveto 
1 -1 scale
(Open-circuit potential \(V\)) t 
GR
GR
GS
[0.99978 0 0 1.00027 294.43666 418.88006] CT
/Times-Roman 24.5 F
GS
[1 0 0 1 0 0] CT
-166 -6 moveto 
1 -1 scale
(Negative-electrode coin-cell OCP) t 
GR
GR
GS
[0.99978 0 0 1.00027 60.30831 524.84062] CT
1 0 0 RC
10.0 ML
3.15 LW
N
-3.536 -3.536 M
3.536 3.536 L
-3.536 3.536 M
3.536 -3.536 L
S
GR
GS
[0.99978 0 0 1.00027 426.33333 699.33985] CT
0.024 0.51 0 RC
10.0 ML
3.15 LW
N
4 0 M
4 -2.209 2.209 -4 0 -4 C
-2.209 -4 -4 -2.209 -4 0 C
-4 2.209 -2.209 4 0 4 C
2.209 4 4 2.209 4 0 C
cp
S
GR
GS
[0.99978 0 0 1.00027 0 -0.20483] CT
0 0 1 RC
1 LJ
3.15 LW
N
533 707.053 M
528.277 703.218 L
523.554 701.281 L
518.832 700.264 L
514.109 699.827 L
509.386 699.55 L
504.663 699.486 L
499.941 699.466 L
495.218 699.414 L
490.495 699.464 L
485.772 699.415 L
481.049 699.468 L
476.327 699.449 L
471.604 699.441 L
466.881 699.448 L
462.158 699.432 L
457.436 699.425 L
452.713 699.431 L
447.99 699.441 L
443.267 699.422 L
438.545 699.411 L
433.822 699.393 L
429.099 699.375 L
424.376 699.34 L
419.653 699.317 L
414.931 699.283 L
410.208 699.254 L
405.485 699.211 L
400.762 699.168 L
396.04 699.101 L
391.317 699.046 L
386.594 698.958 L
381.871 698.841 L
377.149 698.741 L
372.426 698.615 L
367.703 698.453 L
362.98 698.286 L
358.257 698.071 L
353.535 697.822 L
348.812 697.503 L
344.089 697.139 L
339.366 696.736 L
334.644 696.284 L
329.921 695.825 L
325.198 695.386 L
320.475 695.057 L
315.752 694.874 L
311.03 694.739 L
306.307 694.728 L
301.584 694.702 L
296.861 694.642 L
292.139 693.926 L
287.416 693.454 L
282.693 693.105 L
277.97 692.849 L
273.248 692.617 L
268.525 692.428 L
263.802 692.264 L
259.079 692.117 L
254.356 691.951 L
249.634 691.818 L
244.911 691.692 L
240.188 691.573 L
235.465 691.447 L
230.743 691.343 L
226.02 691.216 L
221.297 691.113 L
216.574 691.007 L
211.851 690.891 L
207.129 690.792 L
202.406 690.672 L
197.683 690.572 L
192.96 690.446 L
188.238 690.35 L
183.515 690.207 L
178.792 689.96 L
174.069 689.603 L
169.347 689.209 L
164.624 688.466 L
159.901 687.213 L
155.178 686.238 L
150.455 685.354 L
145.733 684.076 L
141.01 682.841 L
136.287 681.588 L
131.564 680.293 L
126.842 679.189 L
122.119 678.393 L
117.396 677.85 L
112.673 677.468 L
107.95 677.187 L
103.228 676.909 L
98.505 676.627 L
93.782 674.466 L
89.059 668.885 L
84.337 661.848 L
79.614 653.02 L
74.891 641.585 L
70.168 626.1 L
65.446 602.538 L
60.723 532.901 L
56 438.832 L
S
GR
GS
[0.99978 0 0 1.00027 0 -0.20483] CT
1 GC
N
164 504 M
164 432 L
64 432 L
64 504 L
cp
f
GR
GS
[0.99978 0 0 1.00027 100.97818 450.785] CT
/Times-Roman 30 F
GS
[1 0 0 1 0 0] CT
0 10 moveto 
1 -1 scale
(Q0N) t 
GR
GR
GS
[0.99978 0 0 1.00027 82.98207 450.785] CT
1 0 0 RC
10.0 ML
3.15 LW
N
-3.536 -3.536 M
3.536 3.536 L
-3.536 3.536 M
3.536 -3.536 L
S
GR
GS
[0.99978 0 0 1.00027 100.97818 485.05628] CT
/Times-Roman 30 F
GS
[1 0 0 1 0 0] CT
0 10 moveto 
1 -1 scale
(Q1N) t 
GR
GR
GS
[0.99978 0 0 1.00027 82.98207 485.05628] CT
0.024 0.51 0 RC
10.0 ML
3.15 LW
N
4 0 M
4 -2.209 2.209 -4 0 -4 C
-2.209 -4 -4 -2.209 -4 0 C
-4 2.209 -2.209 4 0 4 C
2.209 4 4 2.209 4 0 C
cp
S
GR
GS
[0.99978 0 0 1.00027 0 -0.20483] CT
0.149 GC
10.0 ML
1.225 LW
N
64 504 M
64 432 L
164 432 L
164 504 L
cp
S
GR
GS
[0.99978 0 0 1.00027 0 -0.20483] CT
1 GC
N
56 317 M
533 317 L
533 29 L
56 29 L
cp
f
GR
GS
[0.99978 0 0 1.00027 0 -0.20483] CT
0.873 GC
1 LJ
1.225 LW
N
56 317 M
56 29 L
S
GR
GS
[0.99978 0 0 1.00027 0 -0.20483] CT
0.873 GC
1 LJ
1.225 LW
N
175.25 317 M
175.25 29 L
S
GR
GS
[0.99978 0 0 1.00027 0 -0.20483] CT
0.873 GC
1 LJ
1.225 LW
N
294.5 317 M
294.5 29 L
S
GR
GS
[0.99978 0 0 1.00027 0 -0.20483] CT
0.873 GC
1 LJ
1.225 LW
N
413.75 317 M
413.75 29 L
S
GR
GS
[0.99978 0 0 1.00027 0 -0.20483] CT
0.873 GC
1 LJ
1.225 LW
N
533 317 M
533 29 L
S
GR
GS
[0.99978 0 0 1.00027 0 -0.20483] CT
0.873 GC
1 LJ
1.225 LW
N
533 285.865 M
56 285.865 L
S
GR
GS
[0.99978 0 0 1.00027 0 -0.20483] CT
0.873 GC
1 LJ
1.225 LW
N
533 208.027 M
56 208.027 L
S
GR
GS
[0.99978 0 0 1.00027 0 -0.20483] CT
0.873 GC
1 LJ
1.225 LW
N
533 130.189 M
56 130.189 L
S
GR
GS
[0.99978 0 0 1.00027 0 -0.20483] CT
0.873 GC
1 LJ
1.225 LW
N
533 52.351 M
56 52.351 L
S
GR
GS
[0.99978 0 0 1.00027 0 -0.20483] CT
0.149 GC
2 setlinecap
1 LJ
1.225 LW
N
56 317 M
533 317 L
S
GR
GS
[0.99978 0 0 1.00027 0 -0.20483] CT
0.149 GC
2 setlinecap
1 LJ
1.225 LW
N
56 29 M
533 29 L
S
GR
GS
[0.99978 0 0 1.00027 0 -0.20483] CT
0.149 GC
2 setlinecap
1 LJ
1.225 LW
N
56 317 M
56 312.23 L
S
GR
GS
[0.99978 0 0 1.00027 0 -0.20483] CT
0.149 GC
2 setlinecap
1 LJ
1.225 LW
N
175.25 317 M
175.25 312.23 L
S
GR
GS
[0.99978 0 0 1.00027 0 -0.20483] CT
0.149 GC
2 setlinecap
1 LJ
1.225 LW
N
294.5 317 M
294.5 312.23 L
S
GR
GS
[0.99978 0 0 1.00027 0 -0.20483] CT
0.149 GC
2 setlinecap
1 LJ
1.225 LW
N
413.75 317 M
413.75 312.23 L
S
GR
GS
[0.99978 0 0 1.00027 0 -0.20483] CT
0.149 GC
2 setlinecap
1 LJ
1.225 LW
N
533 317 M
533 312.23 L
S
GR
GS
[0.99978 0 0 1.00027 0 -0.20483] CT
0.149 GC
2 setlinecap
1 LJ
1.225 LW
N
56 29 M
56 33.77 L
S
GR
GS
[0.99978 0 0 1.00027 0 -0.20483] CT
0.149 GC
2 setlinecap
1 LJ
1.225 LW
N
175.25 29 M
175.25 33.77 L
S
GR
GS
[0.99978 0 0 1.00027 0 -0.20483] CT
0.149 GC
2 setlinecap
1 LJ
1.225 LW
N
294.5 29 M
294.5 33.77 L
S
GR
GS
[0.99978 0 0 1.00027 0 -0.20483] CT
0.149 GC
2 setlinecap
1 LJ
1.225 LW
N
413.75 29 M
413.75 33.77 L
S
GR
GS
[0.99978 0 0 1.00027 0 -0.20483] CT
0.149 GC
2 setlinecap
1 LJ
1.225 LW
N
533 29 M
533 33.77 L
S
GR
GS
[0.99978 0 0 1.00027 0 -0.20483] CT
0.149 GC
2 setlinecap
1 LJ
1.225 LW
N
79.85 317 M
79.85 314.615 L
S
GR
GS
[0.99978 0 0 1.00027 0 -0.20483] CT
0.149 GC
2 setlinecap
1 LJ
1.225 LW
N
103.7 317 M
103.7 314.615 L
S
GR
GS
[0.99978 0 0 1.00027 0 -0.20483] CT
0.149 GC
2 setlinecap
1 LJ
1.225 LW
N
127.55 317 M
127.55 314.615 L
S
GR
GS
[0.99978 0 0 1.00027 0 -0.20483] CT
0.149 GC
2 setlinecap
1 LJ
1.225 LW
N
151.4 317 M
151.4 314.615 L
S
GR
GS
[0.99978 0 0 1.00027 0 -0.20483] CT
0.149 GC
2 setlinecap
1 LJ
1.225 LW
N
199.1 317 M
199.1 314.615 L
S
GR
GS
[0.99978 0 0 1.00027 0 -0.20483] CT
0.149 GC
2 setlinecap
1 LJ
1.225 LW
N
222.95 317 M
222.95 314.615 L
S
GR
GS
[0.99978 0 0 1.00027 0 -0.20483] CT
0.149 GC
2 setlinecap
1 LJ
1.225 LW
N
246.8 317 M
246.8 314.615 L
S
GR
GS
[0.99978 0 0 1.00027 0 -0.20483] CT
0.149 GC
2 setlinecap
1 LJ
1.225 LW
N
270.65 317 M
270.65 314.615 L
S
GR
GS
[0.99978 0 0 1.00027 0 -0.20483] CT
0.149 GC
2 setlinecap
1 LJ
1.225 LW
N
318.35 317 M
318.35 314.615 L
S
GR
GS
[0.99978 0 0 1.00027 0 -0.20483] CT
0.149 GC
2 setlinecap
1 LJ
1.225 LW
N
342.2 317 M
342.2 314.615 L
S
GR
GS
[0.99978 0 0 1.00027 0 -0.20483] CT
0.149 GC
2 setlinecap
1 LJ
1.225 LW
N
366.05 317 M
366.05 314.615 L
S
GR
GS
[0.99978 0 0 1.00027 0 -0.20483] CT
0.149 GC
2 setlinecap
1 LJ
1.225 LW
N
389.9 317 M
389.9 314.615 L
S
GR
GS
[0.99978 0 0 1.00027 0 -0.20483] CT
0.149 GC
2 setlinecap
1 LJ
1.225 LW
N
437.6 317 M
437.6 314.615 L
S
GR
GS
[0.99978 0 0 1.00027 0 -0.20483] CT
0.149 GC
2 setlinecap
1 LJ
1.225 LW
N
461.45 317 M
461.45 314.615 L
S
GR
GS
[0.99978 0 0 1.00027 0 -0.20483] CT
0.149 GC
2 setlinecap
1 LJ
1.225 LW
N
485.3 317 M
485.3 314.615 L
S
GR
GS
[0.99978 0 0 1.00027 0 -0.20483] CT
0.149 GC
2 setlinecap
1 LJ
1.225 LW
N
509.15 317 M
509.15 314.615 L
S
GR
GS
[0.99978 0 0 1.00027 0 -0.20483] CT
0.149 GC
2 setlinecap
1 LJ
1.225 LW
N
79.85 29 M
79.85 31.385 L
S
GR
GS
[0.99978 0 0 1.00027 0 -0.20483] CT
0.149 GC
2 setlinecap
1 LJ
1.225 LW
N
103.7 29 M
103.7 31.385 L
S
GR
GS
[0.99978 0 0 1.00027 0 -0.20483] CT
0.149 GC
2 setlinecap
1 LJ
1.225 LW
N
127.55 29 M
127.55 31.385 L
S
GR
GS
[0.99978 0 0 1.00027 0 -0.20483] CT
0.149 GC
2 setlinecap
1 LJ
1.225 LW
N
151.4 29 M
151.4 31.385 L
S
GR
GS
[0.99978 0 0 1.00027 0 -0.20483] CT
0.149 GC
2 setlinecap
1 LJ
1.225 LW
N
199.1 29 M
199.1 31.385 L
S
GR
GS
[0.99978 0 0 1.00027 0 -0.20483] CT
0.149 GC
2 setlinecap
1 LJ
1.225 LW
N
222.95 29 M
222.95 31.385 L
S
GR
GS
[0.99978 0 0 1.00027 0 -0.20483] CT
0.149 GC
2 setlinecap
1 LJ
1.225 LW
N
246.8 29 M
246.8 31.385 L
S
GR
GS
[0.99978 0 0 1.00027 0 -0.20483] CT
0.149 GC
2 setlinecap
1 LJ
1.225 LW
N
270.65 29 M
270.65 31.385 L
S
GR
GS
[0.99978 0 0 1.00027 0 -0.20483] CT
0.149 GC
2 setlinecap
1 LJ
1.225 LW
N
318.35 29 M
318.35 31.385 L
S
GR
GS
[0.99978 0 0 1.00027 0 -0.20483] CT
0.149 GC
2 setlinecap
1 LJ
1.225 LW
N
342.2 29 M
342.2 31.385 L
S
GR
GS
[0.99978 0 0 1.00027 0 -0.20483] CT
0.149 GC
2 setlinecap
1 LJ
1.225 LW
N
366.05 29 M
366.05 31.385 L
S
GR
GS
[0.99978 0 0 1.00027 0 -0.20483] CT
0.149 GC
2 setlinecap
1 LJ
1.225 LW
N
389.9 29 M
389.9 31.385 L
S
GR
GS
[0.99978 0 0 1.00027 0 -0.20483] CT
0.149 GC
2 setlinecap
1 LJ
1.225 LW
N
437.6 29 M
437.6 31.385 L
S
GR
GS
[0.99978 0 0 1.00027 0 -0.20483] CT
0.149 GC
2 setlinecap
1 LJ
1.225 LW
N
461.45 29 M
461.45 31.385 L
S
GR
GS
[0.99978 0 0 1.00027 0 -0.20483] CT
0.149 GC
2 setlinecap
1 LJ
1.225 LW
N
485.3 29 M
485.3 31.385 L
S
GR
GS
[0.99978 0 0 1.00027 0 -0.20483] CT
0.149 GC
2 setlinecap
1 LJ
1.225 LW
N
509.15 29 M
509.15 31.385 L
S
GR
GS
[0.99978 0 0 1.00027 55.9879 322.73173] CT
0.149 GC
/Times-Roman 19.25 F
GS
[1 0 0 1 0 0] CT
-5 18 moveto 
1 -1 scale
(0) t 
GR
GR
GS
[0.99978 0 0 1.00027 175.21214 322.73173] CT
0.149 GC
/Times-Roman 19.25 F
GS
[1 0 0 1 0 0] CT
-17 18 moveto 
1 -1 scale
(0.25) t 
GR
GR
GS
[0.99978 0 0 1.00027 294.43638 322.73173] CT
0.149 GC
/Times-Roman 19.25 F
GS
[1 0 0 1 0 0] CT
-12.5 18 moveto 
1 -1 scale
(0.5) t 
GR
GR
GS
[0.99978 0 0 1.00027 413.66062 322.73173] CT
0.149 GC
/Times-Roman 19.25 F
GS
[1 0 0 1 0 0] CT
-17 18 moveto 
1 -1 scale
(0.75) t 
GR
GR
GS
[0.99978 0 0 1.00027 532.88487 322.73173] CT
0.149 GC
/Times-Roman 19.25 F
GS
[1 0 0 1 0 0] CT
-5 18 moveto 
1 -1 scale
(1) t 
GR
GR
GS
[0.99978 0 0 1.00027 294.4366 367.20615] CT
0.149 GC
/Times-Roman 21 F
GS
[1 0 0 1 0 0] CT
-81.5 -5 moveto 
1 -1 scale
(Cell state of charge) t 
GR
GR
GS
[0.99978 0 0 1.00027 0 -0.20483] CT
0.149 GC
2 setlinecap
1 LJ
1.225 LW
N
56 317 M
56 29 L
S
GR
GS
[0.99978 0 0 1.00027 0 -0.20483] CT
0.149 GC
2 setlinecap
1 LJ
1.225 LW
N
533 317 M
533 29 L
S
GR
GS
[0.99978 0 0 1.00027 0 -0.20483] CT
0.149 GC
2 setlinecap
1 LJ
1.225 LW
N
56 285.865 M
60.77 285.865 L
S
GR
GS
[0.99978 0 0 1.00027 0 -0.20483] CT
0.149 GC
2 setlinecap
1 LJ
1.225 LW
N
56 208.027 M
60.77 208.027 L
S
GR
GS
[0.99978 0 0 1.00027 0 -0.20483] CT
0.149 GC
2 setlinecap
1 LJ
1.225 LW
N
56 130.189 M
60.77 130.189 L
S
GR
GS
[0.99978 0 0 1.00027 0 -0.20483] CT
0.149 GC
2 setlinecap
1 LJ
1.225 LW
N
56 52.351 M
60.77 52.351 L
S
GR
GS
[0.99978 0 0 1.00027 0 -0.20483] CT
0.149 GC
2 setlinecap
1 LJ
1.225 LW
N
533 285.865 M
528.23 285.865 L
S
GR
GS
[0.99978 0 0 1.00027 0 -0.20483] CT
0.149 GC
2 setlinecap
1 LJ
1.225 LW
N
533 208.027 M
528.23 208.027 L
S
GR
GS
[0.99978 0 0 1.00027 0 -0.20483] CT
0.149 GC
2 setlinecap
1 LJ
1.225 LW
N
533 130.189 M
528.23 130.189 L
S
GR
GS
[0.99978 0 0 1.00027 0 -0.20483] CT
0.149 GC
2 setlinecap
1 LJ
1.225 LW
N
533 52.351 M
528.23 52.351 L
S
GR
GS
[0.99978 0 0 1.00027 0 -0.20483] CT
0.149 GC
2 setlinecap
1 LJ
1.225 LW
N
56 317 M
58.385 317 L
S
GR
GS
[0.99978 0 0 1.00027 0 -0.20483] CT
0.149 GC
2 setlinecap
1 LJ
1.225 LW
N
56 301.432 M
58.385 301.432 L
S
GR
GS
[0.99978 0 0 1.00027 0 -0.20483] CT
0.149 GC
2 setlinecap
1 LJ
1.225 LW
N
56 270.297 M
58.385 270.297 L
S
GR
GS
[0.99978 0 0 1.00027 0 -0.20483] CT
0.149 GC
2 setlinecap
1 LJ
1.225 LW
N
56 254.73 M
58.385 254.73 L
S
GR
GS
[0.99978 0 0 1.00027 0 -0.20483] CT
0.149 GC
2 setlinecap
1 LJ
1.225 LW
N
56 239.162 M
58.385 239.162 L
S
GR
GS
[0.99978 0 0 1.00027 0 -0.20483] CT
0.149 GC
2 setlinecap
1 LJ
1.225 LW
N
56 223.595 M
58.385 223.595 L
S
GR
GS
[0.99978 0 0 1.00027 0 -0.20483] CT
0.149 GC
2 setlinecap
1 LJ
1.225 LW
N
56 192.459 M
58.385 192.459 L
S
GR
GS
[0.99978 0 0 1.00027 0 -0.20483] CT
0.149 GC
2 setlinecap
1 LJ
1.225 LW
N
56 176.892 M
58.385 176.892 L
S
GR
GS
[0.99978 0 0 1.00027 0 -0.20483] CT
0.149 GC
2 setlinecap
1 LJ
1.225 LW
N
56 161.324 M
58.385 161.324 L
S
GR
GS
[0.99978 0 0 1.00027 0 -0.20483] CT
0.149 GC
2 setlinecap
1 LJ
1.225 LW
N
56 145.757 M
58.385 145.757 L
S
GR
GS
[0.99978 0 0 1.00027 0 -0.20483] CT
0.149 GC
2 setlinecap
1 LJ
1.225 LW
N
56 114.622 M
58.385 114.622 L
S
GR
GS
[0.99978 0 0 1.00027 0 -0.20483] CT
0.149 GC
2 setlinecap
1 LJ
1.225 LW
N
56 99.054 M
58.385 99.054 L
S
GR
GS
[0.99978 0 0 1.00027 0 -0.20483] CT
0.149 GC
2 setlinecap
1 LJ
1.225 LW
N
56 83.486 M
58.385 83.486 L
S
GR
GS
[0.99978 0 0 1.00027 0 -0.20483] CT
0.149 GC
2 setlinecap
1 LJ
1.225 LW
N
56 67.919 M
58.385 67.919 L
S
GR
GS
[0.99978 0 0 1.00027 0 -0.20483] CT
0.149 GC
2 setlinecap
1 LJ
1.225 LW
N
56 36.784 M
58.385 36.784 L
S
GR
GS
[0.99978 0 0 1.00027 0 -0.20483] CT
0.149 GC
2 setlinecap
1 LJ
1.225 LW
N
533 317 M
530.615 317 L
S
GR
GS
[0.99978 0 0 1.00027 0 -0.20483] CT
0.149 GC
2 setlinecap
1 LJ
1.225 LW
N
533 301.432 M
530.615 301.432 L
S
GR
GS
[0.99978 0 0 1.00027 0 -0.20483] CT
0.149 GC
2 setlinecap
1 LJ
1.225 LW
N
533 270.297 M
530.615 270.297 L
S
GR
GS
[0.99978 0 0 1.00027 0 -0.20483] CT
0.149 GC
2 setlinecap
1 LJ
1.225 LW
N
533 254.73 M
530.615 254.73 L
S
GR
GS
[0.99978 0 0 1.00027 0 -0.20483] CT
0.149 GC
2 setlinecap
1 LJ
1.225 LW
N
533 239.162 M
530.615 239.162 L
S
GR
GS
[0.99978 0 0 1.00027 0 -0.20483] CT
0.149 GC
2 setlinecap
1 LJ
1.225 LW
N
533 223.595 M
530.615 223.595 L
S
GR
GS
[0.99978 0 0 1.00027 0 -0.20483] CT
0.149 GC
2 setlinecap
1 LJ
1.225 LW
N
533 192.459 M
530.615 192.459 L
S
GR
GS
[0.99978 0 0 1.00027 0 -0.20483] CT
0.149 GC
2 setlinecap
1 LJ
1.225 LW
N
533 176.892 M
530.615 176.892 L
S
GR
GS
[0.99978 0 0 1.00027 0 -0.20483] CT
0.149 GC
2 setlinecap
1 LJ
1.225 LW
N
533 161.324 M
530.615 161.324 L
S
GR
GS
[0.99978 0 0 1.00027 0 -0.20483] CT
0.149 GC
2 setlinecap
1 LJ
1.225 LW
N
533 145.757 M
530.615 145.757 L
S
GR
GS
[0.99978 0 0 1.00027 0 -0.20483] CT
0.149 GC
2 setlinecap
1 LJ
1.225 LW
N
533 114.622 M
530.615 114.622 L
S
GR
GS
[0.99978 0 0 1.00027 0 -0.20483] CT
0.149 GC
2 setlinecap
1 LJ
1.225 LW
N
533 99.054 M
530.615 99.054 L
S
GR
GS
[0.99978 0 0 1.00027 0 -0.20483] CT
0.149 GC
2 setlinecap
1 LJ
1.225 LW
N
533 83.486 M
530.615 83.486 L
S
GR
GS
[0.99978 0 0 1.00027 0 -0.20483] CT
0.149 GC
2 setlinecap
1 LJ
1.225 LW
N
533 67.919 M
530.615 67.919 L
S
GR
GS
[0.99978 0 0 1.00027 0 -0.20483] CT
0.149 GC
2 setlinecap
1 LJ
1.225 LW
N
533 36.784 M
530.615 36.784 L
S
GR
GS
[0.99978 0 0 1.00027 50.13917 285.73668] CT
0.149 GC
/Times-Roman 19.25 F
GS
[1 0 0 1 0 0] CT
-25 6.5 moveto 
1 -1 scale
(2.5) t 
GR
GR
GS
[0.99978 0 0 1.00027 50.13917 207.87796] CT
0.149 GC
/Times-Roman 19.25 F
GS
[1 0 0 1 0 0] CT
-10 6.5 moveto 
1 -1 scale
(3) t 
GR
GR
GS
[0.99978 0 0 1.00027 50.13917 130.01926] CT
0.149 GC
/Times-Roman 19.25 F
GS
[1 0 0 1 0 0] CT
-25 6.5 moveto 
1 -1 scale
(3.5) t 
GR
GR
GS
[0.99978 0 0 1.00027 50.13917 52.16055] CT
0.149 GC
/Times-Roman 19.25 F
GS
[1 0 0 1 0 0] CT
-10 6.5 moveto 
1 -1 scale
(4) t 
GR
GR
GS
[0 -1.00027 0.99978 0 0.11113 172.84141] CT
0.149 GC
/Times-Roman 21 F
GS
[1 0 0 1 0 0] CT
-104 19 moveto 
1 -1 scale
(Open-circuit voltage \(V\)) t 
GR
GR
GS
[0.99978 0 0 1.00027 294.43666 23.77415] CT
/Times-Roman 24.5 F
GS
[1 0 0 1 0 0] CT
-131.5 -6 moveto 
1 -1 scale
(Full-cell OCV relationship) t 
GR
GR
GS
[0.99978 0 0 1.00027 55.9879 303.49937] CT
1 0 0 RC
10.0 ML
3.15 LW
N
-3.536 -3.536 M
3.536 3.536 L
-3.536 3.536 M
3.536 -3.536 L
S
GR
GS
[0.99978 0 0 1.00027 532.88487 36.93558] CT
0.024 0.51 0 RC
10.0 ML
3.15 LW
N
4 0 M
4 -2.209 2.209 -4 0 -4 C
-2.209 -4 -4 -2.209 -4 0 C
-4 2.209 -2.209 4 0 4 C
2.209 4 4 2.209 4 0 C
cp
S
GR
GS
[0.99978 0 0 1.00027 0 -0.20483] CT
0 0 1 RC
1 LJ
3.15 LW
N
56 303.623 M
60.77 242.108 L
65.54 210.448 L
70.31 191.802 L
75.08 178.064 L
79.85 167.318 L
84.62 158.536 L
89.39 151.2 L
94.16 144.996 L
98.93 139.842 L
103.7 136.644 L
108.47 135.712 L
113.24 135.09 L
118.01 134.487 L
122.78 133.85 L
127.55 133.139 L
132.32 132.331 L
137.09 131.379 L
141.86 130.206 L
146.63 128.859 L
151.4 127.404 L
156.17 125.916 L
160.94 124.566 L
165.71 123.143 L
170.48 121.643 L
175.25 120.505 L
180.02 119.443 L
184.79 118.146 L
189.56 116.693 L
194.33 115.738 L
199.1 115.17 L
203.87 114.633 L
208.64 114.052 L
213.41 113.477 L
218.18 112.94 L
222.95 112.442 L
227.72 111.995 L
232.49 111.53 L
237.26 111.051 L
242.03 110.586 L
246.8 110.114 L
251.57 109.637 L
256.34 109.142 L
261.11 108.642 L
265.88 108.132 L
270.65 107.608 L
275.42 107.049 L
280.19 106.48 L
284.96 105.91 L
289.73 105.284 L
294.5 104.652 L
299.27 104.09 L
304.04 103.519 L
308.81 102.915 L
313.58 102.268 L
318.35 101.606 L
323.12 100.904 L
327.89 100.191 L
332.66 99.412 L
337.43 98.61 L
342.2 97.768 L
346.97 96.869 L
351.74 95.902 L
356.51 94.861 L
361.28 93.687 L
366.05 92.346 L
370.82 90.767 L
375.59 88.959 L
380.36 87.018 L
385.13 85.205 L
389.9 83.576 L
394.67 82.079 L
399.44 80.661 L
404.21 79.289 L
408.98 77.932 L
413.75 76.575 L
418.52 75.217 L
423.29 73.858 L
428.06 72.488 L
432.83 71.087 L
437.6 69.69 L
442.37 68.278 L
447.14 66.843 L
451.91 65.4 L
456.68 63.953 L
461.45 62.479 L
466.22 60.983 L
470.99 59.474 L
475.76 57.95 L
480.53 56.406 L
485.3 54.838 L
490.07 53.257 L
494.84 51.643 L
499.61 50.002 L
504.38 48.339 L
509.15 46.643 L
513.92 44.919 L
518.69 43.129 L
523.46 41.292 L
528.23 39.377 L
533 37.13 L
S
GR
GS
[0.99978 0 0 1.00027 0 -0.20483] CT
1 GC
N
169 109 M
169 37 L
64 37 L
64 109 L
cp
f
GR
GS
[0.99978 0 0 1.00027 100.97818 55.67911] CT
/Times-Roman 30 F
GS
[1 0 0 1 0 0] CT
0 10 moveto 
1 -1 scale
(Z0) t 
GR
GR
GS
[0.99978 0 0 1.00027 82.98207 55.67911] CT
1 0 0 RC
10.0 ML
3.15 LW
N
-3.536 -3.536 M
3.536 3.536 L
-3.536 3.536 M
3.536 -3.536 L
S
GR
GS
[0.99978 0 0 1.00027 100.97818 89.95037] CT
/Times-Roman 30 F
GS
[1 0 0 1 0 0] CT
0 10 moveto 
1 -1 scale
(Z100) t 
GR
GR
GS
[0.99978 0 0 1.00027 82.98207 89.95037] CT
0.024 0.51 0 RC
10.0 ML
3.15 LW
N
4 0 M
4 -2.209 2.209 -4 0 -4 C
-2.209 -4 -4 -2.209 -4 0 C
-4 2.209 -2.209 4 0 4 C
2.209 4 4 2.209 4 0 C
cp
S
GR
GS
[0.99978 0 0 1.00027 0 -0.20483] CT
0.149 GC
10.0 ML
1.225 LW
N
64 109 M
64 37 L
169 37 L
169 109 L
cp
S
GR
GS
[0.99978 0 0 1.00027 0 -0.20483] CT
1 GC
N
624 317 M
1101 317 L
1101 29 L
624 29 L
cp
f
GR
GS
[0.99978 0 0 1.00027 0 -0.20483] CT
0.873 GC
1 LJ
1.225 LW
N
624 317 M
624 29 L
S
GR
GS
[0.99978 0 0 1.00027 0 -0.20483] CT
0.873 GC
1 LJ
1.225 LW
N
743.25 317 M
743.25 29 L
S
GR
GS
[0.99978 0 0 1.00027 0 -0.20483] CT
0.873 GC
1 LJ
1.225 LW
N
862.5 317 M
862.5 29 L
S
GR
GS
[0.99978 0 0 1.00027 0 -0.20483] CT
0.873 GC
1 LJ
1.225 LW
N
981.75 317 M
981.75 29 L
S
GR
GS
[0.99978 0 0 1.00027 0 -0.20483] CT
0.873 GC
1 LJ
1.225 LW
N
1101 317 M
1101 29 L
S
GR
GS
[0.99978 0 0 1.00027 0 -0.20483] CT
0.873 GC
1 LJ
1.225 LW
N
1101 288.2 M
624 288.2 L
S
GR
GS
[0.99978 0 0 1.00027 0 -0.20483] CT
0.873 GC
1 LJ
1.225 LW
N
1101 230.6 M
624 230.6 L
S
GR
GS
[0.99978 0 0 1.00027 0 -0.20483] CT
0.873 GC
1 LJ
1.225 LW
N
1101 173 M
624 173 L
S
GR
GS
[0.99978 0 0 1.00027 0 -0.20483] CT
0.873 GC
1 LJ
1.225 LW
N
1101 115.4 M
624 115.4 L
S
GR
GS
[0.99978 0 0 1.00027 0 -0.20483] CT
0.873 GC
1 LJ
1.225 LW
N
1101 57.8 M
624 57.8 L
S
GR
GS
[0.99978 0 0 1.00027 0 -0.20483] CT
0.149 GC
2 setlinecap
1 LJ
1.225 LW
N
624 317 M
1101 317 L
S
GR
GS
[0.99978 0 0 1.00027 0 -0.20483] CT
0.149 GC
2 setlinecap
1 LJ
1.225 LW
N
624 29 M
1101 29 L
S
GR
GS
[0.99978 0 0 1.00027 0 -0.20483] CT
0.149 GC
2 setlinecap
1 LJ
1.225 LW
N
624 317 M
624 312.23 L
S
GR
GS
[0.99978 0 0 1.00027 0 -0.20483] CT
0.149 GC
2 setlinecap
1 LJ
1.225 LW
N
743.25 317 M
743.25 312.23 L
S
GR
GS
[0.99978 0 0 1.00027 0 -0.20483] CT
0.149 GC
2 setlinecap
1 LJ
1.225 LW
N
862.5 317 M
862.5 312.23 L
S
GR
GS
[0.99978 0 0 1.00027 0 -0.20483] CT
0.149 GC
2 setlinecap
1 LJ
1.225 LW
N
981.75 317 M
981.75 312.23 L
S
GR
GS
[0.99978 0 0 1.00027 0 -0.20483] CT
0.149 GC
2 setlinecap
1 LJ
1.225 LW
N
1101 317 M
1101 312.23 L
S
GR
GS
[0.99978 0 0 1.00027 0 -0.20483] CT
0.149 GC
2 setlinecap
1 LJ
1.225 LW
N
624 29 M
624 33.77 L
S
GR
GS
[0.99978 0 0 1.00027 0 -0.20483] CT
0.149 GC
2 setlinecap
1 LJ
1.225 LW
N
743.25 29 M
743.25 33.77 L
S
GR
GS
[0.99978 0 0 1.00027 0 -0.20483] CT
0.149 GC
2 setlinecap
1 LJ
1.225 LW
N
862.5 29 M
862.5 33.77 L
S
GR
GS
[0.99978 0 0 1.00027 0 -0.20483] CT
0.149 GC
2 setlinecap
1 LJ
1.225 LW
N
981.75 29 M
981.75 33.77 L
S
GR
GS
[0.99978 0 0 1.00027 0 -0.20483] CT
0.149 GC
2 setlinecap
1 LJ
1.225 LW
N
1101 29 M
1101 33.77 L
S
GR
GS
[0.99978 0 0 1.00027 0 -0.20483] CT
0.149 GC
2 setlinecap
1 LJ
1.225 LW
N
647.85 317 M
647.85 314.615 L
S
GR
GS
[0.99978 0 0 1.00027 0 -0.20483] CT
0.149 GC
2 setlinecap
1 LJ
1.225 LW
N
671.7 317 M
671.7 314.615 L
S
GR
GS
[0.99978 0 0 1.00027 0 -0.20483] CT
0.149 GC
2 setlinecap
1 LJ
1.225 LW
N
695.55 317 M
695.55 314.615 L
S
GR
GS
[0.99978 0 0 1.00027 0 -0.20483] CT
0.149 GC
2 setlinecap
1 LJ
1.225 LW
N
719.4 317 M
719.4 314.615 L
S
GR
GS
[0.99978 0 0 1.00027 0 -0.20483] CT
0.149 GC
2 setlinecap
1 LJ
1.225 LW
N
767.1 317 M
767.1 314.615 L
S
GR
GS
[0.99978 0 0 1.00027 0 -0.20483] CT
0.149 GC
2 setlinecap
1 LJ
1.225 LW
N
790.95 317 M
790.95 314.615 L
S
GR
GS
[0.99978 0 0 1.00027 0 -0.20483] CT
0.149 GC
2 setlinecap
1 LJ
1.225 LW
N
814.8 317 M
814.8 314.615 L
S
GR
GS
[0.99978 0 0 1.00027 0 -0.20483] CT
0.149 GC
2 setlinecap
1 LJ
1.225 LW
N
838.65 317 M
838.65 314.615 L
S
GR
GS
[0.99978 0 0 1.00027 0 -0.20483] CT
0.149 GC
2 setlinecap
1 LJ
1.225 LW
N
886.35 317 M
886.35 314.615 L
S
GR
GS
[0.99978 0 0 1.00027 0 -0.20483] CT
0.149 GC
2 setlinecap
1 LJ
1.225 LW
N
910.2 317 M
910.2 314.615 L
S
GR
GS
[0.99978 0 0 1.00027 0 -0.20483] CT
0.149 GC
2 setlinecap
1 LJ
1.225 LW
N
934.05 317 M
934.05 314.615 L
S
GR
GS
[0.99978 0 0 1.00027 0 -0.20483] CT
0.149 GC
2 setlinecap
1 LJ
1.225 LW
N
957.9 317 M
957.9 314.615 L
S
GR
GS
[0.99978 0 0 1.00027 0 -0.20483] CT
0.149 GC
2 setlinecap
1 LJ
1.225 LW
N
1005.6 317 M
1005.6 314.615 L
S
GR
GS
[0.99978 0 0 1.00027 0 -0.20483] CT
0.149 GC
2 setlinecap
1 LJ
1.225 LW
N
1029.45 317 M
1029.45 314.615 L
S
GR
GS
[0.99978 0 0 1.00027 0 -0.20483] CT
0.149 GC
2 setlinecap
1 LJ
1.225 LW
N
1053.3 317 M
1053.3 314.615 L
S
GR
GS
[0.99978 0 0 1.00027 0 -0.20483] CT
0.149 GC
2 setlinecap
1 LJ
1.225 LW
N
1077.15 317 M
1077.15 314.615 L
S
GR
GS
[0.99978 0 0 1.00027 0 -0.20483] CT
0.149 GC
2 setlinecap
1 LJ
1.225 LW
N
647.85 29 M
647.85 31.385 L
S
GR
GS
[0.99978 0 0 1.00027 0 -0.20483] CT
0.149 GC
2 setlinecap
1 LJ
1.225 LW
N
671.7 29 M
671.7 31.385 L
S
GR
GS
[0.99978 0 0 1.00027 0 -0.20483] CT
0.149 GC
2 setlinecap
1 LJ
1.225 LW
N
695.55 29 M
695.55 31.385 L
S
GR
GS
[0.99978 0 0 1.00027 0 -0.20483] CT
0.149 GC
2 setlinecap
1 LJ
1.225 LW
N
719.4 29 M
719.4 31.385 L
S
GR
GS
[0.99978 0 0 1.00027 0 -0.20483] CT
0.149 GC
2 setlinecap
1 LJ
1.225 LW
N
767.1 29 M
767.1 31.385 L
S
GR
GS
[0.99978 0 0 1.00027 0 -0.20483] CT
0.149 GC
2 setlinecap
1 LJ
1.225 LW
N
790.95 29 M
790.95 31.385 L
S
GR
GS
[0.99978 0 0 1.00027 0 -0.20483] CT
0.149 GC
2 setlinecap
1 LJ
1.225 LW
N
814.8 29 M
814.8 31.385 L
S
GR
GS
[0.99978 0 0 1.00027 0 -0.20483] CT
0.149 GC
2 setlinecap
1 LJ
1.225 LW
N
838.65 29 M
838.65 31.385 L
S
GR
GS
[0.99978 0 0 1.00027 0 -0.20483] CT
0.149 GC
2 setlinecap
1 LJ
1.225 LW
N
886.35 29 M
886.35 31.385 L
S
GR
GS
[0.99978 0 0 1.00027 0 -0.20483] CT
0.149 GC
2 setlinecap
1 LJ
1.225 LW
N
910.2 29 M
910.2 31.385 L
S
GR
GS
[0.99978 0 0 1.00027 0 -0.20483] CT
0.149 GC
2 setlinecap
1 LJ
1.225 LW
N
934.05 29 M
934.05 31.385 L
S
GR
GS
[0.99978 0 0 1.00027 0 -0.20483] CT
0.149 GC
2 setlinecap
1 LJ
1.225 LW
N
957.9 29 M
957.9 31.385 L
S
GR
GS
[0.99978 0 0 1.00027 0 -0.20483] CT
0.149 GC
2 setlinecap
1 LJ
1.225 LW
N
1005.6 29 M
1005.6 31.385 L
S
GR
GS
[0.99978 0 0 1.00027 0 -0.20483] CT
0.149 GC
2 setlinecap
1 LJ
1.225 LW
N
1029.45 29 M
1029.45 31.385 L
S
GR
GS
[0.99978 0 0 1.00027 0 -0.20483] CT
0.149 GC
2 setlinecap
1 LJ
1.225 LW
N
1053.3 29 M
1053.3 31.385 L
S
GR
GS
[0.99978 0 0 1.00027 0 -0.20483] CT
0.149 GC
2 setlinecap
1 LJ
1.225 LW
N
1077.15 29 M
1077.15 31.385 L
S
GR
GS
[0.99978 0 0 1.00027 623.86521 322.73176] CT
0.149 GC
/Times-Roman 19.25 F
GS
[1 0 0 1 0 0] CT
-5 18 moveto 
1 -1 scale
(0) t 
GR
GR
GS
[0.99978 0 0 1.00027 743.08945 322.73176] CT
0.149 GC
/Times-Roman 19.25 F
GS
[1 0 0 1 0 0] CT
-17 18 moveto 
1 -1 scale
(0.25) t 
GR
GR
GS
[0.99978 0 0 1.00027 862.31369 322.73176] CT
0.149 GC
/Times-Roman 19.25 F
GS
[1 0 0 1 0 0] CT
-12.5 18 moveto 
1 -1 scale
(0.5) t 
GR
GR
GS
[0.99978 0 0 1.00027 981.53793 322.73176] CT
0.149 GC
/Times-Roman 19.25 F
GS
[1 0 0 1 0 0] CT
-17 18 moveto 
1 -1 scale
(0.75) t 
GR
GR
GS
[0.99978 0 0 1.00027 1100.76217 322.73176] CT
0.149 GC
/Times-Roman 19.25 F
GS
[1 0 0 1 0 0] CT
-5 18 moveto 
1 -1 scale
(1) t 
GR
GR
GS
[0.99978 0 0 1.00027 862.31393 367.20618] CT
0.149 GC
/Times-Roman 21 F
GS
[1 0 0 1 0 0] CT
-104.5 -5 moveto 
1 -1 scale
(Degree of lithiation POS) t 
GR
GR
GS
[0.99978 0 0 1.00027 0 -0.20483] CT
0.149 GC
2 setlinecap
1 LJ
1.225 LW
N
624 317 M
624 29 L
S
GR
GS
[0.99978 0 0 1.00027 0 -0.20483] CT
0.149 GC
2 setlinecap
1 LJ
1.225 LW
N
1101 317 M
1101 29 L
S
GR
GS
[0.99978 0 0 1.00027 0 -0.20483] CT
0.149 GC
2 setlinecap
1 LJ
1.225 LW
N
624 288.2 M
628.77 288.2 L
S
GR
GS
[0.99978 0 0 1.00027 0 -0.20483] CT
0.149 GC
2 setlinecap
1 LJ
1.225 LW
N
624 230.6 M
628.77 230.6 L
S
GR
GS
[0.99978 0 0 1.00027 0 -0.20483] CT
0.149 GC
2 setlinecap
1 LJ
1.225 LW
N
624 173 M
628.77 173 L
S
GR
GS
[0.99978 0 0 1.00027 0 -0.20483] CT
0.149 GC
2 setlinecap
1 LJ
1.225 LW
N
624 115.4 M
628.77 115.4 L
S
GR
GS
[0.99978 0 0 1.00027 0 -0.20483] CT
0.149 GC
2 setlinecap
1 LJ
1.225 LW
N
624 57.8 M
628.77 57.8 L
S
GR
GS
[0.99978 0 0 1.00027 0 -0.20483] CT
0.149 GC
2 setlinecap
1 LJ
1.225 LW
N
1101 288.2 M
1096.23 288.2 L
S
GR
GS
[0.99978 0 0 1.00027 0 -0.20483] CT
0.149 GC
2 setlinecap
1 LJ
1.225 LW
N
1101 230.6 M
1096.23 230.6 L
S
GR
GS
[0.99978 0 0 1.00027 0 -0.20483] CT
0.149 GC
2 setlinecap
1 LJ
1.225 LW
N
1101 173 M
1096.23 173 L
S
GR
GS
[0.99978 0 0 1.00027 0 -0.20483] CT
0.149 GC
2 setlinecap
1 LJ
1.225 LW
N
1101 115.4 M
1096.23 115.4 L
S
GR
GS
[0.99978 0 0 1.00027 0 -0.20483] CT
0.149 GC
2 setlinecap
1 LJ
1.225 LW
N
1101 57.8 M
1096.23 57.8 L
S
GR
GS
[0.99978 0 0 1.00027 0 -0.20483] CT
0.149 GC
2 setlinecap
1 LJ
1.225 LW
N
624 317 M
626.385 317 L
S
GR
GS
[0.99978 0 0 1.00027 0 -0.20483] CT
0.149 GC
2 setlinecap
1 LJ
1.225 LW
N
624 302.6 M
626.385 302.6 L
S
GR
GS
[0.99978 0 0 1.00027 0 -0.20483] CT
0.149 GC
2 setlinecap
1 LJ
1.225 LW
N
624 273.8 M
626.385 273.8 L
S
GR
GS
[0.99978 0 0 1.00027 0 -0.20483] CT
0.149 GC
2 setlinecap
1 LJ
1.225 LW
N
624 259.4 M
626.385 259.4 L
S
GR
GS
[0.99978 0 0 1.00027 0 -0.20483] CT
0.149 GC
2 setlinecap
1 LJ
1.225 LW
N
624 245 M
626.385 245 L
S
GR
GS
[0.99978 0 0 1.00027 0 -0.20483] CT
0.149 GC
2 setlinecap
1 LJ
1.225 LW
N
624 216.2 M
626.385 216.2 L
S
GR
GS
[0.99978 0 0 1.00027 0 -0.20483] CT
0.149 GC
2 setlinecap
1 LJ
1.225 LW
N
624 201.8 M
626.385 201.8 L
S
GR
GS
[0.99978 0 0 1.00027 0 -0.20483] CT
0.149 GC
2 setlinecap
1 LJ
1.225 LW
N
624 187.4 M
626.385 187.4 L
S
GR
GS
[0.99978 0 0 1.00027 0 -0.20483] CT
0.149 GC
2 setlinecap
1 LJ
1.225 LW
N
624 158.6 M
626.385 158.6 L
S
GR
GS
[0.99978 0 0 1.00027 0 -0.20483] CT
0.149 GC
2 setlinecap
1 LJ
1.225 LW
N
624 144.2 M
626.385 144.2 L
S
GR
GS
[0.99978 0 0 1.00027 0 -0.20483] CT
0.149 GC
2 setlinecap
1 LJ
1.225 LW
N
624 129.8 M
626.385 129.8 L
S
GR
GS
[0.99978 0 0 1.00027 0 -0.20483] CT
0.149 GC
2 setlinecap
1 LJ
1.225 LW
N
624 101 M
626.385 101 L
S
GR
GS
[0.99978 0 0 1.00027 0 -0.20483] CT
0.149 GC
2 setlinecap
1 LJ
1.225 LW
N
624 86.6 M
626.385 86.6 L
S
GR
GS
[0.99978 0 0 1.00027 0 -0.20483] CT
0.149 GC
2 setlinecap
1 LJ
1.225 LW
N
624 72.2 M
626.385 72.2 L
S
GR
GS
[0.99978 0 0 1.00027 0 -0.20483] CT
0.149 GC
2 setlinecap
1 LJ
1.225 LW
N
624 43.4 M
626.385 43.4 L
S
GR
GS
[0.99978 0 0 1.00027 0 -0.20483] CT
0.149 GC
2 setlinecap
1 LJ
1.225 LW
N
624 29 M
626.385 29 L
S
GR
GS
[0.99978 0 0 1.00027 0 -0.20483] CT
0.149 GC
2 setlinecap
1 LJ
1.225 LW
N
1101 317 M
1098.615 317 L
S
GR
GS
[0.99978 0 0 1.00027 0 -0.20483] CT
0.149 GC
2 setlinecap
1 LJ
1.225 LW
N
1101 302.6 M
1098.615 302.6 L
S
GR
GS
[0.99978 0 0 1.00027 0 -0.20483] CT
0.149 GC
2 setlinecap
1 LJ
1.225 LW
N
1101 273.8 M
1098.615 273.8 L
S
GR
GS
[0.99978 0 0 1.00027 0 -0.20483] CT
0.149 GC
2 setlinecap
1 LJ
1.225 LW
N
1101 259.4 M
1098.615 259.4 L
S
GR
GS
[0.99978 0 0 1.00027 0 -0.20483] CT
0.149 GC
2 setlinecap
1 LJ
1.225 LW
N
1101 245 M
1098.615 245 L
S
GR
GS
[0.99978 0 0 1.00027 0 -0.20483] CT
0.149 GC
2 setlinecap
1 LJ
1.225 LW
N
1101 216.2 M
1098.615 216.2 L
S
GR
GS
[0.99978 0 0 1.00027 0 -0.20483] CT
0.149 GC
2 setlinecap
1 LJ
1.225 LW
N
1101 201.8 M
1098.615 201.8 L
S
GR
GS
[0.99978 0 0 1.00027 0 -0.20483] CT
0.149 GC
2 setlinecap
1 LJ
1.225 LW
N
1101 187.4 M
1098.615 187.4 L
S
GR
GS
[0.99978 0 0 1.00027 0 -0.20483] CT
0.149 GC
2 setlinecap
1 LJ
1.225 LW
N
1101 158.6 M
1098.615 158.6 L
S
GR
GS
[0.99978 0 0 1.00027 0 -0.20483] CT
0.149 GC
2 setlinecap
1 LJ
1.225 LW
N
1101 144.2 M
1098.615 144.2 L
S
GR
GS
[0.99978 0 0 1.00027 0 -0.20483] CT
0.149 GC
2 setlinecap
1 LJ
1.225 LW
N
1101 129.8 M
1098.615 129.8 L
S
GR
GS
[0.99978 0 0 1.00027 0 -0.20483] CT
0.149 GC
2 setlinecap
1 LJ
1.225 LW
N
1101 101 M
1098.615 101 L
S
GR
GS
[0.99978 0 0 1.00027 0 -0.20483] CT
0.149 GC
2 setlinecap
1 LJ
1.225 LW
N
1101 86.6 M
1098.615 86.6 L
S
GR
GS
[0.99978 0 0 1.00027 0 -0.20483] CT
0.149 GC
2 setlinecap
1 LJ
1.225 LW
N
1101 72.2 M
1098.615 72.2 L
S
GR
GS
[0.99978 0 0 1.00027 0 -0.20483] CT
0.149 GC
2 setlinecap
1 LJ
1.225 LW
N
1101 43.4 M
1098.615 43.4 L
S
GR
GS
[0.99978 0 0 1.00027 0 -0.20483] CT
0.149 GC
2 setlinecap
1 LJ
1.225 LW
N
1101 29 M
1098.615 29 L
S
GR
GS
[0.99978 0 0 1.00027 618.0165 288.07242] CT
0.149 GC
/Times-Roman 19.25 F
GS
[1 0 0 1 0 0] CT
-25 6.5 moveto 
1 -1 scale
(3.4) t 
GR
GR
GS
[0.99978 0 0 1.00027 618.0165 230.45701] CT
0.149 GC
/Times-Roman 19.25 F
GS
[1 0 0 1 0 0] CT
-25 6.5 moveto 
1 -1 scale
(3.6) t 
GR
GR
GS
[0.99978 0 0 1.00027 618.0165 172.84156] CT
0.149 GC
/Times-Roman 19.25 F
GS
[1 0 0 1 0 0] CT
-25 6.5 moveto 
1 -1 scale
(3.8) t 
GR
GR
GS
[0.99978 0 0 1.00027 618.0165 115.22611] CT
0.149 GC
/Times-Roman 19.25 F
GS
[1 0 0 1 0 0] CT
-10 6.5 moveto 
1 -1 scale
(4) t 
GR
GR
GS
[0.99978 0 0 1.00027 618.0165 57.61072] CT
0.149 GC
/Times-Roman 19.25 F
GS
[1 0 0 1 0 0] CT
-25 6.5 moveto 
1 -1 scale
(4.2) t 
GR
GR
GS
[0 -1.00027 0.99978 0 567.98843 172.84135] CT
0.149 GC
/Times-Roman 21 F
GS
[1 0 0 1 0 0] CT
-110 19 moveto 
1 -1 scale
(Open-circuit potential \(V\)) t 
GR
GR
GS
[0.99978 0 0 1.00027 862.31454 23.77419] CT
/Times-Roman 24.5 F
GS
[1 0 0 1 0 0] CT
-161.5 -6 moveto 
1 -1 scale
(Positive-electrode coin-cell OCP) t 
GR
GR
GS
[0.99978 0 0 1.00027 995.3641 210.03139] CT
1 0 0 RC
10.0 ML
3.15 LW
N
-3.536 -3.536 M
3.536 3.536 L
-3.536 3.536 M
3.536 -3.536 L
S
GR
GS
[0.99978 0 0 1.00027 663.61315 67.22784] CT
0.024 0.51 0 RC
10.0 ML
3.15 LW
N
4 0 M
4 -2.209 2.209 -4 0 -4 C
-2.209 -4 -4 -2.209 -4 0 C
-4 2.209 -2.209 4 0 4 C
2.209 4 4 2.209 4 0 C
cp
S
GR
GS
[0.99978 0 0 1.00027 0 -0.20483] CT
0 0 1 RC
1 LJ
3.15 LW
N
1101 304.033 M
1096.23 241.567 L
1091.46 237.986 L
1086.69 236.008 L
1081.92 234.566 L
1077.15 233.001 L
1072.38 231.706 L
1067.61 230.519 L
1062.84 229.137 L
1058.07 227.913 L
1053.3 226.49 L
1048.53 225.167 L
1043.76 223.787 L
1038.99 222.358 L
1034.22 220.968 L
1029.45 219.579 L
1024.68 218.149 L
1019.91 216.737 L
1015.14 215.4 L
1010.37 214.09 L
1005.6 212.818 L
1000.83 211.527 L
996.06 210.306 L
991.29 209.08 L
986.52 207.926 L
981.75 206.743 L
976.98 205.599 L
972.21 204.485 L
967.44 203.384 L
962.67 202.33 L
957.9 201.254 L
953.13 200.207 L
948.36 199.176 L
943.59 198.136 L
938.82 197.138 L
934.05 196.16 L
929.28 195.127 L
924.51 194.142 L
919.74 193.145 L
914.97 192.105 L
910.2 191.125 L
905.43 190.138 L
900.66 189.095 L
895.89 188.05 L
891.12 187.004 L
886.35 185.909 L
881.58 184.776 L
876.81 183.66 L
872.04 182.451 L
867.27 181.212 L
862.5 179.931 L
857.73 178.831 L
852.96 177.646 L
848.19 176.411 L
843.42 175.069 L
838.65 173.711 L
833.88 172.232 L
829.11 170.727 L
824.34 169.091 L
819.57 167.386 L
814.8 165.595 L
810.03 163.731 L
805.26 161.71 L
800.49 159.566 L
795.72 157.349 L
790.95 155.073 L
786.18 152.641 L
781.41 150.16 L
776.64 147.56 L
771.87 144.887 L
767.1 142.113 L
762.33 139.299 L
757.56 136.362 L
752.79 133.37 L
748.02 130.325 L
743.25 127.154 L
738.48 123.962 L
733.71 120.713 L
728.94 117.396 L
724.17 114.037 L
719.4 110.569 L
714.63 107.13 L
709.86 103.61 L
705.09 100.052 L
700.32 96.442 L
695.55 92.82 L
690.78 89.118 L
686.01 85.418 L
681.24 81.663 L
676.47 77.811 L
671.7 73.946 L
666.93 70.027 L
662.16 66.069 L
657.39 62.047 L
652.62 57.938 L
647.85 53.841 L
643.08 49.607 L
638.31 45.354 L
633.54 40.972 L
628.77 36.5 L
624 31.467 L
S
GR
GS
[0.99978 0 0 1.00027 0 -0.20483] CT
1 GC
N
1093 109 M
1093 37 L
998 37 L
998 109 L
cp
f
GR
GS
[0.99978 0 0 1.00027 1034.77643 55.67911] CT
/Times-Roman 30 F
GS
[1 0 0 1 0 0] CT
0 10 moveto 
1 -1 scale
(Q0P) t 
GR
GR
GS
[0.99978 0 0 1.00027 1016.78031 55.67911] CT
1 0 0 RC
10.0 ML
3.15 LW
N
-3.536 -3.536 M
3.536 3.536 L
-3.536 3.536 M
3.536 -3.536 L
S
GR
GS
[0.99978 0 0 1.00027 1034.77643 89.95037] CT
/Times-Roman 30 F
GS
[1 0 0 1 0 0] CT
0 10 moveto 
1 -1 scale
(Q1P) t 
GR
GR
GS
[0.99978 0 0 1.00027 1016.78031 89.95037] CT
0.024 0.51 0 RC
10.0 ML
3.15 LW
N
4 0 M
4 -2.209 2.209 -4 0 -4 C
-2.209 -4 -4 -2.209 -4 0 C
-4 2.209 -2.209 4 0 4 C
2.209 4 4 2.209 4 0 C
cp
S
GR
GS
[0.99978 0 0 1.00027 0 -0.20483] CT
0.149 GC
10.0 ML
1.225 LW
N
998 109 M
998 37 L
1093 37 L
1093 109 L
cp
S
GR
GS
[0.99978 0 0 1.00027 0 -0.20483] CT
1 GC
N
624 712 M
1101 712 L
1101 424 L
624 424 L
cp
f
GR
GS
[0.99978 0 0 1.00027 0 -0.20483] CT
0.873 GC
1 LJ
1.225 LW
N
624 712 M
624 424 L
S
GR
GS
[0.99978 0 0 1.00027 0 -0.20483] CT
0.873 GC
1 LJ
1.225 LW
N
743.25 712 M
743.25 424 L
S
GR
GS
[0.99978 0 0 1.00027 0 -0.20483] CT
0.873 GC
1 LJ
1.225 LW
N
862.5 712 M
862.5 424 L
S
GR
GS
[0.99978 0 0 1.00027 0 -0.20483] CT
0.873 GC
1 LJ
1.225 LW
N
981.75 712 M
981.75 424 L
S
GR
GS
[0.99978 0 0 1.00027 0 -0.20483] CT
0.873 GC
1 LJ
1.225 LW
N
1101 712 M
1101 424 L
S
GR
GS
[0.99978 0 0 1.00027 0 -0.20483] CT
0.873 GC
1 LJ
1.225 LW
N
1101 680.865 M
624 680.865 L
S
GR
GS
[0.99978 0 0 1.00027 0 -0.20483] CT
0.873 GC
1 LJ
1.225 LW
N
1101 603.027 M
624 603.027 L
S
GR
GS
[0.99978 0 0 1.00027 0 -0.20483] CT
0.873 GC
1 LJ
1.225 LW
N
1101 525.189 M
624 525.189 L
S
GR
GS
[0.99978 0 0 1.00027 0 -0.20483] CT
0.873 GC
1 LJ
1.225 LW
N
1101 447.351 M
624 447.351 L
S
GR
GS
[0.99978 0 0 1.00027 0 -0.20483] CT
0.149 GC
2 setlinecap
1 LJ
1.225 LW
N
624 712 M
1101 712 L
S
GR
GS
[0.99978 0 0 1.00027 0 -0.20483] CT
0.149 GC
2 setlinecap
1 LJ
1.225 LW
N
624 424 M
1101 424 L
S
GR
GS
[0.99978 0 0 1.00027 0 -0.20483] CT
0.149 GC
2 setlinecap
1 LJ
1.225 LW
N
624 712 M
624 707.23 L
S
GR
GS
[0.99978 0 0 1.00027 0 -0.20483] CT
0.149 GC
2 setlinecap
1 LJ
1.225 LW
N
743.25 712 M
743.25 707.23 L
S
GR
GS
[0.99978 0 0 1.00027 0 -0.20483] CT
0.149 GC
2 setlinecap
1 LJ
1.225 LW
N
862.5 712 M
862.5 707.23 L
S
GR
GS
[0.99978 0 0 1.00027 0 -0.20483] CT
0.149 GC
2 setlinecap
1 LJ
1.225 LW
N
981.75 712 M
981.75 707.23 L
S
GR
GS
[0.99978 0 0 1.00027 0 -0.20483] CT
0.149 GC
2 setlinecap
1 LJ
1.225 LW
N
1101 712 M
1101 707.23 L
S
GR
GS
[0.99978 0 0 1.00027 0 -0.20483] CT
0.149 GC
2 setlinecap
1 LJ
1.225 LW
N
624 424 M
624 428.77 L
S
GR
GS
[0.99978 0 0 1.00027 0 -0.20483] CT
0.149 GC
2 setlinecap
1 LJ
1.225 LW
N
743.25 424 M
743.25 428.77 L
S
GR
GS
[0.99978 0 0 1.00027 0 -0.20483] CT
0.149 GC
2 setlinecap
1 LJ
1.225 LW
N
862.5 424 M
862.5 428.77 L
S
GR
GS
[0.99978 0 0 1.00027 0 -0.20483] CT
0.149 GC
2 setlinecap
1 LJ
1.225 LW
N
981.75 424 M
981.75 428.77 L
S
GR
GS
[0.99978 0 0 1.00027 0 -0.20483] CT
0.149 GC
2 setlinecap
1 LJ
1.225 LW
N
1101 424 M
1101 428.77 L
S
GR
GS
[0.99978 0 0 1.00027 0 -0.20483] CT
0.149 GC
2 setlinecap
1 LJ
1.225 LW
N
647.85 712 M
647.85 709.615 L
S
GR
GS
[0.99978 0 0 1.00027 0 -0.20483] CT
0.149 GC
2 setlinecap
1 LJ
1.225 LW
N
671.7 712 M
671.7 709.615 L
S
GR
GS
[0.99978 0 0 1.00027 0 -0.20483] CT
0.149 GC
2 setlinecap
1 LJ
1.225 LW
N
695.55 712 M
695.55 709.615 L
S
GR
GS
[0.99978 0 0 1.00027 0 -0.20483] CT
0.149 GC
2 setlinecap
1 LJ
1.225 LW
N
719.4 712 M
719.4 709.615 L
S
GR
GS
[0.99978 0 0 1.00027 0 -0.20483] CT
0.149 GC
2 setlinecap
1 LJ
1.225 LW
N
767.1 712 M
767.1 709.615 L
S
GR
GS
[0.99978 0 0 1.00027 0 -0.20483] CT
0.149 GC
2 setlinecap
1 LJ
1.225 LW
N
790.95 712 M
790.95 709.615 L
S
GR
GS
[0.99978 0 0 1.00027 0 -0.20483] CT
0.149 GC
2 setlinecap
1 LJ
1.225 LW
N
814.8 712 M
814.8 709.615 L
S
GR
GS
[0.99978 0 0 1.00027 0 -0.20483] CT
0.149 GC
2 setlinecap
1 LJ
1.225 LW
N
838.65 712 M
838.65 709.615 L
S
GR
GS
[0.99978 0 0 1.00027 0 -0.20483] CT
0.149 GC
2 setlinecap
1 LJ
1.225 LW
N
886.35 712 M
886.35 709.615 L
S
GR
GS
[0.99978 0 0 1.00027 0 -0.20483] CT
0.149 GC
2 setlinecap
1 LJ
1.225 LW
N
910.2 712 M
910.2 709.615 L
S
GR
GS
[0.99978 0 0 1.00027 0 -0.20483] CT
0.149 GC
2 setlinecap
1 LJ
1.225 LW
N
934.05 712 M
934.05 709.615 L
S
GR
GS
[0.99978 0 0 1.00027 0 -0.20483] CT
0.149 GC
2 setlinecap
1 LJ
1.225 LW
N
957.9 712 M
957.9 709.615 L
S
GR
GS
[0.99978 0 0 1.00027 0 -0.20483] CT
0.149 GC
2 setlinecap
1 LJ
1.225 LW
N
1005.6 712 M
1005.6 709.615 L
S
GR
GS
[0.99978 0 0 1.00027 0 -0.20483] CT
0.149 GC
2 setlinecap
1 LJ
1.225 LW
N
1029.45 712 M
1029.45 709.615 L
S
GR
GS
[0.99978 0 0 1.00027 0 -0.20483] CT
0.149 GC
2 setlinecap
1 LJ
1.225 LW
N
1053.3 712 M
1053.3 709.615 L
S
GR
GS
[0.99978 0 0 1.00027 0 -0.20483] CT
0.149 GC
2 setlinecap
1 LJ
1.225 LW
N
1077.15 712 M
1077.15 709.615 L
S
GR
GS
[0.99978 0 0 1.00027 0 -0.20483] CT
0.149 GC
2 setlinecap
1 LJ
1.225 LW
N
647.85 424 M
647.85 426.385 L
S
GR
GS
[0.99978 0 0 1.00027 0 -0.20483] CT
0.149 GC
2 setlinecap
1 LJ
1.225 LW
N
671.7 424 M
671.7 426.385 L
S
GR
GS
[0.99978 0 0 1.00027 0 -0.20483] CT
0.149 GC
2 setlinecap
1 LJ
1.225 LW
N
695.55 424 M
695.55 426.385 L
S
GR
GS
[0.99978 0 0 1.00027 0 -0.20483] CT
0.149 GC
2 setlinecap
1 LJ
1.225 LW
N
719.4 424 M
719.4 426.385 L
S
GR
GS
[0.99978 0 0 1.00027 0 -0.20483] CT
0.149 GC
2 setlinecap
1 LJ
1.225 LW
N
767.1 424 M
767.1 426.385 L
S
GR
GS
[0.99978 0 0 1.00027 0 -0.20483] CT
0.149 GC
2 setlinecap
1 LJ
1.225 LW
N
790.95 424 M
790.95 426.385 L
S
GR
GS
[0.99978 0 0 1.00027 0 -0.20483] CT
0.149 GC
2 setlinecap
1 LJ
1.225 LW
N
814.8 424 M
814.8 426.385 L
S
GR
GS
[0.99978 0 0 1.00027 0 -0.20483] CT
0.149 GC
2 setlinecap
1 LJ
1.225 LW
N
838.65 424 M
838.65 426.385 L
S
GR
GS
[0.99978 0 0 1.00027 0 -0.20483] CT
0.149 GC
2 setlinecap
1 LJ
1.225 LW
N
886.35 424 M
886.35 426.385 L
S
GR
GS
[0.99978 0 0 1.00027 0 -0.20483] CT
0.149 GC
2 setlinecap
1 LJ
1.225 LW
N
910.2 424 M
910.2 426.385 L
S
GR
GS
[0.99978 0 0 1.00027 0 -0.20483] CT
0.149 GC
2 setlinecap
1 LJ
1.225 LW
N
934.05 424 M
934.05 426.385 L
S
GR
GS
[0.99978 0 0 1.00027 0 -0.20483] CT
0.149 GC
2 setlinecap
1 LJ
1.225 LW
N
957.9 424 M
957.9 426.385 L
S
GR
GS
[0.99978 0 0 1.00027 0 -0.20483] CT
0.149 GC
2 setlinecap
1 LJ
1.225 LW
N
1005.6 424 M
1005.6 426.385 L
S
GR
GS
[0.99978 0 0 1.00027 0 -0.20483] CT
0.149 GC
2 setlinecap
1 LJ
1.225 LW
N
1029.45 424 M
1029.45 426.385 L
S
GR
GS
[0.99978 0 0 1.00027 0 -0.20483] CT
0.149 GC
2 setlinecap
1 LJ
1.225 LW
N
1053.3 424 M
1053.3 426.385 L
S
GR
GS
[0.99978 0 0 1.00027 0 -0.20483] CT
0.149 GC
2 setlinecap
1 LJ
1.225 LW
N
1077.15 424 M
1077.15 426.385 L
S
GR
GS
[0.99978 0 0 1.00027 623.86521 717.8376] CT
0.149 GC
/Times-Roman 19.25 F
GS
[1 0 0 1 0 0] CT
-5 18 moveto 
1 -1 scale
(0) t 
GR
GR
GS
[0.99978 0 0 1.00027 743.08945 717.8376] CT
0.149 GC
/Times-Roman 19.25 F
GS
[1 0 0 1 0 0] CT
-17 18 moveto 
1 -1 scale
(0.25) t 
GR
GR
GS
[0.99978 0 0 1.00027 862.31369 717.8376] CT
0.149 GC
/Times-Roman 19.25 F
GS
[1 0 0 1 0 0] CT
-12.5 18 moveto 
1 -1 scale
(0.5) t 
GR
GR
GS
[0.99978 0 0 1.00027 981.53793 717.8376] CT
0.149 GC
/Times-Roman 19.25 F
GS
[1 0 0 1 0 0] CT
-17 18 moveto 
1 -1 scale
(0.75) t 
GR
GR
GS
[0.99978 0 0 1.00027 1100.76217 717.8376] CT
0.149 GC
/Times-Roman 19.25 F
GS
[1 0 0 1 0 0] CT
-5 18 moveto 
1 -1 scale
(1) t 
GR
GR
GS
[0.99978 0 0 1.00027 862.31393 762.31205] CT
0.149 GC
/Times-Roman 21 F
GS
[1 0 0 1 0 0] CT
-81.5 -5 moveto 
1 -1 scale
(Cell state of charge) t 
GR
GR
GS
[0.99978 0 0 1.00027 0 -0.20483] CT
0.149 GC
2 setlinecap
1 LJ
1.225 LW
N
624 712 M
624 424 L
S
GR
GS
[0.99978 0 0 1.00027 0 -0.20483] CT
0.149 GC
2 setlinecap
1 LJ
1.225 LW
N
1101 712 M
1101 424 L
S
GR
GS
[0.99978 0 0 1.00027 0 -0.20483] CT
0.149 GC
2 setlinecap
1 LJ
1.225 LW
N
624 680.865 M
628.77 680.865 L
S
GR
GS
[0.99978 0 0 1.00027 0 -0.20483] CT
0.149 GC
2 setlinecap
1 LJ
1.225 LW
N
624 603.027 M
628.77 603.027 L
S
GR
GS
[0.99978 0 0 1.00027 0 -0.20483] CT
0.149 GC
2 setlinecap
1 LJ
1.225 LW
N
624 525.189 M
628.77 525.189 L
S
GR
GS
[0.99978 0 0 1.00027 0 -0.20483] CT
0.149 GC
2 setlinecap
1 LJ
1.225 LW
N
624 447.351 M
628.77 447.351 L
S
GR
GS
[0.99978 0 0 1.00027 0 -0.20483] CT
0.149 GC
2 setlinecap
1 LJ
1.225 LW
N
1101 680.865 M
1096.23 680.865 L
S
GR
GS
[0.99978 0 0 1.00027 0 -0.20483] CT
0.149 GC
2 setlinecap
1 LJ
1.225 LW
N
1101 603.027 M
1096.23 603.027 L
S
GR
GS
[0.99978 0 0 1.00027 0 -0.20483] CT
0.149 GC
2 setlinecap
1 LJ
1.225 LW
N
1101 525.189 M
1096.23 525.189 L
S
GR
GS
[0.99978 0 0 1.00027 0 -0.20483] CT
0.149 GC
2 setlinecap
1 LJ
1.225 LW
N
1101 447.351 M
1096.23 447.351 L
S
GR
GS
[0.99978 0 0 1.00027 0 -0.20483] CT
0.149 GC
2 setlinecap
1 LJ
1.225 LW
N
624 712 M
626.385 712 L
S
GR
GS
[0.99978 0 0 1.00027 0 -0.20483] CT
0.149 GC
2 setlinecap
1 LJ
1.225 LW
N
624 696.432 M
626.385 696.432 L
S
GR
GS
[0.99978 0 0 1.00027 0 -0.20483] CT
0.149 GC
2 setlinecap
1 LJ
1.225 LW
N
624 665.297 M
626.385 665.297 L
S
GR
GS
[0.99978 0 0 1.00027 0 -0.20483] CT
0.149 GC
2 setlinecap
1 LJ
1.225 LW
N
624 649.73 M
626.385 649.73 L
S
GR
GS
[0.99978 0 0 1.00027 0 -0.20483] CT
0.149 GC
2 setlinecap
1 LJ
1.225 LW
N
624 634.162 M
626.385 634.162 L
S
GR
GS
[0.99978 0 0 1.00027 0 -0.20483] CT
0.149 GC
2 setlinecap
1 LJ
1.225 LW
N
624 618.595 M
626.385 618.595 L
S
GR
GS
[0.99978 0 0 1.00027 0 -0.20483] CT
0.149 GC
2 setlinecap
1 LJ
1.225 LW
N
624 587.459 M
626.385 587.459 L
S
GR
GS
[0.99978 0 0 1.00027 0 -0.20483] CT
0.149 GC
2 setlinecap
1 LJ
1.225 LW
N
624 571.892 M
626.385 571.892 L
S
GR
GS
[0.99978 0 0 1.00027 0 -0.20483] CT
0.149 GC
2 setlinecap
1 LJ
1.225 LW
N
624 556.324 M
626.385 556.324 L
S
GR
GS
[0.99978 0 0 1.00027 0 -0.20483] CT
0.149 GC
2 setlinecap
1 LJ
1.225 LW
N
624 540.757 M
626.385 540.757 L
S
GR
GS
[0.99978 0 0 1.00027 0 -0.20483] CT
0.149 GC
2 setlinecap
1 LJ
1.225 LW
N
624 509.622 M
626.385 509.622 L
S
GR
GS
[0.99978 0 0 1.00027 0 -0.20483] CT
0.149 GC
2 setlinecap
1 LJ
1.225 LW
N
624 494.054 M
626.385 494.054 L
S
GR
GS
[0.99978 0 0 1.00027 0 -0.20483] CT
0.149 GC
2 setlinecap
1 LJ
1.225 LW
N
624 478.486 M
626.385 478.486 L
S
GR
GS
[0.99978 0 0 1.00027 0 -0.20483] CT
0.149 GC
2 setlinecap
1 LJ
1.225 LW
N
624 462.919 M
626.385 462.919 L
S
GR
GS
[0.99978 0 0 1.00027 0 -0.20483] CT
0.149 GC
2 setlinecap
1 LJ
1.225 LW
N
624 431.784 M
626.385 431.784 L
S
GR
GS
[0.99978 0 0 1.00027 0 -0.20483] CT
0.149 GC
2 setlinecap
1 LJ
1.225 LW
N
1101 712 M
1098.615 712 L
S
GR
GS
[0.99978 0 0 1.00027 0 -0.20483] CT
0.149 GC
2 setlinecap
1 LJ
1.225 LW
N
1101 696.432 M
1098.615 696.432 L
S
GR
GS
[0.99978 0 0 1.00027 0 -0.20483] CT
0.149 GC
2 setlinecap
1 LJ
1.225 LW
N
1101 665.297 M
1098.615 665.297 L
S
GR
GS
[0.99978 0 0 1.00027 0 -0.20483] CT
0.149 GC
2 setlinecap
1 LJ
1.225 LW
N
1101 649.73 M
1098.615 649.73 L
S
GR
GS
[0.99978 0 0 1.00027 0 -0.20483] CT
0.149 GC
2 setlinecap
1 LJ
1.225 LW
N
1101 634.162 M
1098.615 634.162 L
S
GR
GS
[0.99978 0 0 1.00027 0 -0.20483] CT
0.149 GC
2 setlinecap
1 LJ
1.225 LW
N
1101 618.595 M
1098.615 618.595 L
S
GR
GS
[0.99978 0 0 1.00027 0 -0.20483] CT
0.149 GC
2 setlinecap
1 LJ
1.225 LW
N
1101 587.459 M
1098.615 587.459 L
S
GR
GS
[0.99978 0 0 1.00027 0 -0.20483] CT
0.149 GC
2 setlinecap
1 LJ
1.225 LW
N
1101 571.892 M
1098.615 571.892 L
S
GR
GS
[0.99978 0 0 1.00027 0 -0.20483] CT
0.149 GC
2 setlinecap
1 LJ
1.225 LW
N
1101 556.324 M
1098.615 556.324 L
S
GR
GS
[0.99978 0 0 1.00027 0 -0.20483] CT
0.149 GC
2 setlinecap
1 LJ
1.225 LW
N
1101 540.757 M
1098.615 540.757 L
S
GR
GS
[0.99978 0 0 1.00027 0 -0.20483] CT
0.149 GC
2 setlinecap
1 LJ
1.225 LW
N
1101 509.622 M
1098.615 509.622 L
S
GR
GS
[0.99978 0 0 1.00027 0 -0.20483] CT
0.149 GC
2 setlinecap
1 LJ
1.225 LW
N
1101 494.054 M
1098.615 494.054 L
S
GR
GS
[0.99978 0 0 1.00027 0 -0.20483] CT
0.149 GC
2 setlinecap
1 LJ
1.225 LW
N
1101 478.486 M
1098.615 478.486 L
S
GR
GS
[0.99978 0 0 1.00027 0 -0.20483] CT
0.149 GC
2 setlinecap
1 LJ
1.225 LW
N
1101 462.919 M
1098.615 462.919 L
S
GR
GS
[0.99978 0 0 1.00027 0 -0.20483] CT
0.149 GC
2 setlinecap
1 LJ
1.225 LW
N
1101 431.784 M
1098.615 431.784 L
S
GR
GS
[0.99978 0 0 1.00027 618.0165 680.84258] CT
0.149 GC
/Times-Roman 19.25 F
GS
[1 0 0 1 0 0] CT
-25 6.5 moveto 
1 -1 scale
(2.5) t 
GR
GR
GS
[0.99978 0 0 1.00027 618.0165 602.98388] CT
0.149 GC
/Times-Roman 19.25 F
GS
[1 0 0 1 0 0] CT
-10 6.5 moveto 
1 -1 scale
(3) t 
GR
GR
GS
[0.99978 0 0 1.00027 618.0165 525.12518] CT
0.149 GC
/Times-Roman 19.25 F
GS
[1 0 0 1 0 0] CT
-25 6.5 moveto 
1 -1 scale
(3.5) t 
GR
GR
GS
[0.99978 0 0 1.00027 618.0165 447.26645] CT
0.149 GC
/Times-Roman 19.25 F
GS
[1 0 0 1 0 0] CT
-10 6.5 moveto 
1 -1 scale
(4) t 
GR
GR
GS
[0 -1.00027 0.99978 0 567.98843 567.94733] CT
0.149 GC
/Times-Roman 21 F
GS
[1 0 0 1 0 0] CT
-104 19 moveto 
1 -1 scale
(Open-circuit voltage \(V\)) t 
GR
GR
GS
[0.99978 0 0 1.00027 862.31454 418.88006] CT
/Times-Roman 24.5 F
GS
[1 0 0 1 0 0] CT
-214 -6 moveto 
1 -1 scale
(Measured and estimated OCV relationships) t 
GR
GR
GS
[0.99978 0 0 1.00027 0 -0.20483] CT
1 0 0 RC
1 LJ
3.15 LW
N
624 698.623 M
628.77 637.108 L
633.54 605.448 L
638.31 586.802 L
643.08 573.064 L
647.85 562.318 L
652.62 553.536 L
657.39 546.2 L
662.16 539.996 L
666.93 534.842 L
671.7 531.644 L
676.47 530.712 L
681.24 530.091 L
686.01 529.487 L
690.78 528.85 L
695.55 528.139 L
700.32 527.331 L
705.09 526.379 L
709.86 525.206 L
714.63 523.859 L
719.4 522.404 L
724.17 520.916 L
728.94 519.566 L
733.71 518.143 L
738.48 516.643 L
743.25 515.505 L
748.02 514.443 L
752.79 513.146 L
757.56 511.693 L
762.33 510.738 L
767.1 510.17 L
771.87 509.633 L
776.64 509.052 L
781.41 508.477 L
786.18 507.94 L
790.95 507.442 L
795.72 506.995 L
800.49 506.53 L
805.26 506.051 L
810.03 505.586 L
814.8 505.114 L
819.57 504.637 L
824.34 504.142 L
829.11 503.642 L
833.88 503.132 L
838.65 502.608 L
843.42 502.049 L
848.19 501.48 L
852.96 500.91 L
857.73 500.284 L
862.5 499.652 L
867.27 499.09 L
872.04 498.519 L
876.81 497.915 L
881.58 497.268 L
886.35 496.606 L
891.12 495.904 L
895.89 495.191 L
900.66 494.412 L
905.43 493.61 L
910.2 492.768 L
914.97 491.869 L
919.74 490.902 L
924.51 489.861 L
929.28 488.688 L
934.05 487.346 L
938.82 485.767 L
943.59 483.959 L
948.36 482.018 L
953.13 480.205 L
957.9 478.576 L
962.67 477.079 L
967.44 475.661 L
972.21 474.289 L
976.98 472.932 L
981.75 471.575 L
986.52 470.217 L
991.29 468.858 L
996.06 467.488 L
1000.83 466.087 L
1005.6 464.69 L
1010.37 463.278 L
1015.14 461.843 L
1019.91 460.4 L
1024.68 458.953 L
1029.45 457.479 L
1034.22 455.983 L
1038.99 454.474 L
1043.76 452.95 L
1048.53 451.406 L
1053.3 449.838 L
1058.07 448.257 L
1062.84 446.643 L
1067.61 445.002 L
1072.38 443.339 L
1077.15 441.643 L
1081.92 439.919 L
1086.69 438.129 L
1091.46 436.292 L
1096.23 434.377 L
1101 432.13 L
S
GR
GS
[0.99978 0 0 1.00027 0 -0.20483] CT
0 0 1 RC
1 LJ
3.15 LW
N
624 700.849 M
628.77 631.6 L
633.54 602.554 L
638.31 585.726 L
643.08 572.715 L
647.85 562.553 L
652.62 554.069 L
657.39 546.999 L
662.16 540.979 L
666.93 535.886 L
671.7 532.831 L
676.47 532.001 L
681.24 531.372 L
686.01 530.748 L
690.78 530.133 L
695.55 529.449 L
700.32 528.711 L
705.09 527.839 L
709.86 526.807 L
714.63 525.568 L
719.4 524.145 L
724.17 522.686 L
728.94 521.26 L
733.71 519.871 L
738.48 518.378 L
743.25 517.064 L
748.02 515.965 L
752.79 514.784 L
757.56 513.37 L
762.33 512.097 L
767.1 511.202 L
771.87 510.475 L
776.64 509.771 L
781.41 509.118 L
786.18 508.522 L
790.95 507.981 L
795.72 507.478 L
800.49 506.915 L
805.26 506.36 L
810.03 505.808 L
814.8 505.223 L
819.57 504.716 L
824.34 504.184 L
829.11 503.657 L
833.88 503.095 L
838.65 502.536 L
843.42 501.92 L
848.19 501.319 L
852.96 500.677 L
857.73 500.015 L
862.5 499.359 L
867.27 498.652 L
872.04 497.91 L
876.81 497.154 L
881.58 496.348 L
886.35 495.537 L
891.12 494.693 L
895.89 493.785 L
900.66 492.842 L
905.43 491.852 L
910.2 490.823 L
914.97 489.718 L
919.74 488.553 L
924.51 487.254 L
929.28 485.823 L
934.05 484.443 L
938.82 483.415 L
943.59 482.387 L
948.36 481.361 L
953.13 480.264 L
957.9 479.07 L
962.67 477.815 L
967.44 476.452 L
972.21 474.991 L
976.98 473.458 L
981.75 471.919 L
986.52 470.339 L
991.29 468.791 L
996.06 467.231 L
1000.83 465.736 L
1005.6 464.217 L
1010.37 462.739 L
1015.14 461.28 L
1019.91 459.809 L
1024.68 458.384 L
1029.45 456.936 L
1034.22 455.518 L
1038.99 454.062 L
1043.76 452.642 L
1048.53 451.188 L
1053.3 449.771 L
1058.07 448.31 L
1062.84 446.878 L
1067.61 445.428 L
1072.38 443.979 L
1077.15 442.508 L
1081.92 441.035 L
1086.69 439.574 L
1091.46 438.079 L
1096.23 436.583 L
1101 435.081 L
S
GR
GS
[0.99978 0 0 1.00027 0 -0.20483] CT
1 GC
N
1093 704 M
1093 660 L
941 660 L
941 704 L
cp
f
GR
GS
[0.99978 0 0 1.00027 977.78874 671.84047] CT
/Times-Roman 17.325 F
GS
[1 0 0 1 0 0] CT
0 6 moveto 
1 -1 scale
(Measured OCV) t 
GR
GR
GS
[0.99978 0 0 1.00027 0 -0.20483] CT
1 0 0 RC
1 LJ
3.15 LW
N
945 671.865 M
975 671.865 L
S
GR
GS
[0.99978 0 0 1.00027 977.78874 692.11556] CT
/Times-Roman 17.325 F
GS
[1 0 0 1 0 0] CT
0 6 moveto 
1 -1 scale
(Estimated OCV) t 
GR
GR
GS
[0.99978 0 0 1.00027 0 -0.20483] CT
0 0 1 RC
1 LJ
3.15 LW
N
945 692.135 M
975 692.135 L
S
GR
GS
[0.99978 0 0 1.00027 0 -0.20483] CT
0.149 GC
10.0 ML
1.225 LW
N
941 704 M
941 660 L
1093 660 L
1093 704 L
cp
S
GR
GS
[0.99978 0 0 1.00027 0 -0.20483] CT
1 0 0 RC
[8 8] 0 setdash
2 LJ
2 LW
N
60.178 524.497 M
55.857 303.939 L
S
GR
GS
[0.99978 0 0 1.00027 0 -0.20483] CT
1 0 0 RC
[8 8] 0 setdash
2 LJ
2 LW
N
55.857 303.939 M
995.548 210.455 L
S
GR
GS
[0.99978 0 0 1.00027 0 -0.20483] CT
0.024 0.51 0 RC
[8 8] 0 setdash
2 LJ
2 LW
N
426.23 699.027 M
532.789 37.329 L
S
GR
GS
[0.99978 0 0 1.00027 0 -0.20483] CT
0.024 0.51 0 RC
[8 8] 0 setdash
2 LJ
2 LW
N
532.789 37.329 M
663.773 67.627 L
S
GR
%%Trailer
%%Pages: 1
%%EOF
