%!PS-Adobe-3.0 EPSF-3.0
%%Creator: (MATLAB, The Mathworks, Inc. Version 9.3.0.713579 \(R2017b\). Operating System: Windows 7)
%%Title: F:/Lab/Git/Git_LMPROM2/Figures/phie.eps
%%CreationDate: 2018-09-21T11:35:35
%%Pages: (atend)
%%BoundingBox: 0 0 240 180
%%LanguageLevel: 3
%%EndComments
%%BeginProlog
%%BeginResource: procset (Apache XML Graphics Std ProcSet) 1.2 0
%%Version: 1.2 0
%%Copyright: (Copyright 2001-2003,2010 The Apache Software Foundation. License terms: http://www.apache.org/licenses/LICENSE-2.0)
/bd{bind def}bind def
/ld{load def}bd
/GR/grestore ld
/GS/gsave ld
/RM/rmoveto ld
/C/curveto ld
/t/show ld
/L/lineto ld
/ML/setmiterlimit ld
/CT/concat ld
/f/fill ld
/N/newpath ld
/S/stroke ld
/CC/setcmykcolor ld
/A/ashow ld
/cp/closepath ld
/RC/setrgbcolor ld
/LJ/setlinejoin ld
/GC/setgray ld
/LW/setlinewidth ld
/M/moveto ld
/re {4 2 roll M
1 index 0 rlineto
0 exch rlineto
neg 0 rlineto
cp } bd
/_ctm matrix def
/_tm matrix def
/BT { _ctm currentmatrix pop matrix _tm copy pop 0 0 moveto } bd
/ET { _ctm setmatrix } bd
/iTm { _ctm setmatrix _tm concat } bd
/Tm { _tm astore pop iTm 0 0 moveto } bd
/ux 0.0 def
/uy 0.0 def
/F {
  /Tp exch def
  /Tf exch def
  Tf findfont Tp scalefont setfont
  /cf Tf def  /cs Tp def
} bd
/ULS {currentpoint /uy exch def /ux exch def} bd
/ULE {
  /Tcx currentpoint pop def
  gsave
  newpath
  cf findfont cs scalefont dup
  /FontMatrix get 0 get /Ts exch def /FontInfo get dup
  /UnderlinePosition get Ts mul /To exch def
  /UnderlineThickness get Ts mul /Tt exch def
  ux uy To add moveto  Tcx uy To add lineto
  Tt setlinewidth stroke
  grestore
} bd
/OLE {
  /Tcx currentpoint pop def
  gsave
  newpath
  cf findfont cs scalefont dup
  /FontMatrix get 0 get /Ts exch def /FontInfo get dup
  /UnderlinePosition get Ts mul /To exch def
  /UnderlineThickness get Ts mul /Tt exch def
  ux uy To add cs add moveto Tcx uy To add cs add lineto
  Tt setlinewidth stroke
  grestore
} bd
/SOE {
  /Tcx currentpoint pop def
  gsave
  newpath
  cf findfont cs scalefont dup
  /FontMatrix get 0 get /Ts exch def /FontInfo get dup
  /UnderlinePosition get Ts mul /To exch def
  /UnderlineThickness get Ts mul /Tt exch def
  ux uy To add cs 10 mul 26 idiv add moveto Tcx uy To add cs 10 mul 26 idiv add lineto
  Tt setlinewidth stroke
  grestore
} bd
/QT {
/Y22 exch store
/X22 exch store
/Y21 exch store
/X21 exch store
currentpoint
/Y21 load 2 mul add 3 div exch
/X21 load 2 mul add 3 div exch
/X21 load 2 mul /X22 load add 3 div
/Y21 load 2 mul /Y22 load add 3 div
/X22 load /Y22 load curveto
} bd
/SSPD {
dup length /d exch dict def
{
/v exch def
/k exch def
currentpagedevice k known {
/cpdv currentpagedevice k get def
v cpdv ne {
/upd false def
/nullv v type /nulltype eq def
/nullcpdv cpdv type /nulltype eq def
nullv nullcpdv or
{
/upd true def
} {
/sametype v type cpdv type eq def
sametype {
v type /arraytype eq {
/vlen v length def
/cpdvlen cpdv length def
vlen cpdvlen eq {
0 1 vlen 1 sub {
/i exch def
/obj v i get def
/cpdobj cpdv i get def
obj cpdobj ne {
/upd true def
exit
} if
} for
} {
/upd true def
} ifelse
} {
v type /dicttype eq {
v {
/dv exch def
/dk exch def
/cpddv cpdv dk get def
dv cpddv ne {
/upd true def
exit
} if
} forall
} {
/upd true def
} ifelse
} ifelse
} if
} ifelse
upd true eq {
d k v put
} if
} if
} if
} forall
d length 0 gt {
d setpagedevice
} if
} bd
/RE { % /NewFontName [NewEncodingArray] /FontName RE -
  findfont dup length dict begin
  {
    1 index /FID ne
    {def} {pop pop} ifelse
  } forall
  /Encoding exch def
  /FontName 1 index def
  currentdict definefont pop
  end
} bind def
%%EndResource
%%BeginResource: procset (Apache XML Graphics EPS ProcSet) 1.0 0
%%Version: 1.0 0
%%Copyright: (Copyright 2002-2003 The Apache Software Foundation. License terms: http://www.apache.org/licenses/LICENSE-2.0)
/BeginEPSF { %def
/b4_Inc_state save def         % Save state for cleanup
/dict_count countdictstack def % Count objects on dict stack
/op_count count 1 sub def      % Count objects on operand stack
userdict begin                 % Push userdict on dict stack
/showpage { } def              % Redefine showpage, { } = null proc
0 setgray 0 setlinecap         % Prepare graphics state
1 setlinewidth 0 setlinejoin
10 setmiterlimit [ ] 0 setdash newpath
/languagelevel where           % If level not equal to 1 then
{pop languagelevel             % set strokeadjust and
1 ne                           % overprint to their defaults.
{false setstrokeadjust false setoverprint
} if
} if
} bd
/EndEPSF { %def
count op_count sub {pop} repeat            % Clean up stacks
countdictstack dict_count sub {end} repeat
b4_Inc_state restore
} bd
%%EndResource
%FOPBeginFontDict
%%IncludeResource: font Courier-Oblique
%%IncludeResource: font Courier-BoldOblique
%%IncludeResource: font Courier-Bold
%%IncludeResource: font ZapfDingbats
%%IncludeResource: font Symbol
%%IncludeResource: font Helvetica
%%IncludeResource: font Helvetica-Oblique
%%IncludeResource: font Helvetica-Bold
%%IncludeResource: font Helvetica-BoldOblique
%%IncludeResource: font Times-Roman
%%IncludeResource: font Times-Italic
%%IncludeResource: font Times-Bold
%%IncludeResource: font Times-BoldItalic
%%IncludeResource: font Courier
%FOPEndFontDict
%%BeginResource: encoding WinAnsiEncoding
/WinAnsiEncoding [
/.notdef /.notdef /.notdef /.notdef /.notdef
/.notdef /.notdef /.notdef /.notdef /.notdef
/.notdef /.notdef /.notdef /.notdef /.notdef
/.notdef /.notdef /.notdef /.notdef /.notdef
/.notdef /.notdef /.notdef /.notdef /.notdef
/.notdef /.notdef /.notdef /.notdef /.notdef
/.notdef /.notdef /space /exclam /quotedbl
/numbersign /dollar /percent /ampersand /quotesingle
/parenleft /parenright /asterisk /plus /comma
/hyphen /period /slash /zero /one
/two /three /four /five /six
/seven /eight /nine /colon /semicolon
/less /equal /greater /question /at
/A /B /C /D /E
/F /G /H /I /J
/K /L /M /N /O
/P /Q /R /S /T
/U /V /W /X /Y
/Z /bracketleft /backslash /bracketright /asciicircum
/underscore /quoteleft /a /b /c
/d /e /f /g /h
/i /j /k /l /m
/n /o /p /q /r
/s /t /u /v /w
/x /y /z /braceleft /bar
/braceright /asciitilde /bullet /Euro /bullet
/quotesinglbase /florin /quotedblbase /ellipsis /dagger
/daggerdbl /circumflex /perthousand /Scaron /guilsinglleft
/OE /bullet /Zcaron /bullet /bullet
/quoteleft /quoteright /quotedblleft /quotedblright /bullet
/endash /emdash /asciitilde /trademark /scaron
/guilsinglright /oe /bullet /zcaron /Ydieresis
/space /exclamdown /cent /sterling /currency
/yen /brokenbar /section /dieresis /copyright
/ordfeminine /guillemotleft /logicalnot /sfthyphen /registered
/macron /degree /plusminus /twosuperior /threesuperior
/acute /mu /paragraph /middot /cedilla
/onesuperior /ordmasculine /guillemotright /onequarter /onehalf
/threequarters /questiondown /Agrave /Aacute /Acircumflex
/Atilde /Adieresis /Aring /AE /Ccedilla
/Egrave /Eacute /Ecircumflex /Edieresis /Igrave
/Iacute /Icircumflex /Idieresis /Eth /Ntilde
/Ograve /Oacute /Ocircumflex /Otilde /Odieresis
/multiply /Oslash /Ugrave /Uacute /Ucircumflex
/Udieresis /Yacute /Thorn /germandbls /agrave
/aacute /acircumflex /atilde /adieresis /aring
/ae /ccedilla /egrave /eacute /ecircumflex
/edieresis /igrave /iacute /icircumflex /idieresis
/eth /ntilde /ograve /oacute /ocircumflex
/otilde /odieresis /divide /oslash /ugrave
/uacute /ucircumflex /udieresis /yacute /thorn
/ydieresis
] def
%%EndResource
%FOPBeginFontReencode
/Courier-Oblique findfont
dup length dict begin
  {1 index /FID ne {def} {pop pop} ifelse} forall
  /Encoding WinAnsiEncoding def
  currentdict
end
/Courier-Oblique exch definefont pop
/Courier-BoldOblique findfont
dup length dict begin
  {1 index /FID ne {def} {pop pop} ifelse} forall
  /Encoding WinAnsiEncoding def
  currentdict
end
/Courier-BoldOblique exch definefont pop
/Courier-Bold findfont
dup length dict begin
  {1 index /FID ne {def} {pop pop} ifelse} forall
  /Encoding WinAnsiEncoding def
  currentdict
end
/Courier-Bold exch definefont pop
/Helvetica findfont
dup length dict begin
  {1 index /FID ne {def} {pop pop} ifelse} forall
  /Encoding WinAnsiEncoding def
  currentdict
end
/Helvetica exch definefont pop
/Helvetica-Oblique findfont
dup length dict begin
  {1 index /FID ne {def} {pop pop} ifelse} forall
  /Encoding WinAnsiEncoding def
  currentdict
end
/Helvetica-Oblique exch definefont pop
/Helvetica-Bold findfont
dup length dict begin
  {1 index /FID ne {def} {pop pop} ifelse} forall
  /Encoding WinAnsiEncoding def
  currentdict
end
/Helvetica-Bold exch definefont pop
/Helvetica-BoldOblique findfont
dup length dict begin
  {1 index /FID ne {def} {pop pop} ifelse} forall
  /Encoding WinAnsiEncoding def
  currentdict
end
/Helvetica-BoldOblique exch definefont pop
/Times-Roman findfont
dup length dict begin
  {1 index /FID ne {def} {pop pop} ifelse} forall
  /Encoding WinAnsiEncoding def
  currentdict
end
/Times-Roman exch definefont pop
/Times-Italic findfont
dup length dict begin
  {1 index /FID ne {def} {pop pop} ifelse} forall
  /Encoding WinAnsiEncoding def
  currentdict
end
/Times-Italic exch definefont pop
/Times-Bold findfont
dup length dict begin
  {1 index /FID ne {def} {pop pop} ifelse} forall
  /Encoding WinAnsiEncoding def
  currentdict
end
/Times-Bold exch definefont pop
/Times-BoldItalic findfont
dup length dict begin
  {1 index /FID ne {def} {pop pop} ifelse} forall
  /Encoding WinAnsiEncoding def
  currentdict
end
/Times-BoldItalic exch definefont pop
/Courier findfont
dup length dict begin
  {1 index /FID ne {def} {pop pop} ifelse} forall
  /Encoding WinAnsiEncoding def
  currentdict
end
/Courier exch definefont pop
%FOPEndFontReencode
%%EndProlog
%%Page: 1 1
%%PageBoundingBox: 0 0 240 180
%%BeginPageSetup
[1 0 0 -1 0 180] CT
%%EndPageSetup
GS
[0.75 0 0 0.75 0 0] CT
1 GC
N
0 0 320 240 re
f
GR
GS
[0.75 0 0 0.75 0 0] CT
1 GC
N
0 0 320 240 re
f
GR
GS
[0.75 0 0 0.75 0 0] CT
1 GC
N
58 202 M
298 202 L
298 22 L
58 22 L
cp
f
GR
GS
[0.75 0 0 0.75 0 0] CT
0.149 GC
2 setlinecap
1 LJ
0.667 LW
N
58 202 M
298 202 L
S
GR
GS
[0.75 0 0 0.75 0 0] CT
0.149 GC
2 setlinecap
1 LJ
0.667 LW
N
58 22 M
298 22 L
S
GR
GS
[0.75 0 0 0.75 0 0] CT
0.149 GC
2 setlinecap
1 LJ
0.667 LW
N
58 202 M
58 199.6 L
S
GR
GS
[0.75 0 0 0.75 0 0] CT
0.149 GC
2 setlinecap
1 LJ
0.667 LW
N
106 202 M
106 199.6 L
S
GR
GS
[0.75 0 0 0.75 0 0] CT
0.149 GC
2 setlinecap
1 LJ
0.667 LW
N
154 202 M
154 199.6 L
S
GR
GS
[0.75 0 0 0.75 0 0] CT
0.149 GC
2 setlinecap
1 LJ
0.667 LW
N
202 202 M
202 199.6 L
S
GR
GS
[0.75 0 0 0.75 0 0] CT
0.149 GC
2 setlinecap
1 LJ
0.667 LW
N
250 202 M
250 199.6 L
S
GR
GS
[0.75 0 0 0.75 0 0] CT
0.149 GC
2 setlinecap
1 LJ
0.667 LW
N
298 202 M
298 199.6 L
S
GR
GS
[0.75 0 0 0.75 0 0] CT
0.149 GC
2 setlinecap
1 LJ
0.667 LW
N
58 22 M
58 24.4 L
S
GR
GS
[0.75 0 0 0.75 0 0] CT
0.149 GC
2 setlinecap
1 LJ
0.667 LW
N
106 22 M
106 24.4 L
S
GR
GS
[0.75 0 0 0.75 0 0] CT
0.149 GC
2 setlinecap
1 LJ
0.667 LW
N
154 22 M
154 24.4 L
S
GR
GS
[0.75 0 0 0.75 0 0] CT
0.149 GC
2 setlinecap
1 LJ
0.667 LW
N
202 22 M
202 24.4 L
S
GR
GS
[0.75 0 0 0.75 0 0] CT
0.149 GC
2 setlinecap
1 LJ
0.667 LW
N
250 22 M
250 24.4 L
S
GR
GS
[0.75 0 0 0.75 0 0] CT
0.149 GC
2 setlinecap
1 LJ
0.667 LW
N
298 22 M
298 24.4 L
S
GR
GS
[0.75 0 0 0.75 43.5 155.5] CT
0.149 GC
/Times-Roman 13.333 F
GS
[1 0 0 1 0 0] CT
-3.5 13 moveto 
1 -1 scale
(0) t 
GR
GR
GS
[0.75 0 0 0.75 79.5 155.5] CT
0.149 GC
/Times-Roman 13.333 F
GS
[1 0 0 1 0 0] CT
-10 13 moveto 
1 -1 scale
(100) t 
GR
GR
GS
[0.75 0 0 0.75 115.5 155.5] CT
0.149 GC
/Times-Roman 13.333 F
GS
[1 0 0 1 0 0] CT
-10 13 moveto 
1 -1 scale
(200) t 
GR
GR
GS
[0.75 0 0 0.75 151.5 155.5] CT
0.149 GC
/Times-Roman 13.333 F
GS
[1 0 0 1 0 0] CT
-10 13 moveto 
1 -1 scale
(300) t 
GR
GR
GS
[0.75 0 0 0.75 187.5 155.5] CT
0.149 GC
/Times-Roman 13.333 F
GS
[1 0 0 1 0 0] CT
-10 13 moveto 
1 -1 scale
(400) t 
GR
GR
GS
[0.75 0 0 0.75 223.5 155.5] CT
0.149 GC
/Times-Roman 13.333 F
GS
[1 0 0 1 0 0] CT
-10 13 moveto 
1 -1 scale
(500) t 
GR
GR
GS
[0.75 0 0 0.75 0 0] CT
0.149 GC
2 setlinecap
1 LJ
0.667 LW
N
58 202 M
58 22 L
S
GR
GS
[0.75 0 0 0.75 0 0] CT
0.149 GC
2 setlinecap
1 LJ
0.667 LW
N
298 202 M
298 22 L
S
GR
GS
[0.75 0 0 0.75 0 0] CT
0.149 GC
2 setlinecap
1 LJ
0.667 LW
N
58 202 M
60.4 202 L
S
GR
GS
[0.75 0 0 0.75 0 0] CT
0.149 GC
2 setlinecap
1 LJ
0.667 LW
N
58 142 M
60.4 142 L
S
GR
GS
[0.75 0 0 0.75 0 0] CT
0.149 GC
2 setlinecap
1 LJ
0.667 LW
N
58 82 M
60.4 82 L
S
GR
GS
[0.75 0 0 0.75 0 0] CT
0.149 GC
2 setlinecap
1 LJ
0.667 LW
N
58 22 M
60.4 22 L
S
GR
GS
[0.75 0 0 0.75 0 0] CT
0.149 GC
2 setlinecap
1 LJ
0.667 LW
N
298 202 M
295.6 202 L
S
GR
GS
[0.75 0 0 0.75 0 0] CT
0.149 GC
2 setlinecap
1 LJ
0.667 LW
N
298 142 M
295.6 142 L
S
GR
GS
[0.75 0 0 0.75 0 0] CT
0.149 GC
2 setlinecap
1 LJ
0.667 LW
N
298 82 M
295.6 82 L
S
GR
GS
[0.75 0 0 0.75 0 0] CT
0.149 GC
2 setlinecap
1 LJ
0.667 LW
N
298 22 M
295.6 22 L
S
GR
GS
[0.75 0 0 0.75 39.5 151.5] CT
0.149 GC
/Times-Roman 13.333 F
GS
[1 0 0 1 0 0] CT
-12 5 moveto 
1 -1 scale
(-1) t 
GR
GR
GS
[0.75 0 0 0.75 39.5 106.5] CT
0.149 GC
/Times-Roman 13.333 F
GS
[1 0 0 1 0 0] CT
-22 5 moveto 
1 -1 scale
(-0.5) t 
GR
GR
GS
[0.75 0 0 0.75 39.5 61.5] CT
0.149 GC
/Times-Roman 13.333 F
GS
[1 0 0 1 0 0] CT
-7 5 moveto 
1 -1 scale
(0) t 
GR
GR
GS
[0.75 0 0 0.75 39.5 16.5] CT
0.149 GC
/Times-Roman 13.333 F
GS
[1 0 0 1 0 0] CT
-17 5 moveto 
1 -1 scale
(0.5) t 
GR
GR
GS
[0.75 0 0 0.75 0 0] CT
0.345 0.537 0.69 RC
1 LJ
2.667 LW
N
58 180.146 M
60.4 162.828 L
62.8 159.957 L
65.2 157.751 L
67.6 155.891 L
70 154.235 L
72.4 152.744 L
74.8 151.385 L
77.2 150.131 L
79.6 148.965 L
82 147.873 L
84.4 146.841 L
86.8 145.862 L
89.2 144.929 L
91.6 144.036 L
94 143.177 L
96.4 142.352 L
98.8 141.555 L
101.2 140.783 L
103.6 140.038 L
106 139.316 L
108.4 138.615 L
110.8 137.934 L
113.2 137.272 L
115.6 136.628 L
118 135.999 L
120.4 135.386 L
122.8 134.787 L
125.2 134.202 L
127.6 133.629 L
130 133.068 L
132.4 132.521 L
134.8 131.985 L
137.2 131.458 L
139.6 130.942 L
142 130.437 L
144.4 129.941 L
146.8 129.454 L
149.2 128.976 L
151.6 128.507 L
154 128.046 L
156.4 127.593 L
158.8 127.148 L
161.2 126.711 L
163.6 126.28 L
166 125.858 L
168.4 125.441 L
170.8 125.032 L
173.2 124.629 L
175.6 124.232 L
178 123.842 L
180.4 123.456 L
182.8 123.077 L
185.2 122.704 L
187.6 122.336 L
190 121.973 L
192.4 121.616 L
194.8 121.263 L
197.2 120.915 L
199.6 120.573 L
202 120.237 L
204.4 119.904 L
206.8 119.578 L
209.2 119.255 L
211.6 118.938 L
214 118.624 L
216.4 118.313 L
218.8 118.006 L
221.2 117.701 L
223.6 117.4 L
226 117.102 L
228.4 116.807 L
230.8 116.52 L
233.2 116.238 L
235.6 115.96 L
238 115.688 L
240.4 115.419 L
242.8 115.156 L
245.2 114.897 L
247.6 114.635 L
250 114.377 L
252.4 114.122 L
254.8 113.867 L
257.2 113.615 L
259.6 113.363 L
262 113.117 L
264.4 112.876 L
266.8 112.64 L
269.2 112.406 L
271.6 112.175 L
274 111.948 L
276.4 111.725 L
278.8 111.503 L
S
GR
GS
[0.75 0 0 0.75 0 0] CT
0.345 0.537 0.69 RC
[8 8] 0 setdash
2 LJ
2.667 LW
N
58 180.146 M
60.4 162.686 L
62.8 159.765 L
65.2 157.512 L
67.6 155.626 L
70 153.986 L
72.4 152.516 L
74.8 151.176 L
77.2 149.936 L
79.6 148.784 L
82 147.704 L
84.4 146.685 L
86.8 145.716 L
89.2 144.795 L
91.6 143.913 L
94 143.07 L
96.4 142.258 L
98.8 141.479 L
101.2 140.724 L
103.6 139.996 L
106 139.292 L
108.4 138.609 L
110.8 137.945 L
113.2 137.301 L
115.6 136.673 L
118 136.061 L
120.4 135.464 L
122.8 134.879 L
125.2 134.309 L
127.6 133.751 L
130 133.204 L
132.4 132.671 L
134.8 132.148 L
137.2 131.637 L
139.6 131.136 L
142 130.646 L
144.4 130.164 L
146.8 129.692 L
149.2 129.228 L
151.6 128.775 L
154 128.331 L
156.4 127.894 L
158.8 127.466 L
161.2 127.043 L
163.6 126.627 L
166 126.218 L
168.4 125.816 L
170.8 125.421 L
173.2 125.034 L
175.6 124.655 L
178 124.282 L
180.4 123.915 L
182.8 123.554 L
185.2 123.198 L
187.6 122.848 L
190 122.504 L
192.4 122.165 L
194.8 121.832 L
197.2 121.503 L
199.6 121.18 L
202 120.862 L
204.4 120.549 L
206.8 120.242 L
209.2 119.938 L
211.6 119.639 L
214 119.344 L
216.4 119.055 L
218.8 118.769 L
221.2 118.487 L
223.6 118.21 L
226 117.938 L
228.4 117.669 L
230.8 117.404 L
233.2 117.142 L
235.6 116.884 L
238 116.631 L
240.4 116.381 L
242.8 116.135 L
245.2 115.894 L
247.6 115.655 L
250 115.419 L
252.4 115.186 L
254.8 114.957 L
257.2 114.731 L
259.6 114.509 L
262 114.29 L
264.4 114.072 L
266.8 113.858 L
269.2 113.646 L
271.6 113.436 L
274 113.231 L
276.4 113.027 L
278.8 112.827 L
S
GR
GS
[0.75 0 0 0.75 0 0] CT
0.914 0.282 0.286 RC
1 LJ
2.667 LW
N
58 180.146 M
60.4 144.812 L
62.8 141.382 L
65.2 138.767 L
67.6 136.554 L
70 134.565 L
72.4 132.754 L
74.8 131.081 L
77.2 129.52 L
79.6 128.048 L
82 126.652 L
84.4 125.318 L
86.8 124.038 L
89.2 122.807 L
91.6 121.618 L
94 120.466 L
96.4 119.35 L
98.8 118.263 L
101.2 117.206 L
103.6 116.176 L
106 115.172 L
108.4 114.191 L
110.8 113.232 L
113.2 112.295 L
115.6 111.377 L
118 110.478 L
120.4 109.596 L
122.8 108.732 L
125.2 107.883 L
127.6 107.049 L
130 106.227 L
132.4 105.42 L
134.8 104.628 L
137.2 103.846 L
139.6 103.12 L
142 102.321 L
144.4 101.577 L
146.8 100.841 L
149.2 100.118 L
151.6 99.405 L
154 98.702 L
156.4 98.007 L
158.8 97.322 L
161.2 96.646 L
163.6 95.98 L
166 95.321 L
168.4 94.671 L
170.8 94.029 L
173.2 93.394 L
175.6 92.768 L
178 92.148 L
180.4 91.536 L
182.8 90.931 L
185.2 90.332 L
187.6 89.74 L
190 89.154 L
192.4 88.574 L
194.8 88 L
197.2 87.432 L
199.6 86.87 L
202 86.313 L
204.4 85.762 L
206.8 85.216 L
209.2 84.675 L
211.6 84.138 L
214 83.608 L
216.4 83.083 L
218.8 82.563 L
221.2 82.047 L
223.6 81.537 L
226 81.032 L
228.4 80.531 L
230.8 80.034 L
233.2 79.541 L
235.6 79.053 L
238 78.568 L
240.4 78.088 L
242.8 77.611 L
245.2 77.138 L
247.6 76.671 L
250 76.208 L
252.4 75.749 L
254.8 75.295 L
257.2 74.844 L
259.6 74.399 L
262 73.956 L
264.4 73.515 L
266.8 73.078 L
269.2 72.645 L
271.6 72.215 L
274 71.789 L
276.4 71.366 L
278.8 70.947 L
S
GR
GS
[0.75 0 0 0.75 0 0] CT
0.914 0.282 0.286 RC
[8 8] 0 setdash
2 LJ
2.667 LW
N
58 180.146 M
60.4 144.67 L
62.8 141.173 L
65.2 138.459 L
67.6 136.152 L
70 134.105 L
72.4 132.236 L
74.8 130.498 L
77.2 128.86 L
79.6 127.317 L
82 125.85 L
84.4 124.448 L
86.8 123.101 L
89.2 121.805 L
91.6 120.554 L
94 119.346 L
96.4 118.175 L
98.8 117.04 L
101.2 115.934 L
103.6 114.861 L
106 113.813 L
108.4 112.793 L
110.8 111.796 L
113.2 110.822 L
115.6 109.869 L
118 108.935 L
120.4 108.02 L
122.8 107.121 L
125.2 106.239 L
127.6 105.371 L
130 104.517 L
132.4 103.679 L
134.8 102.856 L
137.2 102.046 L
139.6 101.249 L
142 100.463 L
144.4 99.69 L
146.8 98.927 L
149.2 98.176 L
151.6 97.434 L
154 96.702 L
156.4 95.981 L
158.8 95.268 L
161.2 94.566 L
163.6 93.873 L
166 93.187 L
168.4 92.511 L
170.8 91.843 L
173.2 91.183 L
175.6 90.531 L
178 89.886 L
180.4 89.249 L
182.8 88.618 L
185.2 87.995 L
187.6 87.379 L
190 86.77 L
192.4 86.167 L
194.8 85.57 L
197.2 84.98 L
199.6 84.396 L
202 83.818 L
204.4 83.246 L
206.8 82.68 L
209.2 82.119 L
211.6 81.564 L
214 81.015 L
216.4 80.471 L
218.8 79.933 L
221.2 79.399 L
223.6 78.871 L
226 78.348 L
228.4 77.829 L
230.8 77.315 L
233.2 76.806 L
235.6 76.301 L
238 75.801 L
240.4 75.305 L
242.8 74.814 L
245.2 74.328 L
247.6 73.846 L
250 73.368 L
252.4 72.894 L
254.8 72.425 L
257.2 71.961 L
259.6 71.501 L
262 71.045 L
264.4 70.593 L
266.8 70.145 L
269.2 69.701 L
271.6 69.261 L
274 68.825 L
276.4 68.394 L
278.8 67.967 L
S
GR
GS
[0.75 0 0 0.75 0 0] CT
0.443 0.749 0.431 RC
1 LJ
2.667 LW
N
58 180.146 M
60.4 135.771 L
62.8 132.105 L
65.2 129.275 L
67.6 126.872 L
70 124.714 L
72.4 122.754 L
74.8 120.95 L
77.2 119.27 L
79.6 117.69 L
82 116.196 L
84.4 114.772 L
86.8 113.409 L
89.2 112.097 L
91.6 110.834 L
94 109.611 L
96.4 108.425 L
98.8 107.273 L
101.2 106.154 L
103.6 105.062 L
106 103.998 L
108.4 102.962 L
110.8 101.948 L
113.2 100.956 L
115.6 99.987 L
118 99.036 L
120.4 98.104 L
122.8 97.191 L
125.2 96.294 L
127.6 95.412 L
130 94.545 L
132.4 93.694 L
134.8 92.857 L
137.2 92.031 L
139.6 91.22 L
142 90.422 L
144.4 89.636 L
146.8 88.86 L
149.2 88.096 L
151.6 87.344 L
154 86.602 L
156.4 85.869 L
158.8 85.146 L
161.2 84.434 L
163.6 83.731 L
166 83.036 L
168.4 82.351 L
170.8 81.674 L
173.2 81.005 L
175.6 80.344 L
178 79.691 L
180.4 79.046 L
182.8 78.408 L
185.2 77.777 L
187.6 77.153 L
190 76.535 L
192.4 75.924 L
194.8 75.319 L
197.2 74.721 L
199.6 74.129 L
202 73.543 L
204.4 72.962 L
206.8 72.387 L
209.2 71.817 L
211.6 71.252 L
214 70.693 L
216.4 70.141 L
218.8 69.593 L
221.2 69.051 L
223.6 68.514 L
226 67.982 L
228.4 67.455 L
230.8 66.932 L
233.2 66.413 L
235.6 65.9 L
238 65.39 L
240.4 64.884 L
242.8 64.383 L
245.2 63.886 L
247.6 63.394 L
250 62.908 L
252.4 62.426 L
254.8 61.948 L
257.2 61.474 L
259.6 61.005 L
262 60.539 L
264.4 60.076 L
266.8 59.618 L
269.2 59.162 L
271.6 58.71 L
274 58.262 L
276.4 57.818 L
278.8 57.377 L
S
GR
GS
[0.75 0 0 0.75 0 0] CT
0.443 0.749 0.431 RC
[8 8] 0 setdash
2 LJ
2.667 LW
N
58 180.146 M
60.4 135.462 L
62.8 131.636 L
65.2 128.655 L
67.6 126.126 L
70 123.894 L
72.4 121.865 L
74.8 119.987 L
77.2 118.222 L
79.6 116.562 L
82 114.988 L
84.4 113.486 L
86.8 112.044 L
89.2 110.658 L
91.6 109.322 L
94 108.033 L
96.4 106.782 L
98.8 105.572 L
101.2 104.392 L
103.6 103.247 L
106 102.132 L
108.4 101.044 L
110.8 99.982 L
113.2 98.945 L
115.6 97.93 L
118 96.936 L
120.4 95.961 L
122.8 95.004 L
125.2 94.065 L
127.6 93.142 L
130 92.233 L
132.4 91.342 L
134.8 90.465 L
137.2 89.604 L
139.6 88.756 L
142 87.921 L
144.4 87.098 L
146.8 86.288 L
149.2 85.489 L
151.6 84.701 L
154 83.924 L
156.4 83.157 L
158.8 82.401 L
161.2 81.655 L
163.6 80.919 L
166 80.192 L
168.4 79.474 L
170.8 78.765 L
173.2 78.065 L
175.6 77.374 L
178 76.69 L
180.4 76.015 L
182.8 75.347 L
185.2 74.687 L
187.6 74.034 L
190 73.389 L
192.4 72.75 L
194.8 72.119 L
197.2 71.494 L
199.6 70.876 L
202 70.265 L
204.4 69.66 L
206.8 69.062 L
209.2 68.469 L
211.6 67.882 L
214 67.301 L
216.4 66.728 L
218.8 66.158 L
221.2 65.595 L
223.6 65.037 L
226 64.485 L
228.4 63.938 L
230.8 63.395 L
233.2 62.858 L
235.6 62.325 L
238 61.798 L
240.4 61.275 L
242.8 60.756 L
245.2 60.244 L
247.6 59.736 L
250 59.232 L
252.4 58.733 L
254.8 58.24 L
257.2 57.75 L
259.6 57.266 L
262 56.786 L
264.4 56.31 L
266.8 55.839 L
269.2 55.371 L
271.6 54.909 L
274 54.45 L
276.4 53.996 L
278.8 53.547 L
S
GR
GS
[0.75 0 0 0.75 0 0] CT
1 0.6 0.2 RC
1 LJ
2.667 LW
N
58 180.146 M
60.4 117.146 L
62.8 114.57 L
65.2 112.491 L
67.6 110.559 L
70 108.696 L
72.4 106.907 L
74.8 105.192 L
77.2 103.542 L
79.6 101.948 L
82 100.406 L
84.4 98.91 L
86.8 97.458 L
89.2 96.044 L
91.6 94.662 L
94 93.308 L
96.4 91.984 L
98.8 90.686 L
101.2 89.414 L
103.6 88.165 L
106 86.943 L
108.4 85.743 L
110.8 84.562 L
113.2 83.4 L
115.6 82.258 L
118 81.134 L
120.4 80.027 L
122.8 78.935 L
125.2 77.861 L
127.6 76.8 L
130 75.754 L
132.4 74.722 L
134.8 73.704 L
137.2 72.699 L
139.6 71.707 L
142 70.728 L
144.4 69.762 L
146.8 68.806 L
149.2 67.863 L
151.6 66.93 L
154 66.009 L
156.4 65.098 L
158.8 64.197 L
161.2 63.306 L
163.6 62.426 L
166 61.554 L
168.4 60.693 L
170.8 59.84 L
173.2 58.996 L
175.6 58.161 L
178 57.334 L
180.4 56.514 L
182.8 55.704 L
185.2 54.902 L
187.6 54.107 L
190 53.319 L
192.4 52.538 L
194.8 51.765 L
197.2 50.998 L
199.6 50.238 L
202 49.486 L
204.4 48.74 L
206.8 47.999 L
209.2 47.266 L
211.6 46.538 L
214 45.818 L
216.4 45.104 L
218.8 44.396 L
221.2 43.695 L
223.6 42.999 L
226 42.31 L
228.4 41.626 L
230.8 40.948 L
233.2 40.275 L
235.6 39.606 L
238 38.944 L
240.4 38.286 L
242.8 37.634 L
245.2 36.986 L
247.6 36.345 L
250 35.711 L
252.4 35.081 L
254.8 34.458 L
257.2 33.84 L
259.6 33.23 L
262 32.621 L
264.4 32.018 L
266.8 31.419 L
269.2 30.824 L
271.6 30.234 L
274 29.65 L
276.4 29.07 L
278.8 28.496 L
S
GR
GS
[0.75 0 0 0.75 0 0] CT
1 0.6 0.2 RC
[8 8] 0 setdash
2 LJ
2.667 LW
N
58 180.146 M
60.4 116.769 L
62.8 113.927 L
65.2 111.7 L
67.6 109.664 L
70 107.728 L
72.4 105.881 L
74.8 104.087 L
77.2 102.384 L
79.6 100.716 L
82 99.098 L
84.4 97.526 L
86.8 95.994 L
89.2 94.499 L
91.6 93.039 L
94 91.614 L
96.4 90.219 L
98.8 88.854 L
101.2 87.515 L
103.6 86.204 L
106 84.917 L
108.4 83.654 L
110.8 82.413 L
113.2 81.194 L
115.6 79.994 L
118 78.812 L
120.4 77.646 L
122.8 76.5 L
125.2 75.371 L
127.6 74.258 L
130 73.161 L
132.4 72.079 L
134.8 71.012 L
137.2 69.958 L
139.6 68.916 L
142 67.89 L
144.4 66.876 L
146.8 65.876 L
149.2 64.886 L
151.6 63.909 L
154 62.942 L
156.4 61.986 L
158.8 61.042 L
161.2 60.11 L
163.6 59.187 L
166 58.276 L
168.4 57.375 L
170.8 56.484 L
173.2 55.604 L
175.6 54.731 L
178 53.868 L
180.4 53.012 L
182.8 52.163 L
185.2 51.324 L
187.6 50.495 L
190 49.674 L
192.4 48.863 L
194.8 48.059 L
197.2 47.262 L
199.6 46.472 L
202 45.689 L
204.4 44.914 L
206.8 44.147 L
209.2 43.388 L
211.6 42.634 L
214 41.888 L
216.4 41.148 L
218.8 40.414 L
221.2 39.688 L
223.6 38.969 L
226 38.256 L
228.4 37.55 L
230.8 36.849 L
233.2 36.153 L
235.6 35.464 L
238 34.78 L
240.4 34.102 L
242.8 33.43 L
245.2 32.764 L
247.6 32.103 L
250 31.449 L
252.4 30.8 L
254.8 30.156 L
257.2 29.519 L
259.6 28.888 L
262 28.263 L
264.4 27.642 L
266.8 27.027 L
269.2 26.417 L
271.6 25.812 L
274 25.214 L
276.4 24.621 L
278.8 24.033 L
S
GR
GS
[0.75 0 0 0.75 133.5 165] CT
0.149 GC
/Times-Roman 14.667 F
GS
[1 0 0 1 0 0] CT
-24.5 14 moveto 
1 -1 scale
(Time / s) t 
GR
GR
GS
[0 -0.75 0.75 0 16.5 98.25] CT
0.149 GC
N
2.906 2.922 M
3.578 0.219 L
2.813 0.219 2.156 -0.141 QT
1.5 -0.5 1.102 -1.133 QT
0.703 -1.766 0.703 -2.516 QT
0.703 -3.328 1.109 -4.07 QT
1.516 -4.813 2.211 -5.414 QT
2.906 -6.016 3.711 -6.344 QT
4.516 -6.672 5.313 -6.672 QT
6.219 -10.313 L
6.234 -10.406 6.328 -10.406 QT
6.516 -10.406 L
6.563 -10.406 6.602 -10.359 QT
6.641 -10.313 6.641 -10.266 QT
5.75 -6.672 L
6.313 -6.672 6.836 -6.469 QT
7.359 -6.266 7.766 -5.891 QT
8.172 -5.516 8.398 -5.016 QT
8.625 -4.516 8.625 -3.953 QT
8.625 -3.141 8.227 -2.398 QT
7.828 -1.656 7.141 -1.063 QT
6.453 -0.469 5.617 -0.125 QT
4.781 0.219 4.016 0.219 QT
3.328 2.984 L
3.297 3.078 3.203 3.078 QT
3.031 3.078 L
2.969 3.078 2.938 3.023 QT
2.906 2.969 2.906 2.922 QT
cp
3.672 -0.188 M
5.203 -6.281 L
4.828 -6.281 4.406 -6.133 QT
3.984 -5.984 3.617 -5.75 QT
3.25 -5.516 2.953 -5.203 QT
2.578 -4.844 2.305 -4.344 QT
2.031 -3.844 1.891 -3.289 QT
1.75 -2.734 1.75 -2.203 QT
1.75 -1.641 1.992 -1.18 QT
2.234 -0.719 2.672 -0.453 QT
3.109 -0.188 3.672 -0.188 QT
cp
4.125 -0.188 M
4.688 -0.188 5.328 -0.508 QT
5.969 -0.828 6.375 -1.266 QT
6.938 -1.813 7.266 -2.625 QT
7.594 -3.438 7.594 -4.266 QT
7.594 -4.813 7.352 -5.281 QT
7.109 -5.75 6.664 -6.016 QT
6.219 -6.281 5.656 -6.281 QT
4.125 -0.188 L
cp
f
GR
GS
[0 -0.75 0.75 0 21.75 91.5] CT
0.149 GC
/Times-Roman 11.733 F
GS
[1 0 0 1 0 0] CT
0 0 moveto 
1 -1 scale
(e) t 
GR
GR
GS
[0 -0.75 0.75 0 16.5 87] CT
0.149 GC
/Times-Roman 14.667 F
GS
[1 0 0 1 0 0] CT
0 0 moveto 
1 -1 scale
( / V) t 
GR
GR
GS
[0.75 0 0 0.75 0 0] CT
1 GC
N
284 200 M
284 130 L
187 130 L
187 200 L
cp
f
GR
GS
[0.75 0 0 0.75 175.5 105.05396] CT
/Times-Roman 13.333 F
GS
[1 0 0 1 0 0] CT
0 5 moveto 
1 -1 scale
(Neg CC) t 
GR
GR
GS
[0.75 0 0 0.75 0 0] CT
0.345 0.537 0.69 RC
1 LJ
2.667 LW
N
191 140.072 M
231 140.072 L
S
GR
GS
[0.75 0 0 0.75 175.5 117.51798] CT
/Times-Roman 13.333 F
GS
[1 0 0 1 0 0] CT
0 5 moveto 
1 -1 scale
(Neg/Sep) t 
GR
GR
GS
[0.75 0 0 0.75 0 0] CT
0.914 0.282 0.286 RC
1 LJ
2.667 LW
N
191 156.691 M
231 156.691 L
S
GR
GS
[0.75 0 0 0.75 175.5 129.98202] CT
/Times-Roman 13.333 F
GS
[1 0 0 1 0 0] CT
0 5 moveto 
1 -1 scale
(Sep/Pos) t 
GR
GR
GS
[0.75 0 0 0.75 0 0] CT
0.443 0.749 0.431 RC
1 LJ
2.667 LW
N
191 173.309 M
231 173.309 L
S
GR
GS
[0.75 0 0 0.75 175.5 142.44604] CT
/Times-Roman 13.333 F
GS
[1 0 0 1 0 0] CT
0 5 moveto 
1 -1 scale
(Pos CC) t 
GR
GR
GS
[0.75 0 0 0.75 0 0] CT
1 0.6 0.2 RC
1 LJ
2.667 LW
N
191 189.928 M
231 189.928 L
S
GR
GS
[0.75 0 0 0.75 0 0] CT
1 GC
10.0 ML
0.667 LW
N
187 200 M
187 130 L
284 130 L
284 200 L
cp
S
GR
%%Trailer
%%Pages: 1
%%EOF
