%!PS-Adobe-3.0 EPSF-3.0
%%Creator: (MATLAB, The Mathworks, Inc. Version 9.3.0.713579 \(R2017b\). Operating System: Windows 7)
%%Title: F:/Lab/Git/Git_LMPROM2/Figures/phie_FUDS.eps
%%CreationDate: 2019-06-10T12:14:30
%%Pages: (atend)
%%BoundingBox: 0 0 259 180
%%LanguageLevel: 3
%%EndComments
%%BeginProlog
%%BeginResource: procset (Apache XML Graphics Std ProcSet) 1.2 0
%%Version: 1.2 0
%%Copyright: (Copyright 2001-2003,2010 The Apache Software Foundation. License terms: http://www.apache.org/licenses/LICENSE-2.0)
/bd{bind def}bind def
/ld{load def}bd
/GR/grestore ld
/GS/gsave ld
/RM/rmoveto ld
/C/curveto ld
/t/show ld
/L/lineto ld
/ML/setmiterlimit ld
/CT/concat ld
/f/fill ld
/N/newpath ld
/S/stroke ld
/CC/setcmykcolor ld
/A/ashow ld
/cp/closepath ld
/RC/setrgbcolor ld
/LJ/setlinejoin ld
/GC/setgray ld
/LW/setlinewidth ld
/M/moveto ld
/re {4 2 roll M
1 index 0 rlineto
0 exch rlineto
neg 0 rlineto
cp } bd
/_ctm matrix def
/_tm matrix def
/BT { _ctm currentmatrix pop matrix _tm copy pop 0 0 moveto } bd
/ET { _ctm setmatrix } bd
/iTm { _ctm setmatrix _tm concat } bd
/Tm { _tm astore pop iTm 0 0 moveto } bd
/ux 0.0 def
/uy 0.0 def
/F {
  /Tp exch def
  /Tf exch def
  Tf findfont Tp scalefont setfont
  /cf Tf def  /cs Tp def
} bd
/ULS {currentpoint /uy exch def /ux exch def} bd
/ULE {
  /Tcx currentpoint pop def
  gsave
  newpath
  cf findfont cs scalefont dup
  /FontMatrix get 0 get /Ts exch def /FontInfo get dup
  /UnderlinePosition get Ts mul /To exch def
  /UnderlineThickness get Ts mul /Tt exch def
  ux uy To add moveto  Tcx uy To add lineto
  Tt setlinewidth stroke
  grestore
} bd
/OLE {
  /Tcx currentpoint pop def
  gsave
  newpath
  cf findfont cs scalefont dup
  /FontMatrix get 0 get /Ts exch def /FontInfo get dup
  /UnderlinePosition get Ts mul /To exch def
  /UnderlineThickness get Ts mul /Tt exch def
  ux uy To add cs add moveto Tcx uy To add cs add lineto
  Tt setlinewidth stroke
  grestore
} bd
/SOE {
  /Tcx currentpoint pop def
  gsave
  newpath
  cf findfont cs scalefont dup
  /FontMatrix get 0 get /Ts exch def /FontInfo get dup
  /UnderlinePosition get Ts mul /To exch def
  /UnderlineThickness get Ts mul /Tt exch def
  ux uy To add cs 10 mul 26 idiv add moveto Tcx uy To add cs 10 mul 26 idiv add lineto
  Tt setlinewidth stroke
  grestore
} bd
/QT {
/Y22 exch store
/X22 exch store
/Y21 exch store
/X21 exch store
currentpoint
/Y21 load 2 mul add 3 div exch
/X21 load 2 mul add 3 div exch
/X21 load 2 mul /X22 load add 3 div
/Y21 load 2 mul /Y22 load add 3 div
/X22 load /Y22 load curveto
} bd
/SSPD {
dup length /d exch dict def
{
/v exch def
/k exch def
currentpagedevice k known {
/cpdv currentpagedevice k get def
v cpdv ne {
/upd false def
/nullv v type /nulltype eq def
/nullcpdv cpdv type /nulltype eq def
nullv nullcpdv or
{
/upd true def
} {
/sametype v type cpdv type eq def
sametype {
v type /arraytype eq {
/vlen v length def
/cpdvlen cpdv length def
vlen cpdvlen eq {
0 1 vlen 1 sub {
/i exch def
/obj v i get def
/cpdobj cpdv i get def
obj cpdobj ne {
/upd true def
exit
} if
} for
} {
/upd true def
} ifelse
} {
v type /dicttype eq {
v {
/dv exch def
/dk exch def
/cpddv cpdv dk get def
dv cpddv ne {
/upd true def
exit
} if
} forall
} {
/upd true def
} ifelse
} ifelse
} if
} ifelse
upd true eq {
d k v put
} if
} if
} if
} forall
d length 0 gt {
d setpagedevice
} if
} bd
/RE { % /NewFontName [NewEncodingArray] /FontName RE -
  findfont dup length dict begin
  {
    1 index /FID ne
    {def} {pop pop} ifelse
  } forall
  /Encoding exch def
  /FontName 1 index def
  currentdict definefont pop
  end
} bind def
%%EndResource
%%BeginResource: procset (Apache XML Graphics EPS ProcSet) 1.0 0
%%Version: 1.0 0
%%Copyright: (Copyright 2002-2003 The Apache Software Foundation. License terms: http://www.apache.org/licenses/LICENSE-2.0)
/BeginEPSF { %def
/b4_Inc_state save def         % Save state for cleanup
/dict_count countdictstack def % Count objects on dict stack
/op_count count 1 sub def      % Count objects on operand stack
userdict begin                 % Push userdict on dict stack
/showpage { } def              % Redefine showpage, { } = null proc
0 setgray 0 setlinecap         % Prepare graphics state
1 setlinewidth 0 setlinejoin
10 setmiterlimit [ ] 0 setdash newpath
/languagelevel where           % If level not equal to 1 then
{pop languagelevel             % set strokeadjust and
1 ne                           % overprint to their defaults.
{false setstrokeadjust false setoverprint
} if
} if
} bd
/EndEPSF { %def
count op_count sub {pop} repeat            % Clean up stacks
countdictstack dict_count sub {end} repeat
b4_Inc_state restore
} bd
%%EndResource
%FOPBeginFontDict
%%IncludeResource: font Courier-Oblique
%%IncludeResource: font Courier-BoldOblique
%%IncludeResource: font Courier-Bold
%%IncludeResource: font ZapfDingbats
%%IncludeResource: font Symbol
%%IncludeResource: font Helvetica
%%IncludeResource: font Helvetica-Oblique
%%IncludeResource: font Helvetica-Bold
%%IncludeResource: font Helvetica-BoldOblique
%%IncludeResource: font Times-Roman
%%IncludeResource: font Times-Italic
%%IncludeResource: font Times-Bold
%%IncludeResource: font Times-BoldItalic
%%IncludeResource: font Courier
%FOPEndFontDict
%%BeginResource: encoding WinAnsiEncoding
/WinAnsiEncoding [
/.notdef /.notdef /.notdef /.notdef /.notdef
/.notdef /.notdef /.notdef /.notdef /.notdef
/.notdef /.notdef /.notdef /.notdef /.notdef
/.notdef /.notdef /.notdef /.notdef /.notdef
/.notdef /.notdef /.notdef /.notdef /.notdef
/.notdef /.notdef /.notdef /.notdef /.notdef
/.notdef /.notdef /space /exclam /quotedbl
/numbersign /dollar /percent /ampersand /quotesingle
/parenleft /parenright /asterisk /plus /comma
/hyphen /period /slash /zero /one
/two /three /four /five /six
/seven /eight /nine /colon /semicolon
/less /equal /greater /question /at
/A /B /C /D /E
/F /G /H /I /J
/K /L /M /N /O
/P /Q /R /S /T
/U /V /W /X /Y
/Z /bracketleft /backslash /bracketright /asciicircum
/underscore /quoteleft /a /b /c
/d /e /f /g /h
/i /j /k /l /m
/n /o /p /q /r
/s /t /u /v /w
/x /y /z /braceleft /bar
/braceright /asciitilde /bullet /Euro /bullet
/quotesinglbase /florin /quotedblbase /ellipsis /dagger
/daggerdbl /circumflex /perthousand /Scaron /guilsinglleft
/OE /bullet /Zcaron /bullet /bullet
/quoteleft /quoteright /quotedblleft /quotedblright /bullet
/endash /emdash /asciitilde /trademark /scaron
/guilsinglright /oe /bullet /zcaron /Ydieresis
/space /exclamdown /cent /sterling /currency
/yen /brokenbar /section /dieresis /copyright
/ordfeminine /guillemotleft /logicalnot /sfthyphen /registered
/macron /degree /plusminus /twosuperior /threesuperior
/acute /mu /paragraph /middot /cedilla
/onesuperior /ordmasculine /guillemotright /onequarter /onehalf
/threequarters /questiondown /Agrave /Aacute /Acircumflex
/Atilde /Adieresis /Aring /AE /Ccedilla
/Egrave /Eacute /Ecircumflex /Edieresis /Igrave
/Iacute /Icircumflex /Idieresis /Eth /Ntilde
/Ograve /Oacute /Ocircumflex /Otilde /Odieresis
/multiply /Oslash /Ugrave /Uacute /Ucircumflex
/Udieresis /Yacute /Thorn /germandbls /agrave
/aacute /acircumflex /atilde /adieresis /aring
/ae /ccedilla /egrave /eacute /ecircumflex
/edieresis /igrave /iacute /icircumflex /idieresis
/eth /ntilde /ograve /oacute /ocircumflex
/otilde /odieresis /divide /oslash /ugrave
/uacute /ucircumflex /udieresis /yacute /thorn
/ydieresis
] def
%%EndResource
%FOPBeginFontReencode
/Courier-Oblique findfont
dup length dict begin
  {1 index /FID ne {def} {pop pop} ifelse} forall
  /Encoding WinAnsiEncoding def
  currentdict
end
/Courier-Oblique exch definefont pop
/Courier-BoldOblique findfont
dup length dict begin
  {1 index /FID ne {def} {pop pop} ifelse} forall
  /Encoding WinAnsiEncoding def
  currentdict
end
/Courier-BoldOblique exch definefont pop
/Courier-Bold findfont
dup length dict begin
  {1 index /FID ne {def} {pop pop} ifelse} forall
  /Encoding WinAnsiEncoding def
  currentdict
end
/Courier-Bold exch definefont pop
/Helvetica findfont
dup length dict begin
  {1 index /FID ne {def} {pop pop} ifelse} forall
  /Encoding WinAnsiEncoding def
  currentdict
end
/Helvetica exch definefont pop
/Helvetica-Oblique findfont
dup length dict begin
  {1 index /FID ne {def} {pop pop} ifelse} forall
  /Encoding WinAnsiEncoding def
  currentdict
end
/Helvetica-Oblique exch definefont pop
/Helvetica-Bold findfont
dup length dict begin
  {1 index /FID ne {def} {pop pop} ifelse} forall
  /Encoding WinAnsiEncoding def
  currentdict
end
/Helvetica-Bold exch definefont pop
/Helvetica-BoldOblique findfont
dup length dict begin
  {1 index /FID ne {def} {pop pop} ifelse} forall
  /Encoding WinAnsiEncoding def
  currentdict
end
/Helvetica-BoldOblique exch definefont pop
/Times-Roman findfont
dup length dict begin
  {1 index /FID ne {def} {pop pop} ifelse} forall
  /Encoding WinAnsiEncoding def
  currentdict
end
/Times-Roman exch definefont pop
/Times-Italic findfont
dup length dict begin
  {1 index /FID ne {def} {pop pop} ifelse} forall
  /Encoding WinAnsiEncoding def
  currentdict
end
/Times-Italic exch definefont pop
/Times-Bold findfont
dup length dict begin
  {1 index /FID ne {def} {pop pop} ifelse} forall
  /Encoding WinAnsiEncoding def
  currentdict
end
/Times-Bold exch definefont pop
/Times-BoldItalic findfont
dup length dict begin
  {1 index /FID ne {def} {pop pop} ifelse} forall
  /Encoding WinAnsiEncoding def
  currentdict
end
/Times-BoldItalic exch definefont pop
/Courier findfont
dup length dict begin
  {1 index /FID ne {def} {pop pop} ifelse} forall
  /Encoding WinAnsiEncoding def
  currentdict
end
/Courier exch definefont pop
%FOPEndFontReencode
%%EndProlog
%%Page: 1 1
%%PageBoundingBox: 0 0 259 180
%%BeginPageSetup
[1 0 0 -1 0 180] CT
%%EndPageSetup
GS
[0.75 0 0 0.75 0 0] CT
1 GC
N
0 0 345 240 re
f
GR
GS
[0.75 0 0 0.75 0 0] CT
1 GC
N
0 0 345 240 re
f
GR
GS
[0.75 0 0 0.75 0 0] CT
1 GC
N
59 200 M
298 200 L
298 18 L
59 18 L
cp
f
GR
GS
[0.75 0 0 0.75 0 0] CT
0.149 GC
2 setlinecap
1 LJ
0.667 LW
N
59 200 M
298 200 L
S
GR
GS
[0.75 0 0 0.75 0 0] CT
0.149 GC
2 setlinecap
1 LJ
0.667 LW
N
59 18 M
298 18 L
S
GR
GS
[0.75 0 0 0.75 0 0] CT
0.149 GC
2 setlinecap
1 LJ
0.667 LW
N
59 200 M
59 197.61 L
S
GR
GS
[0.75 0 0 0.75 0 0] CT
0.149 GC
2 setlinecap
1 LJ
0.667 LW
N
138.667 200 M
138.667 197.61 L
S
GR
GS
[0.75 0 0 0.75 0 0] CT
0.149 GC
2 setlinecap
1 LJ
0.667 LW
N
218.333 200 M
218.333 197.61 L
S
GR
GS
[0.75 0 0 0.75 0 0] CT
0.149 GC
2 setlinecap
1 LJ
0.667 LW
N
298 200 M
298 197.61 L
S
GR
GS
[0.75 0 0 0.75 0 0] CT
0.149 GC
2 setlinecap
1 LJ
0.667 LW
N
59 18 M
59 20.39 L
S
GR
GS
[0.75 0 0 0.75 0 0] CT
0.149 GC
2 setlinecap
1 LJ
0.667 LW
N
138.667 18 M
138.667 20.39 L
S
GR
GS
[0.75 0 0 0.75 0 0] CT
0.149 GC
2 setlinecap
1 LJ
0.667 LW
N
218.333 18 M
218.333 20.39 L
S
GR
GS
[0.75 0 0 0.75 0 0] CT
0.149 GC
2 setlinecap
1 LJ
0.667 LW
N
298 18 M
298 20.39 L
S
GR
GS
[0.75 0 0 0.75 44.25 154.00001] CT
0.149 GC
/Times-Roman 13.333 F
GS
[1 0 0 1 0 0] CT
-3.5 13 moveto 
1 -1 scale
(0) t 
GR
GR
GS
[0.75 0 0 0.75 104 154.00001] CT
0.149 GC
/Times-Roman 13.333 F
GS
[1 0 0 1 0 0] CT
-10 13 moveto 
1 -1 scale
(500) t 
GR
GR
GS
[0.75 0 0 0.75 163.75 154.00001] CT
0.149 GC
/Times-Roman 13.333 F
GS
[1 0 0 1 0 0] CT
-13.5 13 moveto 
1 -1 scale
(1000) t 
GR
GR
GS
[0.75 0 0 0.75 223.5 154.00001] CT
0.149 GC
/Times-Roman 13.333 F
GS
[1 0 0 1 0 0] CT
-13.5 13 moveto 
1 -1 scale
(1500) t 
GR
GR
GS
[0.75 0 0 0.75 133.87509 161.75] CT
0.149 GC
/Times-Roman 14.667 F
GS
[1 0 0 1 0 0] CT
-24.5 14 moveto 
1 -1 scale
(Time / s) t 
GR
GR
GS
[0.75 0 0 0.75 0 0] CT
0 0.447 0.741 RC
2 setlinecap
1 LJ
0.667 LW
N
59 200 M
59 18 L
S
GR
GS
[0.75 0 0 0.75 0 0] CT
0 0.447 0.741 RC
2 setlinecap
1 LJ
0.667 LW
N
59 200 M
61.39 200 L
S
GR
GS
[0.75 0 0 0.75 0 0] CT
0 0.447 0.741 RC
2 setlinecap
1 LJ
0.667 LW
N
59 154.5 M
61.39 154.5 L
S
GR
GS
[0.75 0 0 0.75 0 0] CT
0 0.447 0.741 RC
2 setlinecap
1 LJ
0.667 LW
N
59 109 M
61.39 109 L
S
GR
GS
[0.75 0 0 0.75 0 0] CT
0 0.447 0.741 RC
2 setlinecap
1 LJ
0.667 LW
N
59 63.5 M
61.39 63.5 L
S
GR
GS
[0.75 0 0 0.75 40.25 150.00001] CT
0 0.447 0.741 RC
/Times-Roman 13.333 F
GS
[1 0 0 1 0 0] CT
-22 5 moveto 
1 -1 scale
(-0.6) t 
GR
GR
GS
[0.75 0 0 0.75 40.25 115.875] CT
0 0.447 0.741 RC
/Times-Roman 13.333 F
GS
[1 0 0 1 0 0] CT
-22 5 moveto 
1 -1 scale
(-0.5) t 
GR
GR
GS
[0.75 0 0 0.75 40.25 81.75] CT
0 0.447 0.741 RC
/Times-Roman 13.333 F
GS
[1 0 0 1 0 0] CT
-22 5 moveto 
1 -1 scale
(-0.4) t 
GR
GR
GS
[0.75 0 0 0.75 40.25 47.625] CT
0 0.447 0.741 RC
/Times-Roman 13.333 F
GS
[1 0 0 1 0 0] CT
-22 5 moveto 
1 -1 scale
(-0.3) t 
GR
GR
GS
[0 -0.75 0.75 0 18.75 96] CT
0 0.447 0.741 RC
N
2.906 2.922 M
3.578 0.219 L
2.813 0.219 2.156 -0.141 QT
1.5 -0.5 1.102 -1.133 QT
0.703 -1.766 0.703 -2.516 QT
0.703 -3.328 1.109 -4.07 QT
1.516 -4.813 2.211 -5.414 QT
2.906 -6.016 3.711 -6.344 QT
4.516 -6.672 5.313 -6.672 QT
6.219 -10.313 L
6.234 -10.406 6.328 -10.406 QT
6.516 -10.406 L
6.563 -10.406 6.602 -10.359 QT
6.641 -10.313 6.641 -10.266 QT
5.75 -6.672 L
6.313 -6.672 6.836 -6.469 QT
7.359 -6.266 7.766 -5.891 QT
8.172 -5.516 8.398 -5.016 QT
8.625 -4.516 8.625 -3.953 QT
8.625 -3.141 8.227 -2.398 QT
7.828 -1.656 7.141 -1.063 QT
6.453 -0.469 5.617 -0.125 QT
4.781 0.219 4.016 0.219 QT
3.328 2.984 L
3.297 3.078 3.203 3.078 QT
3.031 3.078 L
2.969 3.078 2.938 3.023 QT
2.906 2.969 2.906 2.922 QT
cp
3.672 -0.188 M
5.203 -6.281 L
4.828 -6.281 4.406 -6.133 QT
3.984 -5.984 3.617 -5.75 QT
3.25 -5.516 2.953 -5.203 QT
2.578 -4.844 2.305 -4.344 QT
2.031 -3.844 1.891 -3.289 QT
1.75 -2.734 1.75 -2.203 QT
1.75 -1.641 1.992 -1.18 QT
2.234 -0.719 2.672 -0.453 QT
3.109 -0.188 3.672 -0.188 QT
cp
4.125 -0.188 M
4.688 -0.188 5.328 -0.508 QT
5.969 -0.828 6.375 -1.266 QT
6.938 -1.813 7.266 -2.625 QT
7.594 -3.438 7.594 -4.266 QT
7.594 -4.813 7.352 -5.281 QT
7.109 -5.75 6.664 -6.016 QT
6.219 -6.281 5.656 -6.281 QT
4.125 -0.188 L
cp
f
GR
GS
[0 -0.75 0.75 0 24 89.25] CT
0 0.447 0.741 RC
/Times-Roman 11.733 F
GS
[1 0 0 1 0 0] CT
0 0 moveto 
1 -1 scale
(e) t 
GR
GR
GS
[0 -0.75 0.75 0 18.75 84.75] CT
0 0.447 0.741 RC
/Times-Roman 14.667 F
GS
[1 0 0 1 0 0] CT
0 0 moveto 
1 -1 scale
( / V) t 
GR
GR
GS
[0.75 0 0 0.75 0 0] CT
0.851 0.325 0.098 RC
2 setlinecap
1 LJ
0.667 LW
N
298 200 M
298 18 L
S
GR
GS
[0.75 0 0 0.75 0 0] CT
0.851 0.325 0.098 RC
2 setlinecap
1 LJ
0.667 LW
N
298 200 M
295.61 200 L
S
GR
GS
[0.75 0 0 0.75 0 0] CT
0.851 0.325 0.098 RC
2 setlinecap
1 LJ
0.667 LW
N
298 154.5 M
295.61 154.5 L
S
GR
GS
[0.75 0 0 0.75 0 0] CT
0.851 0.325 0.098 RC
2 setlinecap
1 LJ
0.667 LW
N
298 109 M
295.61 109 L
S
GR
GS
[0.75 0 0 0.75 0 0] CT
0.851 0.325 0.098 RC
2 setlinecap
1 LJ
0.667 LW
N
298 63.5 M
295.61 63.5 L
S
GR
GS
[0.75 0 0 0.75 0 0] CT
0.851 0.325 0.098 RC
2 setlinecap
1 LJ
0.667 LW
N
298 18 M
295.61 18 L
S
GR
GS
[0.75 0 0 0.75 227.50001 150] CT
0.851 0.325 0.098 RC
/Times-Roman 13.333 F
GS
[1 0 0 1 0 0] CT
0 5 moveto 
1 -1 scale
(-0.4) t 
GR
GR
GS
[0.75 0 0 0.75 227.50001 115.875] CT
0.851 0.325 0.098 RC
/Times-Roman 13.333 F
GS
[1 0 0 1 0 0] CT
0 5 moveto 
1 -1 scale
(-0.35) t 
GR
GR
GS
[0.75 0 0 0.75 227.50001 81.75001] CT
0.851 0.325 0.098 RC
/Times-Roman 13.333 F
GS
[1 0 0 1 0 0] CT
0 5 moveto 
1 -1 scale
(-0.3) t 
GR
GR
GS
[0.75 0 0 0.75 227.50001 47.625] CT
0.851 0.325 0.098 RC
/Times-Roman 13.333 F
GS
[1 0 0 1 0 0] CT
0 5 moveto 
1 -1 scale
(-0.25) t 
GR
GR
GS
[0.75 0 0 0.75 227.50001 13.5] CT
0.851 0.325 0.098 RC
/Times-Roman 13.333 F
GS
[1 0 0 1 0 0] CT
0 5 moveto 
1 -1 scale
(-0.2) t 
GR
GR
GS
[0 -0.75 0.75 0 251.25 96] CT
0.851 0.325 0.098 RC
N
/f-1202883411{2.906 2.922 M
3.578 0.219 L
2.813 0.219 2.156 -0.141 QT
1.5 -0.5 1.102 -1.133 QT
0.703 -1.766 0.703 -2.516 QT
0.703 -3.328 1.109 -4.07 QT
1.516 -4.813 2.211 -5.414 QT
2.906 -6.016 3.711 -6.344 QT
4.516 -6.672 5.313 -6.672 QT
6.219 -10.313 L
6.234 -10.406 6.328 -10.406 QT
6.516 -10.406 L
6.563 -10.406 6.602 -10.359 QT
6.641 -10.313 6.641 -10.266 QT
5.75 -6.672 L
6.313 -6.672 6.836 -6.469 QT
7.359 -6.266 7.766 -5.891 QT
8.172 -5.516 8.398 -5.016 QT
8.625 -4.516 8.625 -3.953 QT
8.625 -3.141 8.227 -2.398 QT
7.828 -1.656 7.141 -1.063 QT
6.453 -0.469 5.617 -0.125 QT
4.781 0.219 4.016 0.219 QT
3.328 2.984 L
3.297 3.078 3.203 3.078 QT
3.031 3.078 L
2.969 3.078 2.938 3.023 QT
2.906 2.969 2.906 2.922 QT
cp
3.672 -0.188 M
5.203 -6.281 L
4.828 -6.281 4.406 -6.133 QT
3.984 -5.984 3.617 -5.75 QT
3.25 -5.516 2.953 -5.203 QT
2.578 -4.844 2.305 -4.344 QT
2.031 -3.844 1.891 -3.289 QT
1.75 -2.734 1.75 -2.203 QT
1.75 -1.641 1.992 -1.18 QT
2.234 -0.719 2.672 -0.453 QT
3.109 -0.188 3.672 -0.188 QT
cp
4.125 -0.188 M
4.688 -0.188 5.328 -0.508 QT
5.969 -0.828 6.375 -1.266 QT
6.938 -1.813 7.266 -2.625 QT
7.594 -3.438 7.594 -4.266 QT
7.594 -4.813 7.352 -5.281 QT
7.109 -5.75 6.664 -6.016 QT
6.219 -6.281 5.656 -6.281 QT
4.125 -0.188 L
cp}def
f-1202883411
f
GR
GS
[0 -0.75 0.75 0 256.5 89.25] CT
0.851 0.325 0.098 RC
/Times-Roman 11.733 F
GS
[1 0 0 1 0 0] CT
0 0 moveto 
1 -1 scale
(e) t 
GR
GR
GS
[0 -0.75 0.75 0 251.25 84.75] CT
0.851 0.325 0.098 RC
/Times-Roman 14.667 F
GS
[1 0 0 1 0 0] CT
0 0 moveto 
1 -1 scale
( / V) t 
GR
GR
GS
[0.75 0 0 0.75 0 0] CT
N
59 18 M
299 18 L
299 201 L
59 201 L
59 18 L
cp
clip
0.345 0.537 0.69 RC
1 LJ
2.667 LW
N
59 67.868 M
60.593 67.868 L
62.187 68.246 L
63.78 94.372 L
65.373 72.318 L
66.967 74.443 L
68.56 98.995 L
70.153 78.119 L
71.747 71.672 L
73.34 82.373 L
74.933 94.226 L
76.527 95.678 L
78.12 49.222 L
79.713 71.381 L
81.307 71.303 L
82.9 71.19 L
84.493 71.076 L
86.087 125.585 L
87.68 90.345 L
89.273 100.937 L
90.867 148.153 L
92.46 98.217 L
94.053 122.709 L
95.647 106.179 L
97.24 118.5 L
98.833 99.39 L
100.427 110.224 L
102.02 99.34 L
103.613 123.81 L
105.207 107.858 L
106.8 89.744 L
108.393 55.765 L
109.987 65.184 L
111.58 79.616 L
113.173 79.862 L
114.767 116.316 L
116.36 113.955 L
117.953 100.314 L
119.547 98.867 L
121.14 57.367 L
122.733 81.068 L
124.327 146.811 L
125.92 77.741 L
127.513 82.078 L
129.107 81.745 L
130.7 114.624 L
132.293 113.25 L
133.887 105.974 L
135.48 96.879 L
137.073 89.694 L
138.667 63.336 L
140.26 82.455 L
141.853 114.728 L
143.447 94.877 L
145.04 83.502 L
146.633 82.938 L
148.227 82.878 L
149.82 108.504 L
151.413 88.106 L
153.007 87.219 L
154.6 98.044 L
156.193 104.787 L
157.787 83.302 L
159.38 83.033 L
160.973 82.724 L
162.567 112.781 L
164.16 99.577 L
165.753 67.049 L
167.347 83.302 L
168.94 83.056 L
170.533 112.335 L
172.127 110.433 L
173.72 64.533 L
175.313 102.694 L
176.907 115.761 L
178.5 88.516 L
180.093 83.893 L
181.687 127.277 L
183.28 117.945 L
184.873 94.845 L
186.467 103.64 L
188.06 96.083 L
189.653 87.465 L
191.247 95.364 L
192.84 75.976 L
194.433 116.703 L
196.027 99.081 L
197.62 100.141 L
199.213 93.503 L
200.807 103.049 L
202.4 84.794 L
203.993 93.912 L
205.587 109.573 L
207.18 87.206 L
208.773 94.358 L
210.367 70.762 L
211.96 97.266 L
213.553 114.455 L
215.147 90.918 L
216.74 92.374 L
218.333 109.874 L
219.927 86.696 L
221.52 86.296 L
223.113 86.55 L
224.707 86.327 L
226.3 86.1 L
227.893 118.296 L
229.487 106.975 L
231.08 67.167 L
232.673 90.891 L
234.267 86.773 L
235.86 112.722 L
237.453 111.625 L
239.047 100.865 L
240.64 87.833 L
242.233 87.06 L
243.827 87.265 L
245.42 106.256 L
247.013 67.964 L
248.607 87.943 L
250.2 105.337 L
251.793 112.34 L
253.387 100.815 L
254.98 88.097 L
256.573 88.07 L
258.167 87.861 L
259.76 94.445 L
261.353 127.646 L
262.947 97.316 L
264.54 105.274 L
266.133 76.117 L
267.727 88.489 L
269.32 88.762 L
270.913 88.502 L
272.507 120.234 L
274.1 127.255 L
275.693 83.866 L
277.287 88.853 L
S
GR
GS
[0.75 0 0 0.75 0 0] CT
N
59 18 M
299 18 L
299 201 L
59 201 L
59 18 L
cp
clip
0.914 0.282 0.286 RC
[8 8] 0 setdash
2 LJ
2.667 LW
N
59 67.868 M
60.593 67.868 L
62.187 68.232 L
63.78 94.777 L
65.373 72.409 L
66.967 74.616 L
68.56 99.172 L
70.153 78.351 L
71.747 71.936 L
73.34 82.678 L
74.933 94.517 L
76.527 96.019 L
78.12 49.509 L
79.713 71.64 L
81.307 71.549 L
82.9 71.422 L
84.493 71.294 L
86.087 125.744 L
87.68 90.65 L
89.273 101.229 L
90.867 148.726 L
92.46 98.908 L
94.053 123.419 L
95.647 107.048 L
97.24 119.447 L
98.833 100.455 L
100.427 111.211 L
102.02 100.387 L
103.613 124.852 L
105.207 108.891 L
106.8 90.773 L
108.393 56.807 L
109.987 65.98 L
111.58 80.276 L
113.173 80.49 L
114.767 116.881 L
116.36 114.596 L
117.953 101.083 L
119.547 99.654 L
121.14 58.022 L
122.733 81.618 L
124.327 147.452 L
125.92 78.447 L
127.513 82.619 L
129.107 82.251 L
130.7 115.124 L
132.293 113.928 L
133.887 106.698 L
135.48 97.611 L
137.073 90.354 L
138.667 63.814 L
140.26 82.919 L
141.853 115.243 L
143.447 95.427 L
145.04 84.043 L
146.633 83.361 L
148.227 83.274 L
149.82 108.854 L
151.413 88.548 L
153.007 87.61 L
154.6 98.462 L
156.193 105.242 L
157.787 83.67 L
159.38 83.37 L
160.973 83.029 L
162.567 113.118 L
164.16 100.009 L
165.753 67.509 L
167.347 83.606 L
168.94 83.333 L
170.533 112.676 L
172.127 110.702 L
173.72 64.865 L
175.313 102.989 L
176.907 116.221 L
178.5 88.944 L
180.093 84.198 L
181.687 127.423 L
183.28 118.355 L
184.873 95.295 L
186.467 104.122 L
188.06 96.619 L
189.653 87.938 L
191.247 95.805 L
192.84 76.34 L
194.433 117.145 L
196.027 99.55 L
197.62 100.532 L
199.213 93.962 L
200.807 103.499 L
202.4 85.217 L
203.993 94.304 L
205.587 109.955 L
207.18 87.61 L
208.773 94.754 L
210.367 71.126 L
211.96 97.534 L
213.553 114.906 L
215.147 91.387 L
216.74 92.757 L
218.333 110.21 L
219.927 87.105 L
221.52 86.614 L
223.113 86.846 L
224.707 86.6 L
226.3 86.35 L
227.893 118.641 L
229.487 107.367 L
231.08 67.531 L
232.673 91.173 L
234.267 87.042 L
235.86 113.113 L
237.453 111.994 L
239.047 101.256 L
240.64 88.229 L
242.233 87.351 L
243.827 87.551 L
245.42 106.575 L
247.013 68.323 L
248.607 88.238 L
250.2 105.638 L
251.793 112.813 L
253.387 101.183 L
254.98 88.439 L
256.573 88.375 L
258.167 88.143 L
259.76 94.695 L
261.353 127.923 L
262.947 97.707 L
264.54 105.715 L
266.133 76.559 L
267.727 88.793 L
269.32 89.066 L
270.913 88.793 L
272.507 120.507 L
274.1 127.619 L
275.693 84.207 L
277.287 89.153 L
S
GR
GS
[0.75 0 0 0.75 0 0] CT
N
59 18 M
299 18 L
299 201 L
59 201 L
59 18 L
cp
clip
0.443 0.749 0.431 RC
1 LJ
2.667 LW
N
59 117.736 M
60.593 117.736 L
62.187 117.9 L
63.78 132.387 L
65.373 120.593 L
66.967 123.314 L
68.56 134.999 L
70.153 125.089 L
71.747 122.677 L
73.34 128.447 L
74.933 133.006 L
76.527 134.152 L
78.12 111.412 L
79.713 121.485 L
81.307 121.412 L
82.9 121.294 L
84.493 121.176 L
86.087 148.057 L
87.68 132.414 L
89.273 136.118 L
90.867 161.716 L
92.46 140.704 L
94.053 152.425 L
95.647 147.52 L
97.24 153.472 L
98.833 144.517 L
100.427 149.04 L
102.02 143.462 L
103.613 157.139 L
105.207 147.73 L
106.8 140.177 L
108.393 122.368 L
109.987 125.316 L
111.58 130.43 L
113.173 131.04 L
114.767 147.957 L
116.36 151.242 L
117.953 144.435 L
119.547 144.226 L
121.14 122.659 L
122.733 133.051 L
124.327 165.438 L
125.92 134.78 L
127.513 134.598 L
129.107 134.289 L
130.7 149.313 L
132.293 153.936 L
133.887 149.004 L
135.48 144.772 L
137.073 141.36 L
138.667 126.681 L
140.26 135.572 L
141.853 151.379 L
143.447 144.144 L
145.04 138.584 L
146.633 136.564 L
148.227 136.664 L
149.82 148.157 L
151.413 140.55 L
153.007 139.549 L
154.6 145.209 L
156.193 149.449 L
157.787 137.811 L
159.38 137.583 L
160.973 137.301 L
162.567 151.715 L
164.16 148.13 L
165.753 132.76 L
167.347 138.384 L
168.94 138.175 L
170.533 152.261 L
172.127 152.762 L
173.72 131.022 L
175.313 147.839 L
176.907 156.775 L
178.5 144.153 L
180.093 139.658 L
181.687 160.078 L
183.28 158.923 L
184.873 147.639 L
186.467 151.26 L
188.06 149.85 L
189.653 144.699 L
191.247 147.83 L
192.84 137.729 L
194.433 157.912 L
196.027 150.742 L
197.62 150.141 L
199.213 148.658 L
200.807 151.624 L
202.4 144.026 L
203.993 147.757 L
205.587 154.354 L
207.18 145.755 L
208.773 148.885 L
210.367 137.61 L
211.96 148.667 L
213.553 159.296 L
215.147 148.958 L
216.74 148.075 L
218.333 156.42 L
219.927 146.401 L
221.52 144.599 L
223.113 145.163 L
224.707 145.009 L
226.3 144.845 L
227.893 161.844 L
229.487 157.831 L
231.08 138.093 L
232.673 147.993 L
234.267 146.137 L
235.86 159.159 L
237.453 159.705 L
239.047 155.355 L
240.64 149.076 L
242.233 146.701 L
243.827 147.184 L
245.42 155.756 L
247.013 141.241 L
248.607 148.358 L
250.2 156.238 L
251.793 160.106 L
253.387 155.583 L
254.98 149.404 L
256.573 148.849 L
258.167 148.676 L
259.76 151.897 L
261.353 167.304 L
262.947 155.92 L
264.54 158.841 L
266.133 147.83 L
267.727 149.732 L
269.32 150.296 L
270.913 150.05 L
272.507 164.501 L
274.1 169.369 L
275.693 149.067 L
277.287 150.824 L
S
GR
GS
[0.75 0 0 0.75 0 0] CT
N
59 18 M
299 18 L
299 201 L
59 201 L
59 18 L
cp
clip
1 0.6 0.2 RC
[8 8] 0 setdash
2 LJ
2.667 LW
N
59 117.736 M
60.593 117.736 L
62.187 117.891 L
63.78 132.624 L
65.373 120.593 L
66.967 123.351 L
68.56 135.044 L
70.153 125.098 L
71.747 122.686 L
73.34 128.465 L
74.933 132.988 L
76.527 134.162 L
78.12 111.32 L
79.713 121.431 L
81.307 121.385 L
82.9 121.276 L
84.493 121.176 L
86.087 148.13 L
87.68 132.46 L
89.273 136.136 L
90.867 161.917 L
92.46 140.805 L
94.053 152.48 L
95.647 147.566 L
97.24 153.508 L
98.833 144.526 L
100.427 149.022 L
102.02 143.453 L
103.613 157.175 L
105.207 147.721 L
106.8 140.177 L
108.393 122.377 L
109.987 125.28 L
111.58 130.412 L
113.173 131.086 L
114.767 148.094 L
116.36 151.461 L
117.953 144.627 L
119.547 144.408 L
121.14 122.705 L
122.733 133.106 L
124.327 165.657 L
125.92 134.962 L
127.513 134.698 L
129.107 134.398 L
130.7 149.495 L
132.293 154.245 L
133.887 149.249 L
135.48 144.981 L
137.073 141.533 L
138.667 126.736 L
140.26 135.699 L
141.853 151.615 L
143.447 144.399 L
145.04 138.802 L
146.633 136.71 L
148.227 136.837 L
149.82 148.367 L
151.413 140.814 L
153.007 139.785 L
154.6 145.482 L
156.193 149.759 L
157.787 138.038 L
159.38 137.811 L
160.973 137.529 L
162.567 152.025 L
164.16 148.485 L
165.753 133.042 L
167.347 138.611 L
168.94 138.411 L
170.533 152.589 L
172.127 153.071 L
173.72 131.259 L
175.313 148.112 L
176.907 157.148 L
178.5 144.454 L
180.093 139.867 L
181.687 160.315 L
183.28 159.277 L
184.873 147.939 L
186.467 151.579 L
188.06 150.187 L
189.653 144.963 L
191.247 148.103 L
192.84 137.947 L
194.433 158.258 L
196.027 151.097 L
197.62 150.441 L
199.213 148.995 L
200.807 151.961 L
202.4 144.335 L
203.993 148.075 L
205.587 154.7 L
207.18 146.101 L
208.773 149.231 L
210.367 137.929 L
211.96 149.004 L
213.553 159.751 L
215.147 149.368 L
216.74 148.412 L
218.333 156.757 L
219.927 146.756 L
221.52 144.909 L
223.113 145.5 L
224.707 145.354 L
226.3 145.2 L
227.893 162.317 L
229.487 158.295 L
231.08 138.438 L
232.673 148.339 L
234.267 146.492 L
235.86 159.632 L
237.453 160.16 L
239.047 155.783 L
240.64 149.459 L
242.233 147.029 L
243.827 147.539 L
245.42 156.184 L
247.013 141.624 L
248.607 148.74 L
250.2 156.648 L
251.793 160.597 L
253.387 156.011 L
254.98 149.804 L
256.573 149.231 L
258.167 149.067 L
259.76 152.298 L
261.353 167.777 L
262.947 156.393 L
264.54 159.305 L
266.133 148.266 L
267.727 150.05 L
269.32 150.66 L
270.913 150.432 L
272.507 164.947 L
274.1 169.852 L
275.693 149.486 L
277.287 151.233 L
S
GR
%%Trailer
%%Pages: 1
%%EOF
