%!PS-Adobe-3.0 EPSF-3.0
%%Creator: (MATLAB, The Mathworks, Inc. Version 9.3.0.713579 \(R2017b\). Operating System: Windows 7)
%%Title: F:/Lab/Git/Git_LMPROM2/Figures/phise_FUDS.eps
%%CreationDate: 2019-06-10T12:16:52
%%Pages: (atend)
%%BoundingBox: 0 0 272 180
%%LanguageLevel: 3
%%EndComments
%%BeginProlog
%%BeginResource: procset (Apache XML Graphics Std ProcSet) 1.2 0
%%Version: 1.2 0
%%Copyright: (Copyright 2001-2003,2010 The Apache Software Foundation. License terms: http://www.apache.org/licenses/LICENSE-2.0)
/bd{bind def}bind def
/ld{load def}bd
/GR/grestore ld
/GS/gsave ld
/RM/rmoveto ld
/C/curveto ld
/t/show ld
/L/lineto ld
/ML/setmiterlimit ld
/CT/concat ld
/f/fill ld
/N/newpath ld
/S/stroke ld
/CC/setcmykcolor ld
/A/ashow ld
/cp/closepath ld
/RC/setrgbcolor ld
/LJ/setlinejoin ld
/GC/setgray ld
/LW/setlinewidth ld
/M/moveto ld
/re {4 2 roll M
1 index 0 rlineto
0 exch rlineto
neg 0 rlineto
cp } bd
/_ctm matrix def
/_tm matrix def
/BT { _ctm currentmatrix pop matrix _tm copy pop 0 0 moveto } bd
/ET { _ctm setmatrix } bd
/iTm { _ctm setmatrix _tm concat } bd
/Tm { _tm astore pop iTm 0 0 moveto } bd
/ux 0.0 def
/uy 0.0 def
/F {
  /Tp exch def
  /Tf exch def
  Tf findfont Tp scalefont setfont
  /cf Tf def  /cs Tp def
} bd
/ULS {currentpoint /uy exch def /ux exch def} bd
/ULE {
  /Tcx currentpoint pop def
  gsave
  newpath
  cf findfont cs scalefont dup
  /FontMatrix get 0 get /Ts exch def /FontInfo get dup
  /UnderlinePosition get Ts mul /To exch def
  /UnderlineThickness get Ts mul /Tt exch def
  ux uy To add moveto  Tcx uy To add lineto
  Tt setlinewidth stroke
  grestore
} bd
/OLE {
  /Tcx currentpoint pop def
  gsave
  newpath
  cf findfont cs scalefont dup
  /FontMatrix get 0 get /Ts exch def /FontInfo get dup
  /UnderlinePosition get Ts mul /To exch def
  /UnderlineThickness get Ts mul /Tt exch def
  ux uy To add cs add moveto Tcx uy To add cs add lineto
  Tt setlinewidth stroke
  grestore
} bd
/SOE {
  /Tcx currentpoint pop def
  gsave
  newpath
  cf findfont cs scalefont dup
  /FontMatrix get 0 get /Ts exch def /FontInfo get dup
  /UnderlinePosition get Ts mul /To exch def
  /UnderlineThickness get Ts mul /Tt exch def
  ux uy To add cs 10 mul 26 idiv add moveto Tcx uy To add cs 10 mul 26 idiv add lineto
  Tt setlinewidth stroke
  grestore
} bd
/QT {
/Y22 exch store
/X22 exch store
/Y21 exch store
/X21 exch store
currentpoint
/Y21 load 2 mul add 3 div exch
/X21 load 2 mul add 3 div exch
/X21 load 2 mul /X22 load add 3 div
/Y21 load 2 mul /Y22 load add 3 div
/X22 load /Y22 load curveto
} bd
/SSPD {
dup length /d exch dict def
{
/v exch def
/k exch def
currentpagedevice k known {
/cpdv currentpagedevice k get def
v cpdv ne {
/upd false def
/nullv v type /nulltype eq def
/nullcpdv cpdv type /nulltype eq def
nullv nullcpdv or
{
/upd true def
} {
/sametype v type cpdv type eq def
sametype {
v type /arraytype eq {
/vlen v length def
/cpdvlen cpdv length def
vlen cpdvlen eq {
0 1 vlen 1 sub {
/i exch def
/obj v i get def
/cpdobj cpdv i get def
obj cpdobj ne {
/upd true def
exit
} if
} for
} {
/upd true def
} ifelse
} {
v type /dicttype eq {
v {
/dv exch def
/dk exch def
/cpddv cpdv dk get def
dv cpddv ne {
/upd true def
exit
} if
} forall
} {
/upd true def
} ifelse
} ifelse
} if
} ifelse
upd true eq {
d k v put
} if
} if
} if
} forall
d length 0 gt {
d setpagedevice
} if
} bd
/RE { % /NewFontName [NewEncodingArray] /FontName RE -
  findfont dup length dict begin
  {
    1 index /FID ne
    {def} {pop pop} ifelse
  } forall
  /Encoding exch def
  /FontName 1 index def
  currentdict definefont pop
  end
} bind def
%%EndResource
%%BeginResource: procset (Apache XML Graphics EPS ProcSet) 1.0 0
%%Version: 1.0 0
%%Copyright: (Copyright 2002-2003 The Apache Software Foundation. License terms: http://www.apache.org/licenses/LICENSE-2.0)
/BeginEPSF { %def
/b4_Inc_state save def         % Save state for cleanup
/dict_count countdictstack def % Count objects on dict stack
/op_count count 1 sub def      % Count objects on operand stack
userdict begin                 % Push userdict on dict stack
/showpage { } def              % Redefine showpage, { } = null proc
0 setgray 0 setlinecap         % Prepare graphics state
1 setlinewidth 0 setlinejoin
10 setmiterlimit [ ] 0 setdash newpath
/languagelevel where           % If level not equal to 1 then
{pop languagelevel             % set strokeadjust and
1 ne                           % overprint to their defaults.
{false setstrokeadjust false setoverprint
} if
} if
} bd
/EndEPSF { %def
count op_count sub {pop} repeat            % Clean up stacks
countdictstack dict_count sub {end} repeat
b4_Inc_state restore
} bd
%%EndResource
%FOPBeginFontDict
%%IncludeResource: font Courier-Oblique
%%IncludeResource: font Courier-BoldOblique
%%IncludeResource: font Courier-Bold
%%IncludeResource: font ZapfDingbats
%%IncludeResource: font Symbol
%%IncludeResource: font Helvetica
%%IncludeResource: font Helvetica-Oblique
%%IncludeResource: font Helvetica-Bold
%%IncludeResource: font Helvetica-BoldOblique
%%IncludeResource: font Times-Roman
%%IncludeResource: font Times-Italic
%%IncludeResource: font Times-Bold
%%IncludeResource: font Times-BoldItalic
%%IncludeResource: font Courier
%FOPEndFontDict
%%BeginResource: encoding WinAnsiEncoding
/WinAnsiEncoding [
/.notdef /.notdef /.notdef /.notdef /.notdef
/.notdef /.notdef /.notdef /.notdef /.notdef
/.notdef /.notdef /.notdef /.notdef /.notdef
/.notdef /.notdef /.notdef /.notdef /.notdef
/.notdef /.notdef /.notdef /.notdef /.notdef
/.notdef /.notdef /.notdef /.notdef /.notdef
/.notdef /.notdef /space /exclam /quotedbl
/numbersign /dollar /percent /ampersand /quotesingle
/parenleft /parenright /asterisk /plus /comma
/hyphen /period /slash /zero /one
/two /three /four /five /six
/seven /eight /nine /colon /semicolon
/less /equal /greater /question /at
/A /B /C /D /E
/F /G /H /I /J
/K /L /M /N /O
/P /Q /R /S /T
/U /V /W /X /Y
/Z /bracketleft /backslash /bracketright /asciicircum
/underscore /quoteleft /a /b /c
/d /e /f /g /h
/i /j /k /l /m
/n /o /p /q /r
/s /t /u /v /w
/x /y /z /braceleft /bar
/braceright /asciitilde /bullet /Euro /bullet
/quotesinglbase /florin /quotedblbase /ellipsis /dagger
/daggerdbl /circumflex /perthousand /Scaron /guilsinglleft
/OE /bullet /Zcaron /bullet /bullet
/quoteleft /quoteright /quotedblleft /quotedblright /bullet
/endash /emdash /asciitilde /trademark /scaron
/guilsinglright /oe /bullet /zcaron /Ydieresis
/space /exclamdown /cent /sterling /currency
/yen /brokenbar /section /dieresis /copyright
/ordfeminine /guillemotleft /logicalnot /sfthyphen /registered
/macron /degree /plusminus /twosuperior /threesuperior
/acute /mu /paragraph /middot /cedilla
/onesuperior /ordmasculine /guillemotright /onequarter /onehalf
/threequarters /questiondown /Agrave /Aacute /Acircumflex
/Atilde /Adieresis /Aring /AE /Ccedilla
/Egrave /Eacute /Ecircumflex /Edieresis /Igrave
/Iacute /Icircumflex /Idieresis /Eth /Ntilde
/Ograve /Oacute /Ocircumflex /Otilde /Odieresis
/multiply /Oslash /Ugrave /Uacute /Ucircumflex
/Udieresis /Yacute /Thorn /germandbls /agrave
/aacute /acircumflex /atilde /adieresis /aring
/ae /ccedilla /egrave /eacute /ecircumflex
/edieresis /igrave /iacute /icircumflex /idieresis
/eth /ntilde /ograve /oacute /ocircumflex
/otilde /odieresis /divide /oslash /ugrave
/uacute /ucircumflex /udieresis /yacute /thorn
/ydieresis
] def
%%EndResource
%FOPBeginFontReencode
/Courier-Oblique findfont
dup length dict begin
  {1 index /FID ne {def} {pop pop} ifelse} forall
  /Encoding WinAnsiEncoding def
  currentdict
end
/Courier-Oblique exch definefont pop
/Courier-BoldOblique findfont
dup length dict begin
  {1 index /FID ne {def} {pop pop} ifelse} forall
  /Encoding WinAnsiEncoding def
  currentdict
end
/Courier-BoldOblique exch definefont pop
/Courier-Bold findfont
dup length dict begin
  {1 index /FID ne {def} {pop pop} ifelse} forall
  /Encoding WinAnsiEncoding def
  currentdict
end
/Courier-Bold exch definefont pop
/Helvetica findfont
dup length dict begin
  {1 index /FID ne {def} {pop pop} ifelse} forall
  /Encoding WinAnsiEncoding def
  currentdict
end
/Helvetica exch definefont pop
/Helvetica-Oblique findfont
dup length dict begin
  {1 index /FID ne {def} {pop pop} ifelse} forall
  /Encoding WinAnsiEncoding def
  currentdict
end
/Helvetica-Oblique exch definefont pop
/Helvetica-Bold findfont
dup length dict begin
  {1 index /FID ne {def} {pop pop} ifelse} forall
  /Encoding WinAnsiEncoding def
  currentdict
end
/Helvetica-Bold exch definefont pop
/Helvetica-BoldOblique findfont
dup length dict begin
  {1 index /FID ne {def} {pop pop} ifelse} forall
  /Encoding WinAnsiEncoding def
  currentdict
end
/Helvetica-BoldOblique exch definefont pop
/Times-Roman findfont
dup length dict begin
  {1 index /FID ne {def} {pop pop} ifelse} forall
  /Encoding WinAnsiEncoding def
  currentdict
end
/Times-Roman exch definefont pop
/Times-Italic findfont
dup length dict begin
  {1 index /FID ne {def} {pop pop} ifelse} forall
  /Encoding WinAnsiEncoding def
  currentdict
end
/Times-Italic exch definefont pop
/Times-Bold findfont
dup length dict begin
  {1 index /FID ne {def} {pop pop} ifelse} forall
  /Encoding WinAnsiEncoding def
  currentdict
end
/Times-Bold exch definefont pop
/Times-BoldItalic findfont
dup length dict begin
  {1 index /FID ne {def} {pop pop} ifelse} forall
  /Encoding WinAnsiEncoding def
  currentdict
end
/Times-BoldItalic exch definefont pop
/Courier findfont
dup length dict begin
  {1 index /FID ne {def} {pop pop} ifelse} forall
  /Encoding WinAnsiEncoding def
  currentdict
end
/Courier exch definefont pop
%FOPEndFontReencode
%%EndProlog
%%Page: 1 1
%%PageBoundingBox: 0 0 272 180
%%BeginPageSetup
[1 0 0 -1 0 180] CT
%%EndPageSetup
GS
[0.75 0 0 0.75 0 0] CT
1 GC
N
0 0 363 240 re
f
GR
GS
[0.75 0 0 0.75 0 0] CT
1 GC
N
0 0 363 240 re
f
GR
GS
[0.75 0 0 0.75 0 0] CT
1 GC
N
59 200 M
298 200 L
298 18 L
59 18 L
cp
f
GR
GS
[0.75 0 0 0.75 0 0] CT
0.149 GC
2 setlinecap
1 LJ
0.667 LW
N
59 200 M
298 200 L
S
GR
GS
[0.75 0 0 0.75 0 0] CT
0.149 GC
2 setlinecap
1 LJ
0.667 LW
N
59 18 M
298 18 L
S
GR
GS
[0.75 0 0 0.75 0 0] CT
0.149 GC
2 setlinecap
1 LJ
0.667 LW
N
59 200 M
59 197.61 L
S
GR
GS
[0.75 0 0 0.75 0 0] CT
0.149 GC
2 setlinecap
1 LJ
0.667 LW
N
138.667 200 M
138.667 197.61 L
S
GR
GS
[0.75 0 0 0.75 0 0] CT
0.149 GC
2 setlinecap
1 LJ
0.667 LW
N
218.333 200 M
218.333 197.61 L
S
GR
GS
[0.75 0 0 0.75 0 0] CT
0.149 GC
2 setlinecap
1 LJ
0.667 LW
N
298 200 M
298 197.61 L
S
GR
GS
[0.75 0 0 0.75 0 0] CT
0.149 GC
2 setlinecap
1 LJ
0.667 LW
N
59 18 M
59 20.39 L
S
GR
GS
[0.75 0 0 0.75 0 0] CT
0.149 GC
2 setlinecap
1 LJ
0.667 LW
N
138.667 18 M
138.667 20.39 L
S
GR
GS
[0.75 0 0 0.75 0 0] CT
0.149 GC
2 setlinecap
1 LJ
0.667 LW
N
218.333 18 M
218.333 20.39 L
S
GR
GS
[0.75 0 0 0.75 0 0] CT
0.149 GC
2 setlinecap
1 LJ
0.667 LW
N
298 18 M
298 20.39 L
S
GR
GS
[0.75 0 0 0.75 44.25 154.00003] CT
0.149 GC
/Times-Roman 13.333 F
GS
[1 0 0 1 0 0] CT
-3.5 13 moveto 
1 -1 scale
(0) t 
GR
GR
GS
[0.75 0 0 0.75 104 154.00003] CT
0.149 GC
/Times-Roman 13.333 F
GS
[1 0 0 1 0 0] CT
-10 13 moveto 
1 -1 scale
(500) t 
GR
GR
GS
[0.75 0 0 0.75 163.75 154.00003] CT
0.149 GC
/Times-Roman 13.333 F
GS
[1 0 0 1 0 0] CT
-13.5 13 moveto 
1 -1 scale
(1000) t 
GR
GR
GS
[0.75 0 0 0.75 223.5 154.00003] CT
0.149 GC
/Times-Roman 13.333 F
GS
[1 0 0 1 0 0] CT
-13.5 13 moveto 
1 -1 scale
(1500) t 
GR
GR
GS
[0.75 0 0 0.75 133.87509 166.99979] CT
0.149 GC
/Times-Roman 14.667 F
GS
[1 0 0 1 0 0] CT
-24.5 14 moveto 
1 -1 scale
(Time / s) t 
GR
GR
GS
[0.75 0 0 0.75 0 0] CT
0 0.447 0.741 RC
2 setlinecap
1 LJ
0.667 LW
N
59 200 M
59 18 L
S
GR
GS
[0.75 0 0 0.75 0 0] CT
0 0.447 0.741 RC
2 setlinecap
1 LJ
0.667 LW
N
59 200 M
61.39 200 L
S
GR
GS
[0.75 0 0 0.75 0 0] CT
0 0.447 0.741 RC
2 setlinecap
1 LJ
0.667 LW
N
59 154.5 M
61.39 154.5 L
S
GR
GS
[0.75 0 0 0.75 0 0] CT
0 0.447 0.741 RC
2 setlinecap
1 LJ
0.667 LW
N
59 109 M
61.39 109 L
S
GR
GS
[0.75 0 0 0.75 0 0] CT
0 0.447 0.741 RC
2 setlinecap
1 LJ
0.667 LW
N
59 63.5 M
61.39 63.5 L
S
GR
GS
[0.75 0 0 0.75 0 0] CT
0 0.447 0.741 RC
2 setlinecap
1 LJ
0.667 LW
N
59 18 M
61.39 18 L
S
GR
GS
[0.75 0 0 0.75 40.25 149.99995] CT
0 0.447 0.741 RC
/Times-Roman 13.333 F
GS
[1 0 0 1 0 0] CT
-24 5 moveto 
1 -1 scale
(3.72) t 
GR
GR
GS
[0.75 0 0 0.75 40.25 115.87499] CT
0 0.447 0.741 RC
/Times-Roman 13.333 F
GS
[1 0 0 1 0 0] CT
-24 5 moveto 
1 -1 scale
(3.74) t 
GR
GR
GS
[0.75 0 0 0.75 40.25 81.75002] CT
0 0.447 0.741 RC
/Times-Roman 13.333 F
GS
[1 0 0 1 0 0] CT
-24 5 moveto 
1 -1 scale
(3.76) t 
GR
GR
GS
[0.75 0 0 0.75 40.25 47.62505] CT
0 0.447 0.741 RC
/Times-Roman 13.333 F
GS
[1 0 0 1 0 0] CT
-24 5 moveto 
1 -1 scale
(3.78) t 
GR
GR
GS
[0.75 0 0 0.75 40.25 13.50008] CT
0 0.447 0.741 RC
/Times-Roman 13.333 F
GS
[1 0 0 1 0 0] CT
-17 5 moveto 
1 -1 scale
(3.8) t 
GR
GR
GS
[0 -0.75 0.75 0 15 99] CT
0 0.447 0.741 RC
N
2.906 2.922 M
3.578 0.219 L
2.813 0.219 2.156 -0.141 QT
1.5 -0.5 1.102 -1.133 QT
0.703 -1.766 0.703 -2.516 QT
0.703 -3.328 1.109 -4.07 QT
1.516 -4.813 2.211 -5.414 QT
2.906 -6.016 3.711 -6.344 QT
4.516 -6.672 5.313 -6.672 QT
6.219 -10.313 L
6.234 -10.406 6.328 -10.406 QT
6.516 -10.406 L
6.563 -10.406 6.602 -10.359 QT
6.641 -10.313 6.641 -10.266 QT
5.75 -6.672 L
6.313 -6.672 6.836 -6.469 QT
7.359 -6.266 7.766 -5.891 QT
8.172 -5.516 8.398 -5.016 QT
8.625 -4.516 8.625 -3.953 QT
8.625 -3.141 8.227 -2.398 QT
7.828 -1.656 7.141 -1.063 QT
6.453 -0.469 5.617 -0.125 QT
4.781 0.219 4.016 0.219 QT
3.328 2.984 L
3.297 3.078 3.203 3.078 QT
3.031 3.078 L
2.969 3.078 2.938 3.023 QT
2.906 2.969 2.906 2.922 QT
cp
3.672 -0.188 M
5.203 -6.281 L
4.828 -6.281 4.406 -6.133 QT
3.984 -5.984 3.617 -5.75 QT
3.25 -5.516 2.953 -5.203 QT
2.578 -4.844 2.305 -4.344 QT
2.031 -3.844 1.891 -3.289 QT
1.75 -2.734 1.75 -2.203 QT
1.75 -1.641 1.992 -1.18 QT
2.234 -0.719 2.672 -0.453 QT
3.109 -0.188 3.672 -0.188 QT
cp
4.125 -0.188 M
4.688 -0.188 5.328 -0.508 QT
5.969 -0.828 6.375 -1.266 QT
6.938 -1.813 7.266 -2.625 QT
7.594 -3.438 7.594 -4.266 QT
7.594 -4.813 7.352 -5.281 QT
7.109 -5.75 6.664 -6.016 QT
6.219 -6.281 5.656 -6.281 QT
4.125 -0.188 L
cp
f
GR
GS
[0 -0.75 0.75 0 20.25 92.25] CT
0 0.447 0.741 RC
/Times-Roman 11.733 F
GS
[1 0 0 1 0 0] CT
0 0 moveto 
1 -1 scale
(s) t 
GR
GR
GS
[0 -0.75 0.75 0 20.25 88.5] CT
0 0.447 0.741 RC
/Times-Roman 11.733 F
GS
[1 0 0 1 0 0] CT
0 0 moveto 
1 -1 scale
(-) t 
GR
GR
GS
[0 -0.75 0.75 0 20.25 85.5] CT
0 0.447 0.741 RC
/Times-Roman 11.733 F
GS
[1 0 0 1 0 0] CT
0 0 moveto 
1 -1 scale
(e) t 
GR
GR
GS
[0 -0.75 0.75 0 15 81] CT
0 0.447 0.741 RC
/Times-Roman 14.667 F
GS
[1 0 0 1 0 0] CT
0 0 moveto 
1 -1 scale
( / V) t 
GR
GR
GS
[0.75 0 0 0.75 0 0] CT
0.851 0.325 0.098 RC
2 setlinecap
1 LJ
0.667 LW
N
298 200 M
298 18 L
S
GR
GS
[0.75 0 0 0.75 0 0] CT
0.851 0.325 0.098 RC
2 setlinecap
1 LJ
0.667 LW
N
298 200 M
295.61 200 L
S
GR
GS
[0.75 0 0 0.75 0 0] CT
0.851 0.325 0.098 RC
2 setlinecap
1 LJ
0.667 LW
N
298 139.333 M
295.61 139.333 L
S
GR
GS
[0.75 0 0 0.75 0 0] CT
0.851 0.325 0.098 RC
2 setlinecap
1 LJ
0.667 LW
N
298 78.667 M
295.61 78.667 L
S
GR
GS
[0.75 0 0 0.75 0 0] CT
0.851 0.325 0.098 RC
2 setlinecap
1 LJ
0.667 LW
N
298 18 M
295.61 18 L
S
GR
GS
[0.75 0 0 0.75 227.50001 150] CT
0.851 0.325 0.098 RC
/Times-Roman 13.333 F
GS
[1 0 0 1 0 0] CT
0 5 moveto 
1 -1 scale
(0.25) t 
GR
GR
GS
[0.75 0 0 0.75 227.50001 104.49998] CT
0.851 0.325 0.098 RC
/Times-Roman 13.333 F
GS
[1 0 0 1 0 0] CT
0 5 moveto 
1 -1 scale
(0.3) t 
GR
GR
GS
[0.75 0 0 0.75 227.50001 59] CT
0.851 0.325 0.098 RC
/Times-Roman 13.333 F
GS
[1 0 0 1 0 0] CT
0 5 moveto 
1 -1 scale
(0.35) t 
GR
GR
GS
[0.75 0 0 0.75 227.50001 13.49999] CT
0.851 0.325 0.098 RC
/Times-Roman 13.333 F
GS
[1 0 0 1 0 0] CT
0 5 moveto 
1 -1 scale
(0.4) t 
GR
GR
GS
[0 -0.75 0.75 0 252.75 99] CT
0.851 0.325 0.098 RC
N
/f-1202883411{2.906 2.922 M
3.578 0.219 L
2.813 0.219 2.156 -0.141 QT
1.5 -0.5 1.102 -1.133 QT
0.703 -1.766 0.703 -2.516 QT
0.703 -3.328 1.109 -4.07 QT
1.516 -4.813 2.211 -5.414 QT
2.906 -6.016 3.711 -6.344 QT
4.516 -6.672 5.313 -6.672 QT
6.219 -10.313 L
6.234 -10.406 6.328 -10.406 QT
6.516 -10.406 L
6.563 -10.406 6.602 -10.359 QT
6.641 -10.313 6.641 -10.266 QT
5.75 -6.672 L
6.313 -6.672 6.836 -6.469 QT
7.359 -6.266 7.766 -5.891 QT
8.172 -5.516 8.398 -5.016 QT
8.625 -4.516 8.625 -3.953 QT
8.625 -3.141 8.227 -2.398 QT
7.828 -1.656 7.141 -1.063 QT
6.453 -0.469 5.617 -0.125 QT
4.781 0.219 4.016 0.219 QT
3.328 2.984 L
3.297 3.078 3.203 3.078 QT
3.031 3.078 L
2.969 3.078 2.938 3.023 QT
2.906 2.969 2.906 2.922 QT
cp
3.672 -0.188 M
5.203 -6.281 L
4.828 -6.281 4.406 -6.133 QT
3.984 -5.984 3.617 -5.75 QT
3.25 -5.516 2.953 -5.203 QT
2.578 -4.844 2.305 -4.344 QT
2.031 -3.844 1.891 -3.289 QT
1.75 -2.734 1.75 -2.203 QT
1.75 -1.641 1.992 -1.18 QT
2.234 -0.719 2.672 -0.453 QT
3.109 -0.188 3.672 -0.188 QT
cp
4.125 -0.188 M
4.688 -0.188 5.328 -0.508 QT
5.969 -0.828 6.375 -1.266 QT
6.938 -1.813 7.266 -2.625 QT
7.594 -3.438 7.594 -4.266 QT
7.594 -4.813 7.352 -5.281 QT
7.109 -5.75 6.664 -6.016 QT
6.219 -6.281 5.656 -6.281 QT
4.125 -0.188 L
cp}def
f-1202883411
f
GR
GS
[0 -0.75 0.75 0 258 92.25] CT
0.851 0.325 0.098 RC
/Times-Roman 11.733 F
GS
[1 0 0 1 0 0] CT
0 0 moveto 
1 -1 scale
(s) t 
GR
GR
GS
[0 -0.75 0.75 0 258 88.5] CT
0.851 0.325 0.098 RC
/Times-Roman 11.733 F
GS
[1 0 0 1 0 0] CT
0 0 moveto 
1 -1 scale
(-) t 
GR
GR
GS
[0 -0.75 0.75 0 258 85.5] CT
0.851 0.325 0.098 RC
/Times-Roman 11.733 F
GS
[1 0 0 1 0 0] CT
0 0 moveto 
1 -1 scale
(e) t 
GR
GR
GS
[0 -0.75 0.75 0 252.75 81] CT
0.851 0.325 0.098 RC
/Times-Roman 14.667 F
GS
[1 0 0 1 0 0] CT
0 0 moveto 
1 -1 scale
( / V) t 
GR
GR
GS
[0.75 0 0 0.75 0 0] CT
N
59 18 M
299 18 L
299 201 L
59 201 L
59 18 L
cp
clip
0.345 0.537 0.69 RC
1 LJ
2.667 LW
N
59 40.295 M
60.593 40.295 L
62.187 40.522 L
63.78 53.945 L
65.373 43.253 L
66.967 45.3 L
68.56 56.902 L
70.153 47.347 L
71.747 44.845 L
73.34 50.532 L
74.933 55.538 L
76.527 56.675 L
78.12 34.607 L
79.713 44.617 L
81.307 44.39 L
82.9 44.39 L
84.493 44.39 L
86.087 70.325 L
87.68 55.083 L
89.273 59.405 L
90.867 83.292 L
92.46 62.818 L
94.053 74.648 L
95.647 69.188 L
97.24 75.558 L
98.833 66.912 L
100.427 71.918 L
102.02 66.912 L
103.613 79.652 L
105.207 71.69 L
106.8 63.727 L
108.393 46.665 L
109.987 50.305 L
111.58 56.22 L
113.173 56.675 L
114.767 73.737 L
116.36 75.558 L
117.953 69.643 L
119.547 69.415 L
121.14 48.94 L
122.733 59.633 L
124.327 91.255 L
125.92 60.77 L
127.513 61.68 L
129.107 61.452 L
130.7 77.15 L
132.293 79.652 L
133.887 76.24 L
135.48 72.145 L
137.073 68.96 L
138.667 55.31 L
140.26 64.41 L
141.853 80.107 L
143.447 72.145 L
145.04 67.14 L
146.633 66.003 L
148.227 66.23 L
149.82 78.288 L
151.413 69.87 L
153.007 69.415 L
154.6 75.103 L
156.193 79.198 L
157.787 68.505 L
159.38 68.278 L
160.973 68.278 L
162.567 82.837 L
164.16 78.288 L
165.753 63.272 L
167.347 70.097 L
168.94 70.097 L
170.533 84.202 L
172.127 84.43 L
173.72 62.818 L
175.313 80.562 L
176.907 88.298 L
178.5 76.013 L
180.093 72.828 L
181.687 93.302 L
183.28 91.028 L
184.873 80.335 L
186.467 84.43 L
188.06 82.155 L
189.653 77.833 L
191.247 81.473 L
192.84 71.918 L
194.433 91.938 L
196.027 84.43 L
197.62 84.658 L
199.213 82.383 L
200.807 86.705 L
202.4 78.515 L
203.993 82.837 L
205.587 90.117 L
207.18 80.562 L
208.773 83.975 L
210.367 73.055 L
211.96 85.113 L
213.553 94.668 L
215.147 84.43 L
216.74 84.43 L
218.333 93.075 L
219.927 82.61 L
221.52 81.928 L
223.113 82.383 L
224.707 82.383 L
226.3 82.383 L
227.893 98.535 L
229.487 94.44 L
231.08 75.33 L
232.673 86.022 L
234.267 84.202 L
235.86 97.17 L
237.453 97.397 L
239.047 93.075 L
240.64 86.932 L
242.233 85.795 L
243.827 86.022 L
245.42 95.123 L
247.013 78.97 L
248.607 87.387 L
250.2 95.805 L
251.793 99.672 L
253.387 94.895 L
254.98 88.98 L
256.573 88.753 L
258.167 88.753 L
259.76 91.938 L
261.353 107.863 L
262.947 95.123 L
264.54 98.763 L
266.133 86.25 L
267.727 90.8 L
269.32 91.255 L
270.913 91.028 L
272.507 106.042 L
274.1 110.365 L
275.693 90.117 L
277.287 92.393 L
S
GR
GS
[0.75 0 0 0.75 0 0] CT
N
59 18 M
299 18 L
299 201 L
59 201 L
59 18 L
cp
clip
0.914 0.282 0.286 RC
[8 8] 0 setdash
2 LJ
2.667 LW
N
59 40.295 M
60.593 40.295 L
62.187 40.522 L
63.78 53.717 L
65.373 43.253 L
66.967 45.072 L
68.56 56.22 L
70.153 47.12 L
71.747 44.39 L
73.34 49.85 L
74.933 54.855 L
76.527 55.765 L
78.12 34.38 L
79.713 43.935 L
81.307 43.935 L
82.9 43.707 L
84.493 43.707 L
86.087 68.96 L
87.68 54.172 L
89.273 58.495 L
90.867 81.7 L
92.46 61.452 L
94.053 72.828 L
95.647 67.367 L
97.24 73.51 L
98.833 64.865 L
100.427 69.643 L
102.02 64.637 L
103.613 77.15 L
105.207 69.188 L
106.8 61.225 L
108.393 44.617 L
109.987 48.03 L
111.58 53.945 L
113.173 54.4 L
114.767 71.235 L
116.36 72.828 L
117.953 67.14 L
119.547 67.14 L
121.14 46.892 L
122.733 57.585 L
124.327 88.298 L
125.92 58.495 L
127.513 59.405 L
129.107 59.178 L
130.7 74.42 L
132.293 76.922 L
133.887 73.51 L
135.48 69.415 L
137.073 66.23 L
138.667 53.035 L
140.26 61.908 L
141.853 77.377 L
143.447 69.643 L
145.04 64.41 L
146.633 63.5 L
148.227 63.727 L
149.82 75.558 L
151.413 67.367 L
153.007 66.912 L
154.6 72.6 L
156.193 76.467 L
157.787 66.003 L
159.38 65.775 L
160.973 65.775 L
162.567 80.107 L
164.16 75.558 L
165.753 60.77 L
167.347 67.595 L
168.94 67.367 L
170.533 81.245 L
172.127 81.473 L
173.72 60.542 L
175.313 77.605 L
176.907 85.34 L
178.5 73.282 L
180.093 70.097 L
181.687 90.117 L
183.28 87.615 L
184.873 77.377 L
186.467 81.245 L
188.06 78.97 L
189.653 74.875 L
191.247 78.288 L
192.84 68.96 L
194.433 88.525 L
196.027 81.245 L
197.62 81.245 L
199.213 79.198 L
200.807 83.292 L
202.4 75.33 L
203.993 79.652 L
205.587 86.705 L
207.18 77.377 L
208.773 80.79 L
210.367 70.097 L
211.96 81.7 L
213.553 91.255 L
215.147 81.017 L
216.74 81.245 L
218.333 89.435 L
219.927 79.425 L
221.52 78.515 L
223.113 78.97 L
224.707 78.97 L
226.3 78.97 L
227.893 94.895 L
229.487 90.8 L
231.08 72.145 L
232.673 82.61 L
234.267 80.79 L
235.86 93.53 L
237.453 93.757 L
239.047 89.435 L
240.64 83.52 L
242.233 82.383 L
243.827 82.61 L
245.42 91.483 L
247.013 75.558 L
248.607 83.975 L
250.2 91.938 L
251.793 95.805 L
253.387 91.028 L
254.98 85.34 L
256.573 85.113 L
258.167 85.113 L
259.76 88.298 L
261.353 103.767 L
262.947 91.255 L
264.54 94.895 L
266.133 82.61 L
267.727 87.16 L
269.32 87.387 L
270.913 87.387 L
272.507 101.948 L
274.1 106.27 L
275.693 86.25 L
277.287 88.525 L
S
GR
GS
[0.75 0 0 0.75 0 0] CT
N
59 18 M
299 18 L
299 201 L
59 201 L
59 18 L
cp
clip
0.443 0.749 0.431 RC
1 LJ
2.667 LW
N
59 127.685 M
60.593 127.685 L
62.187 127.467 L
63.78 108.151 L
65.373 123.875 L
66.967 120.248 L
68.56 104.668 L
70.153 117.882 L
71.747 121.097 L
73.34 113.404 L
74.933 107.326 L
76.527 105.797 L
78.12 136.118 L
79.713 122.686 L
81.307 122.783 L
82.9 122.941 L
84.493 123.099 L
86.087 87.257 L
87.68 108.114 L
89.273 103.176 L
90.867 69.045 L
92.46 97.061 L
94.053 81.433 L
95.647 87.973 L
97.24 80.038 L
98.833 91.977 L
100.427 85.947 L
102.02 93.384 L
103.613 75.148 L
105.207 87.694 L
106.8 97.765 L
108.393 121.509 L
109.987 117.578 L
111.58 110.759 L
113.173 109.946 L
114.767 87.391 L
116.36 83.01 L
117.953 92.086 L
119.547 92.365 L
121.14 121.121 L
122.733 107.265 L
124.327 64.082 L
125.92 104.96 L
127.513 105.202 L
129.107 105.615 L
130.7 85.583 L
132.293 79.419 L
133.887 85.995 L
135.48 91.637 L
137.073 96.187 L
138.667 115.758 L
140.26 103.904 L
141.853 82.828 L
143.447 92.474 L
145.04 99.888 L
146.633 102.581 L
148.227 102.448 L
149.82 87.124 L
151.413 97.267 L
153.007 98.602 L
154.6 91.055 L
156.193 85.401 L
157.787 100.919 L
159.38 101.223 L
160.973 101.599 L
162.567 82.379 L
164.16 87.16 L
165.753 107.653 L
167.347 100.155 L
168.94 100.434 L
170.533 81.651 L
172.127 80.984 L
173.72 109.971 L
175.313 87.548 L
176.907 75.633 L
178.5 92.462 L
180.093 98.456 L
181.687 71.229 L
183.28 72.77 L
184.873 87.815 L
186.467 82.986 L
188.06 84.867 L
189.653 91.734 L
191.247 87.56 L
192.84 101.028 L
194.433 74.117 L
196.027 83.678 L
197.62 84.479 L
199.213 86.456 L
200.807 82.501 L
202.4 92.632 L
203.993 87.657 L
205.587 78.861 L
207.18 90.327 L
208.773 86.153 L
210.367 101.186 L
211.96 86.444 L
213.553 72.272 L
215.147 86.056 L
216.74 87.233 L
218.333 76.107 L
219.927 89.465 L
221.52 91.868 L
223.113 91.115 L
224.707 91.322 L
226.3 91.54 L
227.893 68.875 L
229.487 74.226 L
231.08 100.543 L
232.673 87.342 L
234.267 89.817 L
235.86 72.454 L
237.453 71.726 L
239.047 77.526 L
240.64 85.898 L
242.233 89.065 L
243.827 88.422 L
245.42 76.992 L
247.013 96.345 L
248.607 86.857 L
250.2 76.349 L
251.793 71.193 L
253.387 77.223 L
254.98 85.461 L
256.573 86.201 L
258.167 86.432 L
259.76 82.137 L
261.353 61.595 L
262.947 76.774 L
264.54 72.879 L
266.133 87.56 L
267.727 85.025 L
269.32 84.272 L
270.913 84.6 L
272.507 65.332 L
274.1 58.841 L
275.693 85.91 L
277.287 83.569 L
S
GR
GS
[0.75 0 0 0.75 0 0] CT
N
59 18 M
299 18 L
299 201 L
59 201 L
59 18 L
cp
clip
1 0.6 0.2 RC
[8 8] 0 setdash
2 LJ
2.667 LW
N
59 127.685 M
60.593 127.685 L
62.187 127.479 L
63.78 107.835 L
65.373 123.875 L
66.967 120.199 L
68.56 104.608 L
70.153 117.869 L
71.747 121.085 L
73.34 113.38 L
74.933 107.35 L
76.527 105.785 L
78.12 136.239 L
79.713 122.759 L
81.307 122.82 L
82.9 122.965 L
84.493 123.099 L
86.087 87.16 L
87.68 108.054 L
89.273 103.152 L
90.867 68.778 L
92.46 96.927 L
94.053 81.36 L
95.647 87.912 L
97.24 79.989 L
98.833 91.965 L
100.427 85.971 L
102.02 93.397 L
103.613 75.099 L
105.207 87.706 L
106.8 97.765 L
108.393 121.497 L
109.987 117.627 L
111.58 110.784 L
113.173 109.886 L
114.767 87.209 L
116.36 82.719 L
117.953 91.831 L
119.547 92.123 L
121.14 121.061 L
122.733 107.192 L
124.327 63.791 L
125.92 104.717 L
127.513 105.069 L
129.107 105.469 L
130.7 85.34 L
132.293 79.006 L
133.887 85.668 L
135.48 91.358 L
137.073 95.957 L
138.667 115.685 L
140.26 103.734 L
141.853 82.513 L
143.447 92.135 L
145.04 99.597 L
146.633 102.387 L
148.227 102.217 L
149.82 86.845 L
151.413 96.915 L
153.007 98.286 L
154.6 90.691 L
156.193 84.988 L
157.787 100.616 L
159.38 100.919 L
160.973 101.295 L
162.567 81.967 L
164.16 86.687 L
165.753 107.277 L
167.347 99.851 L
168.94 100.118 L
170.533 81.215 L
172.127 80.572 L
173.72 109.655 L
175.313 87.184 L
176.907 75.136 L
178.5 92.062 L
180.093 98.177 L
181.687 70.913 L
183.28 72.297 L
184.873 87.415 L
186.467 82.561 L
188.06 84.418 L
189.653 91.382 L
191.247 87.196 L
192.84 100.737 L
194.433 73.656 L
196.027 83.205 L
197.62 84.078 L
199.213 86.007 L
200.807 82.052 L
202.4 92.22 L
203.993 87.233 L
205.587 78.4 L
207.18 89.866 L
208.773 85.692 L
210.367 100.761 L
211.96 85.995 L
213.553 71.666 L
215.147 85.51 L
216.74 86.784 L
218.333 75.658 L
219.927 88.992 L
221.52 91.455 L
223.113 90.667 L
224.707 90.861 L
226.3 91.067 L
227.893 68.244 L
229.487 73.607 L
231.08 100.082 L
232.673 86.881 L
234.267 89.344 L
235.86 71.823 L
237.453 71.12 L
239.047 76.956 L
240.64 85.389 L
242.233 88.628 L
243.827 87.949 L
245.42 76.422 L
247.013 95.835 L
248.607 86.347 L
250.2 75.803 L
251.793 70.537 L
253.387 76.653 L
254.98 84.927 L
256.573 85.692 L
258.167 85.91 L
259.76 81.603 L
261.353 60.964 L
262.947 76.143 L
264.54 72.26 L
266.133 86.978 L
267.727 84.6 L
269.32 83.787 L
270.913 84.09 L
272.507 64.738 L
274.1 58.198 L
275.693 85.352 L
277.287 83.023 L
S
GR
GS
[0.75 0 0 0.75 0 0] CT
1 GC
N
280 190 M
280 128 L
152 128 L
152 190 L
cp
f
GR
GS
[0.75 0 0 0.75 149.25 102.80487] CT
/Times-Roman 12 F
GS
[1 0 0 1 0 0] CT
0 4 moveto 
1 -1 scale
(Truth@Pos CC) t 
GR
GR
GS
[0.75 0 0 0.75 0 0] CT
0.345 0.537 0.69 RC
1 LJ
2.667 LW
N
156 137.073 M
196 137.073 L
S
GR
GS
[0.75 0 0 0.75 149.25 113.76829] CT
/Times-Roman 12 F
GS
[1 0 0 1 0 0] CT
0 4 moveto 
1 -1 scale
(Iden@Pos CC) t 
GR
GR
GS
[0.75 0 0 0.75 0 0] CT
0.914 0.282 0.286 RC
[8 8] 0 setdash
2 LJ
2.667 LW
N
156 151.691 M
196 151.691 L
S
GR
GS
[0.75 0 0 0.75 149.25 124.73171] CT
/Times-Roman 12 F
GS
[1 0 0 1 0 0] CT
0 4 moveto 
1 -1 scale
(Truth@Neg CC) t 
GR
GR
GS
[0.75 0 0 0.75 0 0] CT
0.443 0.749 0.431 RC
1 LJ
2.667 LW
N
156 166.309 M
196 166.309 L
S
GR
GS
[0.75 0 0 0.75 149.25 135.69513] CT
/Times-Roman 12 F
GS
[1 0 0 1 0 0] CT
0 4 moveto 
1 -1 scale
(Iden@Neg CC) t 
GR
GR
GS
[0.75 0 0 0.75 0 0] CT
1 0.6 0.2 RC
[8 8] 0 setdash
2 LJ
2.667 LW
N
156 180.927 M
196 180.927 L
S
GR
GS
[0.75 0 0 0.75 0 0] CT
1 GC
10.0 ML
0.667 LW
N
152 190 M
152 128 L
280 128 L
280 190 L
cp
S
GR
GS
[0.75 0 0 0.75 0 0] CT
1 LJ
0.667 LW
N
184.903 106 M
228.419 105.166 L
S
GR
GS
[0.75 0 0 0.75 0 0] CT
1 LJ
0.667 LW
N
223.658 100.256 M
237.084 105 L
228.419 105.166 L
223.658 100.256 L
S
GR
GS
[0.75 0 0 0.75 0 0] CT
1 LJ
0.667 LW
N
237.084 105 M
223.849 110.255 L
228.419 105.166 L
237.084 105 L
S
GR
GS
[0.75 0 0 0.75 0 0] CT
N
237.084 105 M
223.658 100.256 L
228.419 105.166 L
223.849 110.255 L
cp
f
GR
GS
[0.75 0 0 0.75 0 0] CT
1 LJ
0.667 LW
N
132.722 61.24 M
81.266 61.89 L
S
GR
GS
[0.75 0 0 0.75 0 0] CT
1 LJ
0.667 LW
N
85.995 66.831 M
72.6 62 L
81.266 61.89 L
85.995 66.831 L
S
GR
GS
[0.75 0 0 0.75 0 0] CT
1 LJ
0.667 LW
N
72.6 62 M
85.869 56.832 L
81.266 61.89 L
72.6 62 L
S
GR
GS
[0.75 0 0 0.75 0 0] CT
N
72.6 62 M
85.995 66.831 L
81.266 61.89 L
85.869 56.832 L
cp
f
GR
%%Trailer
%%Pages: 1
%%EOF
