%!PS-Adobe-3.0 EPSF-3.0
%%Creator: (MATLAB, The Mathworks, Inc. Version 9.3.0.713579 \(R2017b\). Operating System: Windows 7)
%%Title: F:/Lab/Git/Git_LMPROM2/Figures/phise.eps
%%CreationDate: 2018-09-21T11:35:46
%%Pages: (atend)
%%BoundingBox: 0 0 240 180
%%LanguageLevel: 3
%%EndComments
%%BeginProlog
%%BeginResource: procset (Apache XML Graphics Std ProcSet) 1.2 0
%%Version: 1.2 0
%%Copyright: (Copyright 2001-2003,2010 The Apache Software Foundation. License terms: http://www.apache.org/licenses/LICENSE-2.0)
/bd{bind def}bind def
/ld{load def}bd
/GR/grestore ld
/GS/gsave ld
/RM/rmoveto ld
/C/curveto ld
/t/show ld
/L/lineto ld
/ML/setmiterlimit ld
/CT/concat ld
/f/fill ld
/N/newpath ld
/S/stroke ld
/CC/setcmykcolor ld
/A/ashow ld
/cp/closepath ld
/RC/setrgbcolor ld
/LJ/setlinejoin ld
/GC/setgray ld
/LW/setlinewidth ld
/M/moveto ld
/re {4 2 roll M
1 index 0 rlineto
0 exch rlineto
neg 0 rlineto
cp } bd
/_ctm matrix def
/_tm matrix def
/BT { _ctm currentmatrix pop matrix _tm copy pop 0 0 moveto } bd
/ET { _ctm setmatrix } bd
/iTm { _ctm setmatrix _tm concat } bd
/Tm { _tm astore pop iTm 0 0 moveto } bd
/ux 0.0 def
/uy 0.0 def
/F {
  /Tp exch def
  /Tf exch def
  Tf findfont Tp scalefont setfont
  /cf Tf def  /cs Tp def
} bd
/ULS {currentpoint /uy exch def /ux exch def} bd
/ULE {
  /Tcx currentpoint pop def
  gsave
  newpath
  cf findfont cs scalefont dup
  /FontMatrix get 0 get /Ts exch def /FontInfo get dup
  /UnderlinePosition get Ts mul /To exch def
  /UnderlineThickness get Ts mul /Tt exch def
  ux uy To add moveto  Tcx uy To add lineto
  Tt setlinewidth stroke
  grestore
} bd
/OLE {
  /Tcx currentpoint pop def
  gsave
  newpath
  cf findfont cs scalefont dup
  /FontMatrix get 0 get /Ts exch def /FontInfo get dup
  /UnderlinePosition get Ts mul /To exch def
  /UnderlineThickness get Ts mul /Tt exch def
  ux uy To add cs add moveto Tcx uy To add cs add lineto
  Tt setlinewidth stroke
  grestore
} bd
/SOE {
  /Tcx currentpoint pop def
  gsave
  newpath
  cf findfont cs scalefont dup
  /FontMatrix get 0 get /Ts exch def /FontInfo get dup
  /UnderlinePosition get Ts mul /To exch def
  /UnderlineThickness get Ts mul /Tt exch def
  ux uy To add cs 10 mul 26 idiv add moveto Tcx uy To add cs 10 mul 26 idiv add lineto
  Tt setlinewidth stroke
  grestore
} bd
/QT {
/Y22 exch store
/X22 exch store
/Y21 exch store
/X21 exch store
currentpoint
/Y21 load 2 mul add 3 div exch
/X21 load 2 mul add 3 div exch
/X21 load 2 mul /X22 load add 3 div
/Y21 load 2 mul /Y22 load add 3 div
/X22 load /Y22 load curveto
} bd
/SSPD {
dup length /d exch dict def
{
/v exch def
/k exch def
currentpagedevice k known {
/cpdv currentpagedevice k get def
v cpdv ne {
/upd false def
/nullv v type /nulltype eq def
/nullcpdv cpdv type /nulltype eq def
nullv nullcpdv or
{
/upd true def
} {
/sametype v type cpdv type eq def
sametype {
v type /arraytype eq {
/vlen v length def
/cpdvlen cpdv length def
vlen cpdvlen eq {
0 1 vlen 1 sub {
/i exch def
/obj v i get def
/cpdobj cpdv i get def
obj cpdobj ne {
/upd true def
exit
} if
} for
} {
/upd true def
} ifelse
} {
v type /dicttype eq {
v {
/dv exch def
/dk exch def
/cpddv cpdv dk get def
dv cpddv ne {
/upd true def
exit
} if
} forall
} {
/upd true def
} ifelse
} ifelse
} if
} ifelse
upd true eq {
d k v put
} if
} if
} if
} forall
d length 0 gt {
d setpagedevice
} if
} bd
/RE { % /NewFontName [NewEncodingArray] /FontName RE -
  findfont dup length dict begin
  {
    1 index /FID ne
    {def} {pop pop} ifelse
  } forall
  /Encoding exch def
  /FontName 1 index def
  currentdict definefont pop
  end
} bind def
%%EndResource
%%BeginResource: procset (Apache XML Graphics EPS ProcSet) 1.0 0
%%Version: 1.0 0
%%Copyright: (Copyright 2002-2003 The Apache Software Foundation. License terms: http://www.apache.org/licenses/LICENSE-2.0)
/BeginEPSF { %def
/b4_Inc_state save def         % Save state for cleanup
/dict_count countdictstack def % Count objects on dict stack
/op_count count 1 sub def      % Count objects on operand stack
userdict begin                 % Push userdict on dict stack
/showpage { } def              % Redefine showpage, { } = null proc
0 setgray 0 setlinecap         % Prepare graphics state
1 setlinewidth 0 setlinejoin
10 setmiterlimit [ ] 0 setdash newpath
/languagelevel where           % If level not equal to 1 then
{pop languagelevel             % set strokeadjust and
1 ne                           % overprint to their defaults.
{false setstrokeadjust false setoverprint
} if
} if
} bd
/EndEPSF { %def
count op_count sub {pop} repeat            % Clean up stacks
countdictstack dict_count sub {end} repeat
b4_Inc_state restore
} bd
%%EndResource
%FOPBeginFontDict
%%IncludeResource: font Courier-Oblique
%%IncludeResource: font Courier-BoldOblique
%%IncludeResource: font Courier-Bold
%%IncludeResource: font ZapfDingbats
%%IncludeResource: font Symbol
%%IncludeResource: font Helvetica
%%IncludeResource: font Helvetica-Oblique
%%IncludeResource: font Helvetica-Bold
%%IncludeResource: font Helvetica-BoldOblique
%%IncludeResource: font Times-Roman
%%IncludeResource: font Times-Italic
%%IncludeResource: font Times-Bold
%%IncludeResource: font Times-BoldItalic
%%IncludeResource: font Courier
%FOPEndFontDict
%%BeginResource: encoding WinAnsiEncoding
/WinAnsiEncoding [
/.notdef /.notdef /.notdef /.notdef /.notdef
/.notdef /.notdef /.notdef /.notdef /.notdef
/.notdef /.notdef /.notdef /.notdef /.notdef
/.notdef /.notdef /.notdef /.notdef /.notdef
/.notdef /.notdef /.notdef /.notdef /.notdef
/.notdef /.notdef /.notdef /.notdef /.notdef
/.notdef /.notdef /space /exclam /quotedbl
/numbersign /dollar /percent /ampersand /quotesingle
/parenleft /parenright /asterisk /plus /comma
/hyphen /period /slash /zero /one
/two /three /four /five /six
/seven /eight /nine /colon /semicolon
/less /equal /greater /question /at
/A /B /C /D /E
/F /G /H /I /J
/K /L /M /N /O
/P /Q /R /S /T
/U /V /W /X /Y
/Z /bracketleft /backslash /bracketright /asciicircum
/underscore /quoteleft /a /b /c
/d /e /f /g /h
/i /j /k /l /m
/n /o /p /q /r
/s /t /u /v /w
/x /y /z /braceleft /bar
/braceright /asciitilde /bullet /Euro /bullet
/quotesinglbase /florin /quotedblbase /ellipsis /dagger
/daggerdbl /circumflex /perthousand /Scaron /guilsinglleft
/OE /bullet /Zcaron /bullet /bullet
/quoteleft /quoteright /quotedblleft /quotedblright /bullet
/endash /emdash /asciitilde /trademark /scaron
/guilsinglright /oe /bullet /zcaron /Ydieresis
/space /exclamdown /cent /sterling /currency
/yen /brokenbar /section /dieresis /copyright
/ordfeminine /guillemotleft /logicalnot /sfthyphen /registered
/macron /degree /plusminus /twosuperior /threesuperior
/acute /mu /paragraph /middot /cedilla
/onesuperior /ordmasculine /guillemotright /onequarter /onehalf
/threequarters /questiondown /Agrave /Aacute /Acircumflex
/Atilde /Adieresis /Aring /AE /Ccedilla
/Egrave /Eacute /Ecircumflex /Edieresis /Igrave
/Iacute /Icircumflex /Idieresis /Eth /Ntilde
/Ograve /Oacute /Ocircumflex /Otilde /Odieresis
/multiply /Oslash /Ugrave /Uacute /Ucircumflex
/Udieresis /Yacute /Thorn /germandbls /agrave
/aacute /acircumflex /atilde /adieresis /aring
/ae /ccedilla /egrave /eacute /ecircumflex
/edieresis /igrave /iacute /icircumflex /idieresis
/eth /ntilde /ograve /oacute /ocircumflex
/otilde /odieresis /divide /oslash /ugrave
/uacute /ucircumflex /udieresis /yacute /thorn
/ydieresis
] def
%%EndResource
%FOPBeginFontReencode
/Courier-Oblique findfont
dup length dict begin
  {1 index /FID ne {def} {pop pop} ifelse} forall
  /Encoding WinAnsiEncoding def
  currentdict
end
/Courier-Oblique exch definefont pop
/Courier-BoldOblique findfont
dup length dict begin
  {1 index /FID ne {def} {pop pop} ifelse} forall
  /Encoding WinAnsiEncoding def
  currentdict
end
/Courier-BoldOblique exch definefont pop
/Courier-Bold findfont
dup length dict begin
  {1 index /FID ne {def} {pop pop} ifelse} forall
  /Encoding WinAnsiEncoding def
  currentdict
end
/Courier-Bold exch definefont pop
/Helvetica findfont
dup length dict begin
  {1 index /FID ne {def} {pop pop} ifelse} forall
  /Encoding WinAnsiEncoding def
  currentdict
end
/Helvetica exch definefont pop
/Helvetica-Oblique findfont
dup length dict begin
  {1 index /FID ne {def} {pop pop} ifelse} forall
  /Encoding WinAnsiEncoding def
  currentdict
end
/Helvetica-Oblique exch definefont pop
/Helvetica-Bold findfont
dup length dict begin
  {1 index /FID ne {def} {pop pop} ifelse} forall
  /Encoding WinAnsiEncoding def
  currentdict
end
/Helvetica-Bold exch definefont pop
/Helvetica-BoldOblique findfont
dup length dict begin
  {1 index /FID ne {def} {pop pop} ifelse} forall
  /Encoding WinAnsiEncoding def
  currentdict
end
/Helvetica-BoldOblique exch definefont pop
/Times-Roman findfont
dup length dict begin
  {1 index /FID ne {def} {pop pop} ifelse} forall
  /Encoding WinAnsiEncoding def
  currentdict
end
/Times-Roman exch definefont pop
/Times-Italic findfont
dup length dict begin
  {1 index /FID ne {def} {pop pop} ifelse} forall
  /Encoding WinAnsiEncoding def
  currentdict
end
/Times-Italic exch definefont pop
/Times-Bold findfont
dup length dict begin
  {1 index /FID ne {def} {pop pop} ifelse} forall
  /Encoding WinAnsiEncoding def
  currentdict
end
/Times-Bold exch definefont pop
/Times-BoldItalic findfont
dup length dict begin
  {1 index /FID ne {def} {pop pop} ifelse} forall
  /Encoding WinAnsiEncoding def
  currentdict
end
/Times-BoldItalic exch definefont pop
/Courier findfont
dup length dict begin
  {1 index /FID ne {def} {pop pop} ifelse} forall
  /Encoding WinAnsiEncoding def
  currentdict
end
/Courier exch definefont pop
%FOPEndFontReencode
%%EndProlog
%%Page: 1 1
%%PageBoundingBox: 0 0 240 180
%%BeginPageSetup
[1 0 0 -1 0 180] CT
%%EndPageSetup
GS
[0.75 0 0 0.75 0 0] CT
1 GC
N
0 0 320 240 re
f
GR
GS
[0.75 0 0 0.75 0 0] CT
1 GC
N
0 0 320 240 re
f
GR
GS
[0.75 0 0 0.75 0 0] CT
1 GC
N
58 202 M
298 202 L
298 22 L
58 22 L
cp
f
GR
GS
[0.75 0 0 0.75 0 0] CT
0.149 GC
2 setlinecap
1 LJ
0.667 LW
N
58 202 M
298 202 L
S
GR
GS
[0.75 0 0 0.75 0 0] CT
0.149 GC
2 setlinecap
1 LJ
0.667 LW
N
58 22 M
298 22 L
S
GR
GS
[0.75 0 0 0.75 0 0] CT
0.149 GC
2 setlinecap
1 LJ
0.667 LW
N
58 202 M
58 199.6 L
S
GR
GS
[0.75 0 0 0.75 0 0] CT
0.149 GC
2 setlinecap
1 LJ
0.667 LW
N
106 202 M
106 199.6 L
S
GR
GS
[0.75 0 0 0.75 0 0] CT
0.149 GC
2 setlinecap
1 LJ
0.667 LW
N
154 202 M
154 199.6 L
S
GR
GS
[0.75 0 0 0.75 0 0] CT
0.149 GC
2 setlinecap
1 LJ
0.667 LW
N
202 202 M
202 199.6 L
S
GR
GS
[0.75 0 0 0.75 0 0] CT
0.149 GC
2 setlinecap
1 LJ
0.667 LW
N
250 202 M
250 199.6 L
S
GR
GS
[0.75 0 0 0.75 0 0] CT
0.149 GC
2 setlinecap
1 LJ
0.667 LW
N
298 202 M
298 199.6 L
S
GR
GS
[0.75 0 0 0.75 0 0] CT
0.149 GC
2 setlinecap
1 LJ
0.667 LW
N
58 22 M
58 24.4 L
S
GR
GS
[0.75 0 0 0.75 0 0] CT
0.149 GC
2 setlinecap
1 LJ
0.667 LW
N
106 22 M
106 24.4 L
S
GR
GS
[0.75 0 0 0.75 0 0] CT
0.149 GC
2 setlinecap
1 LJ
0.667 LW
N
154 22 M
154 24.4 L
S
GR
GS
[0.75 0 0 0.75 0 0] CT
0.149 GC
2 setlinecap
1 LJ
0.667 LW
N
202 22 M
202 24.4 L
S
GR
GS
[0.75 0 0 0.75 0 0] CT
0.149 GC
2 setlinecap
1 LJ
0.667 LW
N
250 22 M
250 24.4 L
S
GR
GS
[0.75 0 0 0.75 0 0] CT
0.149 GC
2 setlinecap
1 LJ
0.667 LW
N
298 22 M
298 24.4 L
S
GR
GS
[0.75 0 0 0.75 43.5 155.5] CT
0.149 GC
/Times-Roman 13.333 F
GS
[1 0 0 1 0 0] CT
-3.5 13 moveto 
1 -1 scale
(0) t 
GR
GR
GS
[0.75 0 0 0.75 79.5 155.5] CT
0.149 GC
/Times-Roman 13.333 F
GS
[1 0 0 1 0 0] CT
-10 13 moveto 
1 -1 scale
(100) t 
GR
GR
GS
[0.75 0 0 0.75 115.5 155.5] CT
0.149 GC
/Times-Roman 13.333 F
GS
[1 0 0 1 0 0] CT
-10 13 moveto 
1 -1 scale
(200) t 
GR
GR
GS
[0.75 0 0 0.75 151.5 155.5] CT
0.149 GC
/Times-Roman 13.333 F
GS
[1 0 0 1 0 0] CT
-10 13 moveto 
1 -1 scale
(300) t 
GR
GR
GS
[0.75 0 0 0.75 187.5 155.5] CT
0.149 GC
/Times-Roman 13.333 F
GS
[1 0 0 1 0 0] CT
-10 13 moveto 
1 -1 scale
(400) t 
GR
GR
GS
[0.75 0 0 0.75 223.5 155.5] CT
0.149 GC
/Times-Roman 13.333 F
GS
[1 0 0 1 0 0] CT
-10 13 moveto 
1 -1 scale
(500) t 
GR
GR
GS
[0.75 0 0 0.75 0 0] CT
0.149 GC
2 setlinecap
1 LJ
0.667 LW
N
58 202 M
58 22 L
S
GR
GS
[0.75 0 0 0.75 0 0] CT
0.149 GC
2 setlinecap
1 LJ
0.667 LW
N
298 202 M
298 22 L
S
GR
GS
[0.75 0 0 0.75 0 0] CT
0.149 GC
2 setlinecap
1 LJ
0.667 LW
N
58 202 M
60.4 202 L
S
GR
GS
[0.75 0 0 0.75 0 0] CT
0.149 GC
2 setlinecap
1 LJ
0.667 LW
N
58 166 M
60.4 166 L
S
GR
GS
[0.75 0 0 0.75 0 0] CT
0.149 GC
2 setlinecap
1 LJ
0.667 LW
N
58 130 M
60.4 130 L
S
GR
GS
[0.75 0 0 0.75 0 0] CT
0.149 GC
2 setlinecap
1 LJ
0.667 LW
N
58 94 M
60.4 94 L
S
GR
GS
[0.75 0 0 0.75 0 0] CT
0.149 GC
2 setlinecap
1 LJ
0.667 LW
N
58 58 M
60.4 58 L
S
GR
GS
[0.75 0 0 0.75 0 0] CT
0.149 GC
2 setlinecap
1 LJ
0.667 LW
N
58 22 M
60.4 22 L
S
GR
GS
[0.75 0 0 0.75 0 0] CT
0.149 GC
2 setlinecap
1 LJ
0.667 LW
N
298 202 M
295.6 202 L
S
GR
GS
[0.75 0 0 0.75 0 0] CT
0.149 GC
2 setlinecap
1 LJ
0.667 LW
N
298 166 M
295.6 166 L
S
GR
GS
[0.75 0 0 0.75 0 0] CT
0.149 GC
2 setlinecap
1 LJ
0.667 LW
N
298 130 M
295.6 130 L
S
GR
GS
[0.75 0 0 0.75 0 0] CT
0.149 GC
2 setlinecap
1 LJ
0.667 LW
N
298 94 M
295.6 94 L
S
GR
GS
[0.75 0 0 0.75 0 0] CT
0.149 GC
2 setlinecap
1 LJ
0.667 LW
N
298 58 M
295.6 58 L
S
GR
GS
[0.75 0 0 0.75 0 0] CT
0.149 GC
2 setlinecap
1 LJ
0.667 LW
N
298 22 M
295.6 22 L
S
GR
GS
[0.75 0 0 0.75 39.5 151.5] CT
0.149 GC
/Times-Roman 13.333 F
GS
[1 0 0 1 0 0] CT
-12 5 moveto 
1 -1 scale
(-1) t 
GR
GR
GS
[0.75 0 0 0.75 39.5 124.5] CT
0.149 GC
/Times-Roman 13.333 F
GS
[1 0 0 1 0 0] CT
-7 5 moveto 
1 -1 scale
(0) t 
GR
GR
GS
[0.75 0 0 0.75 39.5 97.5] CT
0.149 GC
/Times-Roman 13.333 F
GS
[1 0 0 1 0 0] CT
-7 5 moveto 
1 -1 scale
(1) t 
GR
GR
GS
[0.75 0 0 0.75 39.5 70.5] CT
0.149 GC
/Times-Roman 13.333 F
GS
[1 0 0 1 0 0] CT
-7 5 moveto 
1 -1 scale
(2) t 
GR
GR
GS
[0.75 0 0 0.75 39.5 43.5] CT
0.149 GC
/Times-Roman 13.333 F
GS
[1 0 0 1 0 0] CT
-7 5 moveto 
1 -1 scale
(3) t 
GR
GR
GS
[0.75 0 0 0.75 39.5 16.5] CT
0.149 GC
/Times-Roman 13.333 F
GS
[1 0 0 1 0 0] CT
-7 5 moveto 
1 -1 scale
(4) t 
GR
GR
GS
[0.75 0 0 0.75 0 0] CT
0.345 0.537 0.69 RC
1 LJ
2.667 LW
N
58 136.556 M
60.4 141.751 L
62.8 142.613 L
65.2 143.275 L
67.6 143.833 L
70 144.329 L
72.4 144.777 L
74.8 145.184 L
77.2 145.561 L
79.6 145.911 L
82 146.238 L
84.4 146.548 L
86.8 146.842 L
89.2 147.121 L
91.6 147.389 L
94 147.647 L
96.4 147.895 L
98.8 148.134 L
101.2 148.365 L
103.6 148.589 L
106 148.805 L
108.4 149.016 L
110.8 149.22 L
113.2 149.418 L
115.6 149.612 L
118 149.8 L
120.4 149.984 L
122.8 150.164 L
125.2 150.339 L
127.6 150.511 L
130 150.679 L
132.4 150.844 L
134.8 151.005 L
137.2 151.163 L
139.6 151.317 L
142 151.469 L
144.4 151.618 L
146.8 151.764 L
149.2 151.907 L
151.6 152.048 L
154 152.186 L
156.4 152.322 L
158.8 152.456 L
161.2 152.587 L
163.6 152.716 L
166 152.843 L
168.4 152.968 L
170.8 153.09 L
173.2 153.211 L
175.6 153.331 L
178 153.448 L
180.4 153.563 L
182.8 153.677 L
185.2 153.789 L
187.6 153.899 L
190 154.008 L
192.4 154.115 L
194.8 154.221 L
197.2 154.326 L
199.6 154.428 L
202 154.529 L
204.4 154.629 L
206.8 154.727 L
209.2 154.823 L
211.6 154.918 L
214 155.013 L
216.4 155.106 L
218.8 155.198 L
221.2 155.29 L
223.6 155.38 L
226 155.469 L
228.4 155.558 L
230.8 155.644 L
233.2 155.728 L
235.6 155.812 L
238 155.894 L
240.4 155.974 L
242.8 156.053 L
245.2 156.131 L
247.6 156.209 L
250 156.287 L
252.4 156.364 L
254.8 156.44 L
257.2 156.515 L
259.6 156.591 L
262 156.665 L
264.4 156.737 L
266.8 156.808 L
269.2 156.878 L
271.6 156.947 L
274 157.015 L
276.4 157.082 L
278.8 157.149 L
S
GR
GS
[0.75 0 0 0.75 0 0] CT
0.345 0.537 0.69 RC
[8 8] 0 setdash
2 LJ
2.667 LW
N
58 136.556 M
60.4 141.794 L
62.8 142.671 L
65.2 143.346 L
67.6 143.912 L
70 144.404 L
72.4 144.845 L
74.8 145.247 L
77.2 145.619 L
79.6 145.965 L
82 146.289 L
84.4 146.595 L
86.8 146.885 L
89.2 147.162 L
91.6 147.426 L
94 147.679 L
96.4 147.923 L
98.8 148.156 L
101.2 148.383 L
103.6 148.601 L
106 148.813 L
108.4 149.017 L
110.8 149.216 L
113.2 149.41 L
115.6 149.598 L
118 149.782 L
120.4 149.961 L
122.8 150.136 L
125.2 150.307 L
127.6 150.475 L
130 150.639 L
132.4 150.799 L
134.8 150.956 L
137.2 151.109 L
139.6 151.259 L
142 151.406 L
144.4 151.551 L
146.8 151.693 L
149.2 151.831 L
151.6 151.968 L
154 152.101 L
156.4 152.232 L
158.8 152.36 L
161.2 152.487 L
163.6 152.612 L
166 152.735 L
168.4 152.855 L
170.8 152.974 L
173.2 153.09 L
175.6 153.203 L
178 153.315 L
180.4 153.426 L
182.8 153.534 L
185.2 153.64 L
187.6 153.746 L
190 153.849 L
192.4 153.95 L
194.8 154.051 L
197.2 154.149 L
199.6 154.246 L
202 154.341 L
204.4 154.435 L
206.8 154.528 L
209.2 154.619 L
211.6 154.708 L
214 154.797 L
216.4 154.884 L
218.8 154.969 L
221.2 155.054 L
223.6 155.137 L
226 155.219 L
228.4 155.299 L
230.8 155.379 L
233.2 155.457 L
235.6 155.535 L
238 155.611 L
240.4 155.686 L
242.8 155.759 L
245.2 155.832 L
247.6 155.903 L
250 155.974 L
252.4 156.044 L
254.8 156.113 L
257.2 156.181 L
259.6 156.247 L
262 156.313 L
264.4 156.378 L
266.8 156.443 L
269.2 156.506 L
271.6 156.569 L
274 156.631 L
276.4 156.692 L
278.8 156.752 L
S
GR
GS
[0.75 0 0 0.75 0 0] CT
0.914 0.282 0.286 RC
1 LJ
2.667 LW
N
58 136.556 M
60.4 147.153 L
62.8 148.182 L
65.2 148.966 L
67.6 149.63 L
70 150.227 L
72.4 150.771 L
74.8 151.272 L
77.2 151.741 L
79.6 152.182 L
82 152.601 L
84.4 153.001 L
86.8 153.385 L
89.2 153.755 L
91.6 154.111 L
94 154.457 L
96.4 154.792 L
98.8 155.118 L
101.2 155.435 L
103.6 155.744 L
106 156.045 L
108.4 156.339 L
110.8 156.627 L
113.2 156.908 L
115.6 157.183 L
118 157.453 L
120.4 157.717 L
122.8 157.977 L
125.2 158.232 L
127.6 158.482 L
130 158.728 L
132.4 158.97 L
134.8 159.208 L
137.2 159.443 L
139.6 159.664 L
142 159.9 L
144.4 160.124 L
146.8 160.344 L
149.2 160.561 L
151.6 160.775 L
154 160.986 L
156.4 161.195 L
158.8 161.4 L
161.2 161.603 L
163.6 161.803 L
166 162 L
168.4 162.195 L
170.8 162.388 L
173.2 162.578 L
175.6 162.766 L
178 162.952 L
180.4 163.136 L
182.8 163.317 L
185.2 163.497 L
187.6 163.675 L
190 163.85 L
192.4 164.024 L
194.8 164.197 L
197.2 164.367 L
199.6 164.536 L
202 164.703 L
204.4 164.868 L
206.8 165.032 L
209.2 165.194 L
211.6 165.355 L
214 165.514 L
216.4 165.672 L
218.8 165.828 L
221.2 165.982 L
223.6 166.135 L
226 166.287 L
228.4 166.437 L
230.8 166.586 L
233.2 166.734 L
235.6 166.881 L
238 167.026 L
240.4 167.17 L
242.8 167.313 L
245.2 167.455 L
247.6 167.595 L
250 167.734 L
252.4 167.872 L
254.8 168.008 L
257.2 168.143 L
259.6 168.277 L
262 168.41 L
264.4 168.542 L
266.8 168.673 L
269.2 168.803 L
271.6 168.932 L
274 169.06 L
276.4 169.187 L
278.8 169.312 L
S
GR
GS
[0.75 0 0 0.75 0 0] CT
0.914 0.282 0.286 RC
[8 8] 0 setdash
2 LJ
2.667 LW
N
58 136.556 M
60.4 147.193 L
62.8 148.242 L
65.2 149.057 L
67.6 149.749 L
70 150.363 L
72.4 150.924 L
74.8 151.445 L
77.2 151.936 L
79.6 152.399 L
82 152.839 L
84.4 153.26 L
86.8 153.664 L
89.2 154.053 L
91.6 154.428 L
94 154.79 L
96.4 155.142 L
98.8 155.483 L
101.2 155.814 L
103.6 156.136 L
106 156.45 L
108.4 156.756 L
110.8 157.055 L
113.2 157.348 L
115.6 157.634 L
118 157.914 L
120.4 158.188 L
122.8 158.458 L
125.2 158.723 L
127.6 158.983 L
130 159.239 L
132.4 159.49 L
134.8 159.737 L
137.2 159.98 L
139.6 160.219 L
142 160.455 L
144.4 160.687 L
146.8 160.916 L
149.2 161.141 L
151.6 161.364 L
154 161.583 L
156.4 161.8 L
158.8 162.013 L
161.2 162.224 L
163.6 162.432 L
166 162.638 L
168.4 162.841 L
170.8 163.041 L
173.2 163.239 L
175.6 163.435 L
178 163.628 L
180.4 163.819 L
182.8 164.009 L
185.2 164.195 L
187.6 164.38 L
190 164.563 L
192.4 164.744 L
194.8 164.923 L
197.2 165.1 L
199.6 165.275 L
202 165.449 L
204.4 165.62 L
206.8 165.79 L
209.2 165.958 L
211.6 166.125 L
214 166.289 L
216.4 166.453 L
218.8 166.614 L
221.2 166.774 L
223.6 166.933 L
226 167.09 L
228.4 167.245 L
230.8 167.399 L
233.2 167.552 L
235.6 167.704 L
238 167.854 L
240.4 168.002 L
242.8 168.15 L
245.2 168.296 L
247.6 168.44 L
250 168.584 L
252.4 168.726 L
254.8 168.866 L
257.2 169.006 L
259.6 169.144 L
262 169.28 L
264.4 169.416 L
266.8 169.55 L
269.2 169.684 L
271.6 169.815 L
274 169.946 L
276.4 170.076 L
278.8 170.204 L
S
GR
GS
[0.75 0 0 0.75 0 0] CT
0.443 0.749 0.431 RC
1 LJ
2.667 LW
N
58 48.258 M
60.4 31.187 L
62.8 30.287 L
65.2 29.967 L
67.6 29.78 L
70 29.646 L
72.4 29.535 L
74.8 29.438 L
77.2 29.348 L
79.6 29.261 L
82 29.182 L
84.4 29.106 L
86.8 29.031 L
89.2 28.955 L
91.6 28.883 L
94 28.811 L
96.4 28.739 L
98.8 28.667 L
101.2 28.599 L
103.6 28.527 L
106 28.455 L
108.4 28.386 L
110.8 28.314 L
113.2 28.246 L
115.6 28.174 L
118 28.102 L
120.4 28.03 L
122.8 27.962 L
125.2 27.89 L
127.6 27.818 L
130 27.746 L
132.4 27.674 L
134.8 27.598 L
137.2 27.526 L
139.6 27.454 L
142 27.378 L
144.4 27.306 L
146.8 27.231 L
149.2 27.155 L
151.6 27.083 L
154 27.008 L
156.4 26.932 L
158.8 26.856 L
161.2 26.781 L
163.6 26.705 L
166 26.626 L
168.4 26.55 L
170.8 26.471 L
173.2 26.396 L
175.6 26.316 L
178 26.241 L
180.4 26.162 L
182.8 26.082 L
185.2 26.003 L
187.6 25.924 L
190 25.845 L
192.4 25.766 L
194.8 25.686 L
197.2 25.607 L
199.6 25.528 L
202 25.445 L
204.4 25.366 L
206.8 25.287 L
209.2 25.204 L
211.6 25.121 L
214 25.042 L
216.4 24.959 L
218.8 24.876 L
221.2 24.794 L
223.6 24.714 L
226 24.632 L
228.4 24.549 L
230.8 24.466 L
233.2 24.38 L
235.6 24.297 L
238 24.214 L
240.4 24.128 L
242.8 24.045 L
245.2 23.958 L
247.6 23.876 L
250 23.789 L
252.4 23.706 L
254.8 23.62 L
257.2 23.534 L
259.6 23.447 L
262 23.361 L
264.4 23.274 L
266.8 23.188 L
269.2 23.102 L
271.6 23.015 L
274 22.929 L
276.4 22.839 L
278.8 22.752 L
S
GR
GS
[0.75 0 0 0.75 0 0] CT
0.443 0.749 0.431 RC
[8 8] 0 setdash
2 LJ
2.667 LW
N
58 48.258 M
60.4 31.4 L
62.8 30.402 L
65.2 30.035 L
67.6 29.834 L
70 29.693 L
72.4 29.578 L
74.8 29.484 L
77.2 29.384 L
79.6 29.297 L
82 29.218 L
84.4 29.139 L
86.8 29.063 L
89.2 28.988 L
91.6 28.916 L
94 28.84 L
96.4 28.768 L
98.8 28.696 L
101.2 28.628 L
103.6 28.556 L
106 28.484 L
108.4 28.415 L
110.8 28.343 L
113.2 28.271 L
115.6 28.199 L
118 28.131 L
120.4 28.059 L
122.8 27.987 L
125.2 27.915 L
127.6 27.843 L
130 27.771 L
132.4 27.699 L
134.8 27.627 L
137.2 27.551 L
139.6 27.479 L
142 27.407 L
144.4 27.332 L
146.8 27.26 L
149.2 27.184 L
151.6 27.112 L
154 27.036 L
156.4 26.961 L
158.8 26.889 L
161.2 26.813 L
163.6 26.738 L
166 26.662 L
168.4 26.586 L
170.8 26.511 L
173.2 26.435 L
175.6 26.36 L
178 26.284 L
180.4 26.208 L
182.8 26.129 L
185.2 26.054 L
187.6 25.978 L
190 25.902 L
192.4 25.823 L
194.8 25.748 L
197.2 25.668 L
199.6 25.593 L
202 25.514 L
204.4 25.438 L
206.8 25.359 L
209.2 25.28 L
211.6 25.204 L
214 25.125 L
216.4 25.046 L
218.8 24.97 L
221.2 24.891 L
223.6 24.812 L
226 24.732 L
228.4 24.653 L
230.8 24.574 L
233.2 24.495 L
235.6 24.416 L
238 24.336 L
240.4 24.257 L
242.8 24.178 L
245.2 24.099 L
247.6 24.016 L
250 23.937 L
252.4 23.858 L
254.8 23.775 L
257.2 23.696 L
259.6 23.616 L
262 23.534 L
264.4 23.454 L
266.8 23.372 L
269.2 23.292 L
271.6 23.21 L
274 23.127 L
276.4 23.048 L
278.8 22.965 L
S
GR
GS
[0.75 0 0 0.75 0 0] CT
1 0.6 0.2 RC
1 LJ
2.667 LW
N
58 48.258 M
60.4 36.551 L
62.8 35.313 L
65.2 34.762 L
67.6 34.431 L
70 34.204 L
72.4 34.038 L
74.8 33.916 L
77.2 33.815 L
79.6 33.736 L
82 33.671 L
84.4 33.614 L
86.8 33.563 L
89.2 33.524 L
91.6 33.484 L
94 33.452 L
96.4 33.423 L
98.8 33.398 L
101.2 33.372 L
103.6 33.347 L
106 33.326 L
108.4 33.304 L
110.8 33.286 L
113.2 33.268 L
115.6 33.25 L
118 33.232 L
120.4 33.214 L
122.8 33.196 L
125.2 33.178 L
127.6 33.16 L
130 33.142 L
132.4 33.124 L
134.8 33.106 L
137.2 33.088 L
139.6 33.07 L
142 33.052 L
144.4 33.034 L
146.8 33.012 L
149.2 32.994 L
151.6 32.973 L
154 32.951 L
156.4 32.93 L
158.8 32.912 L
161.2 32.886 L
163.6 32.865 L
166 32.843 L
168.4 32.818 L
170.8 32.796 L
173.2 32.771 L
175.6 32.746 L
178 32.721 L
180.4 32.696 L
182.8 32.67 L
185.2 32.645 L
187.6 32.616 L
190 32.591 L
192.4 32.562 L
194.8 32.534 L
197.2 32.505 L
199.6 32.476 L
202 32.447 L
204.4 32.415 L
206.8 32.386 L
209.2 32.354 L
211.6 32.321 L
214 32.289 L
216.4 32.256 L
218.8 32.224 L
221.2 32.192 L
223.6 32.156 L
226 32.12 L
228.4 32.087 L
230.8 32.051 L
233.2 32.015 L
235.6 31.979 L
238 31.94 L
240.4 31.904 L
242.8 31.864 L
245.2 31.824 L
247.6 31.785 L
250 31.745 L
252.4 31.706 L
254.8 31.662 L
257.2 31.623 L
259.6 31.58 L
262 31.536 L
264.4 31.493 L
266.8 31.45 L
269.2 31.407 L
271.6 31.36 L
274 31.313 L
276.4 31.266 L
278.8 31.22 L
S
GR
GS
[0.75 0 0 0.75 0 0] CT
1 0.6 0.2 RC
[8 8] 0 setdash
2 LJ
2.667 LW
N
58 48.258 M
60.4 36.839 L
62.8 35.54 L
65.2 34.938 L
67.6 34.586 L
70 34.355 L
72.4 34.186 L
74.8 34.067 L
77.2 33.945 L
79.6 33.862 L
82 33.794 L
84.4 33.736 L
86.8 33.686 L
89.2 33.646 L
91.6 33.606 L
94 33.578 L
96.4 33.549 L
98.8 33.524 L
101.2 33.498 L
103.6 33.48 L
106 33.459 L
108.4 33.441 L
110.8 33.426 L
113.2 33.408 L
115.6 33.394 L
118 33.38 L
120.4 33.365 L
122.8 33.351 L
125.2 33.336 L
127.6 33.322 L
130 33.308 L
132.4 33.293 L
134.8 33.279 L
137.2 33.261 L
139.6 33.246 L
142 33.232 L
144.4 33.218 L
146.8 33.2 L
149.2 33.185 L
151.6 33.167 L
154 33.149 L
156.4 33.135 L
158.8 33.117 L
161.2 33.099 L
163.6 33.077 L
166 33.059 L
168.4 33.038 L
170.8 33.02 L
173.2 32.998 L
175.6 32.976 L
178 32.955 L
180.4 32.933 L
182.8 32.912 L
185.2 32.89 L
187.6 32.865 L
190 32.843 L
192.4 32.818 L
194.8 32.793 L
197.2 32.768 L
199.6 32.742 L
202 32.717 L
204.4 32.692 L
206.8 32.663 L
209.2 32.638 L
211.6 32.609 L
214 32.584 L
216.4 32.555 L
218.8 32.526 L
221.2 32.498 L
223.6 32.469 L
226 32.436 L
228.4 32.408 L
230.8 32.375 L
233.2 32.343 L
235.6 32.314 L
238 32.282 L
240.4 32.249 L
242.8 32.213 L
245.2 32.181 L
247.6 32.148 L
250 32.112 L
252.4 32.08 L
254.8 32.044 L
257.2 32.008 L
259.6 31.972 L
262 31.936 L
264.4 31.896 L
266.8 31.86 L
269.2 31.821 L
271.6 31.785 L
274 31.745 L
276.4 31.706 L
278.8 31.666 L
S
GR
GS
[0.75 0 0 0.75 133.5 165] CT
0.149 GC
/Times-Roman 14.667 F
GS
[1 0 0 1 0 0] CT
-24.5 14 moveto 
1 -1 scale
(Time / s) t 
GR
GR
GS
[0 -0.75 0.75 0 16.5 101.25] CT
0.149 GC
N
2.906 2.922 M
3.578 0.219 L
2.813 0.219 2.156 -0.141 QT
1.5 -0.5 1.102 -1.133 QT
0.703 -1.766 0.703 -2.516 QT
0.703 -3.328 1.109 -4.07 QT
1.516 -4.813 2.211 -5.414 QT
2.906 -6.016 3.711 -6.344 QT
4.516 -6.672 5.313 -6.672 QT
6.219 -10.313 L
6.234 -10.406 6.328 -10.406 QT
6.516 -10.406 L
6.563 -10.406 6.602 -10.359 QT
6.641 -10.313 6.641 -10.266 QT
5.75 -6.672 L
6.313 -6.672 6.836 -6.469 QT
7.359 -6.266 7.766 -5.891 QT
8.172 -5.516 8.398 -5.016 QT
8.625 -4.516 8.625 -3.953 QT
8.625 -3.141 8.227 -2.398 QT
7.828 -1.656 7.141 -1.063 QT
6.453 -0.469 5.617 -0.125 QT
4.781 0.219 4.016 0.219 QT
3.328 2.984 L
3.297 3.078 3.203 3.078 QT
3.031 3.078 L
2.969 3.078 2.938 3.023 QT
2.906 2.969 2.906 2.922 QT
cp
3.672 -0.188 M
5.203 -6.281 L
4.828 -6.281 4.406 -6.133 QT
3.984 -5.984 3.617 -5.75 QT
3.25 -5.516 2.953 -5.203 QT
2.578 -4.844 2.305 -4.344 QT
2.031 -3.844 1.891 -3.289 QT
1.75 -2.734 1.75 -2.203 QT
1.75 -1.641 1.992 -1.18 QT
2.234 -0.719 2.672 -0.453 QT
3.109 -0.188 3.672 -0.188 QT
cp
4.125 -0.188 M
4.688 -0.188 5.328 -0.508 QT
5.969 -0.828 6.375 -1.266 QT
6.938 -1.813 7.266 -2.625 QT
7.594 -3.438 7.594 -4.266 QT
7.594 -4.813 7.352 -5.281 QT
7.109 -5.75 6.664 -6.016 QT
6.219 -6.281 5.656 -6.281 QT
4.125 -0.188 L
cp
f
GR
GS
[0 -0.75 0.75 0 21.75 94.5] CT
0.149 GC
/Times-Roman 11.733 F
GS
[1 0 0 1 0 0] CT
0 0 moveto 
1 -1 scale
(s) t 
GR
GR
GS
[0 -0.75 0.75 0 21.75 90.75] CT
0.149 GC
/Times-Roman 11.733 F
GS
[1 0 0 1 0 0] CT
0 0 moveto 
1 -1 scale
(-) t 
GR
GR
GS
[0 -0.75 0.75 0 21.75 87.75] CT
0.149 GC
/Times-Roman 11.733 F
GS
[1 0 0 1 0 0] CT
0 0 moveto 
1 -1 scale
(e) t 
GR
GR
GS
[0 -0.75 0.75 0 16.5 83.25] CT
0.149 GC
/Times-Roman 14.667 F
GS
[1 0 0 1 0 0] CT
0 0 moveto 
1 -1 scale
( / V) t 
GR
GR
GS
[0.75 0 0 0.75 0 0] CT
1 GC
N
281 98 M
281 61 L
200 61 L
200 98 L
cp
f
GR
GS
[0.75 0 0 0.75 185.25 53.35274] CT
/Times-Roman 13.333 F
GS
[1 0 0 1 0 0] CT
0 5 moveto 
1 -1 scale
(Truth) t 
GR
GR
GS
[0.75 0 0 0.75 0 0] CT
0.345 0.537 0.69 RC
1 LJ
2.667 LW
N
204 71.137 M
244 71.137 L
S
GR
GS
[0.75 0 0 0.75 185.25 65.89726] CT
/Times-Roman 13.333 F
GS
[1 0 0 1 0 0] CT
0 5 moveto 
1 -1 scale
(Iden) t 
GR
GR
GS
[0.75 0 0 0.75 0 0] CT
0.345 0.537 0.69 RC
[8 8] 0 setdash
2 LJ
2.667 LW
N
204 87.863 M
244 87.863 L
S
GR
GS
[0.75 0 0 0.75 0 0] CT
1 GC
10.0 ML
0.667 LW
N
200 98 M
200 61 L
281 61 L
281 98 L
cp
S
GR
%%Trailer
%%Pages: 1
%%EOF
