%!PS-Adobe-3.0 EPSF-3.0
%%Creator: (MATLAB, The Mathworks, Inc. Version 9.3.0.713579 \(R2017b\). Operating System: Windows 7)
%%Title: F:/Lab/Git/Git_LMPROM2/Figures/Rss_cathode.eps
%%CreationDate: 2018-09-17T15:57:50
%%Pages: (atend)
%%BoundingBox: 0 0 240 180
%%LanguageLevel: 3
%%EndComments
%%BeginProlog
%%BeginResource: procset (Apache XML Graphics Std ProcSet) 1.2 0
%%Version: 1.2 0
%%Copyright: (Copyright 2001-2003,2010 The Apache Software Foundation. License terms: http://www.apache.org/licenses/LICENSE-2.0)
/bd{bind def}bind def
/ld{load def}bd
/GR/grestore ld
/GS/gsave ld
/RM/rmoveto ld
/C/curveto ld
/t/show ld
/L/lineto ld
/ML/setmiterlimit ld
/CT/concat ld
/f/fill ld
/N/newpath ld
/S/stroke ld
/CC/setcmykcolor ld
/A/ashow ld
/cp/closepath ld
/RC/setrgbcolor ld
/LJ/setlinejoin ld
/GC/setgray ld
/LW/setlinewidth ld
/M/moveto ld
/re {4 2 roll M
1 index 0 rlineto
0 exch rlineto
neg 0 rlineto
cp } bd
/_ctm matrix def
/_tm matrix def
/BT { _ctm currentmatrix pop matrix _tm copy pop 0 0 moveto } bd
/ET { _ctm setmatrix } bd
/iTm { _ctm setmatrix _tm concat } bd
/Tm { _tm astore pop iTm 0 0 moveto } bd
/ux 0.0 def
/uy 0.0 def
/F {
  /Tp exch def
  /Tf exch def
  Tf findfont Tp scalefont setfont
  /cf Tf def  /cs Tp def
} bd
/ULS {currentpoint /uy exch def /ux exch def} bd
/ULE {
  /Tcx currentpoint pop def
  gsave
  newpath
  cf findfont cs scalefont dup
  /FontMatrix get 0 get /Ts exch def /FontInfo get dup
  /UnderlinePosition get Ts mul /To exch def
  /UnderlineThickness get Ts mul /Tt exch def
  ux uy To add moveto  Tcx uy To add lineto
  Tt setlinewidth stroke
  grestore
} bd
/OLE {
  /Tcx currentpoint pop def
  gsave
  newpath
  cf findfont cs scalefont dup
  /FontMatrix get 0 get /Ts exch def /FontInfo get dup
  /UnderlinePosition get Ts mul /To exch def
  /UnderlineThickness get Ts mul /Tt exch def
  ux uy To add cs add moveto Tcx uy To add cs add lineto
  Tt setlinewidth stroke
  grestore
} bd
/SOE {
  /Tcx currentpoint pop def
  gsave
  newpath
  cf findfont cs scalefont dup
  /FontMatrix get 0 get /Ts exch def /FontInfo get dup
  /UnderlinePosition get Ts mul /To exch def
  /UnderlineThickness get Ts mul /Tt exch def
  ux uy To add cs 10 mul 26 idiv add moveto Tcx uy To add cs 10 mul 26 idiv add lineto
  Tt setlinewidth stroke
  grestore
} bd
/QT {
/Y22 exch store
/X22 exch store
/Y21 exch store
/X21 exch store
currentpoint
/Y21 load 2 mul add 3 div exch
/X21 load 2 mul add 3 div exch
/X21 load 2 mul /X22 load add 3 div
/Y21 load 2 mul /Y22 load add 3 div
/X22 load /Y22 load curveto
} bd
/SSPD {
dup length /d exch dict def
{
/v exch def
/k exch def
currentpagedevice k known {
/cpdv currentpagedevice k get def
v cpdv ne {
/upd false def
/nullv v type /nulltype eq def
/nullcpdv cpdv type /nulltype eq def
nullv nullcpdv or
{
/upd true def
} {
/sametype v type cpdv type eq def
sametype {
v type /arraytype eq {
/vlen v length def
/cpdvlen cpdv length def
vlen cpdvlen eq {
0 1 vlen 1 sub {
/i exch def
/obj v i get def
/cpdobj cpdv i get def
obj cpdobj ne {
/upd true def
exit
} if
} for
} {
/upd true def
} ifelse
} {
v type /dicttype eq {
v {
/dv exch def
/dk exch def
/cpddv cpdv dk get def
dv cpddv ne {
/upd true def
exit
} if
} forall
} {
/upd true def
} ifelse
} ifelse
} if
} ifelse
upd true eq {
d k v put
} if
} if
} if
} forall
d length 0 gt {
d setpagedevice
} if
} bd
/RE { % /NewFontName [NewEncodingArray] /FontName RE -
  findfont dup length dict begin
  {
    1 index /FID ne
    {def} {pop pop} ifelse
  } forall
  /Encoding exch def
  /FontName 1 index def
  currentdict definefont pop
  end
} bind def
%%EndResource
%%BeginResource: procset (Apache XML Graphics EPS ProcSet) 1.0 0
%%Version: 1.0 0
%%Copyright: (Copyright 2002-2003 The Apache Software Foundation. License terms: http://www.apache.org/licenses/LICENSE-2.0)
/BeginEPSF { %def
/b4_Inc_state save def         % Save state for cleanup
/dict_count countdictstack def % Count objects on dict stack
/op_count count 1 sub def      % Count objects on operand stack
userdict begin                 % Push userdict on dict stack
/showpage { } def              % Redefine showpage, { } = null proc
0 setgray 0 setlinecap         % Prepare graphics state
1 setlinewidth 0 setlinejoin
10 setmiterlimit [ ] 0 setdash newpath
/languagelevel where           % If level not equal to 1 then
{pop languagelevel             % set strokeadjust and
1 ne                           % overprint to their defaults.
{false setstrokeadjust false setoverprint
} if
} if
} bd
/EndEPSF { %def
count op_count sub {pop} repeat            % Clean up stacks
countdictstack dict_count sub {end} repeat
b4_Inc_state restore
} bd
%%EndResource
%FOPBeginFontDict
%%IncludeResource: font Courier-Oblique
%%IncludeResource: font Courier-BoldOblique
%%IncludeResource: font Courier-Bold
%%IncludeResource: font ZapfDingbats
%%IncludeResource: font Symbol
%%IncludeResource: font Helvetica
%%IncludeResource: font Helvetica-Oblique
%%IncludeResource: font Helvetica-Bold
%%IncludeResource: font Helvetica-BoldOblique
%%IncludeResource: font Times-Roman
%%IncludeResource: font Times-Italic
%%IncludeResource: font Times-Bold
%%IncludeResource: font Times-BoldItalic
%%IncludeResource: font Courier
%FOPEndFontDict
%%BeginResource: encoding WinAnsiEncoding
/WinAnsiEncoding [
/.notdef /.notdef /.notdef /.notdef /.notdef
/.notdef /.notdef /.notdef /.notdef /.notdef
/.notdef /.notdef /.notdef /.notdef /.notdef
/.notdef /.notdef /.notdef /.notdef /.notdef
/.notdef /.notdef /.notdef /.notdef /.notdef
/.notdef /.notdef /.notdef /.notdef /.notdef
/.notdef /.notdef /space /exclam /quotedbl
/numbersign /dollar /percent /ampersand /quotesingle
/parenleft /parenright /asterisk /plus /comma
/hyphen /period /slash /zero /one
/two /three /four /five /six
/seven /eight /nine /colon /semicolon
/less /equal /greater /question /at
/A /B /C /D /E
/F /G /H /I /J
/K /L /M /N /O
/P /Q /R /S /T
/U /V /W /X /Y
/Z /bracketleft /backslash /bracketright /asciicircum
/underscore /quoteleft /a /b /c
/d /e /f /g /h
/i /j /k /l /m
/n /o /p /q /r
/s /t /u /v /w
/x /y /z /braceleft /bar
/braceright /asciitilde /bullet /Euro /bullet
/quotesinglbase /florin /quotedblbase /ellipsis /dagger
/daggerdbl /circumflex /perthousand /Scaron /guilsinglleft
/OE /bullet /Zcaron /bullet /bullet
/quoteleft /quoteright /quotedblleft /quotedblright /bullet
/endash /emdash /asciitilde /trademark /scaron
/guilsinglright /oe /bullet /zcaron /Ydieresis
/space /exclamdown /cent /sterling /currency
/yen /brokenbar /section /dieresis /copyright
/ordfeminine /guillemotleft /logicalnot /sfthyphen /registered
/macron /degree /plusminus /twosuperior /threesuperior
/acute /mu /paragraph /middot /cedilla
/onesuperior /ordmasculine /guillemotright /onequarter /onehalf
/threequarters /questiondown /Agrave /Aacute /Acircumflex
/Atilde /Adieresis /Aring /AE /Ccedilla
/Egrave /Eacute /Ecircumflex /Edieresis /Igrave
/Iacute /Icircumflex /Idieresis /Eth /Ntilde
/Ograve /Oacute /Ocircumflex /Otilde /Odieresis
/multiply /Oslash /Ugrave /Uacute /Ucircumflex
/Udieresis /Yacute /Thorn /germandbls /agrave
/aacute /acircumflex /atilde /adieresis /aring
/ae /ccedilla /egrave /eacute /ecircumflex
/edieresis /igrave /iacute /icircumflex /idieresis
/eth /ntilde /ograve /oacute /ocircumflex
/otilde /odieresis /divide /oslash /ugrave
/uacute /ucircumflex /udieresis /yacute /thorn
/ydieresis
] def
%%EndResource
%FOPBeginFontReencode
/Courier-Oblique findfont
dup length dict begin
  {1 index /FID ne {def} {pop pop} ifelse} forall
  /Encoding WinAnsiEncoding def
  currentdict
end
/Courier-Oblique exch definefont pop
/Courier-BoldOblique findfont
dup length dict begin
  {1 index /FID ne {def} {pop pop} ifelse} forall
  /Encoding WinAnsiEncoding def
  currentdict
end
/Courier-BoldOblique exch definefont pop
/Courier-Bold findfont
dup length dict begin
  {1 index /FID ne {def} {pop pop} ifelse} forall
  /Encoding WinAnsiEncoding def
  currentdict
end
/Courier-Bold exch definefont pop
/Helvetica findfont
dup length dict begin
  {1 index /FID ne {def} {pop pop} ifelse} forall
  /Encoding WinAnsiEncoding def
  currentdict
end
/Helvetica exch definefont pop
/Helvetica-Oblique findfont
dup length dict begin
  {1 index /FID ne {def} {pop pop} ifelse} forall
  /Encoding WinAnsiEncoding def
  currentdict
end
/Helvetica-Oblique exch definefont pop
/Helvetica-Bold findfont
dup length dict begin
  {1 index /FID ne {def} {pop pop} ifelse} forall
  /Encoding WinAnsiEncoding def
  currentdict
end
/Helvetica-Bold exch definefont pop
/Helvetica-BoldOblique findfont
dup length dict begin
  {1 index /FID ne {def} {pop pop} ifelse} forall
  /Encoding WinAnsiEncoding def
  currentdict
end
/Helvetica-BoldOblique exch definefont pop
/Times-Roman findfont
dup length dict begin
  {1 index /FID ne {def} {pop pop} ifelse} forall
  /Encoding WinAnsiEncoding def
  currentdict
end
/Times-Roman exch definefont pop
/Times-Italic findfont
dup length dict begin
  {1 index /FID ne {def} {pop pop} ifelse} forall
  /Encoding WinAnsiEncoding def
  currentdict
end
/Times-Italic exch definefont pop
/Times-Bold findfont
dup length dict begin
  {1 index /FID ne {def} {pop pop} ifelse} forall
  /Encoding WinAnsiEncoding def
  currentdict
end
/Times-Bold exch definefont pop
/Times-BoldItalic findfont
dup length dict begin
  {1 index /FID ne {def} {pop pop} ifelse} forall
  /Encoding WinAnsiEncoding def
  currentdict
end
/Times-BoldItalic exch definefont pop
/Courier findfont
dup length dict begin
  {1 index /FID ne {def} {pop pop} ifelse} forall
  /Encoding WinAnsiEncoding def
  currentdict
end
/Courier exch definefont pop
%FOPEndFontReencode
%%EndProlog
%%Page: 1 1
%%PageBoundingBox: 0 0 240 180
%%BeginPageSetup
[1 0 0 -1 0 180] CT
%%EndPageSetup
GS
[0.75 0 0 0.75 0 0] CT
1 GC
N
0 0 320 240 re
f
GR
GS
[0.75 0 0 0.75 0 0] CT
1 GC
N
0 0 320 240 re
f
GR
GS
[0.75 0 0 0.75 0 0] CT
1 GC
N
58 202 M
298 202 L
298 22 L
58 22 L
cp
f
GR
GS
[0.75 0 0 0.75 0 0] CT
0.149 GC
2 setlinecap
1 LJ
0.667 LW
N
58 202 M
298 202 L
S
GR
GS
[0.75 0 0 0.75 0 0] CT
0.149 GC
2 setlinecap
1 LJ
0.667 LW
N
58 22 M
298 22 L
S
GR
GS
[0.75 0 0 0.75 0 0] CT
0.149 GC
2 setlinecap
1 LJ
0.667 LW
N
58 202 M
58 199.6 L
S
GR
GS
[0.75 0 0 0.75 0 0] CT
0.149 GC
2 setlinecap
1 LJ
0.667 LW
N
118 202 M
118 199.6 L
S
GR
GS
[0.75 0 0 0.75 0 0] CT
0.149 GC
2 setlinecap
1 LJ
0.667 LW
N
178 202 M
178 199.6 L
S
GR
GS
[0.75 0 0 0.75 0 0] CT
0.149 GC
2 setlinecap
1 LJ
0.667 LW
N
238 202 M
238 199.6 L
S
GR
GS
[0.75 0 0 0.75 0 0] CT
0.149 GC
2 setlinecap
1 LJ
0.667 LW
N
298 202 M
298 199.6 L
S
GR
GS
[0.75 0 0 0.75 0 0] CT
0.149 GC
2 setlinecap
1 LJ
0.667 LW
N
58 22 M
58 24.4 L
S
GR
GS
[0.75 0 0 0.75 0 0] CT
0.149 GC
2 setlinecap
1 LJ
0.667 LW
N
118 22 M
118 24.4 L
S
GR
GS
[0.75 0 0 0.75 0 0] CT
0.149 GC
2 setlinecap
1 LJ
0.667 LW
N
178 22 M
178 24.4 L
S
GR
GS
[0.75 0 0 0.75 0 0] CT
0.149 GC
2 setlinecap
1 LJ
0.667 LW
N
238 22 M
238 24.4 L
S
GR
GS
[0.75 0 0 0.75 0 0] CT
0.149 GC
2 setlinecap
1 LJ
0.667 LW
N
298 22 M
298 24.4 L
S
GR
GS
[0.75 0 0 0.75 43.5 155.50003] CT
0.149 GC
/Times-Roman 13.333 F
GS
[1 0 0 1 0 0] CT
-8.5 13 moveto 
1 -1 scale
(0.2) t 
GR
GR
GS
[0.75 0 0 0.75 88.5 155.50003] CT
0.149 GC
/Times-Roman 13.333 F
GS
[1 0 0 1 0 0] CT
-8.5 13 moveto 
1 -1 scale
(0.4) t 
GR
GR
GS
[0.75 0 0 0.75 133.5 155.50003] CT
0.149 GC
/Times-Roman 13.333 F
GS
[1 0 0 1 0 0] CT
-8.5 13 moveto 
1 -1 scale
(0.6) t 
GR
GR
GS
[0.75 0 0 0.75 178.5 155.50003] CT
0.149 GC
/Times-Roman 13.333 F
GS
[1 0 0 1 0 0] CT
-8.5 13 moveto 
1 -1 scale
(0.8) t 
GR
GR
GS
[0.75 0 0 0.75 223.5 155.50003] CT
0.149 GC
/Times-Roman 13.333 F
GS
[1 0 0 1 0 0] CT
-3.5 13 moveto 
1 -1 scale
(1) t 
GR
GR
GS
[0.75 0 0 0.75 0 0] CT
0.149 GC
2 setlinecap
1 LJ
0.667 LW
N
58 202 M
58 22 L
S
GR
GS
[0.75 0 0 0.75 0 0] CT
0.149 GC
2 setlinecap
1 LJ
0.667 LW
N
298 202 M
298 22 L
S
GR
GS
[0.75 0 0 0.75 0 0] CT
0.149 GC
2 setlinecap
1 LJ
0.667 LW
N
58 202 M
60.4 202 L
S
GR
GS
[0.75 0 0 0.75 0 0] CT
0.149 GC
2 setlinecap
1 LJ
0.667 LW
N
58 157 M
60.4 157 L
S
GR
GS
[0.75 0 0 0.75 0 0] CT
0.149 GC
2 setlinecap
1 LJ
0.667 LW
N
58 112 M
60.4 112 L
S
GR
GS
[0.75 0 0 0.75 0 0] CT
0.149 GC
2 setlinecap
1 LJ
0.667 LW
N
58 67 M
60.4 67 L
S
GR
GS
[0.75 0 0 0.75 0 0] CT
0.149 GC
2 setlinecap
1 LJ
0.667 LW
N
58 22 M
60.4 22 L
S
GR
GS
[0.75 0 0 0.75 0 0] CT
0.149 GC
2 setlinecap
1 LJ
0.667 LW
N
298 202 M
295.6 202 L
S
GR
GS
[0.75 0 0 0.75 0 0] CT
0.149 GC
2 setlinecap
1 LJ
0.667 LW
N
298 157 M
295.6 157 L
S
GR
GS
[0.75 0 0 0.75 0 0] CT
0.149 GC
2 setlinecap
1 LJ
0.667 LW
N
298 112 M
295.6 112 L
S
GR
GS
[0.75 0 0 0.75 0 0] CT
0.149 GC
2 setlinecap
1 LJ
0.667 LW
N
298 67 M
295.6 67 L
S
GR
GS
[0.75 0 0 0.75 0 0] CT
0.149 GC
2 setlinecap
1 LJ
0.667 LW
N
298 22 M
295.6 22 L
S
GR
GS
[0.75 0 0 0.75 39.5 151.50001] CT
0.149 GC
/Times-Roman 13.333 F
GS
[1 0 0 1 0 0] CT
-17 5 moveto 
1 -1 scale
(3.6) t 
GR
GR
GS
[0.75 0 0 0.75 39.5 117.75001] CT
0.149 GC
/Times-Roman 13.333 F
GS
[1 0 0 1 0 0] CT
-17 5 moveto 
1 -1 scale
(3.8) t 
GR
GR
GS
[0.75 0 0 0.75 39.5 84] CT
0.149 GC
/Times-Roman 13.333 F
GS
[1 0 0 1 0 0] CT
-7 5 moveto 
1 -1 scale
(4) t 
GR
GR
GS
[0.75 0 0 0.75 39.5 50.25003] CT
0.149 GC
/Times-Roman 13.333 F
GS
[1 0 0 1 0 0] CT
-17 5 moveto 
1 -1 scale
(4.2) t 
GR
GR
GS
[0.75 0 0 0.75 39.5 16.49998] CT
0.149 GC
/Times-Roman 13.333 F
GS
[1 0 0 1 0 0] CT
-17 5 moveto 
1 -1 scale
(4.4) t 
GR
GR
GS
[0.75 0 0 0.75 43.5 137.51694] CT
0.345 0.537 0.69 RC
10.0 ML
2.667 LW
N
0 -4 M
0 4 L
-4 0 M
4 0 L
-2.828 -2.828 M
2.828 2.828 L
-2.828 2.828 M
2.828 -2.828 L
S
GR
GS
[0.75 0 0 0.75 60.375 133.45666] CT
0.345 0.537 0.69 RC
10.0 ML
2.667 LW
N
0 -4 M
0 4 L
-4 0 M
4 0 L
-2.828 -2.828 M
2.828 2.828 L
-2.828 2.828 M
2.828 -2.828 L
S
GR
GS
[0.75 0 0 0.75 77.25 128.89117] CT
0.345 0.537 0.69 RC
10.0 ML
2.667 LW
N
0 -4 M
0 4 L
-4 0 M
4 0 L
-2.828 -2.828 M
2.828 2.828 L
-2.828 2.828 M
2.828 -2.828 L
S
GR
GS
[0.75 0 0 0.75 94.125 123.58828] CT
0.345 0.537 0.69 RC
10.0 ML
2.667 LW
N
0 -4 M
0 4 L
-4 0 M
4 0 L
-2.828 -2.828 M
2.828 2.828 L
-2.828 2.828 M
2.828 -2.828 L
S
GR
GS
[0.75 0 0 0.75 111 117.30981] CT
0.345 0.537 0.69 RC
10.0 ML
2.667 LW
N
0 -4 M
0 4 L
-4 0 M
4 0 L
-2.828 -2.828 M
2.828 2.828 L
-2.828 2.828 M
2.828 -2.828 L
S
GR
GS
[0.75 0 0 0.75 127.875 109.81519] CT
0.345 0.537 0.69 RC
10.0 ML
2.667 LW
N
0 -4 M
0 4 L
-4 0 M
4 0 L
-2.828 -2.828 M
2.828 2.828 L
-2.828 2.828 M
2.828 -2.828 L
S
GR
GS
[0.75 0 0 0.75 144.75 100.86283] CT
0.345 0.537 0.69 RC
10.0 ML
2.667 LW
N
0 -4 M
0 4 L
-4 0 M
4 0 L
-2.828 -2.828 M
2.828 2.828 L
-2.828 2.828 M
2.828 -2.828 L
S
GR
GS
[0.75 0 0 0.75 161.625 90.21047] CT
0.345 0.537 0.69 RC
10.0 ML
2.667 LW
N
0 -4 M
0 4 L
-4 0 M
4 0 L
-2.828 -2.828 M
2.828 2.828 L
-2.828 2.828 M
2.828 -2.828 L
S
GR
GS
[0.75 0 0 0.75 178.5 77.61564] CT
0.345 0.537 0.69 RC
10.0 ML
2.667 LW
N
0 -4 M
0 4 L
-4 0 M
4 0 L
-2.828 -2.828 M
2.828 2.828 L
-2.828 2.828 M
2.828 -2.828 L
S
GR
GS
[0.75 0 0 0.75 195.375 62.83544] CT
0.345 0.537 0.69 RC
10.0 ML
2.667 LW
N
0 -4 M
0 4 L
-4 0 M
4 0 L
-2.828 -2.828 M
2.828 2.828 L
-2.828 2.828 M
2.828 -2.828 L
S
GR
GS
[0.75 0 0 0.75 212.25 45.62676] CT
0.345 0.537 0.69 RC
10.0 ML
2.667 LW
N
0 -4 M
0 4 L
-4 0 M
4 0 L
-2.828 -2.828 M
2.828 2.828 L
-2.828 2.828 M
2.828 -2.828 L
S
GR
GS
[0.75 0 0 0.75 0 0] CT
0.345 0.537 0.69 RC
1 LJ
2.667 LW
N
58 183.37 M
59.5 183.033 L
61 182.673 L
62.5 182.335 L
64 181.975 L
65.5 181.615 L
67 181.255 L
68.5 180.917 L
70 180.557 L
71.5 180.198 L
73 179.815 L
74.5 179.455 L
76 179.095 L
77.5 178.712 L
79 178.33 L
80.5 177.948 L
82 177.588 L
83.5 177.183 L
85 176.8 L
86.5 176.417 L
88 176.012 L
89.5 175.608 L
91 175.202 L
92.5 174.797 L
94 174.392 L
95.5 173.988 L
97 173.56 L
98.5 173.132 L
100 172.728 L
101.5 172.3 L
103 171.85 L
104.5 171.423 L
106 170.995 L
107.5 170.545 L
109 170.095 L
110.5 169.645 L
112 169.173 L
113.5 168.7 L
115 168.228 L
116.5 167.755 L
118 167.26 L
119.5 166.788 L
121 166.293 L
122.5 165.798 L
124 165.28 L
125.5 164.785 L
127 164.268 L
128.5 163.75 L
130 163.232 L
131.5 162.693 L
133 162.175 L
134.5 161.635 L
136 161.073 L
137.5 160.51 L
139 159.947 L
140.5 159.363 L
142 158.778 L
143.5 158.193 L
145 157.607 L
146.5 157 L
148 156.415 L
149.5 155.785 L
151 155.178 L
152.5 154.548 L
154 153.918 L
155.5 153.288 L
157 152.635 L
158.5 151.983 L
160 151.33 L
161.5 150.633 L
163 149.957 L
164.5 149.26 L
166 148.562 L
167.5 147.843 L
169 147.145 L
170.5 146.402 L
172 145.682 L
173.5 144.94 L
175 144.198 L
176.5 143.432 L
178 142.668 L
179.5 141.902 L
181 141.115 L
182.5 140.327 L
184 139.517 L
185.5 138.708 L
187 137.875 L
188.5 137.042 L
190 136.188 L
191.5 135.332 L
193 134.478 L
194.5 133.6 L
196 132.722 L
197.5 131.822 L
199 130.923 L
200.5 130 L
202 129.1 L
203.5 128.155 L
205 127.21 L
206.5 126.265 L
208 125.297 L
209.5 124.33 L
211 123.317 L
212.5 122.328 L
214 121.315 L
215.5 120.28 L
217 119.245 L
218.5 118.187 L
220 117.13 L
221.5 116.05 L
223 114.97 L
224.5 113.89 L
226 112.787 L
227.5 111.662 L
229 110.538 L
230.5 109.413 L
232 108.243 L
233.5 107.072 L
235 105.902 L
236.5 104.688 L
238 103.495 L
239.5 102.257 L
241 101.02 L
242.5 99.783 L
244 98.523 L
245.5 97.24 L
247 95.957 L
248.5 94.653 L
250 93.347 L
251.5 92.02 L
253 90.693 L
254.5 89.343 L
256 87.993 L
257.5 86.598 L
259 85.202 L
260.5 83.785 L
262 82.345 L
263.5 80.905 L
265 79.442 L
266.5 77.98 L
268 76.495 L
269.5 74.987 L
271 73.48 L
272.5 71.95 L
274 70.42 L
275.5 68.845 L
277 67.293 L
278.5 65.695 L
280 64.097 L
281.5 62.478 L
283 60.835 L
284.5 59.192 L
286 57.505 L
287.5 55.817 L
289 54.108 L
290.5 52.397 L
292 50.665 L
293.5 48.91 L
295 47.132 L
296.5 45.355 L
298 43.555 L
S
GR
GS
[0.75 0 0 0.75 43.5 135.33523] CT
0.914 0.282 0.286 RC
10.0 ML
2.667 LW
N
0 -4 M
0 4 L
-4 0 M
4 0 L
-2.828 -2.828 M
2.828 2.828 L
-2.828 2.828 M
2.828 -2.828 L
S
GR
GS
[0.75 0 0 0.75 60.375 131.32901] CT
0.914 0.282 0.286 RC
10.0 ML
2.667 LW
N
0 -4 M
0 4 L
-4 0 M
4 0 L
-2.828 -2.828 M
2.828 2.828 L
-2.828 2.828 M
2.828 -2.828 L
S
GR
GS
[0.75 0 0 0.75 77.25 126.79305] CT
0.914 0.282 0.286 RC
10.0 ML
2.667 LW
N
0 -4 M
0 4 L
-4 0 M
4 0 L
-2.828 -2.828 M
2.828 2.828 L
-2.828 2.828 M
2.828 -2.828 L
S
GR
GS
[0.75 0 0 0.75 94.125 121.50468] CT
0.914 0.282 0.286 RC
10.0 ML
2.667 LW
N
0 -4 M
0 4 L
-4 0 M
4 0 L
-2.828 -2.828 M
2.828 2.828 L
-2.828 2.828 M
2.828 -2.828 L
S
GR
GS
[0.75 0 0 0.75 111 115.2294] CT
0.914 0.282 0.286 RC
10.0 ML
2.667 LW
N
0 -4 M
0 4 L
-4 0 M
4 0 L
-2.828 -2.828 M
2.828 2.828 L
-2.828 2.828 M
2.828 -2.828 L
S
GR
GS
[0.75 0 0 0.75 127.875 107.72834] CT
0.914 0.282 0.286 RC
10.0 ML
2.667 LW
N
0 -4 M
0 4 L
-4 0 M
4 0 L
-2.828 -2.828 M
2.828 2.828 L
-2.828 2.828 M
2.828 -2.828 L
S
GR
GS
[0.75 0 0 0.75 144.75 98.76082] CT
0.914 0.282 0.286 RC
10.0 ML
2.667 LW
N
0 -4 M
0 4 L
-4 0 M
4 0 L
-2.828 -2.828 M
2.828 2.828 L
-2.828 2.828 M
2.828 -2.828 L
S
GR
GS
[0.75 0 0 0.75 161.625 88.08535] CT
0.914 0.282 0.286 RC
10.0 ML
2.667 LW
N
0 -4 M
0 4 L
-4 0 M
4 0 L
-2.828 -2.828 M
2.828 2.828 L
-2.828 2.828 M
2.828 -2.828 L
S
GR
GS
[0.75 0 0 0.75 178.5 75.45971] CT
0.914 0.282 0.286 RC
10.0 ML
2.667 LW
N
0 -4 M
0 4 L
-4 0 M
4 0 L
-2.828 -2.828 M
2.828 2.828 L
-2.828 2.828 M
2.828 -2.828 L
S
GR
GS
[0.75 0 0 0.75 195.375 60.64121] CT
0.914 0.282 0.286 RC
10.0 ML
2.667 LW
N
0 -4 M
0 4 L
-4 0 M
4 0 L
-2.828 -2.828 M
2.828 2.828 L
-2.828 2.828 M
2.828 -2.828 L
S
GR
GS
[0.75 0 0 0.75 212.25 43.38682] CT
0.914 0.282 0.286 RC
10.0 ML
2.667 LW
N
0 -4 M
0 4 L
-4 0 M
4 0 L
-2.828 -2.828 M
2.828 2.828 L
-2.828 2.828 M
2.828 -2.828 L
S
GR
GS
[0.75 0 0 0.75 0 0] CT
0.914 0.282 0.286 RC
1 LJ
2.667 LW
N
58 180.49 M
59.5 180.153 L
61 179.793 L
62.5 179.455 L
64 179.095 L
65.5 178.758 L
67 178.397 L
68.5 178.037 L
70 177.677 L
71.5 177.317 L
73 176.958 L
74.5 176.598 L
76 176.238 L
77.5 175.855 L
79 175.495 L
80.5 175.112 L
82 174.73 L
83.5 174.348 L
85 173.965 L
86.5 173.583 L
88 173.2 L
89.5 172.795 L
91 172.39 L
92.5 171.985 L
94 171.58 L
95.5 171.175 L
97 170.748 L
98.5 170.342 L
100 169.915 L
101.5 169.488 L
103 169.06 L
104.5 168.61 L
106 168.183 L
107.5 167.732 L
109 167.282 L
110.5 166.833 L
112 166.382 L
113.5 165.91 L
115 165.437 L
116.5 164.965 L
118 164.47 L
119.5 163.998 L
121 163.502 L
122.5 163.008 L
124 162.512 L
125.5 161.995 L
127 161.477 L
128.5 160.982 L
130 160.443 L
131.5 159.925 L
133 159.385 L
134.5 158.845 L
136 158.282 L
137.5 157.72 L
139 157.158 L
140.5 156.595 L
142 156.01 L
143.5 155.425 L
145 154.84 L
146.5 154.233 L
148 153.648 L
149.5 153.04 L
151 152.41 L
152.5 151.802 L
154 151.15 L
155.5 150.52 L
157 149.867 L
158.5 149.192 L
160 148.54 L
161.5 147.865 L
163 147.168 L
164.5 146.493 L
166 145.795 L
167.5 145.075 L
169 144.355 L
170.5 143.635 L
172 142.915 L
173.5 142.172 L
175 141.43 L
176.5 140.665 L
178 139.9 L
179.5 139.113 L
181 138.325 L
182.5 137.538 L
184 136.727 L
185.5 135.918 L
187 135.085 L
188.5 134.253 L
190 133.397 L
191.5 132.542 L
193 131.688 L
194.5 130.81 L
196 129.932 L
197.5 129.055 L
199 128.133 L
200.5 127.232 L
202 126.287 L
203.5 125.342 L
205 124.397 L
206.5 123.452 L
208 122.462 L
209.5 121.495 L
211 120.505 L
212.5 119.492 L
214 118.48 L
215.5 117.468 L
217 116.433 L
218.5 115.375 L
220 114.317 L
221.5 113.238 L
223 112.158 L
224.5 111.055 L
226 109.953 L
227.5 108.827 L
229 107.68 L
230.5 106.532 L
232 105.385 L
233.5 104.215 L
235 103.023 L
236.5 101.83 L
238 100.615 L
239.5 99.4 L
241 98.185 L
242.5 96.925 L
244 95.665 L
245.5 94.382 L
247 93.078 L
248.5 91.772 L
250 90.468 L
251.5 89.14 L
253 87.79 L
254.5 86.44 L
256 85.068 L
257.5 83.673 L
259 82.277 L
260.5 80.86 L
262 79.442 L
263.5 78.002 L
265 76.54 L
266.5 75.055 L
268 73.57 L
269.5 72.063 L
271 70.555 L
272.5 69.002 L
274 67.45 L
275.5 65.898 L
277 64.322 L
278.5 62.725 L
280 61.105 L
281.5 59.485 L
283 57.865 L
284.5 56.2 L
286 54.535 L
287.5 52.848 L
289 51.137 L
290.5 49.405 L
292 47.672 L
293.5 45.895 L
295 44.14 L
296.5 42.34 L
298 40.54 L
S
GR
GS
[0.75 0 0 0.75 43.5 133.18127] CT
0.443 0.749 0.431 RC
10.0 ML
2.667 LW
N
0 -4 M
0 4 L
-4 0 M
4 0 L
-2.828 -2.828 M
2.828 2.828 L
-2.828 2.828 M
2.828 -2.828 L
S
GR
GS
[0.75 0 0 0.75 60.375 129.22055] CT
0.443 0.749 0.431 RC
10.0 ML
2.667 LW
N
0 -4 M
0 4 L
-4 0 M
4 0 L
-2.828 -2.828 M
2.828 2.828 L
-2.828 2.828 M
2.828 -2.828 L
S
GR
GS
[0.75 0 0 0.75 77.25 124.70945] CT
0.443 0.749 0.431 RC
10.0 ML
2.667 LW
N
0 -4 M
0 4 L
-4 0 M
4 0 L
-2.828 -2.828 M
2.828 2.828 L
-2.828 2.828 M
2.828 -2.828 L
S
GR
GS
[0.75 0 0 0.75 94.125 119.43348] CT
0.443 0.749 0.431 RC
10.0 ML
2.667 LW
N
0 -4 M
0 4 L
-4 0 M
4 0 L
-2.828 -2.828 M
2.828 2.828 L
-2.828 2.828 M
2.828 -2.828 L
S
GR
GS
[0.75 0 0 0.75 111 113.16069] CT
0.443 0.749 0.431 RC
10.0 ML
2.667 LW
N
0 -4 M
0 4 L
-4 0 M
4 0 L
-2.828 -2.828 M
2.828 2.828 L
-2.828 2.828 M
2.828 -2.828 L
S
GR
GS
[0.75 0 0 0.75 127.875 105.65311] CT
0.443 0.749 0.431 RC
10.0 ML
2.667 LW
N
0 -4 M
0 4 L
-4 0 M
4 0 L
-2.828 -2.828 M
2.828 2.828 L
-2.828 2.828 M
2.828 -2.828 L
S
GR
GS
[0.75 0 0 0.75 144.75 96.67078] CT
0.443 0.749 0.431 RC
10.0 ML
2.667 LW
N
0 -4 M
0 4 L
-4 0 M
4 0 L
-2.828 -2.828 M
2.828 2.828 L
-2.828 2.828 M
2.828 -2.828 L
S
GR
GS
[0.75 0 0 0.75 161.625 85.97251] CT
0.443 0.749 0.431 RC
10.0 ML
2.667 LW
N
0 -4 M
0 4 L
-4 0 M
4 0 L
-2.828 -2.828 M
2.828 2.828 L
-2.828 2.828 M
2.828 -2.828 L
S
GR
GS
[0.75 0 0 0.75 178.5 73.31649] CT
0.443 0.749 0.431 RC
10.0 ML
2.667 LW
N
0 -4 M
0 4 L
-4 0 M
4 0 L
-2.828 -2.828 M
2.828 2.828 L
-2.828 2.828 M
2.828 -2.828 L
S
GR
GS
[0.75 0 0 0.75 195.375 58.46017] CT
0.443 0.749 0.431 RC
10.0 ML
2.667 LW
N
0 -4 M
0 4 L
-4 0 M
4 0 L
-2.828 -2.828 M
2.828 2.828 L
-2.828 2.828 M
2.828 -2.828 L
S
GR
GS
[0.75 0 0 0.75 212.25 41.16048] CT
0.443 0.749 0.431 RC
10.0 ML
2.667 LW
N
0 -4 M
0 4 L
-4 0 M
4 0 L
-2.828 -2.828 M
2.828 2.828 L
-2.828 2.828 M
2.828 -2.828 L
S
GR
GS
[0.75 0 0 0.75 0 0] CT
0.443 0.749 0.431 RC
1 LJ
2.667 LW
N
58 177.7 M
59.5 177.362 L
61 177.002 L
62.5 176.665 L
64 176.305 L
65.5 175.945 L
67 175.608 L
68.5 175.248 L
70 174.887 L
71.5 174.527 L
73 174.167 L
74.5 173.785 L
76 173.425 L
77.5 173.065 L
79 172.683 L
80.5 172.3 L
82 171.917 L
83.5 171.535 L
85 171.153 L
86.5 170.77 L
88 170.388 L
89.5 169.982 L
91 169.577 L
92.5 169.173 L
94 168.768 L
95.5 168.362 L
97 167.935 L
98.5 167.53 L
100 167.102 L
101.5 166.675 L
103 166.248 L
104.5 165.798 L
106 165.37 L
107.5 164.92 L
109 164.47 L
110.5 164.02 L
112 163.57 L
113.5 163.097 L
115 162.648 L
116.5 162.152 L
118 161.68 L
119.5 161.185 L
121 160.713 L
122.5 160.195 L
124 159.7 L
125.5 159.205 L
127 158.688 L
128.5 158.17 L
130 157.652 L
131.5 157.135 L
133 156.595 L
134.5 156.055 L
136 155.493 L
137.5 154.93 L
139 154.367 L
140.5 153.805 L
142 153.22 L
143.5 152.635 L
145 152.05 L
146.5 151.465 L
148 150.857 L
149.5 150.25 L
151 149.62 L
152.5 149.012 L
154 148.383 L
155.5 147.73 L
157 147.077 L
158.5 146.425 L
160 145.75 L
161.5 145.075 L
163 144.4 L
164.5 143.702 L
166 143.005 L
167.5 142.308 L
169 141.587 L
170.5 140.867 L
172 140.125 L
173.5 139.405 L
175 138.64 L
176.5 137.897 L
178 137.11 L
179.5 136.345 L
181 135.535 L
182.5 134.747 L
184 133.938 L
185.5 133.127 L
187 132.295 L
188.5 131.462 L
190 130.607 L
191.5 129.753 L
193 128.897 L
194.5 128.02 L
196 127.143 L
197.5 126.242 L
199 125.342 L
200.5 124.42 L
202 123.498 L
203.5 122.553 L
205 121.608 L
206.5 120.64 L
208 119.673 L
209.5 118.683 L
211 117.693 L
212.5 116.68 L
214 115.667 L
215.5 114.655 L
217 113.62 L
218.5 112.563 L
220 111.483 L
221.5 110.425 L
223 109.323 L
224.5 108.22 L
226 107.118 L
227.5 105.992 L
229 104.845 L
230.5 103.697 L
232 102.528 L
233.5 101.358 L
235 100.188 L
236.5 98.995 L
238 97.78 L
239.5 96.543 L
241 95.305 L
242.5 94.045 L
244 92.785 L
245.5 91.502 L
247 90.22 L
248.5 88.915 L
250 87.588 L
251.5 86.26 L
253 84.91 L
254.5 83.537 L
256 82.165 L
257.5 80.792 L
259 79.375 L
260.5 77.958 L
262 76.54 L
263.5 75.077 L
265 73.615 L
266.5 72.13 L
268 70.645 L
269.5 69.138 L
271 67.608 L
272.5 66.077 L
274 64.525 L
275.5 62.95 L
277 61.375 L
278.5 59.777 L
280 58.18 L
281.5 56.537 L
283 54.895 L
284.5 53.23 L
286 51.542 L
287.5 49.855 L
289 48.145 L
290.5 46.412 L
292 44.657 L
293.5 42.903 L
295 41.125 L
296.5 39.348 L
298 37.525 L
S
GR
GS
[0.75 0 0 0.75 43.5 131.05386] CT
1 0.6 0.2 RC
10.0 ML
2.667 LW
N
0 -4 M
0 4 L
-4 0 M
4 0 L
-2.828 -2.828 M
2.828 2.828 L
-2.828 2.828 M
2.828 -2.828 L
S
GR
GS
[0.75 0 0 0.75 60.375 127.13] CT
1 0.6 0.2 RC
10.0 ML
2.667 LW
N
0 -4 M
0 4 L
-4 0 M
4 0 L
-2.828 -2.828 M
2.828 2.828 L
-2.828 2.828 M
2.828 -2.828 L
S
GR
GS
[0.75 0 0 0.75 77.25 122.63918] CT
1 0.6 0.2 RC
10.0 ML
2.667 LW
N
0 -4 M
0 4 L
-4 0 M
4 0 L
-2.828 -2.828 M
2.828 2.828 L
-2.828 2.828 M
2.828 -2.828 L
S
GR
GS
[0.75 0 0 0.75 94.125 117.37347] CT
1 0.6 0.2 RC
10.0 ML
2.667 LW
N
0 -4 M
0 4 L
-4 0 M
4 0 L
-2.828 -2.828 M
2.828 2.828 L
-2.828 2.828 M
2.828 -2.828 L
S
GR
GS
[0.75 0 0 0.75 111 111.10241] CT
1 0.6 0.2 RC
10.0 ML
2.667 LW
N
0 -4 M
0 4 L
-4 0 M
4 0 L
-2.828 -2.828 M
2.828 2.828 L
-2.828 2.828 M
2.828 -2.828 L
S
GR
GS
[0.75 0 0 0.75 127.875 103.58835] CT
1 0.6 0.2 RC
10.0 ML
2.667 LW
N
0 -4 M
0 4 L
-4 0 M
4 0 L
-2.828 -2.828 M
2.828 2.828 L
-2.828 2.828 M
2.828 -2.828 L
S
GR
GS
[0.75 0 0 0.75 144.75 94.59142] CT
1 0.6 0.2 RC
10.0 ML
2.667 LW
N
0 -4 M
0 4 L
-4 0 M
4 0 L
-2.828 -2.828 M
2.828 2.828 L
-2.828 2.828 M
2.828 -2.828 L
S
GR
GS
[0.75 0 0 0.75 161.625 83.87069] CT
1 0.6 0.2 RC
10.0 ML
2.667 LW
N
0 -4 M
0 4 L
-4 0 M
4 0 L
-2.828 -2.828 M
2.828 2.828 L
-2.828 2.828 M
2.828 -2.828 L
S
GR
GS
[0.75 0 0 0.75 178.5 71.1847] CT
1 0.6 0.2 RC
10.0 ML
2.667 LW
N
0 -4 M
0 4 L
-4 0 M
4 0 L
-2.828 -2.828 M
2.828 2.828 L
-2.828 2.828 M
2.828 -2.828 L
S
GR
GS
[0.75 0 0 0.75 195.375 56.29104] CT
1 0.6 0.2 RC
10.0 ML
2.667 LW
N
0 -4 M
0 4 L
-4 0 M
4 0 L
-2.828 -2.828 M
2.828 2.828 L
-2.828 2.828 M
2.828 -2.828 L
S
GR
GS
[0.75 0 0 0.75 212.25 38.94645] CT
1 0.6 0.2 RC
10.0 ML
2.667 LW
N
0 -4 M
0 4 L
-4 0 M
4 0 L
-2.828 -2.828 M
2.828 2.828 L
-2.828 2.828 M
2.828 -2.828 L
S
GR
GS
[0.75 0 0 0.75 0 0] CT
1 0.6 0.2 RC
1 LJ
2.667 LW
N
58 175 M
59.5 174.651 L
61 174.303 L
62.5 173.943 L
64 173.583 L
65.5 173.234 L
67 172.885 L
68.5 172.514 L
70 172.142 L
71.5 171.783 L
73 171.423 L
74.5 171.051 L
76 170.68 L
77.5 170.297 L
79 169.937 L
80.5 169.544 L
82 169.173 L
83.5 168.768 L
85 168.385 L
86.5 168.002 L
88 167.598 L
89.5 167.215 L
91 166.81 L
92.5 166.405 L
94 166 L
95.5 165.573 L
97 165.167 L
98.5 164.74 L
100 164.313 L
101.5 163.885 L
103 163.457 L
104.5 163.03 L
106 162.58 L
107.5 162.141 L
109 161.68 L
110.5 161.23 L
112 160.78 L
113.5 160.307 L
115 159.835 L
116.5 159.374 L
118 158.89 L
119.5 158.406 L
121 157.922 L
122.5 157.416 L
124 156.933 L
125.5 156.426 L
127 155.898 L
128.5 155.391 L
130 154.863 L
131.5 154.334 L
133 153.805 L
134.5 153.265 L
136 152.703 L
137.5 152.151 L
139 151.6 L
140.5 151.015 L
142 150.453 L
143.5 149.867 L
145 149.282 L
146.5 148.675 L
148 148.09 L
149.5 147.46 L
151 146.853 L
152.5 146.223 L
154 145.593 L
155.5 144.94 L
157 144.288 L
158.5 143.635 L
160 142.983 L
161.5 142.308 L
163 141.633 L
164.5 140.924 L
166 140.237 L
167.5 139.529 L
169 138.82 L
170.5 138.089 L
172 137.357 L
173.5 136.615 L
175 135.873 L
176.5 135.107 L
178 134.342 L
179.5 133.555 L
181 132.767 L
182.5 131.969 L
184 131.17 L
185.5 130.338 L
187 129.527 L
188.5 128.684 L
190 127.84 L
191.5 126.985 L
193 126.108 L
194.5 125.241 L
196 124.352 L
197.5 123.464 L
199 122.553 L
200.5 121.619 L
202 120.708 L
203.5 119.762 L
205 118.817 L
206.5 117.85 L
208 116.882 L
209.5 115.892 L
211 114.903 L
212.5 113.89 L
214 112.855 L
215.5 111.842 L
217 110.785 L
218.5 109.739 L
220 108.67 L
221.5 107.601 L
223 106.51 L
224.5 105.407 L
226 104.283 L
227.5 103.169 L
229 102.032 L
230.5 100.874 L
232 99.715 L
233.5 98.545 L
235 97.352 L
236.5 96.138 L
238 94.922 L
239.5 93.708 L
241 92.447 L
242.5 91.199 L
244 89.927 L
245.5 88.656 L
247 87.363 L
248.5 86.046 L
250 84.73 L
251.5 83.391 L
253 82.03 L
254.5 80.669 L
256 79.285 L
257.5 77.901 L
259 76.495 L
260.5 75.077 L
262 73.638 L
263.5 72.186 L
265 70.713 L
266.5 69.239 L
268 67.742 L
269.5 66.224 L
271 64.705 L
272.5 63.164 L
274 61.6 L
275.5 60.036 L
277 58.45 L
278.5 56.852 L
280 55.233 L
281.5 53.59 L
283 51.947 L
284.5 50.271 L
286 48.595 L
287.5 46.896 L
289 45.175 L
290.5 43.454 L
292 41.71 L
293.5 39.932 L
295 38.155 L
296.5 36.355 L
298 34.533 L
S
GR
GS
[0.75 0 0 0.75 43.5 128.95172] CT
0.678 0.443 0.71 RC
10.0 ML
2.667 LW
N
0 -4 M
0 4 L
-4 0 M
4 0 L
-2.828 -2.828 M
2.828 2.828 L
-2.828 2.828 M
2.828 -2.828 L
S
GR
GS
[0.75 0 0 0.75 60.375 125.05623] CT
0.678 0.443 0.71 RC
10.0 ML
2.667 LW
N
0 -4 M
0 4 L
-4 0 M
4 0 L
-2.828 -2.828 M
2.828 2.828 L
-2.828 2.828 M
2.828 -2.828 L
S
GR
GS
[0.75 0 0 0.75 77.25 120.58105] CT
0.678 0.443 0.71 RC
10.0 ML
2.667 LW
N
0 -4 M
0 4 L
-4 0 M
4 0 L
-2.828 -2.828 M
2.828 2.828 L
-2.828 2.828 M
2.828 -2.828 L
S
GR
GS
[0.75 0 0 0.75 94.125 115.32351] CT
0.678 0.443 0.71 RC
10.0 ML
2.667 LW
N
0 -4 M
0 4 L
-4 0 M
4 0 L
-2.828 -2.828 M
2.828 2.828 L
-2.828 2.828 M
2.828 -2.828 L
S
GR
GS
[0.75 0 0 0.75 111 109.05353] CT
0.678 0.443 0.71 RC
10.0 ML
2.667 LW
N
0 -4 M
0 4 L
-4 0 M
4 0 L
-2.828 -2.828 M
2.828 2.828 L
-2.828 2.828 M
2.828 -2.828 L
S
GR
GS
[0.75 0 0 0.75 127.875 101.53292] CT
0.678 0.443 0.71 RC
10.0 ML
2.667 LW
N
0 -4 M
0 4 L
-4 0 M
4 0 L
-2.828 -2.828 M
2.828 2.828 L
-2.828 2.828 M
2.828 -2.828 L
S
GR
GS
[0.75 0 0 0.75 144.75 92.52162] CT
0.678 0.443 0.71 RC
10.0 ML
2.667 LW
N
0 -4 M
0 4 L
-4 0 M
4 0 L
-2.828 -2.828 M
2.828 2.828 L
-2.828 2.828 M
2.828 -2.828 L
S
GR
GS
[0.75 0 0 0.75 161.625 81.77889] CT
0.678 0.443 0.71 RC
10.0 ML
2.667 LW
N
0 -4 M
0 4 L
-4 0 M
4 0 L
-2.828 -2.828 M
2.828 2.828 L
-2.828 2.828 M
2.828 -2.828 L
S
GR
GS
[0.75 0 0 0.75 178.5 69.06329] CT
0.678 0.443 0.71 RC
10.0 ML
2.667 LW
N
0 -4 M
0 4 L
-4 0 M
4 0 L
-2.828 -2.828 M
2.828 2.828 L
-2.828 2.828 M
2.828 -2.828 L
S
GR
GS
[0.75 0 0 0.75 195.375 54.13261] CT
0.678 0.443 0.71 RC
10.0 ML
2.667 LW
N
0 -4 M
0 4 L
-4 0 M
4 0 L
-2.828 -2.828 M
2.828 2.828 L
-2.828 2.828 M
2.828 -2.828 L
S
GR
GS
[0.75 0 0 0.75 212.25 36.74369] CT
0.678 0.443 0.71 RC
10.0 ML
2.667 LW
N
0 -4 M
0 4 L
-4 0 M
4 0 L
-2.828 -2.828 M
2.828 2.828 L
-2.828 2.828 M
2.828 -2.828 L
S
GR
GS
[0.75 0 0 0.75 0 0] CT
0.678 0.443 0.71 RC
1 LJ
2.667 LW
N
58 172.39 M
59.5 172.03 L
61 171.674 L
62.5 171.31 L
64 170.959 L
65.5 170.59 L
67 170.23 L
68.5 169.87 L
70 169.506 L
71.5 169.136 L
73 168.768 L
74.5 168.385 L
76 168.007 L
77.5 167.62 L
79 167.237 L
80.5 166.855 L
82 166.473 L
83.5 166.09 L
85 165.685 L
86.5 165.28 L
88 164.898 L
89.5 164.493 L
91 164.087 L
92.5 163.683 L
94 163.255 L
95.5 162.85 L
97 162.423 L
98.5 161.995 L
100 161.568 L
101.5 161.14 L
103 160.69 L
104.5 160.263 L
106 159.83 L
107.5 159.385 L
109 158.926 L
110.5 158.463 L
112 157.999 L
113.5 157.535 L
115 157.068 L
116.5 156.586 L
118 156.1 L
119.5 155.614 L
121 155.128 L
122.5 154.642 L
124 154.133 L
125.5 153.625 L
127 153.117 L
128.5 152.585 L
130 152.059 L
131.5 151.537 L
133 150.993 L
134.5 150.448 L
136 149.903 L
137.5 149.359 L
139 148.792 L
140.5 148.225 L
142 147.658 L
143.5 147.068 L
145 146.479 L
146.5 145.88 L
148 145.278 L
149.5 144.666 L
151 144.049 L
152.5 143.424 L
154 142.784 L
155.5 142.15 L
157 141.503 L
158.5 140.854 L
160 140.184 L
161.5 139.503 L
163 138.82 L
164.5 138.137 L
166 137.429 L
167.5 136.723 L
169 136.016 L
170.5 135.287 L
172 134.559 L
173.5 133.825 L
175 133.078 L
176.5 132.317 L
178 131.553 L
179.5 130.766 L
181 129.977 L
182.5 129.168 L
184 128.357 L
185.5 127.547 L
187 126.716 L
188.5 125.882 L
190 125.05 L
191.5 124.185 L
193 123.317 L
194.5 122.45 L
196 121.558 L
197.5 120.667 L
199 119.753 L
200.5 118.817 L
202 117.891 L
203.5 116.963 L
205 116.01 L
206.5 115.041 L
208 114.07 L
209.5 113.085 L
211 112.099 L
212.5 111.087 L
214 110.06 L
215.5 109.03 L
217 107.978 L
218.5 106.924 L
220 105.853 L
221.5 104.772 L
223 103.697 L
224.5 102.587 L
226 101.474 L
227.5 100.341 L
229 99.206 L
230.5 98.05 L
232 96.881 L
233.5 95.71 L
235 94.518 L
236.5 93.302 L
238 92.087 L
239.5 90.851 L
241 89.612 L
242.5 88.358 L
244 87.082 L
245.5 85.81 L
247 84.515 L
248.5 83.195 L
250 81.86 L
251.5 80.526 L
253 79.173 L
254.5 77.797 L
256 76.418 L
257.5 75.02 L
259 73.609 L
260.5 72.198 L
262 70.763 L
263.5 69.303 L
265 67.824 L
266.5 66.342 L
268 64.84 L
269.5 63.325 L
271 61.784 L
272.5 60.246 L
274 58.683 L
275.5 57.123 L
277 55.526 L
278.5 53.927 L
280 52.308 L
281.5 50.655 L
283 49 L
284.5 47.323 L
286 45.642 L
287.5 43.943 L
289 42.217 L
290.5 40.472 L
292 38.737 L
293.5 36.957 L
295 35.172 L
296.5 33.379 L
298 31.562 L
S
GR
GS
[0.75 0 0 0.75 133.5 165.00002] CT
0.149 GC
/Times-Roman 14.667 F
GS
[1 0 0 1 0 0] CT
-14.5 14 moveto 
1 -1 scale
(SOC) t 
GR
GR
GS
[0 -0.75 0.75 0 16.5 84] CT
0.149 GC
/Times-Roman 14.667 F
GS
[1 0 0 1 0 0] CT
-34.5 0 moveto 
1 -1 scale
(Voltage / V) t 
GR
GR
GS
[0.75 0 0 0.75 0 0] CT
1 GC
N
188 66 M
188 29 L
63 29 L
63 66 L
cp
f
GR
GS
[0.75 0 0 0.75 82.5 29.35274] CT
/Times-Roman 13.333 F
GS
[1 0 0 1 0 0] CT
0 5 moveto 
1 -1 scale
(Model Fitting) t 
GR
GR
GS
[0.75 0 0 0.75 65.25 29.35274] CT
0.345 0.537 0.69 RC
10.0 ML
2.667 LW
N
0 -4 M
0 4 L
-4 0 M
4 0 L
-2.828 -2.828 M
2.828 2.828 L
-2.828 2.828 M
2.828 -2.828 L
S
GR
GS
[0.75 0 0 0.75 82.5 41.89726] CT
/Times-Roman 13.333 F
GS
[1 0 0 1 0 0] CT
0 5 moveto 
1 -1 scale
(Test) t 
GR
GR
GS
[0.75 0 0 0.75 0 0] CT
0.345 0.537 0.69 RC
1 LJ
2.667 LW
N
67 55.863 M
107 55.863 L
S
GR
GS
[0.75 0 0 0.75 0 0] CT
1 GC
10.0 ML
0.667 LW
N
63 66 M
63 29 L
188 29 L
188 66 L
cp
S
GR
%%Trailer
%%Pages: 1
%%EOF
