%!PS-Adobe-3.0 EPSF-3.0
%%Creator: (MATLAB, The Mathworks, Inc. Version 9.3.0.713579 \(R2017b\). Operating System: Windows 7)
%%Title: F:/Lab/Git/Git_LMPROM2/Figures/Rss_anode.eps
%%CreationDate: 2018-09-18T16:57:28
%%Pages: (atend)
%%BoundingBox: 0 0 240 180
%%LanguageLevel: 3
%%EndComments
%%BeginProlog
%%BeginResource: procset (Apache XML Graphics Std ProcSet) 1.2 0
%%Version: 1.2 0
%%Copyright: (Copyright 2001-2003,2010 The Apache Software Foundation. License terms: http://www.apache.org/licenses/LICENSE-2.0)
/bd{bind def}bind def
/ld{load def}bd
/GR/grestore ld
/GS/gsave ld
/RM/rmoveto ld
/C/curveto ld
/t/show ld
/L/lineto ld
/ML/setmiterlimit ld
/CT/concat ld
/f/fill ld
/N/newpath ld
/S/stroke ld
/CC/setcmykcolor ld
/A/ashow ld
/cp/closepath ld
/RC/setrgbcolor ld
/LJ/setlinejoin ld
/GC/setgray ld
/LW/setlinewidth ld
/M/moveto ld
/re {4 2 roll M
1 index 0 rlineto
0 exch rlineto
neg 0 rlineto
cp } bd
/_ctm matrix def
/_tm matrix def
/BT { _ctm currentmatrix pop matrix _tm copy pop 0 0 moveto } bd
/ET { _ctm setmatrix } bd
/iTm { _ctm setmatrix _tm concat } bd
/Tm { _tm astore pop iTm 0 0 moveto } bd
/ux 0.0 def
/uy 0.0 def
/F {
  /Tp exch def
  /Tf exch def
  Tf findfont Tp scalefont setfont
  /cf Tf def  /cs Tp def
} bd
/ULS {currentpoint /uy exch def /ux exch def} bd
/ULE {
  /Tcx currentpoint pop def
  gsave
  newpath
  cf findfont cs scalefont dup
  /FontMatrix get 0 get /Ts exch def /FontInfo get dup
  /UnderlinePosition get Ts mul /To exch def
  /UnderlineThickness get Ts mul /Tt exch def
  ux uy To add moveto  Tcx uy To add lineto
  Tt setlinewidth stroke
  grestore
} bd
/OLE {
  /Tcx currentpoint pop def
  gsave
  newpath
  cf findfont cs scalefont dup
  /FontMatrix get 0 get /Ts exch def /FontInfo get dup
  /UnderlinePosition get Ts mul /To exch def
  /UnderlineThickness get Ts mul /Tt exch def
  ux uy To add cs add moveto Tcx uy To add cs add lineto
  Tt setlinewidth stroke
  grestore
} bd
/SOE {
  /Tcx currentpoint pop def
  gsave
  newpath
  cf findfont cs scalefont dup
  /FontMatrix get 0 get /Ts exch def /FontInfo get dup
  /UnderlinePosition get Ts mul /To exch def
  /UnderlineThickness get Ts mul /Tt exch def
  ux uy To add cs 10 mul 26 idiv add moveto Tcx uy To add cs 10 mul 26 idiv add lineto
  Tt setlinewidth stroke
  grestore
} bd
/QT {
/Y22 exch store
/X22 exch store
/Y21 exch store
/X21 exch store
currentpoint
/Y21 load 2 mul add 3 div exch
/X21 load 2 mul add 3 div exch
/X21 load 2 mul /X22 load add 3 div
/Y21 load 2 mul /Y22 load add 3 div
/X22 load /Y22 load curveto
} bd
/SSPD {
dup length /d exch dict def
{
/v exch def
/k exch def
currentpagedevice k known {
/cpdv currentpagedevice k get def
v cpdv ne {
/upd false def
/nullv v type /nulltype eq def
/nullcpdv cpdv type /nulltype eq def
nullv nullcpdv or
{
/upd true def
} {
/sametype v type cpdv type eq def
sametype {
v type /arraytype eq {
/vlen v length def
/cpdvlen cpdv length def
vlen cpdvlen eq {
0 1 vlen 1 sub {
/i exch def
/obj v i get def
/cpdobj cpdv i get def
obj cpdobj ne {
/upd true def
exit
} if
} for
} {
/upd true def
} ifelse
} {
v type /dicttype eq {
v {
/dv exch def
/dk exch def
/cpddv cpdv dk get def
dv cpddv ne {
/upd true def
exit
} if
} forall
} {
/upd true def
} ifelse
} ifelse
} if
} ifelse
upd true eq {
d k v put
} if
} if
} if
} forall
d length 0 gt {
d setpagedevice
} if
} bd
/RE { % /NewFontName [NewEncodingArray] /FontName RE -
  findfont dup length dict begin
  {
    1 index /FID ne
    {def} {pop pop} ifelse
  } forall
  /Encoding exch def
  /FontName 1 index def
  currentdict definefont pop
  end
} bind def
%%EndResource
%%BeginResource: procset (Apache XML Graphics EPS ProcSet) 1.0 0
%%Version: 1.0 0
%%Copyright: (Copyright 2002-2003 The Apache Software Foundation. License terms: http://www.apache.org/licenses/LICENSE-2.0)
/BeginEPSF { %def
/b4_Inc_state save def         % Save state for cleanup
/dict_count countdictstack def % Count objects on dict stack
/op_count count 1 sub def      % Count objects on operand stack
userdict begin                 % Push userdict on dict stack
/showpage { } def              % Redefine showpage, { } = null proc
0 setgray 0 setlinecap         % Prepare graphics state
1 setlinewidth 0 setlinejoin
10 setmiterlimit [ ] 0 setdash newpath
/languagelevel where           % If level not equal to 1 then
{pop languagelevel             % set strokeadjust and
1 ne                           % overprint to their defaults.
{false setstrokeadjust false setoverprint
} if
} if
} bd
/EndEPSF { %def
count op_count sub {pop} repeat            % Clean up stacks
countdictstack dict_count sub {end} repeat
b4_Inc_state restore
} bd
%%EndResource
%FOPBeginFontDict
%%IncludeResource: font Courier-Oblique
%%IncludeResource: font Courier-BoldOblique
%%IncludeResource: font Courier-Bold
%%IncludeResource: font ZapfDingbats
%%IncludeResource: font Symbol
%%IncludeResource: font Helvetica
%%IncludeResource: font Helvetica-Oblique
%%IncludeResource: font Helvetica-Bold
%%IncludeResource: font Helvetica-BoldOblique
%%IncludeResource: font Times-Roman
%%IncludeResource: font Times-Italic
%%IncludeResource: font Times-Bold
%%IncludeResource: font Times-BoldItalic
%%IncludeResource: font Courier
%FOPEndFontDict
%%BeginResource: encoding WinAnsiEncoding
/WinAnsiEncoding [
/.notdef /.notdef /.notdef /.notdef /.notdef
/.notdef /.notdef /.notdef /.notdef /.notdef
/.notdef /.notdef /.notdef /.notdef /.notdef
/.notdef /.notdef /.notdef /.notdef /.notdef
/.notdef /.notdef /.notdef /.notdef /.notdef
/.notdef /.notdef /.notdef /.notdef /.notdef
/.notdef /.notdef /space /exclam /quotedbl
/numbersign /dollar /percent /ampersand /quotesingle
/parenleft /parenright /asterisk /plus /comma
/hyphen /period /slash /zero /one
/two /three /four /five /six
/seven /eight /nine /colon /semicolon
/less /equal /greater /question /at
/A /B /C /D /E
/F /G /H /I /J
/K /L /M /N /O
/P /Q /R /S /T
/U /V /W /X /Y
/Z /bracketleft /backslash /bracketright /asciicircum
/underscore /quoteleft /a /b /c
/d /e /f /g /h
/i /j /k /l /m
/n /o /p /q /r
/s /t /u /v /w
/x /y /z /braceleft /bar
/braceright /asciitilde /bullet /Euro /bullet
/quotesinglbase /florin /quotedblbase /ellipsis /dagger
/daggerdbl /circumflex /perthousand /Scaron /guilsinglleft
/OE /bullet /Zcaron /bullet /bullet
/quoteleft /quoteright /quotedblleft /quotedblright /bullet
/endash /emdash /asciitilde /trademark /scaron
/guilsinglright /oe /bullet /zcaron /Ydieresis
/space /exclamdown /cent /sterling /currency
/yen /brokenbar /section /dieresis /copyright
/ordfeminine /guillemotleft /logicalnot /sfthyphen /registered
/macron /degree /plusminus /twosuperior /threesuperior
/acute /mu /paragraph /middot /cedilla
/onesuperior /ordmasculine /guillemotright /onequarter /onehalf
/threequarters /questiondown /Agrave /Aacute /Acircumflex
/Atilde /Adieresis /Aring /AE /Ccedilla
/Egrave /Eacute /Ecircumflex /Edieresis /Igrave
/Iacute /Icircumflex /Idieresis /Eth /Ntilde
/Ograve /Oacute /Ocircumflex /Otilde /Odieresis
/multiply /Oslash /Ugrave /Uacute /Ucircumflex
/Udieresis /Yacute /Thorn /germandbls /agrave
/aacute /acircumflex /atilde /adieresis /aring
/ae /ccedilla /egrave /eacute /ecircumflex
/edieresis /igrave /iacute /icircumflex /idieresis
/eth /ntilde /ograve /oacute /ocircumflex
/otilde /odieresis /divide /oslash /ugrave
/uacute /ucircumflex /udieresis /yacute /thorn
/ydieresis
] def
%%EndResource
%FOPBeginFontReencode
/Courier-Oblique findfont
dup length dict begin
  {1 index /FID ne {def} {pop pop} ifelse} forall
  /Encoding WinAnsiEncoding def
  currentdict
end
/Courier-Oblique exch definefont pop
/Courier-BoldOblique findfont
dup length dict begin
  {1 index /FID ne {def} {pop pop} ifelse} forall
  /Encoding WinAnsiEncoding def
  currentdict
end
/Courier-BoldOblique exch definefont pop
/Courier-Bold findfont
dup length dict begin
  {1 index /FID ne {def} {pop pop} ifelse} forall
  /Encoding WinAnsiEncoding def
  currentdict
end
/Courier-Bold exch definefont pop
/Helvetica findfont
dup length dict begin
  {1 index /FID ne {def} {pop pop} ifelse} forall
  /Encoding WinAnsiEncoding def
  currentdict
end
/Helvetica exch definefont pop
/Helvetica-Oblique findfont
dup length dict begin
  {1 index /FID ne {def} {pop pop} ifelse} forall
  /Encoding WinAnsiEncoding def
  currentdict
end
/Helvetica-Oblique exch definefont pop
/Helvetica-Bold findfont
dup length dict begin
  {1 index /FID ne {def} {pop pop} ifelse} forall
  /Encoding WinAnsiEncoding def
  currentdict
end
/Helvetica-Bold exch definefont pop
/Helvetica-BoldOblique findfont
dup length dict begin
  {1 index /FID ne {def} {pop pop} ifelse} forall
  /Encoding WinAnsiEncoding def
  currentdict
end
/Helvetica-BoldOblique exch definefont pop
/Times-Roman findfont
dup length dict begin
  {1 index /FID ne {def} {pop pop} ifelse} forall
  /Encoding WinAnsiEncoding def
  currentdict
end
/Times-Roman exch definefont pop
/Times-Italic findfont
dup length dict begin
  {1 index /FID ne {def} {pop pop} ifelse} forall
  /Encoding WinAnsiEncoding def
  currentdict
end
/Times-Italic exch definefont pop
/Times-Bold findfont
dup length dict begin
  {1 index /FID ne {def} {pop pop} ifelse} forall
  /Encoding WinAnsiEncoding def
  currentdict
end
/Times-Bold exch definefont pop
/Times-BoldItalic findfont
dup length dict begin
  {1 index /FID ne {def} {pop pop} ifelse} forall
  /Encoding WinAnsiEncoding def
  currentdict
end
/Times-BoldItalic exch definefont pop
/Courier findfont
dup length dict begin
  {1 index /FID ne {def} {pop pop} ifelse} forall
  /Encoding WinAnsiEncoding def
  currentdict
end
/Courier exch definefont pop
%FOPEndFontReencode
%%EndProlog
%%Page: 1 1
%%PageBoundingBox: 0 0 240 180
%%BeginPageSetup
[1 0 0 -1 0 180] CT
%%EndPageSetup
GS
[0.75 0 0 0.75 0 0] CT
1 GC
N
0 0 320 240 re
f
GR
GS
[0.75 0 0 0.75 0 0] CT
1 GC
N
0 0 320 240 re
f
GR
GS
[0.75 0 0 0.75 0 0] CT
1 GC
N
58 202 M
298 202 L
298 22 L
58 22 L
cp
f
GR
GS
[0.75 0 0 0.75 0 0] CT
0.149 GC
2 setlinecap
1 LJ
0.667 LW
N
58 202 M
298 202 L
S
GR
GS
[0.75 0 0 0.75 0 0] CT
0.149 GC
2 setlinecap
1 LJ
0.667 LW
N
58 22 M
298 22 L
S
GR
GS
[0.75 0 0 0.75 0 0] CT
0.149 GC
2 setlinecap
1 LJ
0.667 LW
N
58 202 M
58 199.6 L
S
GR
GS
[0.75 0 0 0.75 0 0] CT
0.149 GC
2 setlinecap
1 LJ
0.667 LW
N
118 202 M
118 199.6 L
S
GR
GS
[0.75 0 0 0.75 0 0] CT
0.149 GC
2 setlinecap
1 LJ
0.667 LW
N
178 202 M
178 199.6 L
S
GR
GS
[0.75 0 0 0.75 0 0] CT
0.149 GC
2 setlinecap
1 LJ
0.667 LW
N
238 202 M
238 199.6 L
S
GR
GS
[0.75 0 0 0.75 0 0] CT
0.149 GC
2 setlinecap
1 LJ
0.667 LW
N
298 202 M
298 199.6 L
S
GR
GS
[0.75 0 0 0.75 0 0] CT
0.149 GC
2 setlinecap
1 LJ
0.667 LW
N
58 22 M
58 24.4 L
S
GR
GS
[0.75 0 0 0.75 0 0] CT
0.149 GC
2 setlinecap
1 LJ
0.667 LW
N
118 22 M
118 24.4 L
S
GR
GS
[0.75 0 0 0.75 0 0] CT
0.149 GC
2 setlinecap
1 LJ
0.667 LW
N
178 22 M
178 24.4 L
S
GR
GS
[0.75 0 0 0.75 0 0] CT
0.149 GC
2 setlinecap
1 LJ
0.667 LW
N
238 22 M
238 24.4 L
S
GR
GS
[0.75 0 0 0.75 0 0] CT
0.149 GC
2 setlinecap
1 LJ
0.667 LW
N
298 22 M
298 24.4 L
S
GR
GS
[0.75 0 0 0.75 43.5 155.5] CT
0.149 GC
/Times-Roman 13.333 F
GS
[1 0 0 1 0 0] CT
-8.5 13 moveto 
1 -1 scale
(0.2) t 
GR
GR
GS
[0.75 0 0 0.75 88.5 155.5] CT
0.149 GC
/Times-Roman 13.333 F
GS
[1 0 0 1 0 0] CT
-8.5 13 moveto 
1 -1 scale
(0.4) t 
GR
GR
GS
[0.75 0 0 0.75 133.5 155.5] CT
0.149 GC
/Times-Roman 13.333 F
GS
[1 0 0 1 0 0] CT
-8.5 13 moveto 
1 -1 scale
(0.6) t 
GR
GR
GS
[0.75 0 0 0.75 178.5 155.5] CT
0.149 GC
/Times-Roman 13.333 F
GS
[1 0 0 1 0 0] CT
-8.5 13 moveto 
1 -1 scale
(0.8) t 
GR
GR
GS
[0.75 0 0 0.75 223.5 155.5] CT
0.149 GC
/Times-Roman 13.333 F
GS
[1 0 0 1 0 0] CT
-3.5 13 moveto 
1 -1 scale
(1) t 
GR
GR
GS
[0.75 0 0 0.75 0 0] CT
0.149 GC
2 setlinecap
1 LJ
0.667 LW
N
58 202 M
58 22 L
S
GR
GS
[0.75 0 0 0.75 0 0] CT
0.149 GC
2 setlinecap
1 LJ
0.667 LW
N
298 202 M
298 22 L
S
GR
GS
[0.75 0 0 0.75 0 0] CT
0.149 GC
2 setlinecap
1 LJ
0.667 LW
N
58 202 M
60.4 202 L
S
GR
GS
[0.75 0 0 0.75 0 0] CT
0.149 GC
2 setlinecap
1 LJ
0.667 LW
N
58 157 M
60.4 157 L
S
GR
GS
[0.75 0 0 0.75 0 0] CT
0.149 GC
2 setlinecap
1 LJ
0.667 LW
N
58 112 M
60.4 112 L
S
GR
GS
[0.75 0 0 0.75 0 0] CT
0.149 GC
2 setlinecap
1 LJ
0.667 LW
N
58 67 M
60.4 67 L
S
GR
GS
[0.75 0 0 0.75 0 0] CT
0.149 GC
2 setlinecap
1 LJ
0.667 LW
N
58 22 M
60.4 22 L
S
GR
GS
[0.75 0 0 0.75 0 0] CT
0.149 GC
2 setlinecap
1 LJ
0.667 LW
N
298 202 M
295.6 202 L
S
GR
GS
[0.75 0 0 0.75 0 0] CT
0.149 GC
2 setlinecap
1 LJ
0.667 LW
N
298 157 M
295.6 157 L
S
GR
GS
[0.75 0 0 0.75 0 0] CT
0.149 GC
2 setlinecap
1 LJ
0.667 LW
N
298 112 M
295.6 112 L
S
GR
GS
[0.75 0 0 0.75 0 0] CT
0.149 GC
2 setlinecap
1 LJ
0.667 LW
N
298 67 M
295.6 67 L
S
GR
GS
[0.75 0 0 0.75 0 0] CT
0.149 GC
2 setlinecap
1 LJ
0.667 LW
N
298 22 M
295.6 22 L
S
GR
GS
[0.75 0 0 0.75 39.5 151.5] CT
0.149 GC
/Times-Roman 13.333 F
GS
[1 0 0 1 0 0] CT
-22 5 moveto 
1 -1 scale
(-0.2) t 
GR
GR
GS
[0.75 0 0 0.75 39.5 117.75] CT
0.149 GC
/Times-Roman 13.333 F
GS
[1 0 0 1 0 0] CT
-7 5 moveto 
1 -1 scale
(0) t 
GR
GR
GS
[0.75 0 0 0.75 39.5 84] CT
0.149 GC
/Times-Roman 13.333 F
GS
[1 0 0 1 0 0] CT
-17 5 moveto 
1 -1 scale
(0.2) t 
GR
GR
GS
[0.75 0 0 0.75 39.5 50.25] CT
0.149 GC
/Times-Roman 13.333 F
GS
[1 0 0 1 0 0] CT
-17 5 moveto 
1 -1 scale
(0.4) t 
GR
GR
GS
[0.75 0 0 0.75 39.5 16.5] CT
0.149 GC
/Times-Roman 13.333 F
GS
[1 0 0 1 0 0] CT
-17 5 moveto 
1 -1 scale
(0.6) t 
GR
GR
GS
[0.75 0 0 0.75 43.5 25.38776] CT
0.345 0.537 0.69 RC
10.0 ML
2.667 LW
N
0 -4 M
0 4 L
-4 0 M
4 0 L
-2.828 -2.828 M
2.828 2.828 L
-2.828 2.828 M
2.828 -2.828 L
S
GR
GS
[0.75 0 0 0.75 60.375 38.02748] CT
0.345 0.537 0.69 RC
10.0 ML
2.667 LW
N
0 -4 M
0 4 L
-4 0 M
4 0 L
-2.828 -2.828 M
2.828 2.828 L
-2.828 2.828 M
2.828 -2.828 L
S
GR
GS
[0.75 0 0 0.75 77.25 49.35674] CT
0.345 0.537 0.69 RC
10.0 ML
2.667 LW
N
0 -4 M
0 4 L
-4 0 M
4 0 L
-2.828 -2.828 M
2.828 2.828 L
-2.828 2.828 M
2.828 -2.828 L
S
GR
GS
[0.75 0 0 0.75 94.125 59.51014] CT
0.345 0.537 0.69 RC
10.0 ML
2.667 LW
N
0 -4 M
0 4 L
-4 0 M
4 0 L
-2.828 -2.828 M
2.828 2.828 L
-2.828 2.828 M
2.828 -2.828 L
S
GR
GS
[0.75 0 0 0.75 111 68.60912] CT
0.345 0.537 0.69 RC
10.0 ML
2.667 LW
N
0 -4 M
0 4 L
-4 0 M
4 0 L
-2.828 -2.828 M
2.828 2.828 L
-2.828 2.828 M
2.828 -2.828 L
S
GR
GS
[0.75 0 0 0.75 127.875 76.76299] CT
0.345 0.537 0.69 RC
10.0 ML
2.667 LW
N
0 -4 M
0 4 L
-4 0 M
4 0 L
-2.828 -2.828 M
2.828 2.828 L
-2.828 2.828 M
2.828 -2.828 L
S
GR
GS
[0.75 0 0 0.75 144.75 84.06995] CT
0.345 0.537 0.69 RC
10.0 ML
2.667 LW
N
0 -4 M
0 4 L
-4 0 M
4 0 L
-2.828 -2.828 M
2.828 2.828 L
-2.828 2.828 M
2.828 -2.828 L
S
GR
GS
[0.75 0 0 0.75 161.625 90.6182] CT
0.345 0.537 0.69 RC
10.0 ML
2.667 LW
N
0 -4 M
0 4 L
-4 0 M
4 0 L
-2.828 -2.828 M
2.828 2.828 L
-2.828 2.828 M
2.828 -2.828 L
S
GR
GS
[0.75 0 0 0.75 178.5 96.48689] CT
0.345 0.537 0.69 RC
10.0 ML
2.667 LW
N
0 -4 M
0 4 L
-4 0 M
4 0 L
-2.828 -2.828 M
2.828 2.828 L
-2.828 2.828 M
2.828 -2.828 L
S
GR
GS
[0.75 0 0 0.75 195.375 101.74709] CT
0.345 0.537 0.69 RC
10.0 ML
2.667 LW
N
0 -4 M
0 4 L
-4 0 M
4 0 L
-2.828 -2.828 M
2.828 2.828 L
-2.828 2.828 M
2.828 -2.828 L
S
GR
GS
[0.75 0 0 0.75 212.25 106.46259] CT
0.345 0.537 0.69 RC
10.0 ML
2.667 LW
N
0 -4 M
0 4 L
-4 0 M
4 0 L
-2.828 -2.828 M
2.828 2.828 L
-2.828 2.828 M
2.828 -2.828 L
S
GR
GS
[0.75 0 0 0.75 0 0] CT
0.345 0.537 0.69 RC
1 LJ
2.667 LW
N
58 33.842 M
59.5 35.023 L
61 36.198 L
62.5 37.363 L
64 38.52 L
65.5 39.667 L
67 40.808 L
68.5 41.937 L
70 43.06 L
71.5 44.174 L
73 45.281 L
74.5 46.381 L
76 47.472 L
77.5 48.555 L
79 49.63 L
80.5 50.696 L
82 51.756 L
83.5 52.807 L
85 53.851 L
86.5 54.888 L
88 55.919 L
89.5 56.94 L
91 57.955 L
92.5 58.963 L
94 59.964 L
95.5 60.956 L
97 61.942 L
98.5 62.921 L
100 63.89 L
101.5 64.854 L
103 65.81 L
104.5 66.757 L
106 67.698 L
107.5 68.631 L
109 69.558 L
110.5 70.481 L
112 71.399 L
113.5 72.31 L
115 73.215 L
116.5 74.11 L
118 75.001 L
119.5 75.885 L
121 76.763 L
122.5 77.631 L
124 78.495 L
125.5 79.353 L
127 80.201 L
128.5 81.045 L
130 81.882 L
131.5 82.71 L
133 83.533 L
134.5 84.354 L
136 85.169 L
137.5 85.979 L
139 86.784 L
140.5 87.583 L
142 88.375 L
143.5 89.16 L
145 89.941 L
146.5 90.715 L
148 91.482 L
149.5 92.245 L
151 93.001 L
152.5 93.753 L
154 94.495 L
155.5 95.233 L
157 95.966 L
158.5 96.693 L
160 97.42 L
161.5 98.14 L
163 98.855 L
164.5 99.567 L
166 100.271 L
167.5 100.971 L
169 101.666 L
170.5 102.354 L
172 103.038 L
173.5 103.715 L
175 104.388 L
176.5 105.057 L
178 105.718 L
179.5 106.375 L
181 107.027 L
182.5 107.673 L
184 108.319 L
185.5 108.96 L
187 109.597 L
188.5 110.227 L
190 110.855 L
191.5 111.478 L
193 112.094 L
194.5 112.709 L
196 113.316 L
197.5 113.919 L
199 114.518 L
200.5 115.112 L
202 115.701 L
203.5 116.286 L
205 116.867 L
206.5 117.44 L
208 118.014 L
209.5 118.584 L
211 119.15 L
212.5 119.713 L
214 120.271 L
215.5 120.825 L
217 121.373 L
218.5 121.92 L
220 122.46 L
221.5 122.998 L
223 123.531 L
224.5 124.058 L
226 124.584 L
227.5 125.104 L
229 125.619 L
230.5 126.132 L
232 126.639 L
233.5 127.147 L
235 127.651 L
236.5 128.15 L
238 128.648 L
239.5 129.141 L
241 129.629 L
242.5 130.115 L
244 130.596 L
245.5 131.073 L
247 131.548 L
248.5 132.018 L
250 132.486 L
251.5 132.947 L
253 133.409 L
254.5 133.863 L
256 134.316 L
257.5 134.766 L
259 135.214 L
260.5 135.659 L
262 136.101 L
263.5 136.54 L
265 136.975 L
266.5 137.407 L
268 137.836 L
269.5 138.261 L
271 138.683 L
272.5 139.102 L
274 139.517 L
275.5 139.929 L
277 140.338 L
278.5 140.744 L
280 141.146 L
281.5 141.546 L
283 141.945 L
284.5 142.341 L
286 142.735 L
287.5 143.125 L
289 143.512 L
290.5 143.897 L
292 144.278 L
293.5 144.657 L
295 145.033 L
296.5 145.406 L
298 145.775 L
S
GR
GS
[0.75 0 0 0.75 43.5 29.09008] CT
0.914 0.282 0.286 RC
10.0 ML
2.667 LW
N
0 -4 M
0 4 L
-4 0 M
4 0 L
-2.828 -2.828 M
2.828 2.828 L
-2.828 2.828 M
2.828 -2.828 L
S
GR
GS
[0.75 0 0 0.75 60.375 41.55133] CT
0.914 0.282 0.286 RC
10.0 ML
2.667 LW
N
0 -4 M
0 4 L
-4 0 M
4 0 L
-2.828 -2.828 M
2.828 2.828 L
-2.828 2.828 M
2.828 -2.828 L
S
GR
GS
[0.75 0 0 0.75 77.25 52.72666] CT
0.914 0.282 0.286 RC
10.0 ML
2.667 LW
N
0 -4 M
0 4 L
-4 0 M
4 0 L
-2.828 -2.828 M
2.828 2.828 L
-2.828 2.828 M
2.828 -2.828 L
S
GR
GS
[0.75 0 0 0.75 94.125 62.74643] CT
0.914 0.282 0.286 RC
10.0 ML
2.667 LW
N
0 -4 M
0 4 L
-4 0 M
4 0 L
-2.828 -2.828 M
2.828 2.828 L
-2.828 2.828 M
2.828 -2.828 L
S
GR
GS
[0.75 0 0 0.75 111 71.72907] CT
0.914 0.282 0.286 RC
10.0 ML
2.667 LW
N
0 -4 M
0 4 L
-4 0 M
4 0 L
-2.828 -2.828 M
2.828 2.828 L
-2.828 2.828 M
2.828 -2.828 L
S
GR
GS
[0.75 0 0 0.75 127.875 79.78159] CT
0.914 0.282 0.286 RC
10.0 ML
2.667 LW
N
0 -4 M
0 4 L
-4 0 M
4 0 L
-2.828 -2.828 M
2.828 2.828 L
-2.828 2.828 M
2.828 -2.828 L
S
GR
GS
[0.75 0 0 0.75 144.75 87.00046] CT
0.914 0.282 0.286 RC
10.0 ML
2.667 LW
N
0 -4 M
0 4 L
-4 0 M
4 0 L
-2.828 -2.828 M
2.828 2.828 L
-2.828 2.828 M
2.828 -2.828 L
S
GR
GS
[0.75 0 0 0.75 161.625 93.47249] CT
0.914 0.282 0.286 RC
10.0 ML
2.667 LW
N
0 -4 M
0 4 L
-4 0 M
4 0 L
-2.828 -2.828 M
2.828 2.828 L
-2.828 2.828 M
2.828 -2.828 L
S
GR
GS
[0.75 0 0 0.75 178.5 99.27579] CT
0.914 0.282 0.286 RC
10.0 ML
2.667 LW
N
0 -4 M
0 4 L
-4 0 M
4 0 L
-2.828 -2.828 M
2.828 2.828 L
-2.828 2.828 M
2.828 -2.828 L
S
GR
GS
[0.75 0 0 0.75 195.375 104.48063] CT
0.914 0.282 0.286 RC
10.0 ML
2.667 LW
N
0 -4 M
0 4 L
-4 0 M
4 0 L
-2.828 -2.828 M
2.828 2.828 L
-2.828 2.828 M
2.828 -2.828 L
S
GR
GS
[0.75 0 0 0.75 212.25 109.15031] CT
0.914 0.282 0.286 RC
10.0 ML
2.667 LW
N
0 -4 M
0 4 L
-4 0 M
4 0 L
-2.828 -2.828 M
2.828 2.828 L
-2.828 2.828 M
2.828 -2.828 L
S
GR
GS
[0.75 0 0 0.75 0 0] CT
0.914 0.282 0.286 RC
1 LJ
2.667 LW
N
58 38.778 M
59.5 39.944 L
61 41.1 L
62.5 42.25 L
64 43.389 L
65.5 44.52 L
67 45.643 L
68.5 46.759 L
70 47.868 L
71.5 48.966 L
73 50.06 L
74.5 51.142 L
76 52.217 L
77.5 53.284 L
79 54.346 L
80.5 55.399 L
82 56.443 L
83.5 57.48 L
85 58.511 L
86.5 59.532 L
88 60.547 L
89.5 61.555 L
91 62.556 L
92.5 63.551 L
94 64.539 L
95.5 65.517 L
97 66.489 L
98.5 67.454 L
100 68.413 L
101.5 69.363 L
103 70.307 L
104.5 71.243 L
106 72.171 L
107.5 73.093 L
109 74.007 L
110.5 74.918 L
112 75.822 L
113.5 76.722 L
115 77.613 L
116.5 78.498 L
118 79.377 L
119.5 80.248 L
121 81.114 L
122.5 81.971 L
124 82.824 L
125.5 83.67 L
127 84.507 L
128.5 85.34 L
130 86.166 L
131.5 86.985 L
133 87.801 L
134.5 88.614 L
136 89.419 L
137.5 90.218 L
139 91.012 L
140.5 91.799 L
142 92.58 L
143.5 93.354 L
145 94.124 L
146.5 94.889 L
148 95.647 L
149.5 96.398 L
151 97.143 L
152.5 97.884 L
154 98.619 L
155.5 99.35 L
157 100.077 L
158.5 100.799 L
160 101.517 L
161.5 102.228 L
163 102.933 L
164.5 103.634 L
166 104.33 L
167.5 105.018 L
169 105.702 L
170.5 106.382 L
172 107.054 L
173.5 107.723 L
175 108.386 L
176.5 109.048 L
178 109.705 L
179.5 110.355 L
181 111.003 L
182.5 111.645 L
184 112.284 L
185.5 112.916 L
187 113.544 L
188.5 114.167 L
190 114.783 L
191.5 115.397 L
193 116.005 L
194.5 116.61 L
196 117.209 L
197.5 117.803 L
199 118.397 L
200.5 118.984 L
202 119.569 L
203.5 120.149 L
205 120.726 L
206.5 121.297 L
208 121.864 L
209.5 122.426 L
211 122.984 L
212.5 123.538 L
214 124.089 L
215.5 124.634 L
217 125.174 L
218.5 125.712 L
220 126.245 L
221.5 126.778 L
223 127.304 L
224.5 127.829 L
226 128.348 L
227.5 128.866 L
229 129.377 L
230.5 129.885 L
232 130.391 L
233.5 130.891 L
235 131.388 L
236.5 131.881 L
238 132.369 L
239.5 132.855 L
241 133.335 L
242.5 133.816 L
244 134.293 L
245.5 134.766 L
247 135.235 L
248.5 135.702 L
250 136.164 L
251.5 136.624 L
253 137.08 L
254.5 137.532 L
256 137.981 L
257.5 138.426 L
259 138.868 L
260.5 139.306 L
262 139.741 L
263.5 140.173 L
265 140.604 L
266.5 141.032 L
268 141.456 L
269.5 141.878 L
271 142.296 L
272.5 142.711 L
274 143.123 L
275.5 143.532 L
277 143.937 L
278.5 144.34 L
280 144.74 L
281.5 145.136 L
283 145.529 L
284.5 145.919 L
286 146.307 L
287.5 146.694 L
289 147.077 L
290.5 147.458 L
292 147.837 L
293.5 148.212 L
295 148.584 L
296.5 148.954 L
298 149.321 L
S
GR
GS
[0.75 0 0 0.75 43.5 32.80197] CT
0.443 0.749 0.431 RC
10.0 ML
2.667 LW
N
0 -4 M
0 4 L
-4 0 M
4 0 L
-2.828 -2.828 M
2.828 2.828 L
-2.828 2.828 M
2.828 -2.828 L
S
GR
GS
[0.75 0 0 0.75 60.375 45.08811] CT
0.443 0.749 0.431 RC
10.0 ML
2.667 LW
N
0 -4 M
0 4 L
-4 0 M
4 0 L
-2.828 -2.828 M
2.828 2.828 L
-2.828 2.828 M
2.828 -2.828 L
S
GR
GS
[0.75 0 0 0.75 77.25 56.11193] CT
0.443 0.749 0.431 RC
10.0 ML
2.667 LW
N
0 -4 M
0 4 L
-4 0 M
4 0 L
-2.828 -2.828 M
2.828 2.828 L
-2.828 2.828 M
2.828 -2.828 L
S
GR
GS
[0.75 0 0 0.75 94.125 65.99995] CT
0.443 0.749 0.431 RC
10.0 ML
2.667 LW
N
0 -4 M
0 4 L
-4 0 M
4 0 L
-2.828 -2.828 M
2.828 2.828 L
-2.828 2.828 M
2.828 -2.828 L
S
GR
GS
[0.75 0 0 0.75 111 74.86777] CT
0.443 0.749 0.431 RC
10.0 ML
2.667 LW
N
0 -4 M
0 4 L
-4 0 M
4 0 L
-2.828 -2.828 M
2.828 2.828 L
-2.828 2.828 M
2.828 -2.828 L
S
GR
GS
[0.75 0 0 0.75 127.875 82.8203] CT
0.443 0.749 0.431 RC
10.0 ML
2.667 LW
N
0 -4 M
0 4 L
-4 0 M
4 0 L
-2.828 -2.828 M
2.828 2.828 L
-2.828 2.828 M
2.828 -2.828 L
S
GR
GS
[0.75 0 0 0.75 144.75 89.95233] CT
0.443 0.749 0.431 RC
10.0 ML
2.667 LW
N
0 -4 M
0 4 L
-4 0 M
4 0 L
-2.828 -2.828 M
2.828 2.828 L
-2.828 2.828 M
2.828 -2.828 L
S
GR
GS
[0.75 0 0 0.75 161.625 96.34939] CT
0.443 0.749 0.431 RC
10.0 ML
2.667 LW
N
0 -4 M
0 4 L
-4 0 M
4 0 L
-2.828 -2.828 M
2.828 2.828 L
-2.828 2.828 M
2.828 -2.828 L
S
GR
GS
[0.75 0 0 0.75 178.5 102.08862] CT
0.443 0.749 0.431 RC
10.0 ML
2.667 LW
N
0 -4 M
0 4 L
-4 0 M
4 0 L
-2.828 -2.828 M
2.828 2.828 L
-2.828 2.828 M
2.828 -2.828 L
S
GR
GS
[0.75 0 0 0.75 195.375 107.23961] CT
0.443 0.749 0.431 RC
10.0 ML
2.667 LW
N
0 -4 M
0 4 L
-4 0 M
4 0 L
-2.828 -2.828 M
2.828 2.828 L
-2.828 2.828 M
2.828 -2.828 L
S
GR
GS
[0.75 0 0 0.75 212.25 111.86525] CT
0.443 0.749 0.431 RC
10.0 ML
2.667 LW
N
0 -4 M
0 4 L
-4 0 M
4 0 L
-2.828 -2.828 M
2.828 2.828 L
-2.828 2.828 M
2.828 -2.828 L
S
GR
GS
[0.75 0 0 0.75 0 0] CT
0.443 0.749 0.431 RC
1 LJ
2.667 LW
N
58 43.715 M
59.5 44.864 L
61 46.005 L
62.5 47.139 L
64 48.264 L
65.5 49.38 L
67 50.487 L
68.5 51.588 L
70 52.681 L
71.5 53.766 L
73 54.843 L
74.5 55.912 L
76 56.974 L
77.5 58.027 L
79 59.073 L
80.5 60.11 L
82 61.141 L
83.5 62.167 L
85 63.182 L
86.5 64.192 L
88 65.193 L
89.5 66.186 L
91 67.173 L
92.5 68.154 L
94 69.129 L
95.5 70.094 L
97 71.054 L
98.5 72.006 L
100 72.951 L
101.5 73.892 L
103 74.823 L
104.5 75.748 L
106 76.664 L
107.5 77.575 L
109 78.479 L
110.5 79.375 L
112 80.264 L
113.5 81.15 L
115 82.032 L
116.5 82.905 L
118 83.771 L
119.5 84.633 L
121 85.488 L
122.5 86.337 L
124 87.178 L
125.5 88.013 L
127 88.841 L
128.5 89.662 L
130 90.479 L
131.5 91.286 L
133 92.09 L
134.5 92.891 L
136 93.685 L
137.5 94.475 L
139 95.258 L
140.5 96.036 L
142 96.808 L
143.5 97.573 L
145 98.333 L
146.5 99.087 L
148 99.837 L
149.5 100.579 L
151 101.315 L
152.5 102.046 L
154 102.771 L
155.5 103.493 L
157 104.213 L
158.5 104.924 L
160 105.632 L
161.5 106.335 L
163 107.032 L
164.5 107.723 L
166 108.409 L
167.5 109.091 L
169 109.766 L
170.5 110.436 L
172 111.102 L
173.5 111.764 L
175 112.419 L
176.5 113.071 L
178 113.719 L
179.5 114.362 L
181 115.001 L
182.5 115.636 L
184 116.266 L
185.5 116.889 L
187 117.51 L
188.5 118.127 L
190 118.737 L
191.5 119.342 L
193 119.942 L
194.5 120.539 L
196 121.131 L
197.5 121.72 L
199 122.305 L
200.5 122.888 L
202 123.466 L
203.5 124.037 L
205 124.607 L
206.5 125.172 L
208 125.732 L
209.5 126.287 L
211 126.839 L
212.5 127.385 L
214 127.93 L
215.5 128.468 L
217 129.003 L
218.5 129.534 L
220 130.063 L
221.5 130.589 L
223 131.111 L
224.5 131.629 L
226 132.142 L
227.5 132.653 L
229 133.159 L
230.5 133.661 L
232 134.158 L
233.5 134.654 L
235 135.144 L
236.5 135.631 L
238 136.114 L
239.5 136.595 L
241 137.073 L
242.5 137.548 L
244 138.019 L
245.5 138.487 L
247 138.951 L
248.5 139.412 L
250 139.87 L
251.5 140.324 L
253 140.774 L
254.5 141.221 L
256 141.665 L
257.5 142.105 L
259 142.541 L
260.5 142.975 L
262 143.408 L
263.5 143.837 L
265 144.263 L
266.5 144.686 L
268 145.106 L
269.5 145.523 L
271 145.936 L
272.5 146.347 L
274 146.754 L
275.5 147.158 L
277 147.559 L
278.5 147.957 L
280 148.352 L
281.5 148.744 L
283 149.135 L
284.5 149.524 L
286 149.909 L
287.5 150.292 L
289 150.671 L
290.5 151.048 L
292 151.422 L
293.5 151.794 L
295 152.163 L
296.5 152.528 L
298 152.891 L
S
GR
GS
[0.75 0 0 0.75 43.5 36.52707] CT
1 0.6 0.2 RC
10.0 ML
2.667 LW
N
0 -4 M
0 4 L
-4 0 M
4 0 L
-2.828 -2.828 M
2.828 2.828 L
-2.828 2.828 M
2.828 -2.828 L
S
GR
GS
[0.75 0 0 0.75 60.375 48.64186] CT
1 0.6 0.2 RC
10.0 ML
2.667 LW
N
0 -4 M
0 4 L
-4 0 M
4 0 L
-2.828 -2.828 M
2.828 2.828 L
-2.828 2.828 M
2.828 -2.828 L
S
GR
GS
[0.75 0 0 0.75 77.25 59.51686] CT
1 0.6 0.2 RC
10.0 ML
2.667 LW
N
0 -4 M
0 4 L
-4 0 M
4 0 L
-2.828 -2.828 M
2.828 2.828 L
-2.828 2.828 M
2.828 -2.828 L
S
GR
GS
[0.75 0 0 0.75 94.125 69.27518] CT
1 0.6 0.2 RC
10.0 ML
2.667 LW
N
0 -4 M
0 4 L
-4 0 M
4 0 L
-2.828 -2.828 M
2.828 2.828 L
-2.828 2.828 M
2.828 -2.828 L
S
GR
GS
[0.75 0 0 0.75 111 78.02987] CT
1 0.6 0.2 RC
10.0 ML
2.667 LW
N
0 -4 M
0 4 L
-4 0 M
4 0 L
-2.828 -2.828 M
2.828 2.828 L
-2.828 2.828 M
2.828 -2.828 L
S
GR
GS
[0.75 0 0 0.75 127.875 85.88386] CT
1 0.6 0.2 RC
10.0 ML
2.667 LW
N
0 -4 M
0 4 L
-4 0 M
4 0 L
-2.828 -2.828 M
2.828 2.828 L
-2.828 2.828 M
2.828 -2.828 L
S
GR
GS
[0.75 0 0 0.75 144.75 92.93039] CT
1 0.6 0.2 RC
10.0 ML
2.667 LW
N
0 -4 M
0 4 L
-4 0 M
4 0 L
-2.828 -2.828 M
2.828 2.828 L
-2.828 2.828 M
2.828 -2.828 L
S
GR
GS
[0.75 0 0 0.75 161.625 99.25381] CT
1 0.6 0.2 RC
10.0 ML
2.667 LW
N
0 -4 M
0 4 L
-4 0 M
4 0 L
-2.828 -2.828 M
2.828 2.828 L
-2.828 2.828 M
2.828 -2.828 L
S
GR
GS
[0.75 0 0 0.75 178.5 104.93037] CT
1 0.6 0.2 RC
10.0 ML
2.667 LW
N
0 -4 M
0 4 L
-4 0 M
4 0 L
-2.828 -2.828 M
2.828 2.828 L
-2.828 2.828 M
2.828 -2.828 L
S
GR
GS
[0.75 0 0 0.75 195.375 110.02911] CT
1 0.6 0.2 RC
10.0 ML
2.667 LW
N
0 -4 M
0 4 L
-4 0 M
4 0 L
-2.828 -2.828 M
2.828 2.828 L
-2.828 2.828 M
2.828 -2.828 L
S
GR
GS
[0.75 0 0 0.75 212.25 114.61263] CT
1 0.6 0.2 RC
10.0 ML
2.667 LW
N
0 -4 M
0 4 L
-4 0 M
4 0 L
-2.828 -2.828 M
2.828 2.828 L
-2.828 2.828 M
2.828 -2.828 L
S
GR
GS
[0.75 0 0 0.75 0 0] CT
1 0.6 0.2 RC
1 LJ
2.667 LW
N
58 48.64 M
59.5 49.774 L
61 50.901 L
62.5 52.02 L
64 53.131 L
65.5 54.234 L
67 55.327 L
68.5 56.415 L
70 57.494 L
71.5 58.564 L
73 59.627 L
74.5 60.681 L
76 61.728 L
77.5 62.77 L
79 63.803 L
80.5 64.829 L
82 65.848 L
83.5 66.857 L
85 67.862 L
86.5 68.856 L
88 69.844 L
89.5 70.824 L
91 71.799 L
92.5 72.768 L
94 73.728 L
95.5 74.682 L
97 75.629 L
98.5 76.569 L
100 77.501 L
101.5 78.427 L
103 79.346 L
104.5 80.257 L
106 81.164 L
107.5 82.065 L
109 82.959 L
110.5 83.846 L
112 84.725 L
113.5 85.601 L
115 86.467 L
116.5 87.328 L
118 88.181 L
119.5 89.031 L
121 89.874 L
122.5 90.71 L
124 91.543 L
125.5 92.368 L
127 93.186 L
128.5 93.998 L
130 94.806 L
131.5 95.605 L
133 96.398 L
134.5 97.188 L
136 97.973 L
137.5 98.751 L
139 99.524 L
140.5 100.291 L
142 101.051 L
143.5 101.808 L
145 102.557 L
146.5 103.301 L
148 104.04 L
149.5 104.775 L
151 105.504 L
152.5 106.228 L
154 106.947 L
155.5 107.66 L
157 108.368 L
158.5 109.069 L
160 109.768 L
161.5 110.459 L
163 111.147 L
164.5 111.83 L
166 112.508 L
167.5 113.181 L
169 113.85 L
170.5 114.512 L
172 115.17 L
173.5 115.824 L
175 116.473 L
176.5 117.115 L
178 117.756 L
179.5 118.391 L
181 119.022 L
182.5 119.648 L
184 120.269 L
185.5 120.885 L
187 121.497 L
188.5 122.105 L
190 122.708 L
191.5 123.307 L
193 123.902 L
194.5 124.492 L
196 125.079 L
197.5 125.661 L
199 126.24 L
200.5 126.813 L
202 127.383 L
203.5 127.948 L
205 128.508 L
206.5 129.065 L
208 129.62 L
209.5 130.169 L
211 130.713 L
212.5 131.255 L
214 131.793 L
215.5 132.327 L
217 132.857 L
218.5 133.382 L
220 133.904 L
221.5 134.422 L
223 134.937 L
224.5 135.448 L
226 135.956 L
227.5 136.469 L
229 136.96 L
230.5 137.456 L
232 137.949 L
233.5 138.438 L
235 138.923 L
236.5 139.406 L
238 139.885 L
239.5 140.361 L
241 140.834 L
242.5 141.302 L
244 141.768 L
245.5 142.23 L
247 142.688 L
248.5 143.143 L
250 143.595 L
251.5 144.044 L
253 144.49 L
254.5 144.933 L
256 145.372 L
257.5 145.809 L
259 146.242 L
260.5 146.672 L
262 147.098 L
263.5 147.522 L
265 147.943 L
266.5 148.361 L
268 148.776 L
269.5 149.189 L
271 149.598 L
272.5 150.004 L
274 150.407 L
275.5 150.807 L
277 151.205 L
278.5 151.599 L
280 151.991 L
281.5 152.381 L
283 152.768 L
284.5 153.151 L
286 153.533 L
287.5 153.911 L
289 154.286 L
290.5 154.659 L
292 155.029 L
293.5 155.397 L
295 155.762 L
296.5 156.125 L
298 156.485 L
S
GR
GS
[0.75 0 0 0.75 43.5 40.27122] CT
0.678 0.443 0.71 RC
10.0 ML
2.667 LW
N
0 -4 M
0 4 L
-4 0 M
4 0 L
-2.828 -2.828 M
2.828 2.828 L
-2.828 2.828 M
2.828 -2.828 L
S
GR
GS
[0.75 0 0 0.75 60.375 52.21867] CT
0.678 0.443 0.71 RC
10.0 ML
2.667 LW
N
0 -4 M
0 4 L
-4 0 M
4 0 L
-2.828 -2.828 M
2.828 2.828 L
-2.828 2.828 M
2.828 -2.828 L
S
GR
GS
[0.75 0 0 0.75 77.25 62.94773] CT
0.678 0.443 0.71 RC
10.0 ML
2.667 LW
N
0 -4 M
0 4 L
-4 0 M
4 0 L
-2.828 -2.828 M
2.828 2.828 L
-2.828 2.828 M
2.828 -2.828 L
S
GR
GS
[0.75 0 0 0.75 94.125 72.57856] CT
0.678 0.443 0.71 RC
10.0 ML
2.667 LW
N
0 -4 M
0 4 L
-4 0 M
4 0 L
-2.828 -2.828 M
2.828 2.828 L
-2.828 2.828 M
2.828 -2.828 L
S
GR
GS
[0.75 0 0 0.75 111 81.22191] CT
0.678 0.443 0.71 RC
10.0 ML
2.667 LW
N
0 -4 M
0 4 L
-4 0 M
4 0 L
-2.828 -2.828 M
2.828 2.828 L
-2.828 2.828 M
2.828 -2.828 L
S
GR
GS
[0.75 0 0 0.75 127.875 88.97888] CT
0.678 0.443 0.71 RC
10.0 ML
2.667 LW
N
0 -4 M
0 4 L
-4 0 M
4 0 L
-2.828 -2.828 M
2.828 2.828 L
-2.828 2.828 M
2.828 -2.828 L
S
GR
GS
[0.75 0 0 0.75 144.75 95.94133] CT
0.678 0.443 0.71 RC
10.0 ML
2.667 LW
N
0 -4 M
0 4 L
-4 0 M
4 0 L
-2.828 -2.828 M
2.828 2.828 L
-2.828 2.828 M
2.828 -2.828 L
S
GR
GS
[0.75 0 0 0.75 161.625 102.1925] CT
0.678 0.443 0.71 RC
10.0 ML
2.667 LW
N
0 -4 M
0 4 L
-4 0 M
4 0 L
-2.828 -2.828 M
2.828 2.828 L
-2.828 2.828 M
2.828 -2.828 L
S
GR
GS
[0.75 0 0 0.75 178.5 107.8079] CT
0.678 0.443 0.71 RC
10.0 ML
2.667 LW
N
0 -4 M
0 4 L
-4 0 M
4 0 L
-2.828 -2.828 M
2.828 2.828 L
-2.828 2.828 M
2.828 -2.828 L
S
GR
GS
[0.75 0 0 0.75 195.375 112.85604] CT
0.678 0.443 0.71 RC
10.0 ML
2.667 LW
N
0 -4 M
0 4 L
-4 0 M
4 0 L
-2.828 -2.828 M
2.828 2.828 L
-2.828 2.828 M
2.828 -2.828 L
S
GR
GS
[0.75 0 0 0.75 212.25 117.39948] CT
0.678 0.443 0.71 RC
10.0 ML
2.667 LW
N
0 -4 M
0 4 L
-4 0 M
4 0 L
-2.828 -2.828 M
2.828 2.828 L
-2.828 2.828 M
2.828 -2.828 L
S
GR
GS
[0.75 0 0 0.75 0 0] CT
0.678 0.443 0.71 RC
1 LJ
2.667 LW
N
58 53.547 M
59.5 54.669 L
61 55.783 L
62.5 56.888 L
64 57.985 L
65.5 59.073 L
67 60.154 L
68.5 61.228 L
70 62.292 L
71.5 63.351 L
73 64.399 L
74.5 65.442 L
76 66.479 L
77.5 67.507 L
79 68.529 L
80.5 69.54 L
82 70.546 L
83.5 71.545 L
85 72.536 L
86.5 73.52 L
88 74.495 L
89.5 75.462 L
91 76.427 L
92.5 77.382 L
94 78.334 L
95.5 79.274 L
97 80.209 L
98.5 81.139 L
100 82.06 L
101.5 82.976 L
103 83.884 L
104.5 84.782 L
106 85.678 L
107.5 86.564 L
109 87.448 L
110.5 88.326 L
112 89.194 L
113.5 90.059 L
115 90.915 L
116.5 91.768 L
118 92.612 L
119.5 93.45 L
121 94.282 L
122.5 95.106 L
124 95.925 L
125.5 96.741 L
127 97.549 L
128.5 98.354 L
130 99.15 L
131.5 99.942 L
133 100.728 L
134.5 101.507 L
136 102.283 L
137.5 103.049 L
139 103.812 L
140.5 104.566 L
142 105.317 L
143.5 106.066 L
145 106.806 L
146.5 107.544 L
148 108.274 L
149.5 108.999 L
151 109.72 L
152.5 110.435 L
154 111.143 L
155.5 111.847 L
157 112.544 L
158.5 113.238 L
160 113.926 L
161.5 114.612 L
163 115.292 L
164.5 115.966 L
166 116.636 L
167.5 117.3 L
169 117.962 L
170.5 118.615 L
172 119.265 L
173.5 119.911 L
175 120.55 L
176.5 121.185 L
178 121.817 L
179.5 122.444 L
181 123.069 L
182.5 123.686 L
184 124.301 L
185.5 124.91 L
187 125.514 L
188.5 126.116 L
190 126.711 L
191.5 127.302 L
193 127.887 L
194.5 128.471 L
196 129.051 L
197.5 129.626 L
199 130.198 L
200.5 130.765 L
202 131.328 L
203.5 131.887 L
205 132.44 L
206.5 132.991 L
208 133.537 L
209.5 134.078 L
211 134.617 L
212.5 135.152 L
214 135.685 L
215.5 136.212 L
217 136.735 L
218.5 137.256 L
220 137.772 L
221.5 138.284 L
223 138.793 L
224.5 139.297 L
226 139.798 L
227.5 140.294 L
229 140.789 L
230.5 141.28 L
232 141.768 L
233.5 142.252 L
235 142.732 L
236.5 143.21 L
238 143.683 L
239.5 144.153 L
241 144.619 L
242.5 145.082 L
244 145.542 L
245.5 145.998 L
247 146.452 L
248.5 146.903 L
250 147.35 L
251.5 147.795 L
253 148.236 L
254.5 148.673 L
256 149.108 L
257.5 149.539 L
259 149.967 L
260.5 150.392 L
262 150.813 L
263.5 151.233 L
265 151.65 L
266.5 152.064 L
268 152.475 L
269.5 152.882 L
271 153.288 L
272.5 153.689 L
274 154.089 L
275.5 154.484 L
277 154.877 L
278.5 155.268 L
280 155.655 L
281.5 156.041 L
283 156.424 L
284.5 156.804 L
286 157.182 L
287.5 157.557 L
289 157.929 L
290.5 158.298 L
292 158.665 L
293.5 159.029 L
295 159.39 L
296.5 159.749 L
298 160.106 L
S
GR
GS
[0.75 0 0 0.75 133.5 165] CT
0.149 GC
/Times-Roman 14.667 F
GS
[1 0 0 1 0 0] CT
-14.5 14 moveto 
1 -1 scale
(SOC) t 
GR
GR
GS
[0 -0.75 0.75 0 16.5 84] CT
0.149 GC
/Times-Roman 14.667 F
GS
[1 0 0 1 0 0] CT
-34.5 0 moveto 
1 -1 scale
(Voltage / V) t 
GR
GR
GS
[0.75 0 0 0.75 0 0] CT
1 GC
N
292 111 M
292 25 L
212 25 L
212 111 L
cp
f
GR
GS
[0.75 0 0 0.75 194.25 26.25] CT
/Times-Roman 13.333 F
GS
[1 0 0 1 0 0] CT
0 5 moveto 
1 -1 scale
(0.1 C) t 
GR
GR
GS
[0.75 0 0 0.75 0 0] CT
0.345 0.537 0.69 RC
1 LJ
2.667 LW
N
216 35 M
256 35 L
S
GR
GS
[0.75 0 0 0.75 194.25 38.625] CT
/Times-Roman 13.333 F
GS
[1 0 0 1 0 0] CT
0 5 moveto 
1 -1 scale
(0.2 C) t 
GR
GR
GS
[0.75 0 0 0.75 0 0] CT
0.914 0.282 0.286 RC
1 LJ
2.667 LW
N
216 51.5 M
256 51.5 L
S
GR
GS
[0.75 0 0 0.75 194.25 51] CT
/Times-Roman 13.333 F
GS
[1 0 0 1 0 0] CT
0 5 moveto 
1 -1 scale
(0.3 C) t 
GR
GR
GS
[0.75 0 0 0.75 0 0] CT
0.443 0.749 0.431 RC
1 LJ
2.667 LW
N
216 68 M
256 68 L
S
GR
GS
[0.75 0 0 0.75 194.25 63.375] CT
/Times-Roman 13.333 F
GS
[1 0 0 1 0 0] CT
0 5 moveto 
1 -1 scale
(0.4 C) t 
GR
GR
GS
[0.75 0 0 0.75 0 0] CT
1 0.6 0.2 RC
1 LJ
2.667 LW
N
216 84.5 M
256 84.5 L
S
GR
GS
[0.75 0 0 0.75 194.25 75.75] CT
/Times-Roman 13.333 F
GS
[1 0 0 1 0 0] CT
0 5 moveto 
1 -1 scale
(0.5 C) t 
GR
GR
GS
[0.75 0 0 0.75 0 0] CT
0.678 0.443 0.71 RC
1 LJ
2.667 LW
N
216 101 M
256 101 L
S
GR
GS
[0.75 0 0 0.75 0 0] CT
1 GC
10.0 ML
0.667 LW
N
212 111 M
212 25 L
292 25 L
292 111 L
cp
S
GR
%%Trailer
%%Pages: 1
%%EOF
