%!PS-Adobe-3.0 EPSF-3.0
%%Creator: (MATLAB, The Mathworks, Inc. Version 9.3.0.713579 \(R2017b\). Operating System: Windows 7)
%%Title: F:/Lab/Git/Git_LMPROM2/Figures/thetae.eps
%%CreationDate: 2018-09-17T23:52:45
%%Pages: (atend)
%%BoundingBox: 0 0 240 180
%%LanguageLevel: 3
%%EndComments
%%BeginProlog
%%BeginResource: procset (Apache XML Graphics Std ProcSet) 1.2 0
%%Version: 1.2 0
%%Copyright: (Copyright 2001-2003,2010 The Apache Software Foundation. License terms: http://www.apache.org/licenses/LICENSE-2.0)
/bd{bind def}bind def
/ld{load def}bd
/GR/grestore ld
/GS/gsave ld
/RM/rmoveto ld
/C/curveto ld
/t/show ld
/L/lineto ld
/ML/setmiterlimit ld
/CT/concat ld
/f/fill ld
/N/newpath ld
/S/stroke ld
/CC/setcmykcolor ld
/A/ashow ld
/cp/closepath ld
/RC/setrgbcolor ld
/LJ/setlinejoin ld
/GC/setgray ld
/LW/setlinewidth ld
/M/moveto ld
/re {4 2 roll M
1 index 0 rlineto
0 exch rlineto
neg 0 rlineto
cp } bd
/_ctm matrix def
/_tm matrix def
/BT { _ctm currentmatrix pop matrix _tm copy pop 0 0 moveto } bd
/ET { _ctm setmatrix } bd
/iTm { _ctm setmatrix _tm concat } bd
/Tm { _tm astore pop iTm 0 0 moveto } bd
/ux 0.0 def
/uy 0.0 def
/F {
  /Tp exch def
  /Tf exch def
  Tf findfont Tp scalefont setfont
  /cf Tf def  /cs Tp def
} bd
/ULS {currentpoint /uy exch def /ux exch def} bd
/ULE {
  /Tcx currentpoint pop def
  gsave
  newpath
  cf findfont cs scalefont dup
  /FontMatrix get 0 get /Ts exch def /FontInfo get dup
  /UnderlinePosition get Ts mul /To exch def
  /UnderlineThickness get Ts mul /Tt exch def
  ux uy To add moveto  Tcx uy To add lineto
  Tt setlinewidth stroke
  grestore
} bd
/OLE {
  /Tcx currentpoint pop def
  gsave
  newpath
  cf findfont cs scalefont dup
  /FontMatrix get 0 get /Ts exch def /FontInfo get dup
  /UnderlinePosition get Ts mul /To exch def
  /UnderlineThickness get Ts mul /Tt exch def
  ux uy To add cs add moveto Tcx uy To add cs add lineto
  Tt setlinewidth stroke
  grestore
} bd
/SOE {
  /Tcx currentpoint pop def
  gsave
  newpath
  cf findfont cs scalefont dup
  /FontMatrix get 0 get /Ts exch def /FontInfo get dup
  /UnderlinePosition get Ts mul /To exch def
  /UnderlineThickness get Ts mul /Tt exch def
  ux uy To add cs 10 mul 26 idiv add moveto Tcx uy To add cs 10 mul 26 idiv add lineto
  Tt setlinewidth stroke
  grestore
} bd
/QT {
/Y22 exch store
/X22 exch store
/Y21 exch store
/X21 exch store
currentpoint
/Y21 load 2 mul add 3 div exch
/X21 load 2 mul add 3 div exch
/X21 load 2 mul /X22 load add 3 div
/Y21 load 2 mul /Y22 load add 3 div
/X22 load /Y22 load curveto
} bd
/SSPD {
dup length /d exch dict def
{
/v exch def
/k exch def
currentpagedevice k known {
/cpdv currentpagedevice k get def
v cpdv ne {
/upd false def
/nullv v type /nulltype eq def
/nullcpdv cpdv type /nulltype eq def
nullv nullcpdv or
{
/upd true def
} {
/sametype v type cpdv type eq def
sametype {
v type /arraytype eq {
/vlen v length def
/cpdvlen cpdv length def
vlen cpdvlen eq {
0 1 vlen 1 sub {
/i exch def
/obj v i get def
/cpdobj cpdv i get def
obj cpdobj ne {
/upd true def
exit
} if
} for
} {
/upd true def
} ifelse
} {
v type /dicttype eq {
v {
/dv exch def
/dk exch def
/cpddv cpdv dk get def
dv cpddv ne {
/upd true def
exit
} if
} forall
} {
/upd true def
} ifelse
} ifelse
} if
} ifelse
upd true eq {
d k v put
} if
} if
} if
} forall
d length 0 gt {
d setpagedevice
} if
} bd
/RE { % /NewFontName [NewEncodingArray] /FontName RE -
  findfont dup length dict begin
  {
    1 index /FID ne
    {def} {pop pop} ifelse
  } forall
  /Encoding exch def
  /FontName 1 index def
  currentdict definefont pop
  end
} bind def
%%EndResource
%%BeginResource: procset (Apache XML Graphics EPS ProcSet) 1.0 0
%%Version: 1.0 0
%%Copyright: (Copyright 2002-2003 The Apache Software Foundation. License terms: http://www.apache.org/licenses/LICENSE-2.0)
/BeginEPSF { %def
/b4_Inc_state save def         % Save state for cleanup
/dict_count countdictstack def % Count objects on dict stack
/op_count count 1 sub def      % Count objects on operand stack
userdict begin                 % Push userdict on dict stack
/showpage { } def              % Redefine showpage, { } = null proc
0 setgray 0 setlinecap         % Prepare graphics state
1 setlinewidth 0 setlinejoin
10 setmiterlimit [ ] 0 setdash newpath
/languagelevel where           % If level not equal to 1 then
{pop languagelevel             % set strokeadjust and
1 ne                           % overprint to their defaults.
{false setstrokeadjust false setoverprint
} if
} if
} bd
/EndEPSF { %def
count op_count sub {pop} repeat            % Clean up stacks
countdictstack dict_count sub {end} repeat
b4_Inc_state restore
} bd
%%EndResource
%FOPBeginFontDict
%%IncludeResource: font Courier-Oblique
%%IncludeResource: font Courier-BoldOblique
%%IncludeResource: font Courier-Bold
%%IncludeResource: font ZapfDingbats
%%IncludeResource: font Symbol
%%IncludeResource: font Helvetica
%%IncludeResource: font Helvetica-Oblique
%%IncludeResource: font Helvetica-Bold
%%IncludeResource: font Helvetica-BoldOblique
%%IncludeResource: font Times-Roman
%%IncludeResource: font Times-Italic
%%IncludeResource: font Times-Bold
%%IncludeResource: font Times-BoldItalic
%%IncludeResource: font Courier
%FOPEndFontDict
%%BeginResource: encoding WinAnsiEncoding
/WinAnsiEncoding [
/.notdef /.notdef /.notdef /.notdef /.notdef
/.notdef /.notdef /.notdef /.notdef /.notdef
/.notdef /.notdef /.notdef /.notdef /.notdef
/.notdef /.notdef /.notdef /.notdef /.notdef
/.notdef /.notdef /.notdef /.notdef /.notdef
/.notdef /.notdef /.notdef /.notdef /.notdef
/.notdef /.notdef /space /exclam /quotedbl
/numbersign /dollar /percent /ampersand /quotesingle
/parenleft /parenright /asterisk /plus /comma
/hyphen /period /slash /zero /one
/two /three /four /five /six
/seven /eight /nine /colon /semicolon
/less /equal /greater /question /at
/A /B /C /D /E
/F /G /H /I /J
/K /L /M /N /O
/P /Q /R /S /T
/U /V /W /X /Y
/Z /bracketleft /backslash /bracketright /asciicircum
/underscore /quoteleft /a /b /c
/d /e /f /g /h
/i /j /k /l /m
/n /o /p /q /r
/s /t /u /v /w
/x /y /z /braceleft /bar
/braceright /asciitilde /bullet /Euro /bullet
/quotesinglbase /florin /quotedblbase /ellipsis /dagger
/daggerdbl /circumflex /perthousand /Scaron /guilsinglleft
/OE /bullet /Zcaron /bullet /bullet
/quoteleft /quoteright /quotedblleft /quotedblright /bullet
/endash /emdash /asciitilde /trademark /scaron
/guilsinglright /oe /bullet /zcaron /Ydieresis
/space /exclamdown /cent /sterling /currency
/yen /brokenbar /section /dieresis /copyright
/ordfeminine /guillemotleft /logicalnot /sfthyphen /registered
/macron /degree /plusminus /twosuperior /threesuperior
/acute /mu /paragraph /middot /cedilla
/onesuperior /ordmasculine /guillemotright /onequarter /onehalf
/threequarters /questiondown /Agrave /Aacute /Acircumflex
/Atilde /Adieresis /Aring /AE /Ccedilla
/Egrave /Eacute /Ecircumflex /Edieresis /Igrave
/Iacute /Icircumflex /Idieresis /Eth /Ntilde
/Ograve /Oacute /Ocircumflex /Otilde /Odieresis
/multiply /Oslash /Ugrave /Uacute /Ucircumflex
/Udieresis /Yacute /Thorn /germandbls /agrave
/aacute /acircumflex /atilde /adieresis /aring
/ae /ccedilla /egrave /eacute /ecircumflex
/edieresis /igrave /iacute /icircumflex /idieresis
/eth /ntilde /ograve /oacute /ocircumflex
/otilde /odieresis /divide /oslash /ugrave
/uacute /ucircumflex /udieresis /yacute /thorn
/ydieresis
] def
%%EndResource
%FOPBeginFontReencode
/Courier-Oblique findfont
dup length dict begin
  {1 index /FID ne {def} {pop pop} ifelse} forall
  /Encoding WinAnsiEncoding def
  currentdict
end
/Courier-Oblique exch definefont pop
/Courier-BoldOblique findfont
dup length dict begin
  {1 index /FID ne {def} {pop pop} ifelse} forall
  /Encoding WinAnsiEncoding def
  currentdict
end
/Courier-BoldOblique exch definefont pop
/Courier-Bold findfont
dup length dict begin
  {1 index /FID ne {def} {pop pop} ifelse} forall
  /Encoding WinAnsiEncoding def
  currentdict
end
/Courier-Bold exch definefont pop
/Helvetica findfont
dup length dict begin
  {1 index /FID ne {def} {pop pop} ifelse} forall
  /Encoding WinAnsiEncoding def
  currentdict
end
/Helvetica exch definefont pop
/Helvetica-Oblique findfont
dup length dict begin
  {1 index /FID ne {def} {pop pop} ifelse} forall
  /Encoding WinAnsiEncoding def
  currentdict
end
/Helvetica-Oblique exch definefont pop
/Helvetica-Bold findfont
dup length dict begin
  {1 index /FID ne {def} {pop pop} ifelse} forall
  /Encoding WinAnsiEncoding def
  currentdict
end
/Helvetica-Bold exch definefont pop
/Helvetica-BoldOblique findfont
dup length dict begin
  {1 index /FID ne {def} {pop pop} ifelse} forall
  /Encoding WinAnsiEncoding def
  currentdict
end
/Helvetica-BoldOblique exch definefont pop
/Times-Roman findfont
dup length dict begin
  {1 index /FID ne {def} {pop pop} ifelse} forall
  /Encoding WinAnsiEncoding def
  currentdict
end
/Times-Roman exch definefont pop
/Times-Italic findfont
dup length dict begin
  {1 index /FID ne {def} {pop pop} ifelse} forall
  /Encoding WinAnsiEncoding def
  currentdict
end
/Times-Italic exch definefont pop
/Times-Bold findfont
dup length dict begin
  {1 index /FID ne {def} {pop pop} ifelse} forall
  /Encoding WinAnsiEncoding def
  currentdict
end
/Times-Bold exch definefont pop
/Times-BoldItalic findfont
dup length dict begin
  {1 index /FID ne {def} {pop pop} ifelse} forall
  /Encoding WinAnsiEncoding def
  currentdict
end
/Times-BoldItalic exch definefont pop
/Courier findfont
dup length dict begin
  {1 index /FID ne {def} {pop pop} ifelse} forall
  /Encoding WinAnsiEncoding def
  currentdict
end
/Courier exch definefont pop
%FOPEndFontReencode
%%EndProlog
%%Page: 1 1
%%PageBoundingBox: 0 0 240 180
%%BeginPageSetup
[1 0 0 -1 0 180] CT
%%EndPageSetup
GS
[0.75 0 0 0.75 0 0] CT
1 GC
N
0 0 320 240 re
f
GR
GS
[0.75 0 0 0.75 0 0] CT
1 GC
N
0 0 320 240 re
f
GR
GS
[0.75 0 0 0.75 0 0] CT
1 GC
N
58 202 M
298 202 L
298 22 L
58 22 L
cp
f
GR
GS
[0.75 0 0 0.75 0 0] CT
0.149 GC
2 setlinecap
1 LJ
0.667 LW
N
58 202 M
298 202 L
S
GR
GS
[0.75 0 0 0.75 0 0] CT
0.149 GC
2 setlinecap
1 LJ
0.667 LW
N
58 22 M
298 22 L
S
GR
GS
[0.75 0 0 0.75 0 0] CT
0.149 GC
2 setlinecap
1 LJ
0.667 LW
N
58 202 M
58 199.6 L
S
GR
GS
[0.75 0 0 0.75 0 0] CT
0.149 GC
2 setlinecap
1 LJ
0.667 LW
N
106 202 M
106 199.6 L
S
GR
GS
[0.75 0 0 0.75 0 0] CT
0.149 GC
2 setlinecap
1 LJ
0.667 LW
N
154 202 M
154 199.6 L
S
GR
GS
[0.75 0 0 0.75 0 0] CT
0.149 GC
2 setlinecap
1 LJ
0.667 LW
N
202 202 M
202 199.6 L
S
GR
GS
[0.75 0 0 0.75 0 0] CT
0.149 GC
2 setlinecap
1 LJ
0.667 LW
N
250 202 M
250 199.6 L
S
GR
GS
[0.75 0 0 0.75 0 0] CT
0.149 GC
2 setlinecap
1 LJ
0.667 LW
N
298 202 M
298 199.6 L
S
GR
GS
[0.75 0 0 0.75 0 0] CT
0.149 GC
2 setlinecap
1 LJ
0.667 LW
N
58 22 M
58 24.4 L
S
GR
GS
[0.75 0 0 0.75 0 0] CT
0.149 GC
2 setlinecap
1 LJ
0.667 LW
N
106 22 M
106 24.4 L
S
GR
GS
[0.75 0 0 0.75 0 0] CT
0.149 GC
2 setlinecap
1 LJ
0.667 LW
N
154 22 M
154 24.4 L
S
GR
GS
[0.75 0 0 0.75 0 0] CT
0.149 GC
2 setlinecap
1 LJ
0.667 LW
N
202 22 M
202 24.4 L
S
GR
GS
[0.75 0 0 0.75 0 0] CT
0.149 GC
2 setlinecap
1 LJ
0.667 LW
N
250 22 M
250 24.4 L
S
GR
GS
[0.75 0 0 0.75 0 0] CT
0.149 GC
2 setlinecap
1 LJ
0.667 LW
N
298 22 M
298 24.4 L
S
GR
GS
[0.75 0 0 0.75 43.5 155.5] CT
0.149 GC
/Times-Roman 13.333 F
GS
[1 0 0 1 0 0] CT
-3.5 13 moveto 
1 -1 scale
(0) t 
GR
GR
GS
[0.75 0 0 0.75 79.5 155.5] CT
0.149 GC
/Times-Roman 13.333 F
GS
[1 0 0 1 0 0] CT
-10 13 moveto 
1 -1 scale
(100) t 
GR
GR
GS
[0.75 0 0 0.75 115.5 155.5] CT
0.149 GC
/Times-Roman 13.333 F
GS
[1 0 0 1 0 0] CT
-10 13 moveto 
1 -1 scale
(200) t 
GR
GR
GS
[0.75 0 0 0.75 151.5 155.5] CT
0.149 GC
/Times-Roman 13.333 F
GS
[1 0 0 1 0 0] CT
-10 13 moveto 
1 -1 scale
(300) t 
GR
GR
GS
[0.75 0 0 0.75 187.5 155.5] CT
0.149 GC
/Times-Roman 13.333 F
GS
[1 0 0 1 0 0] CT
-10 13 moveto 
1 -1 scale
(400) t 
GR
GR
GS
[0.75 0 0 0.75 223.5 155.5] CT
0.149 GC
/Times-Roman 13.333 F
GS
[1 0 0 1 0 0] CT
-10 13 moveto 
1 -1 scale
(500) t 
GR
GR
GS
[0.75 0 0 0.75 0 0] CT
0.149 GC
2 setlinecap
1 LJ
0.667 LW
N
58 202 M
58 22 L
S
GR
GS
[0.75 0 0 0.75 0 0] CT
0.149 GC
2 setlinecap
1 LJ
0.667 LW
N
298 202 M
298 22 L
S
GR
GS
[0.75 0 0 0.75 0 0] CT
0.149 GC
2 setlinecap
1 LJ
0.667 LW
N
58 202 M
60.4 202 L
S
GR
GS
[0.75 0 0 0.75 0 0] CT
0.149 GC
2 setlinecap
1 LJ
0.667 LW
N
58 157 M
60.4 157 L
S
GR
GS
[0.75 0 0 0.75 0 0] CT
0.149 GC
2 setlinecap
1 LJ
0.667 LW
N
58 112 M
60.4 112 L
S
GR
GS
[0.75 0 0 0.75 0 0] CT
0.149 GC
2 setlinecap
1 LJ
0.667 LW
N
58 67 M
60.4 67 L
S
GR
GS
[0.75 0 0 0.75 0 0] CT
0.149 GC
2 setlinecap
1 LJ
0.667 LW
N
58 22 M
60.4 22 L
S
GR
GS
[0.75 0 0 0.75 0 0] CT
0.149 GC
2 setlinecap
1 LJ
0.667 LW
N
298 202 M
295.6 202 L
S
GR
GS
[0.75 0 0 0.75 0 0] CT
0.149 GC
2 setlinecap
1 LJ
0.667 LW
N
298 157 M
295.6 157 L
S
GR
GS
[0.75 0 0 0.75 0 0] CT
0.149 GC
2 setlinecap
1 LJ
0.667 LW
N
298 112 M
295.6 112 L
S
GR
GS
[0.75 0 0 0.75 0 0] CT
0.149 GC
2 setlinecap
1 LJ
0.667 LW
N
298 67 M
295.6 67 L
S
GR
GS
[0.75 0 0 0.75 0 0] CT
0.149 GC
2 setlinecap
1 LJ
0.667 LW
N
298 22 M
295.6 22 L
S
GR
GS
[0.75 0 0 0.75 39.5 151.5] CT
0.149 GC
/Times-Roman 13.333 F
GS
[1 0 0 1 0 0] CT
-7 5 moveto 
1 -1 scale
(0) t 
GR
GR
GS
[0.75 0 0 0.75 39.5 117.75] CT
0.149 GC
/Times-Roman 13.333 F
GS
[1 0 0 1 0 0] CT
-17 5 moveto 
1 -1 scale
(0.5) t 
GR
GR
GS
[0.75 0 0 0.75 39.5 84] CT
0.149 GC
/Times-Roman 13.333 F
GS
[1 0 0 1 0 0] CT
-7 5 moveto 
1 -1 scale
(1) t 
GR
GR
GS
[0.75 0 0 0.75 39.5 50.25] CT
0.149 GC
/Times-Roman 13.333 F
GS
[1 0 0 1 0 0] CT
-17 5 moveto 
1 -1 scale
(1.5) t 
GR
GR
GS
[0.75 0 0 0.75 39.5 16.5] CT
0.149 GC
/Times-Roman 13.333 F
GS
[1 0 0 1 0 0] CT
-7 5 moveto 
1 -1 scale
(2) t 
GR
GR
GS
[0.75 0 0 0.75 0 0] CT
0.345 0.537 0.69 RC
1 LJ
2.667 LW
N
58 112 M
60.4 113.339 L
62.8 114.875 L
65.2 116.508 L
67.6 118.211 L
70 119.954 L
72.4 121.723 L
74.8 123.501 L
77.2 125.278 L
79.6 127.043 L
82 128.786 L
84.4 130.503 L
86.8 132.189 L
89.2 133.839 L
91.6 135.451 L
94 137.025 L
96.4 138.558 L
98.8 140.05 L
101.2 141.504 L
103.6 142.919 L
106 144.296 L
108.4 145.637 L
110.8 146.942 L
113.2 148.212 L
115.6 149.446 L
118 150.648 L
120.4 151.816 L
122.8 152.953 L
125.2 154.058 L
127.6 155.135 L
130 156.185 L
132.4 157.204 L
134.8 158.196 L
137.2 159.164 L
139.6 160.105 L
142 161.02 L
144.4 161.91 L
146.8 162.78 L
149.2 163.626 L
151.6 164.447 L
154 165.249 L
156.4 166.032 L
158.8 166.794 L
161.2 167.534 L
163.6 168.256 L
166 168.961 L
168.4 169.647 L
170.8 170.316 L
173.2 170.967 L
175.6 171.603 L
178 172.223 L
180.4 172.827 L
182.8 173.417 L
185.2 173.993 L
187.6 174.555 L
190 175.104 L
192.4 175.64 L
194.8 176.165 L
197.2 176.677 L
199.6 177.176 L
202 177.664 L
204.4 178.142 L
206.8 178.609 L
209.2 179.066 L
211.6 179.514 L
214 179.95 L
216.4 180.376 L
218.8 180.792 L
221.2 181.2 L
223.6 181.599 L
226 181.989 L
228.4 182.371 L
230.8 182.744 L
233.2 183.108 L
235.6 183.465 L
238 183.815 L
240.4 184.156 L
242.8 184.49 L
245.2 184.817 L
247.6 185.137 L
250 185.45 L
252.4 185.756 L
254.8 186.056 L
257.2 186.348 L
259.6 186.635 L
262 186.917 L
264.4 187.193 L
266.8 187.464 L
269.2 187.729 L
271.6 187.987 L
274 188.24 L
276.4 188.486 L
278.8 188.73 L
S
GR
GS
[0.75 0 0 0.75 0 0] CT
0.345 0.537 0.69 RC
[8 8] 0 setdash
2 LJ
2.667 LW
N
58 112 M
60.4 113.61 L
62.8 115.47 L
65.2 117.453 L
67.6 119.52 L
70 121.636 L
72.4 123.768 L
74.8 125.89 L
77.2 127.984 L
79.6 130.037 L
82 132.04 L
84.4 133.992 L
86.8 135.886 L
89.2 137.723 L
91.6 139.502 L
94 141.224 L
96.4 142.89 L
98.8 144.5 L
101.2 146.057 L
103.6 147.56 L
106 149.013 L
108.4 150.417 L
110.8 151.774 L
113.2 153.085 L
115.6 154.352 L
118 155.578 L
120.4 156.764 L
122.8 157.912 L
125.2 159.022 L
127.6 160.099 L
130 161.143 L
132.4 162.152 L
134.8 163.133 L
137.2 164.084 L
139.6 165.006 L
142 165.901 L
144.4 166.77 L
146.8 167.614 L
149.2 168.434 L
151.6 169.229 L
154 170.003 L
156.4 170.756 L
158.8 171.486 L
161.2 172.197 L
163.6 172.887 L
166 173.558 L
168.4 174.212 L
170.8 174.846 L
173.2 175.464 L
175.6 176.066 L
178 176.651 L
180.4 177.22 L
182.8 177.775 L
185.2 178.314 L
187.6 178.839 L
190 179.352 L
192.4 179.85 L
194.8 180.335 L
197.2 180.808 L
199.6 181.268 L
202 181.718 L
204.4 182.155 L
206.8 182.582 L
209.2 182.997 L
211.6 183.402 L
214 183.797 L
216.4 184.181 L
218.8 184.556 L
221.2 184.922 L
223.6 185.279 L
226 185.626 L
228.4 185.966 L
230.8 186.299 L
233.2 186.623 L
235.6 186.94 L
238 187.249 L
240.4 187.551 L
242.8 187.845 L
245.2 188.13 L
247.6 188.41 L
250 188.684 L
252.4 188.951 L
254.8 189.211 L
257.2 189.464 L
259.6 189.71 L
262 189.948 L
264.4 190.184 L
266.8 190.414 L
269.2 190.638 L
271.6 190.858 L
274 191.07 L
276.4 191.278 L
278.8 191.48 L
S
GR
GS
[0.75 0 0 0.75 0 0] CT
0.914 0.282 0.286 RC
1 LJ
2.667 LW
N
58 112 M
60.4 112.931 L
62.8 113.703 L
65.2 114.372 L
67.6 114.955 L
70 115.473 L
72.4 115.934 L
74.8 116.348 L
77.2 116.725 L
79.6 117.072 L
82 117.396 L
84.4 117.701 L
86.8 117.994 L
89.2 118.277 L
91.6 118.553 L
94 118.825 L
96.4 119.092 L
98.8 119.358 L
101.2 119.622 L
103.6 119.885 L
106 120.146 L
108.4 120.406 L
110.8 120.664 L
113.2 120.924 L
115.6 121.182 L
118 121.44 L
120.4 121.698 L
122.8 121.957 L
125.2 122.215 L
127.6 122.473 L
130 122.731 L
132.4 122.988 L
134.8 123.245 L
137.2 123.502 L
139.6 123.758 L
142 124.014 L
144.4 124.269 L
146.8 124.523 L
149.2 124.777 L
151.6 125.03 L
154 125.281 L
156.4 125.532 L
158.8 125.782 L
161.2 126.031 L
163.6 126.278 L
166 126.525 L
168.4 126.77 L
170.8 127.014 L
173.2 127.256 L
175.6 127.497 L
178 127.736 L
180.4 127.974 L
182.8 128.211 L
185.2 128.446 L
187.6 128.679 L
190 128.91 L
192.4 129.14 L
194.8 129.368 L
197.2 129.594 L
199.6 129.818 L
202 130.041 L
204.4 130.262 L
206.8 130.481 L
209.2 130.697 L
211.6 130.913 L
214 131.127 L
216.4 131.338 L
218.8 131.548 L
221.2 131.756 L
223.6 131.962 L
226 132.166 L
228.4 132.369 L
230.8 132.57 L
233.2 132.769 L
235.6 132.966 L
238 133.162 L
240.4 133.355 L
242.8 133.547 L
245.2 133.737 L
247.6 133.925 L
250 134.111 L
252.4 134.297 L
254.8 134.479 L
257.2 134.661 L
259.6 134.84 L
262 135.018 L
264.4 135.195 L
266.8 135.369 L
269.2 135.543 L
271.6 135.714 L
274 135.884 L
276.4 136.052 L
278.8 136.218 L
S
GR
GS
[0.75 0 0 0.75 0 0] CT
0.914 0.282 0.286 RC
[8 8] 0 setdash
2 LJ
2.667 LW
N
58 112 M
60.4 113.436 L
62.8 114.479 L
65.2 115.28 L
67.6 115.916 L
70 116.438 L
72.4 116.886 L
74.8 117.289 L
77.2 117.662 L
79.6 118.015 L
82 118.356 L
84.4 118.689 L
86.8 119.018 L
89.2 119.346 L
91.6 119.673 L
94 120 L
96.4 120.329 L
98.8 120.659 L
101.2 120.991 L
103.6 121.324 L
106 121.659 L
108.4 121.994 L
110.8 122.331 L
113.2 122.669 L
115.6 123.007 L
118 123.345 L
120.4 123.685 L
122.8 124.022 L
125.2 124.36 L
127.6 124.695 L
130 125.03 L
132.4 125.363 L
134.8 125.694 L
137.2 126.024 L
139.6 126.35 L
142 126.674 L
144.4 126.996 L
146.8 127.314 L
149.2 127.63 L
151.6 127.944 L
154 128.254 L
156.4 128.561 L
158.8 128.864 L
161.2 129.166 L
163.6 129.463 L
166 129.758 L
168.4 130.049 L
170.8 130.337 L
173.2 130.622 L
175.6 130.904 L
178 131.182 L
180.4 131.457 L
182.8 131.729 L
185.2 131.998 L
187.6 132.264 L
190 132.526 L
192.4 132.786 L
194.8 133.041 L
197.2 133.294 L
199.6 133.544 L
202 133.792 L
204.4 134.036 L
206.8 134.276 L
209.2 134.514 L
211.6 134.749 L
214 134.982 L
216.4 135.211 L
218.8 135.438 L
221.2 135.662 L
223.6 135.882 L
226 136.101 L
228.4 136.317 L
230.8 136.53 L
233.2 136.742 L
235.6 136.951 L
238 137.157 L
240.4 137.361 L
242.8 137.563 L
245.2 137.762 L
247.6 137.958 L
250 138.152 L
252.4 138.345 L
254.8 138.535 L
257.2 138.722 L
259.6 138.907 L
262 139.09 L
264.4 139.271 L
266.8 139.45 L
269.2 139.627 L
271.6 139.802 L
274 139.975 L
276.4 140.145 L
278.8 140.313 L
S
GR
GS
[0.75 0 0 0.75 0 0] CT
0.443 0.749 0.431 RC
1 LJ
2.667 LW
N
58 112 M
60.4 111.334 L
62.8 110.632 L
65.2 109.957 L
67.6 109.363 L
70 108.832 L
72.4 108.364 L
74.8 107.95 L
77.2 107.59 L
79.6 107.266 L
82 106.987 L
84.4 106.735 L
86.8 106.51 L
89.2 106.303 L
91.6 106.123 L
94 105.961 L
96.4 105.808 L
98.8 105.682 L
101.2 105.565 L
103.6 105.466 L
106 105.376 L
108.4 105.304 L
110.8 105.241 L
113.2 105.187 L
115.6 105.142 L
118 105.106 L
120.4 105.079 L
122.8 105.061 L
125.2 105.052 L
127.6 105.052 L
130 105.061 L
132.4 105.07 L
134.8 105.088 L
137.2 105.106 L
139.6 105.142 L
142 105.169 L
144.4 105.214 L
146.8 105.259 L
149.2 105.304 L
151.6 105.358 L
154 105.412 L
156.4 105.475 L
158.8 105.538 L
161.2 105.61 L
163.6 105.673 L
166 105.754 L
168.4 105.826 L
170.8 105.907 L
173.2 105.988 L
175.6 106.069 L
178 106.15 L
180.4 106.24 L
182.8 106.33 L
185.2 106.42 L
187.6 106.51 L
190 106.6 L
192.4 106.699 L
194.8 106.789 L
197.2 106.888 L
199.6 106.987 L
202 107.077 L
204.4 107.176 L
206.8 107.275 L
209.2 107.374 L
211.6 107.473 L
214 107.572 L
216.4 107.671 L
218.8 107.779 L
221.2 107.878 L
223.6 107.977 L
226 108.076 L
228.4 108.184 L
230.8 108.283 L
233.2 108.382 L
235.6 108.49 L
238 108.589 L
240.4 108.688 L
242.8 108.787 L
245.2 108.895 L
247.6 108.994 L
250 109.093 L
252.4 109.192 L
254.8 109.291 L
257.2 109.399 L
259.6 109.498 L
262 109.597 L
264.4 109.696 L
266.8 109.786 L
269.2 109.885 L
271.6 109.984 L
274 110.083 L
276.4 110.182 L
278.8 110.272 L
S
GR
GS
[0.75 0 0 0.75 0 0] CT
0.443 0.749 0.431 RC
[8 8] 0 setdash
2 LJ
2.667 LW
N
58 112 M
60.4 111.028 L
62.8 110.2 L
65.2 109.48 L
67.6 108.859 L
70 108.328 L
72.4 107.869 L
74.8 107.473 L
77.2 107.122 L
79.6 106.816 L
82 106.555 L
84.4 106.33 L
86.8 106.132 L
89.2 105.961 L
91.6 105.826 L
94 105.709 L
96.4 105.61 L
98.8 105.538 L
101.2 105.484 L
103.6 105.448 L
106 105.421 L
108.4 105.421 L
110.8 105.43 L
113.2 105.448 L
115.6 105.475 L
118 105.52 L
120.4 105.574 L
122.8 105.637 L
125.2 105.7 L
127.6 105.781 L
130 105.862 L
132.4 105.952 L
134.8 106.042 L
137.2 106.141 L
139.6 106.249 L
142 106.357 L
144.4 106.465 L
146.8 106.582 L
149.2 106.699 L
151.6 106.825 L
154 106.951 L
156.4 107.077 L
158.8 107.203 L
161.2 107.329 L
163.6 107.464 L
166 107.59 L
168.4 107.725 L
170.8 107.86 L
173.2 107.995 L
175.6 108.13 L
178 108.274 L
180.4 108.409 L
182.8 108.544 L
185.2 108.688 L
187.6 108.823 L
190 108.958 L
192.4 109.102 L
194.8 109.237 L
197.2 109.372 L
199.6 109.516 L
202 109.651 L
204.4 109.786 L
206.8 109.921 L
209.2 110.065 L
211.6 110.2 L
214 110.335 L
216.4 110.47 L
218.8 110.605 L
221.2 110.74 L
223.6 110.875 L
226 111.001 L
228.4 111.136 L
230.8 111.271 L
233.2 111.397 L
235.6 111.532 L
238 111.658 L
240.4 111.784 L
242.8 111.919 L
245.2 112.044 L
247.6 112.171 L
250 112.297 L
252.4 112.422 L
254.8 112.547 L
257.2 112.671 L
259.6 112.794 L
262 112.916 L
264.4 113.038 L
266.8 113.157 L
269.2 113.277 L
271.6 113.396 L
274 113.514 L
276.4 113.631 L
278.8 113.747 L
S
GR
GS
[0.75 0 0 0.75 0 0] CT
1 0.6 0.2 RC
1 LJ
2.667 LW
N
58 112 M
60.4 111.235 L
62.8 110.488 L
65.2 109.777 L
67.6 109.102 L
70 108.445 L
72.4 107.788 L
74.8 107.14 L
77.2 106.492 L
79.6 105.844 L
82 105.196 L
84.4 104.53 L
86.8 103.864 L
89.2 103.189 L
91.6 102.505 L
94 101.812 L
96.4 101.119 L
98.8 100.417 L
101.2 99.706 L
103.6 98.986 L
106 98.266 L
108.4 97.546 L
110.8 96.826 L
113.2 96.097 L
115.6 95.377 L
118 94.648 L
120.4 93.919 L
122.8 93.199 L
125.2 92.47 L
127.6 91.75 L
130 91.03 L
132.4 90.31 L
134.8 89.59 L
137.2 88.879 L
139.6 88.168 L
142 87.466 L
144.4 86.764 L
146.8 86.071 L
149.2 85.369 L
151.6 84.685 L
154 84.001 L
156.4 83.317 L
158.8 82.642 L
161.2 81.976 L
163.6 81.31 L
166 80.653 L
168.4 79.996 L
170.8 79.348 L
173.2 78.7 L
175.6 78.061 L
178 77.431 L
180.4 76.801 L
182.8 76.18 L
185.2 75.559 L
187.6 74.947 L
190 74.344 L
192.4 73.741 L
194.8 73.147 L
197.2 72.562 L
199.6 71.977 L
202 71.392 L
204.4 70.825 L
206.8 70.249 L
209.2 69.691 L
211.6 69.133 L
214 68.575 L
216.4 68.035 L
218.8 67.486 L
221.2 66.946 L
223.6 66.415 L
226 65.884 L
228.4 65.362 L
230.8 64.849 L
233.2 64.327 L
235.6 63.823 L
238 63.319 L
240.4 62.815 L
242.8 62.32 L
245.2 61.825 L
247.6 61.339 L
250 60.853 L
252.4 60.376 L
254.8 59.908 L
257.2 59.431 L
259.6 58.972 L
262 58.504 L
264.4 58.054 L
266.8 57.595 L
269.2 57.145 L
271.6 56.704 L
274 56.263 L
276.4 55.831 L
278.8 55.399 L
S
GR
GS
[0.75 0 0 0.75 0 0] CT
1 0.6 0.2 RC
[8 8] 0 setdash
2 LJ
2.667 LW
N
58 112 M
60.4 111.073 L
62.8 110.164 L
65.2 109.291 L
67.6 108.454 L
70 107.635 L
72.4 106.825 L
74.8 106.024 L
77.2 105.214 L
79.6 104.413 L
82 103.603 L
84.4 102.784 L
86.8 101.974 L
89.2 101.155 L
91.6 100.327 L
94 99.508 L
96.4 98.68 L
98.8 97.852 L
101.2 97.033 L
103.6 96.205 L
106 95.386 L
108.4 94.576 L
110.8 93.757 L
113.2 92.947 L
115.6 92.146 L
118 91.354 L
120.4 90.562 L
122.8 89.779 L
125.2 88.996 L
127.6 88.231 L
130 87.475 L
132.4 86.719 L
134.8 85.972 L
137.2 85.243 L
139.6 84.514 L
142 83.794 L
144.4 83.083 L
146.8 82.39 L
149.2 81.697 L
151.6 81.013 L
154 80.338 L
156.4 79.681 L
158.8 79.024 L
161.2 78.376 L
163.6 77.746 L
166 77.116 L
168.4 76.495 L
170.8 75.883 L
173.2 75.28 L
175.6 74.686 L
178 74.101 L
180.4 73.525 L
182.8 72.949 L
185.2 72.391 L
187.6 71.833 L
190 71.293 L
192.4 70.753 L
194.8 70.222 L
197.2 69.691 L
199.6 69.178 L
202 68.665 L
204.4 68.161 L
206.8 67.666 L
209.2 67.171 L
211.6 66.694 L
214 66.217 L
216.4 65.74 L
218.8 65.272 L
221.2 64.813 L
223.6 64.363 L
226 63.913 L
228.4 63.472 L
230.8 63.04 L
233.2 62.599 L
235.6 62.176 L
238 61.753 L
240.4 61.339 L
242.8 60.925 L
245.2 60.52 L
247.6 60.115 L
250 59.719 L
252.4 59.323 L
254.8 58.936 L
257.2 58.549 L
259.6 58.171 L
262 57.793 L
264.4 57.424 L
266.8 57.055 L
269.2 56.695 L
271.6 56.335 L
274 55.984 L
276.4 55.633 L
278.8 55.291 L
S
GR
GS
[0.75 0 0 0.75 133.5 165] CT
0.149 GC
/Times-Roman 14.667 F
GS
[1 0 0 1 0 0] CT
-24.5 14 moveto 
1 -1 scale
(Time / s) t 
GR
GR
GS
[0 -0.75 0.75 0 16.5 89.25] CT
0.149 GC
N
2.422 0.172 M
1.734 0.172 1.328 -0.328 QT
0.922 -0.828 0.758 -1.531 QT
0.594 -2.234 0.594 -2.922 QT
0.594 -2.938 L
0.594 -3.688 0.742 -4.492 QT
0.891 -5.297 1.156 -6.102 QT
1.422 -6.906 1.75 -7.531 QT
1.969 -7.969 2.313 -8.508 QT
2.656 -9.047 3.086 -9.523 QT
3.516 -10 4.008 -10.289 QT
4.5 -10.578 5.016 -10.578 QT
5.031 -10.578 L
5.563 -10.578 5.93 -10.273 QT
6.297 -9.969 6.492 -9.5 QT
6.688 -9.031 6.773 -8.5 QT
6.859 -7.969 6.859 -7.484 QT
6.859 -6.344 6.547 -5.164 QT
6.234 -3.984 5.703 -2.875 QT
5.5 -2.469 5.133 -1.898 QT
4.766 -1.328 4.359 -0.883 QT
3.953 -0.438 3.445 -0.133 QT
2.938 0.172 2.438 0.172 QT
2.422 0.172 L
cp
2.453 -0.234 M
2.938 -0.234 3.398 -0.766 QT
3.859 -1.297 4.203 -2.055 QT
4.547 -2.813 4.805 -3.602 QT
5.063 -4.391 5.188 -4.953 QT
2.125 -4.953 L
1.891 -4 1.766 -3.32 QT
1.641 -2.641 1.641 -1.984 QT
1.641 -0.234 2.453 -0.234 QT
cp
2.25 -5.484 M
5.328 -5.484 L
5.484 -6.141 5.578 -6.586 QT
5.672 -7.031 5.742 -7.516 QT
5.813 -8 5.813 -8.438 QT
5.813 -10.188 5.016 -10.188 QT
4.063 -10.188 3.367 -8.656 QT
2.672 -7.125 2.25 -5.484 QT
cp
f
GR
GS
[0 -0.75 0.75 0 21.75 84] CT
0.149 GC
/Times-Roman 11.733 F
GS
[1 0 0 1 0 0] CT
0 0 moveto 
1 -1 scale
(e) t 
GR
GR
%%Trailer
%%Pages: 1
%%EOF
