%!PS-Adobe-3.0 EPSF-3.0
%%Creator: (MATLAB, The Mathworks, Inc. Version 9.3.0.713579 \(R2017b\). Operating System: Windows 7)
%%Title: F:/Lab/Git/Git_LMPROM2/Figures/thetae_FUDS.eps
%%CreationDate: 2019-06-10T12:15:42
%%Pages: (atend)
%%BoundingBox: 0 0 272 180
%%LanguageLevel: 3
%%EndComments
%%BeginProlog
%%BeginResource: procset (Apache XML Graphics Std ProcSet) 1.2 0
%%Version: 1.2 0
%%Copyright: (Copyright 2001-2003,2010 The Apache Software Foundation. License terms: http://www.apache.org/licenses/LICENSE-2.0)
/bd{bind def}bind def
/ld{load def}bd
/GR/grestore ld
/GS/gsave ld
/RM/rmoveto ld
/C/curveto ld
/t/show ld
/L/lineto ld
/ML/setmiterlimit ld
/CT/concat ld
/f/fill ld
/N/newpath ld
/S/stroke ld
/CC/setcmykcolor ld
/A/ashow ld
/cp/closepath ld
/RC/setrgbcolor ld
/LJ/setlinejoin ld
/GC/setgray ld
/LW/setlinewidth ld
/M/moveto ld
/re {4 2 roll M
1 index 0 rlineto
0 exch rlineto
neg 0 rlineto
cp } bd
/_ctm matrix def
/_tm matrix def
/BT { _ctm currentmatrix pop matrix _tm copy pop 0 0 moveto } bd
/ET { _ctm setmatrix } bd
/iTm { _ctm setmatrix _tm concat } bd
/Tm { _tm astore pop iTm 0 0 moveto } bd
/ux 0.0 def
/uy 0.0 def
/F {
  /Tp exch def
  /Tf exch def
  Tf findfont Tp scalefont setfont
  /cf Tf def  /cs Tp def
} bd
/ULS {currentpoint /uy exch def /ux exch def} bd
/ULE {
  /Tcx currentpoint pop def
  gsave
  newpath
  cf findfont cs scalefont dup
  /FontMatrix get 0 get /Ts exch def /FontInfo get dup
  /UnderlinePosition get Ts mul /To exch def
  /UnderlineThickness get Ts mul /Tt exch def
  ux uy To add moveto  Tcx uy To add lineto
  Tt setlinewidth stroke
  grestore
} bd
/OLE {
  /Tcx currentpoint pop def
  gsave
  newpath
  cf findfont cs scalefont dup
  /FontMatrix get 0 get /Ts exch def /FontInfo get dup
  /UnderlinePosition get Ts mul /To exch def
  /UnderlineThickness get Ts mul /Tt exch def
  ux uy To add cs add moveto Tcx uy To add cs add lineto
  Tt setlinewidth stroke
  grestore
} bd
/SOE {
  /Tcx currentpoint pop def
  gsave
  newpath
  cf findfont cs scalefont dup
  /FontMatrix get 0 get /Ts exch def /FontInfo get dup
  /UnderlinePosition get Ts mul /To exch def
  /UnderlineThickness get Ts mul /Tt exch def
  ux uy To add cs 10 mul 26 idiv add moveto Tcx uy To add cs 10 mul 26 idiv add lineto
  Tt setlinewidth stroke
  grestore
} bd
/QT {
/Y22 exch store
/X22 exch store
/Y21 exch store
/X21 exch store
currentpoint
/Y21 load 2 mul add 3 div exch
/X21 load 2 mul add 3 div exch
/X21 load 2 mul /X22 load add 3 div
/Y21 load 2 mul /Y22 load add 3 div
/X22 load /Y22 load curveto
} bd
/SSPD {
dup length /d exch dict def
{
/v exch def
/k exch def
currentpagedevice k known {
/cpdv currentpagedevice k get def
v cpdv ne {
/upd false def
/nullv v type /nulltype eq def
/nullcpdv cpdv type /nulltype eq def
nullv nullcpdv or
{
/upd true def
} {
/sametype v type cpdv type eq def
sametype {
v type /arraytype eq {
/vlen v length def
/cpdvlen cpdv length def
vlen cpdvlen eq {
0 1 vlen 1 sub {
/i exch def
/obj v i get def
/cpdobj cpdv i get def
obj cpdobj ne {
/upd true def
exit
} if
} for
} {
/upd true def
} ifelse
} {
v type /dicttype eq {
v {
/dv exch def
/dk exch def
/cpddv cpdv dk get def
dv cpddv ne {
/upd true def
exit
} if
} forall
} {
/upd true def
} ifelse
} ifelse
} if
} ifelse
upd true eq {
d k v put
} if
} if
} if
} forall
d length 0 gt {
d setpagedevice
} if
} bd
/RE { % /NewFontName [NewEncodingArray] /FontName RE -
  findfont dup length dict begin
  {
    1 index /FID ne
    {def} {pop pop} ifelse
  } forall
  /Encoding exch def
  /FontName 1 index def
  currentdict definefont pop
  end
} bind def
%%EndResource
%%BeginResource: procset (Apache XML Graphics EPS ProcSet) 1.0 0
%%Version: 1.0 0
%%Copyright: (Copyright 2002-2003 The Apache Software Foundation. License terms: http://www.apache.org/licenses/LICENSE-2.0)
/BeginEPSF { %def
/b4_Inc_state save def         % Save state for cleanup
/dict_count countdictstack def % Count objects on dict stack
/op_count count 1 sub def      % Count objects on operand stack
userdict begin                 % Push userdict on dict stack
/showpage { } def              % Redefine showpage, { } = null proc
0 setgray 0 setlinecap         % Prepare graphics state
1 setlinewidth 0 setlinejoin
10 setmiterlimit [ ] 0 setdash newpath
/languagelevel where           % If level not equal to 1 then
{pop languagelevel             % set strokeadjust and
1 ne                           % overprint to their defaults.
{false setstrokeadjust false setoverprint
} if
} if
} bd
/EndEPSF { %def
count op_count sub {pop} repeat            % Clean up stacks
countdictstack dict_count sub {end} repeat
b4_Inc_state restore
} bd
%%EndResource
%FOPBeginFontDict
%%IncludeResource: font Courier-Oblique
%%IncludeResource: font Courier-BoldOblique
%%IncludeResource: font Courier-Bold
%%IncludeResource: font ZapfDingbats
%%IncludeResource: font Symbol
%%IncludeResource: font Helvetica
%%IncludeResource: font Helvetica-Oblique
%%IncludeResource: font Helvetica-Bold
%%IncludeResource: font Helvetica-BoldOblique
%%IncludeResource: font Times-Roman
%%IncludeResource: font Times-Italic
%%IncludeResource: font Times-Bold
%%IncludeResource: font Times-BoldItalic
%%IncludeResource: font Courier
%FOPEndFontDict
%%BeginResource: encoding WinAnsiEncoding
/WinAnsiEncoding [
/.notdef /.notdef /.notdef /.notdef /.notdef
/.notdef /.notdef /.notdef /.notdef /.notdef
/.notdef /.notdef /.notdef /.notdef /.notdef
/.notdef /.notdef /.notdef /.notdef /.notdef
/.notdef /.notdef /.notdef /.notdef /.notdef
/.notdef /.notdef /.notdef /.notdef /.notdef
/.notdef /.notdef /space /exclam /quotedbl
/numbersign /dollar /percent /ampersand /quotesingle
/parenleft /parenright /asterisk /plus /comma
/hyphen /period /slash /zero /one
/two /three /four /five /six
/seven /eight /nine /colon /semicolon
/less /equal /greater /question /at
/A /B /C /D /E
/F /G /H /I /J
/K /L /M /N /O
/P /Q /R /S /T
/U /V /W /X /Y
/Z /bracketleft /backslash /bracketright /asciicircum
/underscore /quoteleft /a /b /c
/d /e /f /g /h
/i /j /k /l /m
/n /o /p /q /r
/s /t /u /v /w
/x /y /z /braceleft /bar
/braceright /asciitilde /bullet /Euro /bullet
/quotesinglbase /florin /quotedblbase /ellipsis /dagger
/daggerdbl /circumflex /perthousand /Scaron /guilsinglleft
/OE /bullet /Zcaron /bullet /bullet
/quoteleft /quoteright /quotedblleft /quotedblright /bullet
/endash /emdash /asciitilde /trademark /scaron
/guilsinglright /oe /bullet /zcaron /Ydieresis
/space /exclamdown /cent /sterling /currency
/yen /brokenbar /section /dieresis /copyright
/ordfeminine /guillemotleft /logicalnot /sfthyphen /registered
/macron /degree /plusminus /twosuperior /threesuperior
/acute /mu /paragraph /middot /cedilla
/onesuperior /ordmasculine /guillemotright /onequarter /onehalf
/threequarters /questiondown /Agrave /Aacute /Acircumflex
/Atilde /Adieresis /Aring /AE /Ccedilla
/Egrave /Eacute /Ecircumflex /Edieresis /Igrave
/Iacute /Icircumflex /Idieresis /Eth /Ntilde
/Ograve /Oacute /Ocircumflex /Otilde /Odieresis
/multiply /Oslash /Ugrave /Uacute /Ucircumflex
/Udieresis /Yacute /Thorn /germandbls /agrave
/aacute /acircumflex /atilde /adieresis /aring
/ae /ccedilla /egrave /eacute /ecircumflex
/edieresis /igrave /iacute /icircumflex /idieresis
/eth /ntilde /ograve /oacute /ocircumflex
/otilde /odieresis /divide /oslash /ugrave
/uacute /ucircumflex /udieresis /yacute /thorn
/ydieresis
] def
%%EndResource
%FOPBeginFontReencode
/Courier-Oblique findfont
dup length dict begin
  {1 index /FID ne {def} {pop pop} ifelse} forall
  /Encoding WinAnsiEncoding def
  currentdict
end
/Courier-Oblique exch definefont pop
/Courier-BoldOblique findfont
dup length dict begin
  {1 index /FID ne {def} {pop pop} ifelse} forall
  /Encoding WinAnsiEncoding def
  currentdict
end
/Courier-BoldOblique exch definefont pop
/Courier-Bold findfont
dup length dict begin
  {1 index /FID ne {def} {pop pop} ifelse} forall
  /Encoding WinAnsiEncoding def
  currentdict
end
/Courier-Bold exch definefont pop
/Helvetica findfont
dup length dict begin
  {1 index /FID ne {def} {pop pop} ifelse} forall
  /Encoding WinAnsiEncoding def
  currentdict
end
/Helvetica exch definefont pop
/Helvetica-Oblique findfont
dup length dict begin
  {1 index /FID ne {def} {pop pop} ifelse} forall
  /Encoding WinAnsiEncoding def
  currentdict
end
/Helvetica-Oblique exch definefont pop
/Helvetica-Bold findfont
dup length dict begin
  {1 index /FID ne {def} {pop pop} ifelse} forall
  /Encoding WinAnsiEncoding def
  currentdict
end
/Helvetica-Bold exch definefont pop
/Helvetica-BoldOblique findfont
dup length dict begin
  {1 index /FID ne {def} {pop pop} ifelse} forall
  /Encoding WinAnsiEncoding def
  currentdict
end
/Helvetica-BoldOblique exch definefont pop
/Times-Roman findfont
dup length dict begin
  {1 index /FID ne {def} {pop pop} ifelse} forall
  /Encoding WinAnsiEncoding def
  currentdict
end
/Times-Roman exch definefont pop
/Times-Italic findfont
dup length dict begin
  {1 index /FID ne {def} {pop pop} ifelse} forall
  /Encoding WinAnsiEncoding def
  currentdict
end
/Times-Italic exch definefont pop
/Times-Bold findfont
dup length dict begin
  {1 index /FID ne {def} {pop pop} ifelse} forall
  /Encoding WinAnsiEncoding def
  currentdict
end
/Times-Bold exch definefont pop
/Times-BoldItalic findfont
dup length dict begin
  {1 index /FID ne {def} {pop pop} ifelse} forall
  /Encoding WinAnsiEncoding def
  currentdict
end
/Times-BoldItalic exch definefont pop
/Courier findfont
dup length dict begin
  {1 index /FID ne {def} {pop pop} ifelse} forall
  /Encoding WinAnsiEncoding def
  currentdict
end
/Courier exch definefont pop
%FOPEndFontReencode
%%EndProlog
%%Page: 1 1
%%PageBoundingBox: 0 0 272 180
%%BeginPageSetup
[1 0 0 -1 0 180] CT
%%EndPageSetup
GS
[0.75 0 0 0.75 0 0] CT
1 GC
N
0 0 363 240 re
f
GR
GS
[0.75 0 0 0.75 0 0] CT
1 GC
N
0 0 363 240 re
f
GR
GS
[0.75 0 0 0.75 0 0] CT
1 GC
N
58 200 M
297 200 L
297 18 L
58 18 L
cp
f
GR
GS
[0.75 0 0 0.75 0 0] CT
0.149 GC
2 setlinecap
1 LJ
0.667 LW
N
58 200 M
297 200 L
S
GR
GS
[0.75 0 0 0.75 0 0] CT
0.149 GC
2 setlinecap
1 LJ
0.667 LW
N
58 18 M
297 18 L
S
GR
GS
[0.75 0 0 0.75 0 0] CT
0.149 GC
2 setlinecap
1 LJ
0.667 LW
N
58 200 M
58 197.61 L
S
GR
GS
[0.75 0 0 0.75 0 0] CT
0.149 GC
2 setlinecap
1 LJ
0.667 LW
N
137.667 200 M
137.667 197.61 L
S
GR
GS
[0.75 0 0 0.75 0 0] CT
0.149 GC
2 setlinecap
1 LJ
0.667 LW
N
217.333 200 M
217.333 197.61 L
S
GR
GS
[0.75 0 0 0.75 0 0] CT
0.149 GC
2 setlinecap
1 LJ
0.667 LW
N
297 200 M
297 197.61 L
S
GR
GS
[0.75 0 0 0.75 0 0] CT
0.149 GC
2 setlinecap
1 LJ
0.667 LW
N
58 18 M
58 20.39 L
S
GR
GS
[0.75 0 0 0.75 0 0] CT
0.149 GC
2 setlinecap
1 LJ
0.667 LW
N
137.667 18 M
137.667 20.39 L
S
GR
GS
[0.75 0 0 0.75 0 0] CT
0.149 GC
2 setlinecap
1 LJ
0.667 LW
N
217.333 18 M
217.333 20.39 L
S
GR
GS
[0.75 0 0 0.75 0 0] CT
0.149 GC
2 setlinecap
1 LJ
0.667 LW
N
297 18 M
297 20.39 L
S
GR
GS
[0.75 0 0 0.75 43.5 154.00003] CT
0.149 GC
/Times-Roman 13.333 F
GS
[1 0 0 1 0 0] CT
-3.5 13 moveto 
1 -1 scale
(0) t 
GR
GR
GS
[0.75 0 0 0.75 103.25 154.00003] CT
0.149 GC
/Times-Roman 13.333 F
GS
[1 0 0 1 0 0] CT
-10 13 moveto 
1 -1 scale
(500) t 
GR
GR
GS
[0.75 0 0 0.75 163 154.00003] CT
0.149 GC
/Times-Roman 13.333 F
GS
[1 0 0 1 0 0] CT
-13.5 13 moveto 
1 -1 scale
(1000) t 
GR
GR
GS
[0.75 0 0 0.75 222.75 154.00003] CT
0.149 GC
/Times-Roman 13.333 F
GS
[1 0 0 1 0 0] CT
-13.5 13 moveto 
1 -1 scale
(1500) t 
GR
GR
GS
[0.75 0 0 0.75 133.12509 167.00012] CT
0.149 GC
/Times-Roman 14.667 F
GS
[1 0 0 1 0 0] CT
-24.5 14 moveto 
1 -1 scale
(Time / s) t 
GR
GR
GS
[0.75 0 0 0.75 0 0] CT
0 0.447 0.741 RC
2 setlinecap
1 LJ
0.667 LW
N
58 200 M
58 18 L
S
GR
GS
[0.75 0 0 0.75 0 0] CT
0 0.447 0.741 RC
2 setlinecap
1 LJ
0.667 LW
N
58 200 M
60.39 200 L
S
GR
GS
[0.75 0 0 0.75 0 0] CT
0 0.447 0.741 RC
2 setlinecap
1 LJ
0.667 LW
N
58 163.6 M
60.39 163.6 L
S
GR
GS
[0.75 0 0 0.75 0 0] CT
0 0.447 0.741 RC
2 setlinecap
1 LJ
0.667 LW
N
58 127.2 M
60.39 127.2 L
S
GR
GS
[0.75 0 0 0.75 0 0] CT
0 0.447 0.741 RC
2 setlinecap
1 LJ
0.667 LW
N
58 90.8 M
60.39 90.8 L
S
GR
GS
[0.75 0 0 0.75 0 0] CT
0 0.447 0.741 RC
2 setlinecap
1 LJ
0.667 LW
N
58 54.4 M
60.39 54.4 L
S
GR
GS
[0.75 0 0 0.75 0 0] CT
0 0.447 0.741 RC
2 setlinecap
1 LJ
0.667 LW
N
58 18 M
60.39 18 L
S
GR
GS
[0.75 0 0 0.75 39.5 150.00003] CT
0 0.447 0.741 RC
/Times-Roman 13.333 F
GS
[1 0 0 1 0 0] CT
-24 5 moveto 
1 -1 scale
(0.95) t 
GR
GR
GS
[0.75 0 0 0.75 39.5 122.70006] CT
0 0.447 0.741 RC
/Times-Roman 13.333 F
GS
[1 0 0 1 0 0] CT
-24 5 moveto 
1 -1 scale
(0.96) t 
GR
GR
GS
[0.75 0 0 0.75 39.5 95.39992] CT
0 0.447 0.741 RC
/Times-Roman 13.333 F
GS
[1 0 0 1 0 0] CT
-24 5 moveto 
1 -1 scale
(0.97) t 
GR
GR
GS
[0.75 0 0 0.75 39.5 68.09995] CT
0 0.447 0.741 RC
/Times-Roman 13.333 F
GS
[1 0 0 1 0 0] CT
-24 5 moveto 
1 -1 scale
(0.98) t 
GR
GR
GS
[0.75 0 0 0.75 39.5 40.79997] CT
0 0.447 0.741 RC
/Times-Roman 13.333 F
GS
[1 0 0 1 0 0] CT
-24 5 moveto 
1 -1 scale
(0.99) t 
GR
GR
GS
[0.75 0 0 0.75 39.5 13.5] CT
0 0.447 0.741 RC
/Times-Roman 13.333 F
GS
[1 0 0 1 0 0] CT
-7 5 moveto 
1 -1 scale
(1) t 
GR
GR
GS
[0 -0.75 0.75 0 19.5 87] CT
0 0.447 0.741 RC
N
2.422 0.172 M
1.734 0.172 1.328 -0.328 QT
0.922 -0.828 0.758 -1.531 QT
0.594 -2.234 0.594 -2.922 QT
0.594 -2.938 L
0.594 -3.688 0.742 -4.492 QT
0.891 -5.297 1.156 -6.102 QT
1.422 -6.906 1.75 -7.531 QT
1.969 -7.969 2.313 -8.508 QT
2.656 -9.047 3.086 -9.523 QT
3.516 -10 4.008 -10.289 QT
4.5 -10.578 5.016 -10.578 QT
5.031 -10.578 L
5.563 -10.578 5.93 -10.273 QT
6.297 -9.969 6.492 -9.5 QT
6.688 -9.031 6.773 -8.5 QT
6.859 -7.969 6.859 -7.484 QT
6.859 -6.344 6.547 -5.164 QT
6.234 -3.984 5.703 -2.875 QT
5.5 -2.469 5.133 -1.898 QT
4.766 -1.328 4.359 -0.883 QT
3.953 -0.438 3.445 -0.133 QT
2.938 0.172 2.438 0.172 QT
2.422 0.172 L
cp
2.453 -0.234 M
2.938 -0.234 3.398 -0.766 QT
3.859 -1.297 4.203 -2.055 QT
4.547 -2.813 4.805 -3.602 QT
5.063 -4.391 5.188 -4.953 QT
2.125 -4.953 L
1.891 -4 1.766 -3.32 QT
1.641 -2.641 1.641 -1.984 QT
1.641 -0.234 2.453 -0.234 QT
cp
2.25 -5.484 M
5.328 -5.484 L
5.484 -6.141 5.578 -6.586 QT
5.672 -7.031 5.742 -7.516 QT
5.813 -8 5.813 -8.438 QT
5.813 -10.188 5.016 -10.188 QT
4.063 -10.188 3.367 -8.656 QT
2.672 -7.125 2.25 -5.484 QT
cp
f
GR
GS
[0 -0.75 0.75 0 24.75 81.75] CT
0 0.447 0.741 RC
/Times-Roman 11.733 F
GS
[1 0 0 1 0 0] CT
0 0 moveto 
1 -1 scale
(e) t 
GR
GR
GS
[0.75 0 0 0.75 0 0] CT
0.851 0.325 0.098 RC
2 setlinecap
1 LJ
0.667 LW
N
297 200 M
297 18 L
S
GR
GS
[0.75 0 0 0.75 0 0] CT
0.851 0.325 0.098 RC
2 setlinecap
1 LJ
0.667 LW
N
297 200 M
294.61 200 L
S
GR
GS
[0.75 0 0 0.75 0 0] CT
0.851 0.325 0.098 RC
2 setlinecap
1 LJ
0.667 LW
N
297 163.6 M
294.61 163.6 L
S
GR
GS
[0.75 0 0 0.75 0 0] CT
0.851 0.325 0.098 RC
2 setlinecap
1 LJ
0.667 LW
N
297 127.2 M
294.61 127.2 L
S
GR
GS
[0.75 0 0 0.75 0 0] CT
0.851 0.325 0.098 RC
2 setlinecap
1 LJ
0.667 LW
N
297 90.8 M
294.61 90.8 L
S
GR
GS
[0.75 0 0 0.75 0 0] CT
0.851 0.325 0.098 RC
2 setlinecap
1 LJ
0.667 LW
N
297 54.4 M
294.61 54.4 L
S
GR
GS
[0.75 0 0 0.75 0 0] CT
0.851 0.325 0.098 RC
2 setlinecap
1 LJ
0.667 LW
N
297 18 M
294.61 18 L
S
GR
GS
[0.75 0 0 0.75 226.75001 150] CT
0.851 0.325 0.098 RC
/Times-Roman 13.333 F
GS
[1 0 0 1 0 0] CT
0 5 moveto 
1 -1 scale
(1) t 
GR
GR
GS
[0.75 0 0 0.75 226.75001 122.70003] CT
0.851 0.325 0.098 RC
/Times-Roman 13.333 F
GS
[1 0 0 1 0 0] CT
0 5 moveto 
1 -1 scale
(1.02) t 
GR
GR
GS
[0.75 0 0 0.75 226.75001 95.40005] CT
0.851 0.325 0.098 RC
/Times-Roman 13.333 F
GS
[1 0 0 1 0 0] CT
0 5 moveto 
1 -1 scale
(1.04) t 
GR
GR
GS
[0.75 0 0 0.75 226.75001 68.10008] CT
0.851 0.325 0.098 RC
/Times-Roman 13.333 F
GS
[1 0 0 1 0 0] CT
0 5 moveto 
1 -1 scale
(1.06) t 
GR
GR
GS
[0.75 0 0 0.75 226.75001 40.79994] CT
0.851 0.325 0.098 RC
/Times-Roman 13.333 F
GS
[1 0 0 1 0 0] CT
0 5 moveto 
1 -1 scale
(1.08) t 
GR
GR
GS
[0.75 0 0 0.75 226.75001 13.49997] CT
0.851 0.325 0.098 RC
/Times-Roman 13.333 F
GS
[1 0 0 1 0 0] CT
0 5 moveto 
1 -1 scale
(1.1) t 
GR
GR
GS
[0 -0.75 0.75 0 252.75 84.75] CT
0.851 0.325 0.098 RC
N
/f1162361650{2.422 0.172 M
1.734 0.172 1.328 -0.328 QT
0.922 -0.828 0.758 -1.531 QT
0.594 -2.234 0.594 -2.922 QT
0.594 -2.938 L
0.594 -3.688 0.742 -4.492 QT
0.891 -5.297 1.156 -6.102 QT
1.422 -6.906 1.75 -7.531 QT
1.969 -7.969 2.313 -8.508 QT
2.656 -9.047 3.086 -9.523 QT
3.516 -10 4.008 -10.289 QT
4.5 -10.578 5.016 -10.578 QT
5.031 -10.578 L
5.563 -10.578 5.93 -10.273 QT
6.297 -9.969 6.492 -9.5 QT
6.688 -9.031 6.773 -8.5 QT
6.859 -7.969 6.859 -7.484 QT
6.859 -6.344 6.547 -5.164 QT
6.234 -3.984 5.703 -2.875 QT
5.5 -2.469 5.133 -1.898 QT
4.766 -1.328 4.359 -0.883 QT
3.953 -0.438 3.445 -0.133 QT
2.938 0.172 2.438 0.172 QT
2.422 0.172 L
cp
2.453 -0.234 M
2.938 -0.234 3.398 -0.766 QT
3.859 -1.297 4.203 -2.055 QT
4.547 -2.813 4.805 -3.602 QT
5.063 -4.391 5.188 -4.953 QT
2.125 -4.953 L
1.891 -4 1.766 -3.32 QT
1.641 -2.641 1.641 -1.984 QT
1.641 -0.234 2.453 -0.234 QT
cp
2.25 -5.484 M
5.328 -5.484 L
5.484 -6.141 5.578 -6.586 QT
5.672 -7.031 5.742 -7.516 QT
5.813 -8 5.813 -8.438 QT
5.813 -10.188 5.016 -10.188 QT
4.063 -10.188 3.367 -8.656 QT
2.672 -7.125 2.25 -5.484 QT
cp}def
f1162361650
f
GR
GS
[0 -0.75 0.75 0 258 79.5] CT
0.851 0.325 0.098 RC
/Times-Roman 11.733 F
GS
[1 0 0 1 0 0] CT
0 0 moveto 
1 -1 scale
(e) t 
GR
GR
GS
[0.75 0 0 0.75 0 0] CT
N
58 18 M
298 18 L
298 201 L
58 201 L
58 18 L
cp
clip
0.345 0.537 0.69 RC
1 LJ
2.667 LW
N
58 18 M
59.593 18 L
61.187 18 L
62.78 24.224 L
64.373 24.843 L
65.967 29.502 L
67.56 32.96 L
69.153 36.054 L
70.747 39.512 L
72.34 45.227 L
73.933 48.285 L
75.527 52.18 L
77.12 51.816 L
78.713 51.706 L
80.307 51.925 L
81.9 51.888 L
83.493 51.597 L
85.087 56.984 L
86.68 61.207 L
88.273 61.789 L
89.867 75.84 L
91.46 86.541 L
93.053 95.75 L
94.647 109.218 L
96.24 120.466 L
97.833 129.493 L
99.427 136.409 L
101.02 141.724 L
102.613 152.644 L
104.207 156.939 L
105.8 161.016 L
107.393 158.868 L
108.987 155.264 L
110.58 150.642 L
112.173 148.276 L
113.767 147.22 L
115.36 154.646 L
116.953 157.885 L
118.547 160.36 L
120.14 155.738 L
121.733 152.17 L
123.327 156.866 L
124.92 159.487 L
126.513 154.573 L
128.107 152.207 L
129.7 151.042 L
131.293 160.506 L
132.887 163.345 L
134.48 164.146 L
136.073 164.91 L
137.667 159.159 L
139.26 156.247 L
140.853 156.975 L
142.447 159.742 L
144.04 159.378 L
145.633 155.41 L
147.227 152.753 L
148.82 150.642 L
150.413 152.025 L
152.007 149.95 L
153.6 150.35 L
155.193 151.697 L
156.787 147.62 L
158.38 145.036 L
159.973 142.342 L
161.567 141.724 L
163.16 145.582 L
164.753 145.072 L
166.347 140.777 L
167.94 138.338 L
169.533 138.12 L
171.127 140.122 L
172.72 138.338 L
174.313 136.118 L
175.907 141.287 L
177.5 143.07 L
179.093 138.775 L
180.687 138.812 L
182.28 144.272 L
183.873 145.364 L
185.467 145.473 L
187.06 150.023 L
188.653 149.586 L
190.247 148.931 L
191.84 145.546 L
193.433 147.438 L
195.027 149.004 L
196.62 147.329 L
198.213 149.222 L
199.807 147.875 L
201.4 147.693 L
202.993 146.419 L
204.587 144.563 L
206.18 145.327 L
207.773 144.381 L
209.367 142.634 L
210.96 138.812 L
212.553 143.07 L
214.147 145.509 L
215.74 142.888 L
217.333 142.961 L
218.927 143.18 L
220.52 139.43 L
222.113 137.064 L
223.707 134.516 L
225.3 131.823 L
226.893 134.262 L
228.487 137.865 L
230.08 134.844 L
231.673 131.714 L
233.267 129.639 L
234.86 130.949 L
236.453 133.424 L
238.047 134.844 L
239.64 134.808 L
241.233 130.767 L
242.827 128.692 L
244.42 126.945 L
246.013 131.168 L
247.607 127.782 L
249.2 126.399 L
250.793 127.346 L
252.387 129.129 L
253.98 128.037 L
255.573 125.926 L
257.167 123.96 L
258.76 122.577 L
260.353 123.087 L
261.947 127.054 L
263.54 127.054 L
265.133 129.348 L
266.727 126.29 L
268.32 124.579 L
269.913 122.686 L
271.507 121.667 L
273.1 125.489 L
274.693 123.56 L
276.287 121.048 L
S
GR
GS
[0.75 0 0 0.75 0 0] CT
N
58 18 M
298 18 L
298 201 L
58 201 L
58 18 L
cp
clip
0.914 0.282 0.286 RC
[8 8] 0 setdash
2 LJ
2.667 LW
N
58 18 M
59.593 18 L
61.187 18 L
62.78 25.462 L
64.373 26.336 L
65.967 32.087 L
67.56 36.309 L
69.153 40.095 L
70.747 44.208 L
72.34 50.942 L
73.933 54.436 L
75.527 58.877 L
77.12 58.186 L
78.713 57.603 L
80.307 57.276 L
81.9 56.584 L
83.493 55.674 L
85.087 61.498 L
86.68 66.194 L
88.273 66.63 L
89.867 83.156 L
91.46 95.896 L
93.053 106.889 L
94.647 122.796 L
96.24 136.045 L
97.833 146.419 L
99.427 153.918 L
101.02 159.232 L
102.613 170.989 L
104.207 174.811 L
105.8 178.196 L
107.393 174.083 L
108.987 168.004 L
110.58 160.579 L
112.173 155.847 L
113.767 152.898 L
115.36 160.36 L
116.953 163.272 L
118.547 165.493 L
120.14 159.378 L
121.733 154.209 L
123.327 158.831 L
124.92 161.198 L
126.513 154.646 L
128.107 151.115 L
129.7 148.967 L
131.293 159.596 L
132.887 162.763 L
134.48 163.454 L
136.073 164.037 L
137.667 156.793 L
139.26 152.644 L
140.853 152.753 L
142.447 155.446 L
144.04 154.573 L
145.633 149.513 L
147.227 145.91 L
148.82 142.998 L
150.413 144.344 L
152.007 141.651 L
153.6 141.978 L
155.193 143.507 L
156.787 138.666 L
158.38 135.499 L
159.973 132.114 L
161.567 131.24 L
163.16 135.79 L
164.753 135.354 L
166.347 130.33 L
167.94 127.455 L
169.533 127.2 L
171.127 129.602 L
172.72 127.6 L
174.313 125.052 L
175.907 131.313 L
177.5 133.679 L
179.093 128.801 L
180.687 128.874 L
182.28 135.426 L
183.873 136.882 L
185.467 137.137 L
187.06 142.706 L
188.653 142.233 L
190.247 141.432 L
191.84 137.283 L
193.433 139.285 L
195.027 140.996 L
196.62 138.884 L
198.213 140.996 L
199.807 139.358 L
201.4 139.066 L
202.993 137.428 L
204.587 135.099 L
206.18 135.863 L
207.773 134.662 L
209.367 132.551 L
210.96 127.964 L
212.553 132.951 L
214.147 136.009 L
215.74 133.06 L
217.333 133.242 L
218.927 133.57 L
220.52 129.093 L
222.113 126.144 L
223.707 123.014 L
225.3 119.702 L
226.893 122.504 L
228.487 126.982 L
230.08 123.669 L
231.673 120.175 L
233.267 117.845 L
234.86 119.447 L
236.453 122.577 L
238.047 124.506 L
239.64 124.725 L
241.233 120.138 L
242.827 117.7 L
244.42 115.625 L
246.013 120.612 L
247.607 116.68 L
249.2 115.115 L
250.793 116.389 L
252.387 118.682 L
253.98 117.627 L
255.573 115.297 L
257.167 113.004 L
258.76 111.366 L
260.353 112.021 L
261.947 116.935 L
263.54 117.117 L
265.133 120.102 L
266.727 116.717 L
268.32 114.788 L
269.913 112.531 L
271.507 111.221 L
273.1 115.734 L
274.693 113.623 L
276.287 110.747 L
S
GR
GS
[0.75 0 0 0.75 0 0] CT
0.443 0.749 0.431 RC
1 LJ
2.667 LW
N
58 200 M
59.593 200 L
61.187 200 L
62.78 192.356 L
64.373 191.81 L
65.967 186.35 L
67.56 182.71 L
69.153 179.798 L
70.747 176.522 L
72.34 170.88 L
73.933 168.514 L
75.527 165.42 L
77.12 167.422 L
78.713 169.424 L
80.307 170.698 L
81.9 171.972 L
83.493 173.246 L
85.087 167.422 L
86.68 162.872 L
88.273 162.872 L
89.867 146.31 L
91.46 134.48 L
93.053 125.016 L
94.647 111.184 L
96.24 100.628 L
97.833 93.53 L
99.427 89.344 L
101.02 87.524 L
102.613 78.606 L
104.207 77.878 L
105.8 77.15 L
107.393 83.884 L
108.987 92.074 L
110.58 100.81 L
112.173 105.906 L
113.767 108.636 L
115.36 100.264 L
116.953 96.624 L
118.547 94.258 L
120.14 100.628 L
121.733 106.27 L
123.327 101.356 L
124.92 98.626 L
126.513 105.178 L
128.107 108.636 L
129.7 110.638 L
131.293 98.99 L
132.887 95.532 L
134.48 94.986 L
136.073 94.804 L
137.667 102.812 L
139.26 107.362 L
140.853 107.18 L
142.447 103.904 L
144.04 104.45 L
145.633 109.182 L
147.227 112.458 L
148.82 115.006 L
150.413 113.004 L
152.007 115.188 L
153.6 114.278 L
155.193 112.094 L
156.787 116.826 L
158.38 119.556 L
159.973 122.65 L
161.567 122.832 L
163.16 117.554 L
164.753 117.372 L
166.347 122.286 L
167.94 124.834 L
169.533 124.834 L
171.127 121.922 L
172.72 123.378 L
174.313 125.744 L
175.907 119.01 L
177.5 116.462 L
179.093 121.558 L
180.687 121.558 L
182.28 114.824 L
183.873 113.55 L
185.467 113.55 L
187.06 108.272 L
188.653 109.182 L
190.247 110.638 L
191.84 115.37 L
193.433 113.55 L
195.027 111.912 L
196.62 114.096 L
198.213 111.912 L
199.807 113.732 L
201.4 114.096 L
202.993 115.734 L
204.587 118.1 L
206.18 117.19 L
207.773 118.1 L
209.367 120.102 L
210.96 124.47 L
212.553 119.01 L
214.147 115.552 L
215.74 118.282 L
217.333 118.282 L
218.927 117.918 L
220.52 122.468 L
222.113 125.38 L
223.707 128.292 L
225.3 131.204 L
226.893 127.564 L
228.487 122.286 L
230.08 125.38 L
231.673 128.656 L
233.267 131.022 L
234.86 129.02 L
236.453 125.562 L
238.047 123.378 L
239.64 123.196 L
241.233 127.928 L
242.827 130.476 L
244.42 132.66 L
246.013 127.018 L
247.607 130.84 L
249.2 132.114 L
250.793 130.658 L
252.387 128.11 L
253.98 129.02 L
255.573 131.386 L
257.167 133.752 L
258.76 135.208 L
260.353 134.298 L
261.947 128.838 L
263.54 128.474 L
265.133 125.562 L
266.727 129.202 L
268.32 131.386 L
269.913 133.934 L
271.507 135.208 L
273.1 130.112 L
274.693 132.114 L
276.287 135.026 L
S
GR
GS
[0.75 0 0 0.75 0 0] CT
N
58 18 M
298 18 L
298 201 L
58 201 L
58 18 L
cp
clip
1 0.6 0.2 RC
[8 8] 0 setdash
2 LJ
2.667 LW
N
58 200 M
59.593 200 L
61.187 200 L
62.78 190.9 L
64.373 189.99 L
65.967 183.438 L
67.56 179.252 L
69.153 175.794 L
70.747 172.336 L
72.34 165.784 L
73.933 163.418 L
75.527 159.96 L
77.12 162.872 L
78.713 165.602 L
80.307 167.604 L
81.9 169.606 L
83.493 171.244 L
85.087 164.328 L
86.68 158.868 L
88.273 158.868 L
89.867 139.212 L
91.46 124.834 L
93.053 113.914 L
94.647 97.898 L
96.24 86.068 L
97.833 78.424 L
99.427 74.784 L
101.02 73.874 L
102.613 64.41 L
104.207 64.228 L
105.8 64.41 L
107.393 73.51 L
108.987 84.43 L
110.58 95.714 L
112.173 102.448 L
113.767 105.724 L
115.36 95.532 L
116.953 90.8 L
118.547 87.888 L
120.14 95.896 L
121.733 102.994 L
123.327 97.534 L
124.92 94.258 L
126.513 102.266 L
128.107 106.634 L
129.7 109 L
131.293 95.168 L
132.887 90.8 L
134.48 90.072 L
136.073 90.254 L
137.667 100.264 L
139.26 106.27 L
140.853 106.27 L
142.447 102.448 L
144.04 102.812 L
145.633 108.636 L
147.227 112.822 L
148.82 115.916 L
150.413 113.368 L
152.007 115.734 L
153.6 114.642 L
155.193 112.094 L
156.787 117.372 L
158.38 120.83 L
159.973 124.47 L
161.567 124.834 L
163.16 118.282 L
164.753 117.918 L
166.347 123.56 L
167.94 126.836 L
169.533 126.836 L
171.127 123.196 L
172.72 124.834 L
174.313 127.564 L
175.907 119.556 L
177.5 116.28 L
179.093 122.286 L
180.687 122.65 L
182.28 114.642 L
183.873 112.822 L
185.467 113.004 L
187.06 106.816 L
188.653 108.09 L
190.247 110.092 L
191.84 115.916 L
193.433 114.096 L
195.027 112.094 L
196.62 114.642 L
198.213 112.094 L
199.807 114.278 L
201.4 114.642 L
202.993 116.826 L
204.587 119.556 L
206.18 118.464 L
207.773 119.556 L
209.367 121.74 L
210.96 127.018 L
212.553 120.284 L
214.147 115.916 L
215.74 119.192 L
217.333 119.192 L
218.927 118.828 L
220.52 124.288 L
222.113 127.928 L
223.707 131.386 L
225.3 134.662 L
226.893 130.294 L
228.487 123.56 L
230.08 127.018 L
231.673 131.022 L
233.267 133.752 L
234.86 131.386 L
236.453 127.018 L
238.047 124.288 L
239.64 123.924 L
241.233 129.748 L
242.827 133.024 L
244.42 135.572 L
246.013 128.838 L
247.607 133.206 L
249.2 134.662 L
250.793 132.842 L
252.387 129.566 L
253.98 130.658 L
255.573 133.57 L
257.167 136.3 L
258.76 138.12 L
260.353 136.846 L
261.947 130.294 L
263.54 129.566 L
265.133 125.926 L
266.727 130.476 L
268.32 133.206 L
269.913 136.3 L
271.507 137.756 L
273.1 131.75 L
274.693 133.934 L
276.287 137.21 L
S
GR
%%Trailer
%%Pages: 1
%%EOF
