%!PS-Adobe-3.0 EPSF-3.0
%%Creator: (MATLAB, The Mathworks, Inc. Version 9.3.0.713579 \(R2017b\). Operating System: Windows 7)
%%Title: F:/Lab/Git/Git_LMPROM2/Figures/thetase.eps
%%CreationDate: 2018-09-17T23:53:04
%%Pages: (atend)
%%BoundingBox: 0 0 240 180
%%LanguageLevel: 3
%%EndComments
%%BeginProlog
%%BeginResource: procset (Apache XML Graphics Std ProcSet) 1.2 0
%%Version: 1.2 0
%%Copyright: (Copyright 2001-2003,2010 The Apache Software Foundation. License terms: http://www.apache.org/licenses/LICENSE-2.0)
/bd{bind def}bind def
/ld{load def}bd
/GR/grestore ld
/GS/gsave ld
/RM/rmoveto ld
/C/curveto ld
/t/show ld
/L/lineto ld
/ML/setmiterlimit ld
/CT/concat ld
/f/fill ld
/N/newpath ld
/S/stroke ld
/CC/setcmykcolor ld
/A/ashow ld
/cp/closepath ld
/RC/setrgbcolor ld
/LJ/setlinejoin ld
/GC/setgray ld
/LW/setlinewidth ld
/M/moveto ld
/re {4 2 roll M
1 index 0 rlineto
0 exch rlineto
neg 0 rlineto
cp } bd
/_ctm matrix def
/_tm matrix def
/BT { _ctm currentmatrix pop matrix _tm copy pop 0 0 moveto } bd
/ET { _ctm setmatrix } bd
/iTm { _ctm setmatrix _tm concat } bd
/Tm { _tm astore pop iTm 0 0 moveto } bd
/ux 0.0 def
/uy 0.0 def
/F {
  /Tp exch def
  /Tf exch def
  Tf findfont Tp scalefont setfont
  /cf Tf def  /cs Tp def
} bd
/ULS {currentpoint /uy exch def /ux exch def} bd
/ULE {
  /Tcx currentpoint pop def
  gsave
  newpath
  cf findfont cs scalefont dup
  /FontMatrix get 0 get /Ts exch def /FontInfo get dup
  /UnderlinePosition get Ts mul /To exch def
  /UnderlineThickness get Ts mul /Tt exch def
  ux uy To add moveto  Tcx uy To add lineto
  Tt setlinewidth stroke
  grestore
} bd
/OLE {
  /Tcx currentpoint pop def
  gsave
  newpath
  cf findfont cs scalefont dup
  /FontMatrix get 0 get /Ts exch def /FontInfo get dup
  /UnderlinePosition get Ts mul /To exch def
  /UnderlineThickness get Ts mul /Tt exch def
  ux uy To add cs add moveto Tcx uy To add cs add lineto
  Tt setlinewidth stroke
  grestore
} bd
/SOE {
  /Tcx currentpoint pop def
  gsave
  newpath
  cf findfont cs scalefont dup
  /FontMatrix get 0 get /Ts exch def /FontInfo get dup
  /UnderlinePosition get Ts mul /To exch def
  /UnderlineThickness get Ts mul /Tt exch def
  ux uy To add cs 10 mul 26 idiv add moveto Tcx uy To add cs 10 mul 26 idiv add lineto
  Tt setlinewidth stroke
  grestore
} bd
/QT {
/Y22 exch store
/X22 exch store
/Y21 exch store
/X21 exch store
currentpoint
/Y21 load 2 mul add 3 div exch
/X21 load 2 mul add 3 div exch
/X21 load 2 mul /X22 load add 3 div
/Y21 load 2 mul /Y22 load add 3 div
/X22 load /Y22 load curveto
} bd
/SSPD {
dup length /d exch dict def
{
/v exch def
/k exch def
currentpagedevice k known {
/cpdv currentpagedevice k get def
v cpdv ne {
/upd false def
/nullv v type /nulltype eq def
/nullcpdv cpdv type /nulltype eq def
nullv nullcpdv or
{
/upd true def
} {
/sametype v type cpdv type eq def
sametype {
v type /arraytype eq {
/vlen v length def
/cpdvlen cpdv length def
vlen cpdvlen eq {
0 1 vlen 1 sub {
/i exch def
/obj v i get def
/cpdobj cpdv i get def
obj cpdobj ne {
/upd true def
exit
} if
} for
} {
/upd true def
} ifelse
} {
v type /dicttype eq {
v {
/dv exch def
/dk exch def
/cpddv cpdv dk get def
dv cpddv ne {
/upd true def
exit
} if
} forall
} {
/upd true def
} ifelse
} ifelse
} if
} ifelse
upd true eq {
d k v put
} if
} if
} if
} forall
d length 0 gt {
d setpagedevice
} if
} bd
/RE { % /NewFontName [NewEncodingArray] /FontName RE -
  findfont dup length dict begin
  {
    1 index /FID ne
    {def} {pop pop} ifelse
  } forall
  /Encoding exch def
  /FontName 1 index def
  currentdict definefont pop
  end
} bind def
%%EndResource
%%BeginResource: procset (Apache XML Graphics EPS ProcSet) 1.0 0
%%Version: 1.0 0
%%Copyright: (Copyright 2002-2003 The Apache Software Foundation. License terms: http://www.apache.org/licenses/LICENSE-2.0)
/BeginEPSF { %def
/b4_Inc_state save def         % Save state for cleanup
/dict_count countdictstack def % Count objects on dict stack
/op_count count 1 sub def      % Count objects on operand stack
userdict begin                 % Push userdict on dict stack
/showpage { } def              % Redefine showpage, { } = null proc
0 setgray 0 setlinecap         % Prepare graphics state
1 setlinewidth 0 setlinejoin
10 setmiterlimit [ ] 0 setdash newpath
/languagelevel where           % If level not equal to 1 then
{pop languagelevel             % set strokeadjust and
1 ne                           % overprint to their defaults.
{false setstrokeadjust false setoverprint
} if
} if
} bd
/EndEPSF { %def
count op_count sub {pop} repeat            % Clean up stacks
countdictstack dict_count sub {end} repeat
b4_Inc_state restore
} bd
%%EndResource
%FOPBeginFontDict
%%IncludeResource: font Courier-Oblique
%%IncludeResource: font Courier-BoldOblique
%%IncludeResource: font Courier-Bold
%%IncludeResource: font ZapfDingbats
%%IncludeResource: font Symbol
%%IncludeResource: font Helvetica
%%IncludeResource: font Helvetica-Oblique
%%IncludeResource: font Helvetica-Bold
%%IncludeResource: font Helvetica-BoldOblique
%%IncludeResource: font Times-Roman
%%IncludeResource: font Times-Italic
%%IncludeResource: font Times-Bold
%%IncludeResource: font Times-BoldItalic
%%IncludeResource: font Courier
%FOPEndFontDict
%%BeginResource: encoding WinAnsiEncoding
/WinAnsiEncoding [
/.notdef /.notdef /.notdef /.notdef /.notdef
/.notdef /.notdef /.notdef /.notdef /.notdef
/.notdef /.notdef /.notdef /.notdef /.notdef
/.notdef /.notdef /.notdef /.notdef /.notdef
/.notdef /.notdef /.notdef /.notdef /.notdef
/.notdef /.notdef /.notdef /.notdef /.notdef
/.notdef /.notdef /space /exclam /quotedbl
/numbersign /dollar /percent /ampersand /quotesingle
/parenleft /parenright /asterisk /plus /comma
/hyphen /period /slash /zero /one
/two /three /four /five /six
/seven /eight /nine /colon /semicolon
/less /equal /greater /question /at
/A /B /C /D /E
/F /G /H /I /J
/K /L /M /N /O
/P /Q /R /S /T
/U /V /W /X /Y
/Z /bracketleft /backslash /bracketright /asciicircum
/underscore /quoteleft /a /b /c
/d /e /f /g /h
/i /j /k /l /m
/n /o /p /q /r
/s /t /u /v /w
/x /y /z /braceleft /bar
/braceright /asciitilde /bullet /Euro /bullet
/quotesinglbase /florin /quotedblbase /ellipsis /dagger
/daggerdbl /circumflex /perthousand /Scaron /guilsinglleft
/OE /bullet /Zcaron /bullet /bullet
/quoteleft /quoteright /quotedblleft /quotedblright /bullet
/endash /emdash /asciitilde /trademark /scaron
/guilsinglright /oe /bullet /zcaron /Ydieresis
/space /exclamdown /cent /sterling /currency
/yen /brokenbar /section /dieresis /copyright
/ordfeminine /guillemotleft /logicalnot /sfthyphen /registered
/macron /degree /plusminus /twosuperior /threesuperior
/acute /mu /paragraph /middot /cedilla
/onesuperior /ordmasculine /guillemotright /onequarter /onehalf
/threequarters /questiondown /Agrave /Aacute /Acircumflex
/Atilde /Adieresis /Aring /AE /Ccedilla
/Egrave /Eacute /Ecircumflex /Edieresis /Igrave
/Iacute /Icircumflex /Idieresis /Eth /Ntilde
/Ograve /Oacute /Ocircumflex /Otilde /Odieresis
/multiply /Oslash /Ugrave /Uacute /Ucircumflex
/Udieresis /Yacute /Thorn /germandbls /agrave
/aacute /acircumflex /atilde /adieresis /aring
/ae /ccedilla /egrave /eacute /ecircumflex
/edieresis /igrave /iacute /icircumflex /idieresis
/eth /ntilde /ograve /oacute /ocircumflex
/otilde /odieresis /divide /oslash /ugrave
/uacute /ucircumflex /udieresis /yacute /thorn
/ydieresis
] def
%%EndResource
%FOPBeginFontReencode
/Courier-Oblique findfont
dup length dict begin
  {1 index /FID ne {def} {pop pop} ifelse} forall
  /Encoding WinAnsiEncoding def
  currentdict
end
/Courier-Oblique exch definefont pop
/Courier-BoldOblique findfont
dup length dict begin
  {1 index /FID ne {def} {pop pop} ifelse} forall
  /Encoding WinAnsiEncoding def
  currentdict
end
/Courier-BoldOblique exch definefont pop
/Courier-Bold findfont
dup length dict begin
  {1 index /FID ne {def} {pop pop} ifelse} forall
  /Encoding WinAnsiEncoding def
  currentdict
end
/Courier-Bold exch definefont pop
/Helvetica findfont
dup length dict begin
  {1 index /FID ne {def} {pop pop} ifelse} forall
  /Encoding WinAnsiEncoding def
  currentdict
end
/Helvetica exch definefont pop
/Helvetica-Oblique findfont
dup length dict begin
  {1 index /FID ne {def} {pop pop} ifelse} forall
  /Encoding WinAnsiEncoding def
  currentdict
end
/Helvetica-Oblique exch definefont pop
/Helvetica-Bold findfont
dup length dict begin
  {1 index /FID ne {def} {pop pop} ifelse} forall
  /Encoding WinAnsiEncoding def
  currentdict
end
/Helvetica-Bold exch definefont pop
/Helvetica-BoldOblique findfont
dup length dict begin
  {1 index /FID ne {def} {pop pop} ifelse} forall
  /Encoding WinAnsiEncoding def
  currentdict
end
/Helvetica-BoldOblique exch definefont pop
/Times-Roman findfont
dup length dict begin
  {1 index /FID ne {def} {pop pop} ifelse} forall
  /Encoding WinAnsiEncoding def
  currentdict
end
/Times-Roman exch definefont pop
/Times-Italic findfont
dup length dict begin
  {1 index /FID ne {def} {pop pop} ifelse} forall
  /Encoding WinAnsiEncoding def
  currentdict
end
/Times-Italic exch definefont pop
/Times-Bold findfont
dup length dict begin
  {1 index /FID ne {def} {pop pop} ifelse} forall
  /Encoding WinAnsiEncoding def
  currentdict
end
/Times-Bold exch definefont pop
/Times-BoldItalic findfont
dup length dict begin
  {1 index /FID ne {def} {pop pop} ifelse} forall
  /Encoding WinAnsiEncoding def
  currentdict
end
/Times-BoldItalic exch definefont pop
/Courier findfont
dup length dict begin
  {1 index /FID ne {def} {pop pop} ifelse} forall
  /Encoding WinAnsiEncoding def
  currentdict
end
/Courier exch definefont pop
%FOPEndFontReencode
%%EndProlog
%%Page: 1 1
%%PageBoundingBox: 0 0 240 180
%%BeginPageSetup
[1 0 0 -1 0 180] CT
%%EndPageSetup
GS
[0.75 0 0 0.75 0 0] CT
1 GC
N
0 0 320 240 re
f
GR
GS
[0.75 0 0 0.75 0 0] CT
1 GC
N
0 0 320 240 re
f
GR
GS
[0.75 0 0 0.75 0 0] CT
1 GC
N
58 202 M
298 202 L
298 22 L
58 22 L
cp
f
GR
GS
[0.75 0 0 0.75 0 0] CT
0.149 GC
2 setlinecap
1 LJ
0.667 LW
N
58 202 M
298 202 L
S
GR
GS
[0.75 0 0 0.75 0 0] CT
0.149 GC
2 setlinecap
1 LJ
0.667 LW
N
58 22 M
298 22 L
S
GR
GS
[0.75 0 0 0.75 0 0] CT
0.149 GC
2 setlinecap
1 LJ
0.667 LW
N
58 202 M
58 199.6 L
S
GR
GS
[0.75 0 0 0.75 0 0] CT
0.149 GC
2 setlinecap
1 LJ
0.667 LW
N
106 202 M
106 199.6 L
S
GR
GS
[0.75 0 0 0.75 0 0] CT
0.149 GC
2 setlinecap
1 LJ
0.667 LW
N
154 202 M
154 199.6 L
S
GR
GS
[0.75 0 0 0.75 0 0] CT
0.149 GC
2 setlinecap
1 LJ
0.667 LW
N
202 202 M
202 199.6 L
S
GR
GS
[0.75 0 0 0.75 0 0] CT
0.149 GC
2 setlinecap
1 LJ
0.667 LW
N
250 202 M
250 199.6 L
S
GR
GS
[0.75 0 0 0.75 0 0] CT
0.149 GC
2 setlinecap
1 LJ
0.667 LW
N
298 202 M
298 199.6 L
S
GR
GS
[0.75 0 0 0.75 0 0] CT
0.149 GC
2 setlinecap
1 LJ
0.667 LW
N
58 22 M
58 24.4 L
S
GR
GS
[0.75 0 0 0.75 0 0] CT
0.149 GC
2 setlinecap
1 LJ
0.667 LW
N
106 22 M
106 24.4 L
S
GR
GS
[0.75 0 0 0.75 0 0] CT
0.149 GC
2 setlinecap
1 LJ
0.667 LW
N
154 22 M
154 24.4 L
S
GR
GS
[0.75 0 0 0.75 0 0] CT
0.149 GC
2 setlinecap
1 LJ
0.667 LW
N
202 22 M
202 24.4 L
S
GR
GS
[0.75 0 0 0.75 0 0] CT
0.149 GC
2 setlinecap
1 LJ
0.667 LW
N
250 22 M
250 24.4 L
S
GR
GS
[0.75 0 0 0.75 0 0] CT
0.149 GC
2 setlinecap
1 LJ
0.667 LW
N
298 22 M
298 24.4 L
S
GR
GS
[0.75 0 0 0.75 43.5 155.5] CT
0.149 GC
/Times-Roman 13.333 F
GS
[1 0 0 1 0 0] CT
-3.5 13 moveto 
1 -1 scale
(0) t 
GR
GR
GS
[0.75 0 0 0.75 79.5 155.5] CT
0.149 GC
/Times-Roman 13.333 F
GS
[1 0 0 1 0 0] CT
-10 13 moveto 
1 -1 scale
(100) t 
GR
GR
GS
[0.75 0 0 0.75 115.5 155.5] CT
0.149 GC
/Times-Roman 13.333 F
GS
[1 0 0 1 0 0] CT
-10 13 moveto 
1 -1 scale
(200) t 
GR
GR
GS
[0.75 0 0 0.75 151.5 155.5] CT
0.149 GC
/Times-Roman 13.333 F
GS
[1 0 0 1 0 0] CT
-10 13 moveto 
1 -1 scale
(300) t 
GR
GR
GS
[0.75 0 0 0.75 187.5 155.5] CT
0.149 GC
/Times-Roman 13.333 F
GS
[1 0 0 1 0 0] CT
-10 13 moveto 
1 -1 scale
(400) t 
GR
GR
GS
[0.75 0 0 0.75 223.5 155.5] CT
0.149 GC
/Times-Roman 13.333 F
GS
[1 0 0 1 0 0] CT
-10 13 moveto 
1 -1 scale
(500) t 
GR
GR
GS
[0.75 0 0 0.75 0 0] CT
0.149 GC
2 setlinecap
1 LJ
0.667 LW
N
58 202 M
58 22 L
S
GR
GS
[0.75 0 0 0.75 0 0] CT
0.149 GC
2 setlinecap
1 LJ
0.667 LW
N
298 202 M
298 22 L
S
GR
GS
[0.75 0 0 0.75 0 0] CT
0.149 GC
2 setlinecap
1 LJ
0.667 LW
N
58 202 M
60.4 202 L
S
GR
GS
[0.75 0 0 0.75 0 0] CT
0.149 GC
2 setlinecap
1 LJ
0.667 LW
N
58 166 M
60.4 166 L
S
GR
GS
[0.75 0 0 0.75 0 0] CT
0.149 GC
2 setlinecap
1 LJ
0.667 LW
N
58 130 M
60.4 130 L
S
GR
GS
[0.75 0 0 0.75 0 0] CT
0.149 GC
2 setlinecap
1 LJ
0.667 LW
N
58 94 M
60.4 94 L
S
GR
GS
[0.75 0 0 0.75 0 0] CT
0.149 GC
2 setlinecap
1 LJ
0.667 LW
N
58 58 M
60.4 58 L
S
GR
GS
[0.75 0 0 0.75 0 0] CT
0.149 GC
2 setlinecap
1 LJ
0.667 LW
N
58 22 M
60.4 22 L
S
GR
GS
[0.75 0 0 0.75 0 0] CT
0.149 GC
2 setlinecap
1 LJ
0.667 LW
N
298 202 M
295.6 202 L
S
GR
GS
[0.75 0 0 0.75 0 0] CT
0.149 GC
2 setlinecap
1 LJ
0.667 LW
N
298 166 M
295.6 166 L
S
GR
GS
[0.75 0 0 0.75 0 0] CT
0.149 GC
2 setlinecap
1 LJ
0.667 LW
N
298 130 M
295.6 130 L
S
GR
GS
[0.75 0 0 0.75 0 0] CT
0.149 GC
2 setlinecap
1 LJ
0.667 LW
N
298 94 M
295.6 94 L
S
GR
GS
[0.75 0 0 0.75 0 0] CT
0.149 GC
2 setlinecap
1 LJ
0.667 LW
N
298 58 M
295.6 58 L
S
GR
GS
[0.75 0 0 0.75 0 0] CT
0.149 GC
2 setlinecap
1 LJ
0.667 LW
N
298 22 M
295.6 22 L
S
GR
GS
[0.75 0 0 0.75 39.5 151.5] CT
0.149 GC
/Times-Roman 13.333 F
GS
[1 0 0 1 0 0] CT
-7 5 moveto 
1 -1 scale
(0) t 
GR
GR
GS
[0.75 0 0 0.75 39.5 124.5] CT
0.149 GC
/Times-Roman 13.333 F
GS
[1 0 0 1 0 0] CT
-17 5 moveto 
1 -1 scale
(0.2) t 
GR
GR
GS
[0.75 0 0 0.75 39.5 97.5] CT
0.149 GC
/Times-Roman 13.333 F
GS
[1 0 0 1 0 0] CT
-17 5 moveto 
1 -1 scale
(0.4) t 
GR
GR
GS
[0.75 0 0 0.75 39.5 70.49999] CT
0.149 GC
/Times-Roman 13.333 F
GS
[1 0 0 1 0 0] CT
-17 5 moveto 
1 -1 scale
(0.6) t 
GR
GR
GS
[0.75 0 0 0.75 39.5 43.5] CT
0.149 GC
/Times-Roman 13.333 F
GS
[1 0 0 1 0 0] CT
-17 5 moveto 
1 -1 scale
(0.8) t 
GR
GR
GS
[0.75 0 0 0.75 39.5 16.5] CT
0.149 GC
/Times-Roman 13.333 F
GS
[1 0 0 1 0 0] CT
-7 5 moveto 
1 -1 scale
(1) t 
GR
GR
GS
[0.75 0 0 0.75 0 0] CT
0.345 0.537 0.69 RC
1 LJ
2.667 LW
N
58 184 M
60.4 181.397 L
62.8 179.997 L
65.2 178.883 L
67.6 177.911 L
70 177.02 L
72.4 176.201 L
74.8 175.436 L
77.2 174.719 L
79.6 174.041 L
82 173.396 L
84.4 172.781 L
86.8 172.188 L
89.2 171.62 L
91.6 171.069 L
94 170.534 L
96.4 170.016 L
98.8 169.512 L
101.2 169.02 L
103.6 168.542 L
106 168.074 L
108.4 167.616 L
110.8 167.168 L
113.2 166.731 L
115.6 166.302 L
118 165.879 L
120.4 165.467 L
122.8 165.06 L
125.2 164.661 L
127.6 164.267 L
130 163.88 L
132.4 163.498 L
134.8 163.124 L
137.2 162.753 L
139.6 162.389 L
142 162.029 L
144.4 161.675 L
146.8 161.325 L
149.2 160.98 L
151.6 160.638 L
154 160.301 L
156.4 159.968 L
158.8 159.641 L
161.2 159.317 L
163.6 158.994 L
166 158.678 L
168.4 158.364 L
170.8 158.055 L
173.2 157.749 L
175.6 157.445 L
178 157.146 L
180.4 156.849 L
182.8 156.555 L
185.2 156.264 L
187.6 155.976 L
190 155.69 L
192.4 155.407 L
194.8 155.128 L
197.2 154.851 L
199.6 154.575 L
202 154.304 L
204.4 154.035 L
206.8 153.769 L
209.2 153.504 L
211.6 153.242 L
214 152.982 L
216.4 152.725 L
218.8 152.471 L
221.2 152.217 L
223.6 151.967 L
226 151.719 L
228.4 151.472 L
230.8 151.227 L
233.2 150.986 L
235.6 150.747 L
238 150.511 L
240.4 150.275 L
242.8 150.043 L
245.2 149.813 L
247.6 149.584 L
250 149.355 L
252.4 149.13 L
254.8 148.907 L
257.2 148.686 L
259.6 148.466 L
262 148.248 L
264.4 148.032 L
266.8 147.818 L
269.2 147.606 L
271.6 147.395 L
274 147.186 L
276.4 146.981 L
278.8 146.776 L
S
GR
GS
[0.75 0 0 0.75 0 0] CT
0.345 0.537 0.69 RC
[8 8] 0 setdash
2 LJ
2.667 LW
N
58 184 M
60.4 181.341 L
62.8 179.919 L
65.2 178.78 L
67.6 177.792 L
70 176.904 L
72.4 176.089 L
74.8 175.329 L
77.2 174.617 L
79.6 173.943 L
82 173.304 L
84.4 172.692 L
86.8 172.107 L
89.2 171.544 L
91.6 171 L
94 170.477 L
96.4 169.967 L
98.8 169.474 L
101.2 168.993 L
103.6 168.527 L
106 168.072 L
108.4 167.627 L
110.8 167.193 L
113.2 166.769 L
115.6 166.353 L
118 165.944 L
120.4 165.543 L
122.8 165.149 L
125.2 164.762 L
127.6 164.382 L
130 164.007 L
132.4 163.638 L
134.8 163.277 L
137.2 162.92 L
139.6 162.567 L
142 162.222 L
144.4 161.88 L
146.8 161.543 L
149.2 161.21 L
151.6 160.884 L
154 160.56 L
156.4 160.242 L
158.8 159.927 L
161.2 159.617 L
163.6 159.309 L
166 159.007 L
168.4 158.708 L
170.8 158.413 L
173.2 158.12 L
175.6 157.832 L
178 157.547 L
180.4 157.266 L
182.8 156.987 L
185.2 156.712 L
187.6 156.44 L
190 156.172 L
192.4 155.907 L
194.8 155.645 L
197.2 155.384 L
199.6 155.128 L
202 154.874 L
204.4 154.622 L
206.8 154.374 L
209.2 154.129 L
211.6 153.886 L
214 153.645 L
216.4 153.407 L
218.8 153.171 L
221.2 152.939 L
223.6 152.709 L
226 152.48 L
228.4 152.255 L
230.8 152.032 L
233.2 151.811 L
235.6 151.591 L
238 151.375 L
240.4 151.161 L
242.8 150.948 L
245.2 150.74 L
247.6 150.533 L
250 150.326 L
252.4 150.122 L
254.8 149.921 L
257.2 149.721 L
259.6 149.525 L
262 149.33 L
264.4 149.136 L
266.8 148.943 L
269.2 148.752 L
271.6 148.565 L
274 148.378 L
276.4 148.193 L
278.8 148.011 L
S
GR
GS
[0.75 0 0 0.75 0 0] CT
0.914 0.282 0.286 RC
1 LJ
2.667 LW
N
58 184 M
60.4 176.782 L
62.8 174.12 L
65.2 172.167 L
67.6 170.532 L
70 169.064 L
72.4 167.717 L
74.8 166.47 L
77.2 165.294 L
79.6 164.177 L
82 163.107 L
84.4 162.078 L
86.8 161.081 L
89.2 160.11 L
91.6 159.165 L
94 158.238 L
96.4 157.329 L
98.8 156.437 L
101.2 155.558 L
103.6 154.692 L
106 153.839 L
108.4 152.999 L
110.8 152.169 L
113.2 151.346 L
115.6 150.533 L
118 149.728 L
120.4 148.929 L
122.8 148.137 L
125.2 147.35 L
127.6 146.569 L
130 145.793 L
132.4 145.021 L
134.8 144.254 L
137.2 143.491 L
139.6 142.731 L
142 141.977 L
144.4 141.225 L
146.8 140.476 L
149.2 139.729 L
151.6 138.987 L
154 138.246 L
156.4 137.508 L
158.8 136.772 L
161.2 136.037 L
163.6 135.305 L
166 134.574 L
168.4 133.845 L
170.8 133.116 L
173.2 132.39 L
175.6 131.665 L
178 130.94 L
180.4 130.218 L
182.8 129.494 L
185.2 128.772 L
187.6 128.051 L
190 127.331 L
192.4 126.609 L
194.8 125.889 L
197.2 125.167 L
199.6 124.447 L
202 123.725 L
204.4 123.005 L
206.8 122.283 L
209.2 121.56 L
211.6 120.838 L
214 120.114 L
216.4 119.393 L
218.8 118.669 L
221.2 117.945 L
223.6 117.222 L
226 116.496 L
228.4 115.771 L
230.8 115.046 L
233.2 114.318 L
235.6 113.589 L
238 112.86 L
240.4 112.131 L
242.8 111.399 L
245.2 110.668 L
247.6 109.935 L
250 109.201 L
252.4 108.467 L
254.8 107.73 L
257.2 106.992 L
259.6 106.254 L
262 105.515 L
264.4 104.773 L
266.8 104.03 L
269.2 103.286 L
271.6 102.541 L
274 101.794 L
276.4 101.045 L
278.8 100.296 L
S
GR
GS
[0.75 0 0 0.75 0 0] CT
0.914 0.282 0.286 RC
[8 8] 0 setdash
2 LJ
2.667 LW
N
58 184 M
60.4 176.672 L
62.8 173.987 L
65.2 171.98 L
67.6 170.304 L
70 168.817 L
72.4 167.453 L
74.8 166.167 L
77.2 164.952 L
79.6 163.791 L
82 162.675 L
84.4 161.599 L
86.8 160.553 L
89.2 159.536 L
91.6 158.541 L
94 157.571 L
96.4 156.618 L
98.8 155.684 L
101.2 154.764 L
103.6 153.861 L
106 152.968 L
108.4 152.088 L
110.8 151.218 L
113.2 150.358 L
115.6 149.507 L
118 148.664 L
120.4 147.825 L
122.8 146.996 L
125.2 146.169 L
127.6 145.35 L
130 144.535 L
132.4 143.725 L
134.8 142.92 L
137.2 142.118 L
139.6 141.32 L
142 140.525 L
144.4 139.733 L
146.8 138.944 L
149.2 138.158 L
151.6 137.373 L
154 136.59 L
156.4 135.809 L
158.8 135.031 L
161.2 134.253 L
163.6 133.478 L
166 132.704 L
168.4 131.931 L
170.8 131.159 L
173.2 130.387 L
175.6 129.617 L
178 128.848 L
180.4 128.078 L
182.8 127.309 L
185.2 126.54 L
187.6 125.772 L
190 125.003 L
192.4 124.233 L
194.8 123.464 L
197.2 122.696 L
199.6 121.927 L
202 121.157 L
204.4 120.386 L
206.8 119.616 L
209.2 118.845 L
211.6 118.073 L
214 117.301 L
216.4 116.527 L
218.8 115.753 L
221.2 114.979 L
223.6 114.203 L
226 113.426 L
228.4 112.648 L
230.8 111.869 L
233.2 111.087 L
235.6 110.306 L
238 109.523 L
240.4 108.738 L
242.8 107.954 L
245.2 107.165 L
247.6 106.377 L
250 105.588 L
252.4 104.796 L
254.8 104.004 L
257.2 103.211 L
259.6 102.417 L
262 101.619 L
264.4 100.822 L
266.8 100.023 L
269.2 99.222 L
271.6 98.419 L
274 97.616 L
276.4 96.812 L
278.8 96.005 L
S
GR
GS
[0.75 0 0 0.75 0 0] CT
0.443 0.749 0.431 RC
1 LJ
2.667 LW
N
58 23.8 M
60.4 28.381 L
62.8 31.925 L
65.2 35.266 L
67.6 38.144 L
70 40.65 L
72.4 42.844 L
74.8 44.801 L
77.2 46.575 L
79.6 48.206 L
82 49.713 L
84.4 51.126 L
86.8 52.456 L
89.2 53.718 L
91.6 54.918 L
94 56.07 L
96.4 57.174 L
98.8 58.238 L
101.2 59.262 L
103.6 60.254 L
106 61.211 L
108.4 62.14 L
110.8 63.044 L
113.2 63.924 L
115.6 64.781 L
118 65.616 L
120.4 66.433 L
122.8 67.23 L
125.2 68.01 L
127.6 68.775 L
130 69.524 L
132.4 70.258 L
134.8 70.978 L
137.2 71.685 L
139.6 72.38 L
142 73.061 L
144.4 73.728 L
146.8 74.387 L
149.2 75.033 L
151.6 75.669 L
154 76.293 L
156.4 76.909 L
158.8 77.516 L
161.2 78.111 L
163.6 78.698 L
166 79.276 L
168.4 79.847 L
170.8 80.408 L
173.2 80.961 L
175.6 81.506 L
178 82.044 L
180.4 82.574 L
182.8 83.097 L
185.2 83.614 L
187.6 84.123 L
190 84.627 L
192.4 85.124 L
194.8 85.616 L
197.2 86.102 L
199.6 86.58 L
202 87.054 L
204.4 87.52 L
206.8 87.983 L
209.2 88.44 L
211.6 88.892 L
214 89.338 L
216.4 89.779 L
218.8 90.216 L
221.2 90.65 L
223.6 91.077 L
226 91.502 L
228.4 91.921 L
230.8 92.337 L
233.2 92.747 L
235.6 93.152 L
238 93.554 L
240.4 93.951 L
242.8 94.346 L
245.2 94.734 L
247.6 95.121 L
250 95.505 L
252.4 95.886 L
254.8 96.264 L
257.2 96.639 L
259.6 97.011 L
262 97.38 L
264.4 97.749 L
266.8 98.113 L
269.2 98.477 L
271.6 98.837 L
274 99.193 L
276.4 99.549 L
278.8 99.9 L
S
GR
GS
[0.75 0 0 0.75 0 0] CT
0.443 0.749 0.431 RC
[8 8] 0 setdash
2 LJ
2.667 LW
N
58 23.8 M
60.4 27.976 L
62.8 31.108 L
65.2 34.195 L
67.6 36.972 L
70 39.408 L
72.4 41.566 L
74.8 43.499 L
77.2 45.267 L
79.6 46.896 L
82 48.415 L
84.4 49.837 L
86.8 51.182 L
89.2 52.458 L
91.6 53.675 L
94 54.834 L
96.4 55.95 L
98.8 57.019 L
101.2 58.054 L
103.6 59.053 L
106 60.018 L
108.4 60.956 L
110.8 61.865 L
113.2 62.75 L
115.6 63.614 L
118 64.457 L
120.4 65.281 L
122.8 66.087 L
125.2 66.878 L
127.6 67.652 L
130 68.413 L
132.4 69.156 L
134.8 69.884 L
137.2 70.6 L
139.6 71.3 L
142 71.99 L
144.4 72.666 L
146.8 73.332 L
149.2 73.988 L
151.6 74.63 L
154 75.262 L
156.4 75.885 L
158.8 76.497 L
161.2 77.1 L
163.6 77.694 L
166 78.279 L
168.4 78.855 L
170.8 79.422 L
173.2 79.982 L
175.6 80.532 L
178 81.074 L
180.4 81.609 L
182.8 82.134 L
185.2 82.655 L
187.6 83.168 L
190 83.673 L
192.4 84.172 L
194.8 84.665 L
197.2 85.151 L
199.6 85.63 L
202 86.103 L
204.4 86.571 L
206.8 87.034 L
209.2 87.491 L
211.6 87.941 L
214 88.388 L
216.4 88.827 L
218.8 89.262 L
221.2 89.693 L
223.6 90.117 L
226 90.539 L
228.4 90.954 L
230.8 91.367 L
233.2 91.775 L
235.6 92.18 L
238 92.58 L
240.4 92.974 L
242.8 93.366 L
245.2 93.753 L
247.6 94.137 L
250 94.517 L
252.4 94.895 L
254.8 95.267 L
257.2 95.636 L
259.6 96.002 L
262 96.362 L
264.4 96.722 L
266.8 97.078 L
269.2 97.431 L
271.6 97.782 L
274 98.129 L
276.4 98.471 L
278.8 98.813 L
S
GR
GS
[0.75 0 0 0.75 0 0] CT
1 0.6 0.2 RC
1 LJ
2.667 LW
N
58 23.8 M
60.4 25.328 L
62.8 25.955 L
65.2 26.401 L
67.6 26.766 L
70 27.096 L
72.4 27.398 L
74.8 27.681 L
77.2 27.951 L
79.6 28.21 L
82 28.464 L
84.4 28.712 L
86.8 28.955 L
89.2 29.198 L
91.6 29.439 L
94 29.679 L
96.4 29.918 L
98.8 30.159 L
101.2 30.399 L
103.6 30.64 L
106 30.881 L
108.4 31.122 L
110.8 31.364 L
113.2 31.607 L
115.6 31.851 L
118 32.098 L
120.4 32.345 L
122.8 32.595 L
125.2 32.845 L
127.6 33.097 L
130 33.351 L
132.4 33.606 L
134.8 33.864 L
137.2 34.123 L
139.6 34.382 L
142 34.645 L
144.4 34.91 L
146.8 35.176 L
149.2 35.444 L
151.6 35.712 L
154 35.984 L
156.4 36.258 L
158.8 36.535 L
161.2 36.812 L
163.6 37.091 L
166 37.374 L
168.4 37.656 L
170.8 37.943 L
173.2 38.231 L
175.6 38.52 L
178 38.812 L
180.4 39.107 L
182.8 39.404 L
185.2 39.703 L
187.6 40.004 L
190 40.306 L
192.4 40.612 L
194.8 40.922 L
197.2 41.231 L
199.6 41.544 L
202 41.859 L
204.4 42.178 L
206.8 42.498 L
209.2 42.821 L
211.6 43.146 L
214 43.476 L
216.4 43.805 L
218.8 44.14 L
221.2 44.475 L
223.6 44.813 L
226 45.155 L
228.4 45.499 L
230.8 45.846 L
233.2 46.196 L
235.6 46.548 L
238 46.905 L
240.4 47.263 L
242.8 47.623 L
245.2 47.988 L
247.6 48.354 L
250 48.725 L
252.4 49.097 L
254.8 49.473 L
257.2 49.851 L
259.6 50.233 L
262 50.618 L
264.4 51.005 L
266.8 51.398 L
269.2 51.792 L
271.6 52.188 L
274 52.587 L
276.4 52.991 L
278.8 53.397 L
S
GR
GS
[0.75 0 0 0.75 0 0] CT
1 0.6 0.2 RC
[8 8] 0 setdash
2 LJ
2.667 LW
N
58 23.8 M
60.4 25.227 L
62.8 25.823 L
65.2 26.253 L
67.6 26.603 L
70 26.905 L
72.4 27.182 L
74.8 27.443 L
77.2 27.69 L
79.6 27.927 L
82 28.158 L
84.4 28.383 L
86.8 28.604 L
89.2 28.824 L
91.6 29.04 L
94 29.252 L
96.4 29.465 L
98.8 29.677 L
101.2 29.888 L
103.6 30.096 L
106 30.307 L
108.4 30.516 L
110.8 30.726 L
113.2 30.937 L
115.6 31.148 L
118 31.36 L
120.4 31.572 L
122.8 31.787 L
125.2 32.001 L
127.6 32.217 L
130 32.435 L
132.4 32.652 L
134.8 32.874 L
137.2 33.095 L
139.6 33.317 L
142 33.542 L
144.4 33.767 L
146.8 33.995 L
149.2 34.224 L
151.6 34.454 L
154 34.686 L
156.4 34.92 L
158.8 35.156 L
161.2 35.394 L
163.6 35.633 L
166 35.873 L
168.4 36.116 L
170.8 36.36 L
173.2 36.607 L
175.6 36.855 L
178 37.106 L
180.4 37.358 L
182.8 37.611 L
185.2 37.867 L
187.6 38.126 L
190 38.385 L
192.4 38.648 L
194.8 38.913 L
197.2 39.179 L
199.6 39.447 L
202 39.717 L
204.4 39.991 L
206.8 40.266 L
209.2 40.544 L
211.6 40.823 L
214 41.105 L
216.4 41.388 L
218.8 41.676 L
221.2 41.964 L
223.6 42.255 L
226 42.549 L
228.4 42.846 L
230.8 43.145 L
233.2 43.445 L
235.6 43.749 L
238 44.055 L
240.4 44.363 L
242.8 44.675 L
245.2 44.99 L
247.6 45.306 L
250 45.625 L
252.4 45.947 L
254.8 46.271 L
257.2 46.599 L
259.6 46.928 L
262 47.261 L
264.4 47.596 L
266.8 47.934 L
269.2 48.275 L
271.6 48.618 L
274 48.964 L
276.4 49.313 L
278.8 49.664 L
S
GR
GS
[0.75 0 0 0.75 133.5 165] CT
0.149 GC
/Times-Roman 14.667 F
GS
[1 0 0 1 0 0] CT
-24.5 14 moveto 
1 -1 scale
(Time / s) t 
GR
GR
GS
[0 -0.75 0.75 0 16.5 91.5] CT
0.149 GC
N
2.422 0.172 M
1.734 0.172 1.328 -0.328 QT
0.922 -0.828 0.758 -1.531 QT
0.594 -2.234 0.594 -2.922 QT
0.594 -2.938 L
0.594 -3.688 0.742 -4.492 QT
0.891 -5.297 1.156 -6.102 QT
1.422 -6.906 1.75 -7.531 QT
1.969 -7.969 2.313 -8.508 QT
2.656 -9.047 3.086 -9.523 QT
3.516 -10 4.008 -10.289 QT
4.5 -10.578 5.016 -10.578 QT
5.031 -10.578 L
5.563 -10.578 5.93 -10.273 QT
6.297 -9.969 6.492 -9.5 QT
6.688 -9.031 6.773 -8.5 QT
6.859 -7.969 6.859 -7.484 QT
6.859 -6.344 6.547 -5.164 QT
6.234 -3.984 5.703 -2.875 QT
5.5 -2.469 5.133 -1.898 QT
4.766 -1.328 4.359 -0.883 QT
3.953 -0.438 3.445 -0.133 QT
2.938 0.172 2.438 0.172 QT
2.422 0.172 L
cp
2.453 -0.234 M
2.938 -0.234 3.398 -0.766 QT
3.859 -1.297 4.203 -2.055 QT
4.547 -2.813 4.805 -3.602 QT
5.063 -4.391 5.188 -4.953 QT
2.125 -4.953 L
1.891 -4 1.766 -3.32 QT
1.641 -2.641 1.641 -1.984 QT
1.641 -0.234 2.453 -0.234 QT
cp
2.25 -5.484 M
5.328 -5.484 L
5.484 -6.141 5.578 -6.586 QT
5.672 -7.031 5.742 -7.516 QT
5.813 -8 5.813 -8.438 QT
5.813 -10.188 5.016 -10.188 QT
4.063 -10.188 3.367 -8.656 QT
2.672 -7.125 2.25 -5.484 QT
cp
f
GR
GS
[0 -0.75 0.75 0 21.75 86.25] CT
0.149 GC
/Times-Roman 11.733 F
GS
[1 0 0 1 0 0] CT
0 0 moveto 
1 -1 scale
(s) t 
GR
GR
GS
[0 -0.75 0.75 0 16.5 82.5] CT
0.149 GC
/Times-Roman 14.667 F
GS
[1 0 0 1 0 0] CT
0 0 moveto 
1 -1 scale
(e) t 
GR
GR
%%Trailer
%%Pages: 1
%%EOF
