%!PS-Adobe-3.0 EPSF-3.0
%%Creator: (MATLAB, The Mathworks, Inc. Version 9.3.0.713579 \(R2017b\). Operating System: Windows 7)
%%Title: F:/Lab/Git/Git_LMPROM2/Figures/thetase_FUDS.eps
%%CreationDate: 2019-06-10T12:18:31
%%Pages: (atend)
%%BoundingBox: 0 0 273 180
%%LanguageLevel: 3
%%EndComments
%%BeginProlog
%%BeginResource: procset (Apache XML Graphics Std ProcSet) 1.2 0
%%Version: 1.2 0
%%Copyright: (Copyright 2001-2003,2010 The Apache Software Foundation. License terms: http://www.apache.org/licenses/LICENSE-2.0)
/bd{bind def}bind def
/ld{load def}bd
/GR/grestore ld
/GS/gsave ld
/RM/rmoveto ld
/C/curveto ld
/t/show ld
/L/lineto ld
/ML/setmiterlimit ld
/CT/concat ld
/f/fill ld
/N/newpath ld
/S/stroke ld
/CC/setcmykcolor ld
/A/ashow ld
/cp/closepath ld
/RC/setrgbcolor ld
/LJ/setlinejoin ld
/GC/setgray ld
/LW/setlinewidth ld
/M/moveto ld
/re {4 2 roll M
1 index 0 rlineto
0 exch rlineto
neg 0 rlineto
cp } bd
/_ctm matrix def
/_tm matrix def
/BT { _ctm currentmatrix pop matrix _tm copy pop 0 0 moveto } bd
/ET { _ctm setmatrix } bd
/iTm { _ctm setmatrix _tm concat } bd
/Tm { _tm astore pop iTm 0 0 moveto } bd
/ux 0.0 def
/uy 0.0 def
/F {
  /Tp exch def
  /Tf exch def
  Tf findfont Tp scalefont setfont
  /cf Tf def  /cs Tp def
} bd
/ULS {currentpoint /uy exch def /ux exch def} bd
/ULE {
  /Tcx currentpoint pop def
  gsave
  newpath
  cf findfont cs scalefont dup
  /FontMatrix get 0 get /Ts exch def /FontInfo get dup
  /UnderlinePosition get Ts mul /To exch def
  /UnderlineThickness get Ts mul /Tt exch def
  ux uy To add moveto  Tcx uy To add lineto
  Tt setlinewidth stroke
  grestore
} bd
/OLE {
  /Tcx currentpoint pop def
  gsave
  newpath
  cf findfont cs scalefont dup
  /FontMatrix get 0 get /Ts exch def /FontInfo get dup
  /UnderlinePosition get Ts mul /To exch def
  /UnderlineThickness get Ts mul /Tt exch def
  ux uy To add cs add moveto Tcx uy To add cs add lineto
  Tt setlinewidth stroke
  grestore
} bd
/SOE {
  /Tcx currentpoint pop def
  gsave
  newpath
  cf findfont cs scalefont dup
  /FontMatrix get 0 get /Ts exch def /FontInfo get dup
  /UnderlinePosition get Ts mul /To exch def
  /UnderlineThickness get Ts mul /Tt exch def
  ux uy To add cs 10 mul 26 idiv add moveto Tcx uy To add cs 10 mul 26 idiv add lineto
  Tt setlinewidth stroke
  grestore
} bd
/QT {
/Y22 exch store
/X22 exch store
/Y21 exch store
/X21 exch store
currentpoint
/Y21 load 2 mul add 3 div exch
/X21 load 2 mul add 3 div exch
/X21 load 2 mul /X22 load add 3 div
/Y21 load 2 mul /Y22 load add 3 div
/X22 load /Y22 load curveto
} bd
/SSPD {
dup length /d exch dict def
{
/v exch def
/k exch def
currentpagedevice k known {
/cpdv currentpagedevice k get def
v cpdv ne {
/upd false def
/nullv v type /nulltype eq def
/nullcpdv cpdv type /nulltype eq def
nullv nullcpdv or
{
/upd true def
} {
/sametype v type cpdv type eq def
sametype {
v type /arraytype eq {
/vlen v length def
/cpdvlen cpdv length def
vlen cpdvlen eq {
0 1 vlen 1 sub {
/i exch def
/obj v i get def
/cpdobj cpdv i get def
obj cpdobj ne {
/upd true def
exit
} if
} for
} {
/upd true def
} ifelse
} {
v type /dicttype eq {
v {
/dv exch def
/dk exch def
/cpddv cpdv dk get def
dv cpddv ne {
/upd true def
exit
} if
} forall
} {
/upd true def
} ifelse
} ifelse
} if
} ifelse
upd true eq {
d k v put
} if
} if
} if
} forall
d length 0 gt {
d setpagedevice
} if
} bd
/RE { % /NewFontName [NewEncodingArray] /FontName RE -
  findfont dup length dict begin
  {
    1 index /FID ne
    {def} {pop pop} ifelse
  } forall
  /Encoding exch def
  /FontName 1 index def
  currentdict definefont pop
  end
} bind def
%%EndResource
%%BeginResource: procset (Apache XML Graphics EPS ProcSet) 1.0 0
%%Version: 1.0 0
%%Copyright: (Copyright 2002-2003 The Apache Software Foundation. License terms: http://www.apache.org/licenses/LICENSE-2.0)
/BeginEPSF { %def
/b4_Inc_state save def         % Save state for cleanup
/dict_count countdictstack def % Count objects on dict stack
/op_count count 1 sub def      % Count objects on operand stack
userdict begin                 % Push userdict on dict stack
/showpage { } def              % Redefine showpage, { } = null proc
0 setgray 0 setlinecap         % Prepare graphics state
1 setlinewidth 0 setlinejoin
10 setmiterlimit [ ] 0 setdash newpath
/languagelevel where           % If level not equal to 1 then
{pop languagelevel             % set strokeadjust and
1 ne                           % overprint to their defaults.
{false setstrokeadjust false setoverprint
} if
} if
} bd
/EndEPSF { %def
count op_count sub {pop} repeat            % Clean up stacks
countdictstack dict_count sub {end} repeat
b4_Inc_state restore
} bd
%%EndResource
%FOPBeginFontDict
%%IncludeResource: font Courier-Oblique
%%IncludeResource: font Courier-BoldOblique
%%IncludeResource: font Courier-Bold
%%IncludeResource: font ZapfDingbats
%%IncludeResource: font Symbol
%%IncludeResource: font Helvetica
%%IncludeResource: font Helvetica-Oblique
%%IncludeResource: font Helvetica-Bold
%%IncludeResource: font Helvetica-BoldOblique
%%IncludeResource: font Times-Roman
%%IncludeResource: font Times-Italic
%%IncludeResource: font Times-Bold
%%IncludeResource: font Times-BoldItalic
%%IncludeResource: font Courier
%FOPEndFontDict
%%BeginResource: encoding WinAnsiEncoding
/WinAnsiEncoding [
/.notdef /.notdef /.notdef /.notdef /.notdef
/.notdef /.notdef /.notdef /.notdef /.notdef
/.notdef /.notdef /.notdef /.notdef /.notdef
/.notdef /.notdef /.notdef /.notdef /.notdef
/.notdef /.notdef /.notdef /.notdef /.notdef
/.notdef /.notdef /.notdef /.notdef /.notdef
/.notdef /.notdef /space /exclam /quotedbl
/numbersign /dollar /percent /ampersand /quotesingle
/parenleft /parenright /asterisk /plus /comma
/hyphen /period /slash /zero /one
/two /three /four /five /six
/seven /eight /nine /colon /semicolon
/less /equal /greater /question /at
/A /B /C /D /E
/F /G /H /I /J
/K /L /M /N /O
/P /Q /R /S /T
/U /V /W /X /Y
/Z /bracketleft /backslash /bracketright /asciicircum
/underscore /quoteleft /a /b /c
/d /e /f /g /h
/i /j /k /l /m
/n /o /p /q /r
/s /t /u /v /w
/x /y /z /braceleft /bar
/braceright /asciitilde /bullet /Euro /bullet
/quotesinglbase /florin /quotedblbase /ellipsis /dagger
/daggerdbl /circumflex /perthousand /Scaron /guilsinglleft
/OE /bullet /Zcaron /bullet /bullet
/quoteleft /quoteright /quotedblleft /quotedblright /bullet
/endash /emdash /asciitilde /trademark /scaron
/guilsinglright /oe /bullet /zcaron /Ydieresis
/space /exclamdown /cent /sterling /currency
/yen /brokenbar /section /dieresis /copyright
/ordfeminine /guillemotleft /logicalnot /sfthyphen /registered
/macron /degree /plusminus /twosuperior /threesuperior
/acute /mu /paragraph /middot /cedilla
/onesuperior /ordmasculine /guillemotright /onequarter /onehalf
/threequarters /questiondown /Agrave /Aacute /Acircumflex
/Atilde /Adieresis /Aring /AE /Ccedilla
/Egrave /Eacute /Ecircumflex /Edieresis /Igrave
/Iacute /Icircumflex /Idieresis /Eth /Ntilde
/Ograve /Oacute /Ocircumflex /Otilde /Odieresis
/multiply /Oslash /Ugrave /Uacute /Ucircumflex
/Udieresis /Yacute /Thorn /germandbls /agrave
/aacute /acircumflex /atilde /adieresis /aring
/ae /ccedilla /egrave /eacute /ecircumflex
/edieresis /igrave /iacute /icircumflex /idieresis
/eth /ntilde /ograve /oacute /ocircumflex
/otilde /odieresis /divide /oslash /ugrave
/uacute /ucircumflex /udieresis /yacute /thorn
/ydieresis
] def
%%EndResource
%FOPBeginFontReencode
/Courier-Oblique findfont
dup length dict begin
  {1 index /FID ne {def} {pop pop} ifelse} forall
  /Encoding WinAnsiEncoding def
  currentdict
end
/Courier-Oblique exch definefont pop
/Courier-BoldOblique findfont
dup length dict begin
  {1 index /FID ne {def} {pop pop} ifelse} forall
  /Encoding WinAnsiEncoding def
  currentdict
end
/Courier-BoldOblique exch definefont pop
/Courier-Bold findfont
dup length dict begin
  {1 index /FID ne {def} {pop pop} ifelse} forall
  /Encoding WinAnsiEncoding def
  currentdict
end
/Courier-Bold exch definefont pop
/Helvetica findfont
dup length dict begin
  {1 index /FID ne {def} {pop pop} ifelse} forall
  /Encoding WinAnsiEncoding def
  currentdict
end
/Helvetica exch definefont pop
/Helvetica-Oblique findfont
dup length dict begin
  {1 index /FID ne {def} {pop pop} ifelse} forall
  /Encoding WinAnsiEncoding def
  currentdict
end
/Helvetica-Oblique exch definefont pop
/Helvetica-Bold findfont
dup length dict begin
  {1 index /FID ne {def} {pop pop} ifelse} forall
  /Encoding WinAnsiEncoding def
  currentdict
end
/Helvetica-Bold exch definefont pop
/Helvetica-BoldOblique findfont
dup length dict begin
  {1 index /FID ne {def} {pop pop} ifelse} forall
  /Encoding WinAnsiEncoding def
  currentdict
end
/Helvetica-BoldOblique exch definefont pop
/Times-Roman findfont
dup length dict begin
  {1 index /FID ne {def} {pop pop} ifelse} forall
  /Encoding WinAnsiEncoding def
  currentdict
end
/Times-Roman exch definefont pop
/Times-Italic findfont
dup length dict begin
  {1 index /FID ne {def} {pop pop} ifelse} forall
  /Encoding WinAnsiEncoding def
  currentdict
end
/Times-Italic exch definefont pop
/Times-Bold findfont
dup length dict begin
  {1 index /FID ne {def} {pop pop} ifelse} forall
  /Encoding WinAnsiEncoding def
  currentdict
end
/Times-Bold exch definefont pop
/Times-BoldItalic findfont
dup length dict begin
  {1 index /FID ne {def} {pop pop} ifelse} forall
  /Encoding WinAnsiEncoding def
  currentdict
end
/Times-BoldItalic exch definefont pop
/Courier findfont
dup length dict begin
  {1 index /FID ne {def} {pop pop} ifelse} forall
  /Encoding WinAnsiEncoding def
  currentdict
end
/Courier exch definefont pop
%FOPEndFontReencode
%%EndProlog
%%Page: 1 1
%%PageBoundingBox: 0 0 273 180
%%BeginPageSetup
[1 0 0 -1 0 180] CT
%%EndPageSetup
GS
[0.75 0 0 0.75 0 0] CT
1 GC
N
0 0 364 240 re
f
GR
GS
[0.75 0 0 0.75 0 0] CT
1 GC
N
0 0 364 240 re
f
GR
GS
[0.75 0 0 0.75 0 0] CT
1 GC
N
60 200 M
296 200 L
296 18 L
60 18 L
cp
f
GR
GS
[0.75 0 0 0.75 0 0] CT
0.149 GC
2 setlinecap
1 LJ
0.667 LW
N
60 200 M
296 200 L
S
GR
GS
[0.75 0 0 0.75 0 0] CT
0.149 GC
2 setlinecap
1 LJ
0.667 LW
N
60 18 M
296 18 L
S
GR
GS
[0.75 0 0 0.75 0 0] CT
0.149 GC
2 setlinecap
1 LJ
0.667 LW
N
60 200 M
60 197.64 L
S
GR
GS
[0.75 0 0 0.75 0 0] CT
0.149 GC
2 setlinecap
1 LJ
0.667 LW
N
138.667 200 M
138.667 197.64 L
S
GR
GS
[0.75 0 0 0.75 0 0] CT
0.149 GC
2 setlinecap
1 LJ
0.667 LW
N
217.333 200 M
217.333 197.64 L
S
GR
GS
[0.75 0 0 0.75 0 0] CT
0.149 GC
2 setlinecap
1 LJ
0.667 LW
N
296 200 M
296 197.64 L
S
GR
GS
[0.75 0 0 0.75 0 0] CT
0.149 GC
2 setlinecap
1 LJ
0.667 LW
N
60 18 M
60 20.36 L
S
GR
GS
[0.75 0 0 0.75 0 0] CT
0.149 GC
2 setlinecap
1 LJ
0.667 LW
N
138.667 18 M
138.667 20.36 L
S
GR
GS
[0.75 0 0 0.75 0 0] CT
0.149 GC
2 setlinecap
1 LJ
0.667 LW
N
217.333 18 M
217.333 20.36 L
S
GR
GS
[0.75 0 0 0.75 0 0] CT
0.149 GC
2 setlinecap
1 LJ
0.667 LW
N
296 18 M
296 20.36 L
S
GR
GS
[0.75 0 0 0.75 45 153.99994] CT
0.149 GC
/Times-Roman 13.333 F
GS
[1 0 0 1 0 0] CT
-3.5 13 moveto 
1 -1 scale
(0) t 
GR
GR
GS
[0.75 0 0 0.75 104 153.99994] CT
0.149 GC
/Times-Roman 13.333 F
GS
[1 0 0 1 0 0] CT
-10 13 moveto 
1 -1 scale
(500) t 
GR
GR
GS
[0.75 0 0 0.75 163 153.99994] CT
0.149 GC
/Times-Roman 13.333 F
GS
[1 0 0 1 0 0] CT
-13.5 13 moveto 
1 -1 scale
(1000) t 
GR
GR
GS
[0.75 0 0 0.75 222 153.99994] CT
0.149 GC
/Times-Roman 13.333 F
GS
[1 0 0 1 0 0] CT
-13.5 13 moveto 
1 -1 scale
(1500) t 
GR
GR
GS
[0.75 0 0 0.75 133.50009 166.99996] CT
0.149 GC
/Times-Roman 14.667 F
GS
[1 0 0 1 0 0] CT
-24.5 14 moveto 
1 -1 scale
(Time / s) t 
GR
GR
GS
[0.75 0 0 0.75 0 0] CT
0 0.447 0.741 RC
2 setlinecap
1 LJ
0.667 LW
N
60 200 M
60 18 L
S
GR
GS
[0.75 0 0 0.75 0 0] CT
0 0.447 0.741 RC
2 setlinecap
1 LJ
0.667 LW
N
60 200 M
62.36 200 L
S
GR
GS
[0.75 0 0 0.75 0 0] CT
0 0.447 0.741 RC
2 setlinecap
1 LJ
0.667 LW
N
60 169.667 M
62.36 169.667 L
S
GR
GS
[0.75 0 0 0.75 0 0] CT
0 0.447 0.741 RC
2 setlinecap
1 LJ
0.667 LW
N
60 139.333 M
62.36 139.333 L
S
GR
GS
[0.75 0 0 0.75 0 0] CT
0 0.447 0.741 RC
2 setlinecap
1 LJ
0.667 LW
N
60 109 M
62.36 109 L
S
GR
GS
[0.75 0 0 0.75 0 0] CT
0 0.447 0.741 RC
2 setlinecap
1 LJ
0.667 LW
N
60 78.667 M
62.36 78.667 L
S
GR
GS
[0.75 0 0 0.75 0 0] CT
0 0.447 0.741 RC
2 setlinecap
1 LJ
0.667 LW
N
60 48.333 M
62.36 48.333 L
S
GR
GS
[0.75 0 0 0.75 0 0] CT
0 0.447 0.741 RC
2 setlinecap
1 LJ
0.667 LW
N
60 18 M
62.36 18 L
S
GR
GS
[0.75 0 0 0.75 41 149.99999] CT
0 0.447 0.741 RC
/Times-Roman 13.333 F
GS
[1 0 0 1 0 0] CT
-30 5 moveto 
1 -1 scale
(0.685) t 
GR
GR
GS
[0.75 0 0 0.75 41 127.25002] CT
0 0.447 0.741 RC
/Times-Roman 13.333 F
GS
[1 0 0 1 0 0] CT
-24 5 moveto 
1 -1 scale
(0.69) t 
GR
GR
GS
[0.75 0 0 0.75 41 104.50003] CT
0 0.447 0.741 RC
/Times-Roman 13.333 F
GS
[1 0 0 1 0 0] CT
-30 5 moveto 
1 -1 scale
(0.695) t 
GR
GR
GS
[0.75 0 0 0.75 41 81.75005] CT
0 0.447 0.741 RC
/Times-Roman 13.333 F
GS
[1 0 0 1 0 0] CT
-17 5 moveto 
1 -1 scale
(0.7) t 
GR
GR
GS
[0.75 0 0 0.75 41 59.00008] CT
0 0.447 0.741 RC
/Times-Roman 13.333 F
GS
[1 0 0 1 0 0] CT
-30 5 moveto 
1 -1 scale
(0.705) t 
GR
GR
GS
[0.75 0 0 0.75 41 36.2501] CT
0 0.447 0.741 RC
/Times-Roman 13.333 F
GS
[1 0 0 1 0 0] CT
-24 5 moveto 
1 -1 scale
(0.71) t 
GR
GR
GS
[0.75 0 0 0.75 41 13.50012] CT
0 0.447 0.741 RC
/Times-Roman 13.333 F
GS
[1 0 0 1 0 0] CT
-30 5 moveto 
1 -1 scale
(0.715) t 
GR
GR
GS
[0 -0.75 0.75 0 13.5 88.5] CT
0 0.447 0.741 RC
N
2.422 0.172 M
1.734 0.172 1.328 -0.328 QT
0.922 -0.828 0.758 -1.531 QT
0.594 -2.234 0.594 -2.922 QT
0.594 -2.938 L
0.594 -3.688 0.742 -4.492 QT
0.891 -5.297 1.156 -6.102 QT
1.422 -6.906 1.75 -7.531 QT
1.969 -7.969 2.313 -8.508 QT
2.656 -9.047 3.086 -9.523 QT
3.516 -10 4.008 -10.289 QT
4.5 -10.578 5.016 -10.578 QT
5.031 -10.578 L
5.563 -10.578 5.93 -10.273 QT
6.297 -9.969 6.492 -9.5 QT
6.688 -9.031 6.773 -8.5 QT
6.859 -7.969 6.859 -7.484 QT
6.859 -6.344 6.547 -5.164 QT
6.234 -3.984 5.703 -2.875 QT
5.5 -2.469 5.133 -1.898 QT
4.766 -1.328 4.359 -0.883 QT
3.953 -0.438 3.445 -0.133 QT
2.938 0.172 2.438 0.172 QT
2.422 0.172 L
cp
2.453 -0.234 M
2.938 -0.234 3.398 -0.766 QT
3.859 -1.297 4.203 -2.055 QT
4.547 -2.813 4.805 -3.602 QT
5.063 -4.391 5.188 -4.953 QT
2.125 -4.953 L
1.891 -4 1.766 -3.32 QT
1.641 -2.641 1.641 -1.984 QT
1.641 -0.234 2.453 -0.234 QT
cp
2.25 -5.484 M
5.328 -5.484 L
5.484 -6.141 5.578 -6.586 QT
5.672 -7.031 5.742 -7.516 QT
5.813 -8 5.813 -8.438 QT
5.813 -10.188 5.016 -10.188 QT
4.063 -10.188 3.367 -8.656 QT
2.672 -7.125 2.25 -5.484 QT
cp
f
GR
GS
[0 -0.75 0.75 0 18.75 83.25] CT
0 0.447 0.741 RC
/Times-Roman 11.733 F
GS
[1 0 0 1 0 0] CT
0 0 moveto 
1 -1 scale
(s) t 
GR
GR
GS
[0 -0.75 0.75 0 18.75 79.5] CT
0 0.447 0.741 RC
/Times-Roman 11.733 F
GS
[1 0 0 1 0 0] CT
0 0 moveto 
1 -1 scale
(e) t 
GR
GR
GS
[0.75 0 0 0.75 0 0] CT
0.851 0.325 0.098 RC
2 setlinecap
1 LJ
0.667 LW
N
296 200 M
296 18 L
S
GR
GS
[0.75 0 0 0.75 0 0] CT
0.851 0.325 0.098 RC
2 setlinecap
1 LJ
0.667 LW
N
296 200 M
293.64 200 L
S
GR
GS
[0.75 0 0 0.75 0 0] CT
0.851 0.325 0.098 RC
2 setlinecap
1 LJ
0.667 LW
N
296 169.667 M
293.64 169.667 L
S
GR
GS
[0.75 0 0 0.75 0 0] CT
0.851 0.325 0.098 RC
2 setlinecap
1 LJ
0.667 LW
N
296 139.333 M
293.64 139.333 L
S
GR
GS
[0.75 0 0 0.75 0 0] CT
0.851 0.325 0.098 RC
2 setlinecap
1 LJ
0.667 LW
N
296 109 M
293.64 109 L
S
GR
GS
[0.75 0 0 0.75 0 0] CT
0.851 0.325 0.098 RC
2 setlinecap
1 LJ
0.667 LW
N
296 78.667 M
293.64 78.667 L
S
GR
GS
[0.75 0 0 0.75 0 0] CT
0.851 0.325 0.098 RC
2 setlinecap
1 LJ
0.667 LW
N
296 48.333 M
293.64 48.333 L
S
GR
GS
[0.75 0 0 0.75 0 0] CT
0.851 0.325 0.098 RC
2 setlinecap
1 LJ
0.667 LW
N
296 18 M
293.64 18 L
S
GR
GS
[0.75 0 0 0.75 226.00001 150.00001] CT
0.851 0.325 0.098 RC
/Times-Roman 13.333 F
GS
[1 0 0 1 0 0] CT
0 5 moveto 
1 -1 scale
(0.315) t 
GR
GR
GS
[0.75 0 0 0.75 226.00001 127.25004] CT
0.851 0.325 0.098 RC
/Times-Roman 13.333 F
GS
[1 0 0 1 0 0] CT
0 5 moveto 
1 -1 scale
(0.32) t 
GR
GR
GS
[0.75 0 0 0.75 226.00001 104.50005] CT
0.851 0.325 0.098 RC
/Times-Roman 13.333 F
GS
[1 0 0 1 0 0] CT
0 5 moveto 
1 -1 scale
(0.325) t 
GR
GR
GS
[0.75 0 0 0.75 226.00001 81.74994] CT
0.851 0.325 0.098 RC
/Times-Roman 13.333 F
GS
[1 0 0 1 0 0] CT
0 5 moveto 
1 -1 scale
(0.33) t 
GR
GR
GS
[0.75 0 0 0.75 226.00001 58.99996] CT
0.851 0.325 0.098 RC
/Times-Roman 13.333 F
GS
[1 0 0 1 0 0] CT
0 5 moveto 
1 -1 scale
(0.335) t 
GR
GR
GS
[0.75 0 0 0.75 226.00001 36.24998] CT
0.851 0.325 0.098 RC
/Times-Roman 13.333 F
GS
[1 0 0 1 0 0] CT
0 5 moveto 
1 -1 scale
(0.34) t 
GR
GR
GS
[0.75 0 0 0.75 226.00001 13.50001] CT
0.851 0.325 0.098 RC
/Times-Roman 13.333 F
GS
[1 0 0 1 0 0] CT
0 5 moveto 
1 -1 scale
(0.345) t 
GR
GR
GS
[0 -0.75 0.75 0 257.25 88.5] CT
0.851 0.325 0.098 RC
N
/f1162361650{2.422 0.172 M
1.734 0.172 1.328 -0.328 QT
0.922 -0.828 0.758 -1.531 QT
0.594 -2.234 0.594 -2.922 QT
0.594 -2.938 L
0.594 -3.688 0.742 -4.492 QT
0.891 -5.297 1.156 -6.102 QT
1.422 -6.906 1.75 -7.531 QT
1.969 -7.969 2.313 -8.508 QT
2.656 -9.047 3.086 -9.523 QT
3.516 -10 4.008 -10.289 QT
4.5 -10.578 5.016 -10.578 QT
5.031 -10.578 L
5.563 -10.578 5.93 -10.273 QT
6.297 -9.969 6.492 -9.5 QT
6.688 -9.031 6.773 -8.5 QT
6.859 -7.969 6.859 -7.484 QT
6.859 -6.344 6.547 -5.164 QT
6.234 -3.984 5.703 -2.875 QT
5.5 -2.469 5.133 -1.898 QT
4.766 -1.328 4.359 -0.883 QT
3.953 -0.438 3.445 -0.133 QT
2.938 0.172 2.438 0.172 QT
2.422 0.172 L
cp
2.453 -0.234 M
2.938 -0.234 3.398 -0.766 QT
3.859 -1.297 4.203 -2.055 QT
4.547 -2.813 4.805 -3.602 QT
5.063 -4.391 5.188 -4.953 QT
2.125 -4.953 L
1.891 -4 1.766 -3.32 QT
1.641 -2.641 1.641 -1.984 QT
1.641 -0.234 2.453 -0.234 QT
cp
2.25 -5.484 M
5.328 -5.484 L
5.484 -6.141 5.578 -6.586 QT
5.672 -7.031 5.742 -7.516 QT
5.813 -8 5.813 -8.438 QT
5.813 -10.188 5.016 -10.188 QT
4.063 -10.188 3.367 -8.656 QT
2.672 -7.125 2.25 -5.484 QT
cp}def
f1162361650
f
GR
GS
[0 -0.75 0.75 0 262.5 83.25] CT
0.851 0.325 0.098 RC
/Times-Roman 11.733 F
GS
[1 0 0 1 0 0] CT
0 0 moveto 
1 -1 scale
(s) t 
GR
GR
GS
[0 -0.75 0.75 0 262.5 79.5] CT
0.851 0.325 0.098 RC
/Times-Roman 11.733 F
GS
[1 0 0 1 0 0] CT
0 0 moveto 
1 -1 scale
(e) t 
GR
GR
GS
[0.75 0 0 0.75 0 0] CT
N
60 18 M
297 18 L
297 201 L
60 201 L
60 18 L
cp
clip
0.345 0.537 0.69 RC
1 LJ
2.667 LW
N
60 178.767 M
61.573 178.767 L
63.147 178.767 L
64.72 170.819 L
66.293 175.369 L
67.867 171.244 L
69.44 167.725 L
71.013 169.424 L
72.587 168.332 L
74.16 164.753 L
75.733 164.571 L
77.307 162.872 L
78.88 169.424 L
80.453 167.847 L
82.027 167.847 L
83.6 167.907 L
85.173 168.029 L
86.747 158.443 L
88.32 159.778 L
89.893 160.567 L
91.467 145.521 L
93.04 145.279 L
94.613 140.001 L
96.187 134.298 L
97.76 130.173 L
99.333 130.294 L
100.907 128.535 L
102.48 129.323 L
104.053 120.648 L
105.627 124.349 L
107.2 123.742 L
108.773 130.597 L
110.347 132.417 L
111.92 134.055 L
113.493 133.145 L
115.067 128.899 L
116.64 119.617 L
118.213 120.041 L
119.787 118.161 L
121.36 126.169 L
122.933 124.955 L
124.507 113.004 L
126.08 116.523 L
127.653 120.041 L
129.227 119.981 L
130.8 116.523 L
132.373 105.299 L
133.947 106.816 L
135.52 106.755 L
137.093 106.573 L
138.667 113.55 L
140.24 111.548 L
141.813 105.967 L
143.387 103.115 L
144.96 103.843 L
146.533 106.695 L
148.107 106.149 L
149.68 103.843 L
151.253 101.477 L
152.827 102.023 L
154.4 98.869 L
155.973 95.229 L
157.547 99.9 L
159.12 99.718 L
160.693 99.657 L
162.267 95.229 L
163.84 90.557 L
165.413 93.166 L
166.987 94.865 L
168.56 94.683 L
170.133 90.254 L
171.707 86.796 L
173.28 91.285 L
174.853 88.798 L
176.427 80.851 L
178 82.064 L
179.573 86.493 L
181.147 80.911 L
182.72 74.845 L
184.293 76.786 L
185.867 75.937 L
187.44 71.447 L
189.013 73.389 L
190.587 72.903 L
192.16 76.361 L
193.733 69.263 L
195.307 68.111 L
196.88 69.263 L
198.453 66.048 L
200.027 66.837 L
201.6 66.291 L
203.173 65.684 L
204.747 64.835 L
206.32 62.954 L
207.893 61.923 L
209.467 63.925 L
211.04 63.5 L
212.613 55.795 L
214.187 55.492 L
215.76 57.555 L
217.333 54.703 L
218.907 54.703 L
220.48 57.312 L
222.053 56.22 L
223.627 55.977 L
225.2 55.735 L
226.773 48.091 L
228.347 45.361 L
229.92 50.76 L
231.493 50.214 L
233.067 50.093 L
234.64 44.936 L
236.213 41.963 L
237.787 40.75 L
239.36 41.478 L
240.933 44.815 L
242.507 43.844 L
244.08 42.085 L
245.653 38.505 L
247.227 40.083 L
248.8 38.323 L
250.373 35.593 L
251.947 34.077 L
253.52 35.108 L
255.093 35.654 L
256.667 35.411 L
258.24 34.077 L
259.813 29.951 L
261.387 26.857 L
262.96 26.615 L
264.533 24.006 L
266.107 28.738 L
267.68 27.707 L
269.253 27.585 L
270.827 24.552 L
272.4 19.638 L
273.973 23.521 L
275.547 23.763 L
S
GR
GS
[0.75 0 0 0.75 0 0] CT
N
60 18 M
297 18 L
297 201 L
60 201 L
60 18 L
cp
clip
0.914 0.282 0.286 RC
[8 8] 0 setdash
2 LJ
2.667 LW
N
60 178.767 M
61.573 178.767 L
63.147 178.767 L
64.72 171.487 L
66.293 175.673 L
67.867 171.851 L
69.44 168.696 L
71.013 170.213 L
72.587 169.242 L
74.16 165.966 L
75.733 165.845 L
77.307 164.328 L
78.88 170.395 L
80.453 168.939 L
82.027 168.999 L
83.6 169.121 L
85.173 169.242 L
86.747 160.506 L
88.32 161.719 L
89.893 162.447 L
91.467 148.737 L
93.04 148.494 L
94.613 143.701 L
96.187 138.605 L
97.76 134.844 L
99.333 135.026 L
100.907 133.509 L
102.48 134.359 L
104.053 126.533 L
105.627 129.991 L
107.2 129.566 L
108.773 135.936 L
110.347 137.695 L
111.92 139.273 L
113.493 138.484 L
115.067 134.662 L
116.64 126.108 L
118.213 126.472 L
119.787 124.713 L
121.36 132.114 L
122.933 131.022 L
124.507 120.163 L
126.08 123.317 L
127.653 126.593 L
129.227 126.533 L
130.8 123.317 L
132.373 113.065 L
133.947 114.4 L
135.52 114.339 L
137.093 114.157 L
138.667 120.587 L
140.24 118.767 L
141.813 113.671 L
143.387 111.063 L
144.96 111.669 L
146.533 114.278 L
148.107 113.793 L
149.68 111.669 L
151.253 109.425 L
152.827 109.91 L
154.4 106.998 L
155.973 103.661 L
157.547 107.847 L
159.12 107.726 L
160.693 107.605 L
162.267 103.54 L
163.84 99.232 L
165.413 101.538 L
166.987 103.115 L
168.56 102.873 L
170.133 98.808 L
171.707 95.593 L
173.28 99.657 L
174.853 97.413 L
176.427 90.133 L
178 91.225 L
179.573 95.229 L
181.147 90.133 L
182.72 84.491 L
184.293 86.311 L
185.867 85.461 L
187.44 81.336 L
189.013 83.095 L
190.587 82.671 L
192.16 85.825 L
193.733 79.334 L
195.307 78.242 L
196.88 79.273 L
198.453 76.301 L
200.027 77.029 L
201.6 76.543 L
203.173 75.937 L
204.747 75.148 L
206.32 73.389 L
207.893 72.418 L
209.467 74.238 L
211.04 73.874 L
212.613 66.715 L
214.187 66.412 L
215.76 68.293 L
217.333 65.684 L
218.907 65.684 L
220.48 68.05 L
222.053 67.019 L
223.627 66.776 L
225.2 66.594 L
226.773 59.496 L
228.347 56.948 L
229.92 61.862 L
231.493 61.377 L
233.067 61.195 L
234.64 56.463 L
236.213 53.733 L
237.787 52.58 L
239.36 53.187 L
240.933 56.281 L
242.507 55.371 L
244.08 53.733 L
245.653 50.457 L
247.227 51.852 L
248.8 50.214 L
250.373 47.727 L
251.947 46.271 L
253.52 47.181 L
255.093 47.666 L
256.667 47.423 L
258.24 46.149 L
259.813 42.388 L
261.387 39.537 L
262.96 39.294 L
264.533 36.867 L
266.107 41.235 L
267.68 40.265 L
269.253 40.083 L
270.827 37.353 L
272.4 32.803 L
273.973 36.321 L
275.547 36.503 L
S
GR
GS
[0.75 0 0 0.75 0 0] CT
N
60 18 M
297 18 L
297 201 L
60 201 L
60 18 L
cp
clip
0.443 0.749 0.431 RC
1 LJ
2.667 LW
N
60 21.033 M
61.573 21.033 L
63.147 21.033 L
64.72 39.537 L
66.293 27.403 L
67.867 37.656 L
69.44 44.754 L
71.013 39.719 L
72.587 41.781 L
74.16 49.122 L
75.733 47.423 L
77.307 50.639 L
78.88 34.38 L
80.453 38.02 L
82.027 37.656 L
83.6 37.049 L
85.173 36.564 L
86.747 58.525 L
88.32 53.854 L
89.893 50.396 L
91.467 85.401 L
93.04 83.277 L
94.613 92.802 L
96.187 104.329 L
97.76 110.153 L
99.333 106.695 L
100.907 107.605 L
102.48 103.115 L
104.053 121.619 L
105.627 108.272 L
107.2 108.757 L
108.773 90.375 L
110.347 84.794 L
111.92 79.152 L
113.493 80.911 L
115.067 89.041 L
116.64 110.699 L
118.213 106.452 L
119.787 108.636 L
121.36 87.524 L
122.933 89.283 L
124.507 116.037 L
126.08 105.906 L
127.653 95.289 L
129.227 94.197 L
130.8 100.264 L
132.373 126.897 L
133.947 118.889 L
135.52 116.887 L
137.093 115.309 L
138.667 96.624 L
140.24 100.507 L
141.813 111.851 L
143.387 117.554 L
144.96 113.853 L
146.533 104.389 L
148.107 104.875 L
149.68 108.211 L
151.253 113.247 L
152.827 110.031 L
154.4 115.795 L
155.973 122.771 L
157.547 109.607 L
159.12 108.939 L
160.693 107.847 L
162.267 116.644 L
163.84 126.836 L
165.413 118.828 L
166.987 112.397 L
168.56 111.73 L
170.133 120.466 L
171.707 127.2 L
173.28 115.431 L
174.853 118.707 L
176.427 136.603 L
178 131.386 L
179.573 118.525 L
181.147 129.869 L
182.72 143.58 L
184.293 136.239 L
185.867 136.179 L
187.44 145.461 L
189.013 138.181 L
190.587 137.331 L
192.16 127.503 L
193.733 142.609 L
195.307 143.944 L
196.88 138.605 L
198.453 145.521 L
200.027 140.607 L
201.6 140.971 L
203.173 140.365 L
204.747 140.183 L
206.32 144.247 L
207.893 144.611 L
209.467 138.545 L
211.04 137.271 L
212.613 154.5 L
214.187 153.105 L
215.76 145.521 L
217.333 150.557 L
218.907 149.525 L
220.48 141.093 L
222.053 142.913 L
223.627 142.245 L
225.2 141.578 L
226.773 158.747 L
228.347 162.933 L
229.92 148.555 L
231.493 147.827 L
233.067 147.099 L
234.64 157.655 L
236.213 162.751 L
237.787 163.964 L
239.36 160.506 L
240.933 150.314 L
242.507 151.891 L
244.08 154.257 L
245.653 163.175 L
247.227 156.32 L
248.8 158.747 L
250.373 163.539 L
251.947 165.723 L
253.52 161.78 L
255.093 158.868 L
256.667 158.383 L
258.24 160.263 L
259.813 167.543 L
261.387 174.641 L
262.96 172.7 L
264.533 178.767 L
266.107 163.479 L
267.68 165.42 L
269.253 164.51 L
270.827 169.485 L
272.4 179.919 L
273.973 169.727 L
275.547 167.725 L
S
GR
GS
[0.75 0 0 0.75 0 0] CT
N
60 18 M
297 18 L
297 201 L
60 201 L
60 18 L
cp
clip
1 0.6 0.2 RC
[8 8] 0 setdash
2 LJ
2.667 LW
N
60 21.033 M
61.573 21.033 L
63.147 21.033 L
64.72 39.961 L
66.293 27.525 L
67.867 37.959 L
69.44 45.057 L
71.013 39.961 L
72.587 41.963 L
74.16 49.365 L
75.733 47.605 L
77.307 50.881 L
78.88 34.319 L
80.453 38.02 L
82.027 37.656 L
83.6 37.11 L
85.173 36.625 L
86.747 58.95 L
88.32 54.157 L
89.893 50.578 L
91.467 86.189 L
93.04 83.945 L
94.613 93.469 L
96.187 105.057 L
97.76 110.941 L
99.333 107.301 L
100.907 108.211 L
102.48 103.54 L
104.053 122.347 L
105.627 108.818 L
107.2 109.182 L
108.773 90.618 L
110.347 84.915 L
111.92 79.213 L
113.493 81.154 L
115.067 89.465 L
116.64 111.548 L
118.213 107.241 L
119.787 109.425 L
121.36 87.949 L
122.933 89.647 L
124.507 116.826 L
126.08 106.695 L
127.653 95.835 L
129.227 94.743 L
130.8 100.992 L
132.373 128.049 L
133.947 119.981 L
135.52 117.857 L
137.093 116.219 L
138.667 97.291 L
140.24 101.113 L
141.813 112.701 L
143.387 118.525 L
144.96 114.824 L
146.533 105.117 L
148.107 105.663 L
149.68 109.061 L
151.253 114.278 L
152.827 110.941 L
154.4 116.887 L
155.973 123.985 L
157.547 110.638 L
159.12 109.91 L
160.693 108.818 L
162.267 117.736 L
163.84 128.11 L
165.413 119.981 L
166.987 113.429 L
168.56 112.761 L
170.133 121.679 L
171.707 128.474 L
173.28 116.523 L
174.853 119.799 L
176.427 137.938 L
178 132.721 L
179.573 119.617 L
181.147 131.143 L
182.72 145.036 L
184.293 137.635 L
185.867 137.513 L
187.44 146.977 L
189.013 139.515 L
190.587 138.605 L
192.16 128.656 L
193.733 144.005 L
195.307 145.461 L
196.88 139.94 L
198.453 146.977 L
200.027 142.003 L
201.6 142.367 L
203.173 141.76 L
204.747 141.578 L
206.32 145.703 L
207.893 146.007 L
209.467 140.001 L
211.04 138.727 L
212.613 156.259 L
214.187 154.864 L
215.76 147.099 L
217.333 152.073 L
218.907 151.103 L
220.48 142.549 L
222.053 144.369 L
223.627 143.762 L
225.2 143.095 L
226.773 160.445 L
228.347 164.813 L
229.92 150.132 L
231.493 149.404 L
233.067 148.615 L
234.64 159.414 L
236.213 164.571 L
237.787 165.784 L
239.36 162.265 L
240.933 151.891 L
242.507 153.469 L
244.08 155.895 L
245.653 164.874 L
247.227 157.958 L
248.8 160.445 L
250.373 165.238 L
251.947 167.543 L
253.52 163.539 L
255.093 160.567 L
256.667 160.081 L
258.24 161.962 L
259.813 169.424 L
261.387 176.583 L
262.96 174.641 L
264.533 180.708 L
266.107 165.056 L
267.68 167.119 L
269.253 166.209 L
270.827 171.244 L
272.4 181.861 L
273.973 171.547 L
275.547 169.545 L
S
GR
%%Trailer
%%Pages: 1
%%EOF
