%!PS-Adobe-3.0 EPSF-3.0
%%Creator: (MATLAB, The Mathworks, Inc. Version 9.3.0.713579 \(R2017b\). Operating System: Windows 7)
%%Title: F:/Lab/Git/Git_LMPROM2/Figures/Vt.eps
%%CreationDate: 2018-09-21T11:35:59
%%Pages: (atend)
%%BoundingBox: 0 0 240 180
%%LanguageLevel: 3
%%EndComments
%%BeginProlog
%%BeginResource: procset (Apache XML Graphics Std ProcSet) 1.2 0
%%Version: 1.2 0
%%Copyright: (Copyright 2001-2003,2010 The Apache Software Foundation. License terms: http://www.apache.org/licenses/LICENSE-2.0)
/bd{bind def}bind def
/ld{load def}bd
/GR/grestore ld
/GS/gsave ld
/RM/rmoveto ld
/C/curveto ld
/t/show ld
/L/lineto ld
/ML/setmiterlimit ld
/CT/concat ld
/f/fill ld
/N/newpath ld
/S/stroke ld
/CC/setcmykcolor ld
/A/ashow ld
/cp/closepath ld
/RC/setrgbcolor ld
/LJ/setlinejoin ld
/GC/setgray ld
/LW/setlinewidth ld
/M/moveto ld
/re {4 2 roll M
1 index 0 rlineto
0 exch rlineto
neg 0 rlineto
cp } bd
/_ctm matrix def
/_tm matrix def
/BT { _ctm currentmatrix pop matrix _tm copy pop 0 0 moveto } bd
/ET { _ctm setmatrix } bd
/iTm { _ctm setmatrix _tm concat } bd
/Tm { _tm astore pop iTm 0 0 moveto } bd
/ux 0.0 def
/uy 0.0 def
/F {
  /Tp exch def
  /Tf exch def
  Tf findfont Tp scalefont setfont
  /cf Tf def  /cs Tp def
} bd
/ULS {currentpoint /uy exch def /ux exch def} bd
/ULE {
  /Tcx currentpoint pop def
  gsave
  newpath
  cf findfont cs scalefont dup
  /FontMatrix get 0 get /Ts exch def /FontInfo get dup
  /UnderlinePosition get Ts mul /To exch def
  /UnderlineThickness get Ts mul /Tt exch def
  ux uy To add moveto  Tcx uy To add lineto
  Tt setlinewidth stroke
  grestore
} bd
/OLE {
  /Tcx currentpoint pop def
  gsave
  newpath
  cf findfont cs scalefont dup
  /FontMatrix get 0 get /Ts exch def /FontInfo get dup
  /UnderlinePosition get Ts mul /To exch def
  /UnderlineThickness get Ts mul /Tt exch def
  ux uy To add cs add moveto Tcx uy To add cs add lineto
  Tt setlinewidth stroke
  grestore
} bd
/SOE {
  /Tcx currentpoint pop def
  gsave
  newpath
  cf findfont cs scalefont dup
  /FontMatrix get 0 get /Ts exch def /FontInfo get dup
  /UnderlinePosition get Ts mul /To exch def
  /UnderlineThickness get Ts mul /Tt exch def
  ux uy To add cs 10 mul 26 idiv add moveto Tcx uy To add cs 10 mul 26 idiv add lineto
  Tt setlinewidth stroke
  grestore
} bd
/QT {
/Y22 exch store
/X22 exch store
/Y21 exch store
/X21 exch store
currentpoint
/Y21 load 2 mul add 3 div exch
/X21 load 2 mul add 3 div exch
/X21 load 2 mul /X22 load add 3 div
/Y21 load 2 mul /Y22 load add 3 div
/X22 load /Y22 load curveto
} bd
/SSPD {
dup length /d exch dict def
{
/v exch def
/k exch def
currentpagedevice k known {
/cpdv currentpagedevice k get def
v cpdv ne {
/upd false def
/nullv v type /nulltype eq def
/nullcpdv cpdv type /nulltype eq def
nullv nullcpdv or
{
/upd true def
} {
/sametype v type cpdv type eq def
sametype {
v type /arraytype eq {
/vlen v length def
/cpdvlen cpdv length def
vlen cpdvlen eq {
0 1 vlen 1 sub {
/i exch def
/obj v i get def
/cpdobj cpdv i get def
obj cpdobj ne {
/upd true def
exit
} if
} for
} {
/upd true def
} ifelse
} {
v type /dicttype eq {
v {
/dv exch def
/dk exch def
/cpddv cpdv dk get def
dv cpddv ne {
/upd true def
exit
} if
} forall
} {
/upd true def
} ifelse
} ifelse
} if
} ifelse
upd true eq {
d k v put
} if
} if
} if
} forall
d length 0 gt {
d setpagedevice
} if
} bd
/RE { % /NewFontName [NewEncodingArray] /FontName RE -
  findfont dup length dict begin
  {
    1 index /FID ne
    {def} {pop pop} ifelse
  } forall
  /Encoding exch def
  /FontName 1 index def
  currentdict definefont pop
  end
} bind def
%%EndResource
%%BeginResource: procset (Apache XML Graphics EPS ProcSet) 1.0 0
%%Version: 1.0 0
%%Copyright: (Copyright 2002-2003 The Apache Software Foundation. License terms: http://www.apache.org/licenses/LICENSE-2.0)
/BeginEPSF { %def
/b4_Inc_state save def         % Save state for cleanup
/dict_count countdictstack def % Count objects on dict stack
/op_count count 1 sub def      % Count objects on operand stack
userdict begin                 % Push userdict on dict stack
/showpage { } def              % Redefine showpage, { } = null proc
0 setgray 0 setlinecap         % Prepare graphics state
1 setlinewidth 0 setlinejoin
10 setmiterlimit [ ] 0 setdash newpath
/languagelevel where           % If level not equal to 1 then
{pop languagelevel             % set strokeadjust and
1 ne                           % overprint to their defaults.
{false setstrokeadjust false setoverprint
} if
} if
} bd
/EndEPSF { %def
count op_count sub {pop} repeat            % Clean up stacks
countdictstack dict_count sub {end} repeat
b4_Inc_state restore
} bd
%%EndResource
%FOPBeginFontDict
%%IncludeResource: font Courier-Oblique
%%IncludeResource: font Courier-BoldOblique
%%IncludeResource: font Courier-Bold
%%IncludeResource: font ZapfDingbats
%%IncludeResource: font Symbol
%%IncludeResource: font Helvetica
%%IncludeResource: font Helvetica-Oblique
%%IncludeResource: font Helvetica-Bold
%%IncludeResource: font Helvetica-BoldOblique
%%IncludeResource: font Times-Roman
%%IncludeResource: font Times-Italic
%%IncludeResource: font Times-Bold
%%IncludeResource: font Times-BoldItalic
%%IncludeResource: font Courier
%FOPEndFontDict
%%BeginResource: encoding WinAnsiEncoding
/WinAnsiEncoding [
/.notdef /.notdef /.notdef /.notdef /.notdef
/.notdef /.notdef /.notdef /.notdef /.notdef
/.notdef /.notdef /.notdef /.notdef /.notdef
/.notdef /.notdef /.notdef /.notdef /.notdef
/.notdef /.notdef /.notdef /.notdef /.notdef
/.notdef /.notdef /.notdef /.notdef /.notdef
/.notdef /.notdef /space /exclam /quotedbl
/numbersign /dollar /percent /ampersand /quotesingle
/parenleft /parenright /asterisk /plus /comma
/hyphen /period /slash /zero /one
/two /three /four /five /six
/seven /eight /nine /colon /semicolon
/less /equal /greater /question /at
/A /B /C /D /E
/F /G /H /I /J
/K /L /M /N /O
/P /Q /R /S /T
/U /V /W /X /Y
/Z /bracketleft /backslash /bracketright /asciicircum
/underscore /quoteleft /a /b /c
/d /e /f /g /h
/i /j /k /l /m
/n /o /p /q /r
/s /t /u /v /w
/x /y /z /braceleft /bar
/braceright /asciitilde /bullet /Euro /bullet
/quotesinglbase /florin /quotedblbase /ellipsis /dagger
/daggerdbl /circumflex /perthousand /Scaron /guilsinglleft
/OE /bullet /Zcaron /bullet /bullet
/quoteleft /quoteright /quotedblleft /quotedblright /bullet
/endash /emdash /asciitilde /trademark /scaron
/guilsinglright /oe /bullet /zcaron /Ydieresis
/space /exclamdown /cent /sterling /currency
/yen /brokenbar /section /dieresis /copyright
/ordfeminine /guillemotleft /logicalnot /sfthyphen /registered
/macron /degree /plusminus /twosuperior /threesuperior
/acute /mu /paragraph /middot /cedilla
/onesuperior /ordmasculine /guillemotright /onequarter /onehalf
/threequarters /questiondown /Agrave /Aacute /Acircumflex
/Atilde /Adieresis /Aring /AE /Ccedilla
/Egrave /Eacute /Ecircumflex /Edieresis /Igrave
/Iacute /Icircumflex /Idieresis /Eth /Ntilde
/Ograve /Oacute /Ocircumflex /Otilde /Odieresis
/multiply /Oslash /Ugrave /Uacute /Ucircumflex
/Udieresis /Yacute /Thorn /germandbls /agrave
/aacute /acircumflex /atilde /adieresis /aring
/ae /ccedilla /egrave /eacute /ecircumflex
/edieresis /igrave /iacute /icircumflex /idieresis
/eth /ntilde /ograve /oacute /ocircumflex
/otilde /odieresis /divide /oslash /ugrave
/uacute /ucircumflex /udieresis /yacute /thorn
/ydieresis
] def
%%EndResource
%FOPBeginFontReencode
/Courier-Oblique findfont
dup length dict begin
  {1 index /FID ne {def} {pop pop} ifelse} forall
  /Encoding WinAnsiEncoding def
  currentdict
end
/Courier-Oblique exch definefont pop
/Courier-BoldOblique findfont
dup length dict begin
  {1 index /FID ne {def} {pop pop} ifelse} forall
  /Encoding WinAnsiEncoding def
  currentdict
end
/Courier-BoldOblique exch definefont pop
/Courier-Bold findfont
dup length dict begin
  {1 index /FID ne {def} {pop pop} ifelse} forall
  /Encoding WinAnsiEncoding def
  currentdict
end
/Courier-Bold exch definefont pop
/Helvetica findfont
dup length dict begin
  {1 index /FID ne {def} {pop pop} ifelse} forall
  /Encoding WinAnsiEncoding def
  currentdict
end
/Helvetica exch definefont pop
/Helvetica-Oblique findfont
dup length dict begin
  {1 index /FID ne {def} {pop pop} ifelse} forall
  /Encoding WinAnsiEncoding def
  currentdict
end
/Helvetica-Oblique exch definefont pop
/Helvetica-Bold findfont
dup length dict begin
  {1 index /FID ne {def} {pop pop} ifelse} forall
  /Encoding WinAnsiEncoding def
  currentdict
end
/Helvetica-Bold exch definefont pop
/Helvetica-BoldOblique findfont
dup length dict begin
  {1 index /FID ne {def} {pop pop} ifelse} forall
  /Encoding WinAnsiEncoding def
  currentdict
end
/Helvetica-BoldOblique exch definefont pop
/Times-Roman findfont
dup length dict begin
  {1 index /FID ne {def} {pop pop} ifelse} forall
  /Encoding WinAnsiEncoding def
  currentdict
end
/Times-Roman exch definefont pop
/Times-Italic findfont
dup length dict begin
  {1 index /FID ne {def} {pop pop} ifelse} forall
  /Encoding WinAnsiEncoding def
  currentdict
end
/Times-Italic exch definefont pop
/Times-Bold findfont
dup length dict begin
  {1 index /FID ne {def} {pop pop} ifelse} forall
  /Encoding WinAnsiEncoding def
  currentdict
end
/Times-Bold exch definefont pop
/Times-BoldItalic findfont
dup length dict begin
  {1 index /FID ne {def} {pop pop} ifelse} forall
  /Encoding WinAnsiEncoding def
  currentdict
end
/Times-BoldItalic exch definefont pop
/Courier findfont
dup length dict begin
  {1 index /FID ne {def} {pop pop} ifelse} forall
  /Encoding WinAnsiEncoding def
  currentdict
end
/Courier exch definefont pop
%FOPEndFontReencode
%%EndProlog
%%Page: 1 1
%%PageBoundingBox: 0 0 240 180
%%BeginPageSetup
[1 0 0 -1 0 180] CT
%%EndPageSetup
GS
[0.75 0 0 0.75 0 0] CT
1 GC
N
0 0 320 240 re
f
GR
GS
[0.75 0 0 0.75 0 0] CT
1 GC
N
0 0 320 240 re
f
GR
GS
[0.75 0 0 0.75 0 0] CT
1 GC
N
58 202 M
298 202 L
298 22 L
58 22 L
cp
f
GR
GS
[0.75 0 0 0.75 0 0] CT
0.149 GC
2 setlinecap
1 LJ
0.667 LW
N
58 202 M
298 202 L
S
GR
GS
[0.75 0 0 0.75 0 0] CT
0.149 GC
2 setlinecap
1 LJ
0.667 LW
N
58 22 M
298 22 L
S
GR
GS
[0.75 0 0 0.75 0 0] CT
0.149 GC
2 setlinecap
1 LJ
0.667 LW
N
58 202 M
58 199.6 L
S
GR
GS
[0.75 0 0 0.75 0 0] CT
0.149 GC
2 setlinecap
1 LJ
0.667 LW
N
118 202 M
118 199.6 L
S
GR
GS
[0.75 0 0 0.75 0 0] CT
0.149 GC
2 setlinecap
1 LJ
0.667 LW
N
178 202 M
178 199.6 L
S
GR
GS
[0.75 0 0 0.75 0 0] CT
0.149 GC
2 setlinecap
1 LJ
0.667 LW
N
238 202 M
238 199.6 L
S
GR
GS
[0.75 0 0 0.75 0 0] CT
0.149 GC
2 setlinecap
1 LJ
0.667 LW
N
298 202 M
298 199.6 L
S
GR
GS
[0.75 0 0 0.75 0 0] CT
0.149 GC
2 setlinecap
1 LJ
0.667 LW
N
58 22 M
58 24.4 L
S
GR
GS
[0.75 0 0 0.75 0 0] CT
0.149 GC
2 setlinecap
1 LJ
0.667 LW
N
118 22 M
118 24.4 L
S
GR
GS
[0.75 0 0 0.75 0 0] CT
0.149 GC
2 setlinecap
1 LJ
0.667 LW
N
178 22 M
178 24.4 L
S
GR
GS
[0.75 0 0 0.75 0 0] CT
0.149 GC
2 setlinecap
1 LJ
0.667 LW
N
238 22 M
238 24.4 L
S
GR
GS
[0.75 0 0 0.75 0 0] CT
0.149 GC
2 setlinecap
1 LJ
0.667 LW
N
298 22 M
298 24.4 L
S
GR
GS
[0.75 0 0 0.75 43.5 155.5] CT
0.149 GC
/Times-Roman 13.333 F
GS
[1 0 0 1 0 0] CT
-3.5 13 moveto 
1 -1 scale
(0) t 
GR
GR
GS
[0.75 0 0 0.75 88.5 155.5] CT
0.149 GC
/Times-Roman 13.333 F
GS
[1 0 0 1 0 0] CT
-13.5 13 moveto 
1 -1 scale
(1000) t 
GR
GR
GS
[0.75 0 0 0.75 133.5 155.5] CT
0.149 GC
/Times-Roman 13.333 F
GS
[1 0 0 1 0 0] CT
-13.5 13 moveto 
1 -1 scale
(2000) t 
GR
GR
GS
[0.75 0 0 0.75 178.5 155.5] CT
0.149 GC
/Times-Roman 13.333 F
GS
[1 0 0 1 0 0] CT
-13.5 13 moveto 
1 -1 scale
(3000) t 
GR
GR
GS
[0.75 0 0 0.75 223.5 155.5] CT
0.149 GC
/Times-Roman 13.333 F
GS
[1 0 0 1 0 0] CT
-13.5 13 moveto 
1 -1 scale
(4000) t 
GR
GR
GS
[0.75 0 0 0.75 0 0] CT
0.149 GC
2 setlinecap
1 LJ
0.667 LW
N
58 202 M
58 22 L
S
GR
GS
[0.75 0 0 0.75 0 0] CT
0.149 GC
2 setlinecap
1 LJ
0.667 LW
N
298 202 M
298 22 L
S
GR
GS
[0.75 0 0 0.75 0 0] CT
0.149 GC
2 setlinecap
1 LJ
0.667 LW
N
58 202 M
60.4 202 L
S
GR
GS
[0.75 0 0 0.75 0 0] CT
0.149 GC
2 setlinecap
1 LJ
0.667 LW
N
58 166 M
60.4 166 L
S
GR
GS
[0.75 0 0 0.75 0 0] CT
0.149 GC
2 setlinecap
1 LJ
0.667 LW
N
58 130 M
60.4 130 L
S
GR
GS
[0.75 0 0 0.75 0 0] CT
0.149 GC
2 setlinecap
1 LJ
0.667 LW
N
58 94 M
60.4 94 L
S
GR
GS
[0.75 0 0 0.75 0 0] CT
0.149 GC
2 setlinecap
1 LJ
0.667 LW
N
58 58 M
60.4 58 L
S
GR
GS
[0.75 0 0 0.75 0 0] CT
0.149 GC
2 setlinecap
1 LJ
0.667 LW
N
58 22 M
60.4 22 L
S
GR
GS
[0.75 0 0 0.75 0 0] CT
0.149 GC
2 setlinecap
1 LJ
0.667 LW
N
298 202 M
295.6 202 L
S
GR
GS
[0.75 0 0 0.75 0 0] CT
0.149 GC
2 setlinecap
1 LJ
0.667 LW
N
298 166 M
295.6 166 L
S
GR
GS
[0.75 0 0 0.75 0 0] CT
0.149 GC
2 setlinecap
1 LJ
0.667 LW
N
298 130 M
295.6 130 L
S
GR
GS
[0.75 0 0 0.75 0 0] CT
0.149 GC
2 setlinecap
1 LJ
0.667 LW
N
298 94 M
295.6 94 L
S
GR
GS
[0.75 0 0 0.75 0 0] CT
0.149 GC
2 setlinecap
1 LJ
0.667 LW
N
298 58 M
295.6 58 L
S
GR
GS
[0.75 0 0 0.75 0 0] CT
0.149 GC
2 setlinecap
1 LJ
0.667 LW
N
298 22 M
295.6 22 L
S
GR
GS
[0.75 0 0 0.75 39.5 151.5] CT
0.149 GC
/Times-Roman 13.333 F
GS
[1 0 0 1 0 0] CT
-7 5 moveto 
1 -1 scale
(2) t 
GR
GR
GS
[0.75 0 0 0.75 39.5 124.5] CT
0.149 GC
/Times-Roman 13.333 F
GS
[1 0 0 1 0 0] CT
-17 5 moveto 
1 -1 scale
(2.5) t 
GR
GR
GS
[0.75 0 0 0.75 39.5 97.5] CT
0.149 GC
/Times-Roman 13.333 F
GS
[1 0 0 1 0 0] CT
-7 5 moveto 
1 -1 scale
(3) t 
GR
GR
GS
[0.75 0 0 0.75 39.5 70.5] CT
0.149 GC
/Times-Roman 13.333 F
GS
[1 0 0 1 0 0] CT
-17 5 moveto 
1 -1 scale
(3.5) t 
GR
GR
GS
[0.75 0 0 0.75 39.5 43.5] CT
0.149 GC
/Times-Roman 13.333 F
GS
[1 0 0 1 0 0] CT
-7 5 moveto 
1 -1 scale
(4) t 
GR
GR
GS
[0.75 0 0 0.75 39.5 16.5] CT
0.149 GC
/Times-Roman 13.333 F
GS
[1 0 0 1 0 0] CT
-17 5 moveto 
1 -1 scale
(4.5) t 
GR
GR
GS
[0.75 0 0 0.75 0 0] CT
0.345 0.537 0.69 RC
1 LJ
2.667 LW
N
58 169.406 M
58.3 141.34 L
58.6 137.596 L
58.9 135.09 L
59.2 133.218 L
59.5 131.714 L
59.8 130.439 L
60.1 129.374 L
60.4 128.358 L
60.7 127.516 L
61 126.753 L
61.3 126.069 L
61.6 125.435 L
61.9 124.866 L
62.2 124.334 L
62.5 123.844 L
62.8 123.39 L
63.1 122.951 L
63.4 122.548 L
63.7 122.166 L
64 121.799 L
64.3 121.454 L
64.6 121.122 L
64.9 120.806 L
65.2 120.496 L
65.5 120.194 L
65.8 119.906 L
66.1 119.632 L
66.4 119.358 L
66.7 119.092 L
67 118.833 L
67.3 118.581 L
67.6 118.336 L
67.9 118.091 L
68.2 117.854 L
68.5 117.623 L
68.8 117.393 L
69.1 117.162 L
69.4 116.939 L
69.7 116.723 L
70 116.507 L
70.3 116.291 L
70.6 116.082 L
70.9 115.866 L
71.2 115.665 L
71.5 115.456 L
71.8 115.254 L
72.1 115.053 L
72.4 114.858 L
72.7 114.664 L
73 114.47 L
73.3 114.275 L
73.6 114.081 L
73.9 113.894 L
74.2 113.706 L
74.5 113.519 L
74.8 113.332 L
75.1 113.152 L
75.4 112.972 L
75.7 112.792 L
76 112.612 L
76.3 112.432 L
76.6 112.252 L
76.9 112.079 L
77.2 111.899 L
77.5 111.726 L
77.8 111.554 L
78.1 111.381 L
78.4 111.215 L
78.7 111.042 L
79 110.877 L
79.3 110.704 L
79.6 110.538 L
79.9 110.373 L
80.2 110.207 L
80.5 110.042 L
80.8 109.876 L
81.1 109.718 L
81.4 109.552 L
81.7 109.394 L
82 109.228 L
82.3 109.07 L
82.6 108.911 L
82.9 108.753 L
83.2 108.594 L
83.5 108.436 L
83.8 108.285 L
84.1 108.126 L
84.4 107.968 L
84.7 107.817 L
85 107.658 L
85.3 107.507 L
85.6 107.356 L
85.9 107.205 L
86.2 107.054 L
86.5 106.902 L
86.8 106.751 L
87.1 106.6 L
87.4 106.449 L
87.7 106.298 L
88 106.154 L
88.3 106.002 L
88.6 105.851 L
88.9 105.707 L
89.2 105.563 L
89.5 105.412 L
89.8 105.268 L
90.1 105.124 L
90.4 104.98 L
90.7 104.836 L
91 104.692 L
91.3 104.548 L
91.6 104.404 L
91.9 104.26 L
92.2 104.116 L
92.5 103.972 L
92.8 103.835 L
93.1 103.691 L
93.4 103.547 L
93.7 103.41 L
94 103.266 L
94.3 103.13 L
94.6 102.986 L
94.9 102.849 L
95.2 102.712 L
95.5 102.575 L
95.8 102.431 L
96.1 102.294 L
96.4 102.158 L
96.7 102.021 L
97 101.884 L
97.3 101.747 L
97.6 101.61 L
97.9 101.474 L
98.2 101.337 L
98.5 101.2 L
98.8 101.063 L
99.1 100.926 L
99.4 100.797 L
99.7 100.66 L
100 100.523 L
100.3 100.394 L
100.6 100.257 L
100.9 100.127 L
101.2 99.99 L
101.5 99.861 L
101.8 99.724 L
102.1 99.594 L
102.4 99.458 L
102.7 99.328 L
103 99.191 L
103.3 99.062 L
103.6 98.932 L
103.9 98.802 L
104.2 98.666 L
104.5 98.536 L
104.8 98.406 L
105.1 98.277 L
105.4 98.147 L
105.7 98.018 L
106 97.888 L
106.3 97.758 L
106.6 97.629 L
106.9 97.499 L
107.2 97.37 L
107.5 97.24 L
107.8 97.11 L
108.1 96.981 L
108.4 96.851 L
108.7 96.729 L
109 96.599 L
109.3 96.47 L
109.6 96.34 L
109.9 96.218 L
110.2 96.088 L
110.5 95.958 L
110.8 95.836 L
111.1 95.706 L
111.4 95.584 L
111.7 95.454 L
112 95.325 L
112.3 95.202 L
112.6 95.073 L
112.9 94.95 L
113.2 94.828 L
113.5 94.698 L
113.8 94.576 L
114.1 94.446 L
114.4 94.324 L
114.7 94.202 L
115 94.072 L
115.3 93.95 L
115.6 93.827 L
115.9 93.705 L
116.2 93.575 L
116.5 93.453 L
116.8 93.33 L
117.1 93.208 L
117.4 93.086 L
117.7 92.963 L
118 92.841 L
118.3 92.711 L
118.6 92.589 L
118.9 92.466 L
119.2 92.344 L
119.5 92.222 L
119.8 92.099 L
120.1 91.977 L
120.4 91.854 L
120.7 91.739 L
121 91.617 L
121.3 91.494 L
121.6 91.372 L
121.9 91.25 L
122.2 91.127 L
122.5 91.005 L
122.8 90.882 L
123.1 90.767 L
123.4 90.645 L
123.7 90.522 L
124 90.4 L
124.3 90.285 L
124.6 90.162 L
124.9 90.04 L
125.2 89.925 L
125.5 89.802 L
125.8 89.68 L
126.1 89.565 L
126.4 89.442 L
126.7 89.32 L
127 89.205 L
127.3 89.082 L
127.6 88.967 L
127.9 88.845 L
128.2 88.73 L
128.5 88.607 L
128.8 88.492 L
129.1 88.37 L
129.4 88.254 L
129.7 88.132 L
130 88.017 L
130.3 87.894 L
130.6 87.779 L
130.9 87.657 L
131.2 87.542 L
131.5 87.426 L
131.8 87.304 L
132.1 87.189 L
132.4 87.066 L
132.7 86.951 L
133 86.836 L
133.3 86.714 L
133.6 86.598 L
133.9 86.483 L
134.2 86.361 L
134.5 86.246 L
134.8 86.13 L
135.1 86.015 L
135.4 85.893 L
135.7 85.778 L
136 85.662 L
136.3 85.547 L
136.6 85.425 L
136.9 85.31 L
137.2 85.194 L
137.5 85.079 L
137.8 84.964 L
138.1 84.849 L
138.4 84.726 L
138.7 84.611 L
139 84.496 L
139.3 84.381 L
139.6 84.266 L
139.9 84.15 L
140.2 84.035 L
140.5 83.913 L
140.8 83.798 L
141.1 83.682 L
141.4 83.567 L
141.7 83.452 L
142 83.337 L
142.3 83.222 L
142.6 83.106 L
142.9 82.991 L
143.2 82.876 L
143.5 82.761 L
143.8 82.646 L
144.1 82.53 L
144.4 82.415 L
144.7 82.3 L
145 82.185 L
145.3 82.07 L
145.6 81.954 L
145.9 81.839 L
146.2 81.724 L
146.5 81.609 L
146.8 81.494 L
147.1 81.378 L
147.4 81.263 L
147.7 81.148 L
148 81.033 L
148.3 80.918 L
148.6 80.802 L
148.9 80.687 L
149.2 80.572 L
149.5 80.457 L
149.8 80.342 L
150.1 80.226 L
150.4 80.111 L
150.7 79.996 L
151 79.881 L
151.3 79.766 L
151.6 79.65 L
151.9 79.535 L
152.2 79.427 L
152.5 79.312 L
152.8 79.197 L
153.1 79.082 L
153.4 78.966 L
153.7 78.851 L
154 78.736 L
154.3 78.621 L
154.6 78.506 L
154.9 78.39 L
155.2 78.275 L
155.5 78.16 L
155.8 78.045 L
156.1 77.937 L
156.4 77.822 L
156.7 77.706 L
157 77.591 L
157.3 77.476 L
157.6 77.361 L
157.9 77.246 L
158.2 77.13 L
158.5 77.015 L
158.8 76.9 L
159.1 76.785 L
159.4 76.67 L
159.7 76.554 L
160 76.446 L
160.3 76.331 L
160.6 76.216 L
160.9 76.101 L
161.2 75.986 L
161.5 75.87 L
161.8 75.755 L
162.1 75.64 L
162.4 75.525 L
162.7 75.41 L
163 75.294 L
163.3 75.179 L
163.6 75.064 L
163.9 74.949 L
164.2 74.834 L
164.5 74.718 L
164.8 74.603 L
165.1 74.488 L
165.4 74.373 L
165.7 74.258 L
166 74.142 L
166.3 74.027 L
166.6 73.912 L
166.9 73.797 L
167.2 73.682 L
167.5 73.566 L
167.8 73.451 L
168.1 73.336 L
168.4 73.221 L
168.7 73.106 L
169 72.99 L
169.3 72.875 L
169.6 72.76 L
169.9 72.645 L
170.2 72.53 L
170.5 72.407 L
170.8 72.292 L
171.1 72.177 L
171.4 72.062 L
171.7 71.946 L
172 71.831 L
172.3 71.716 L
172.6 71.601 L
172.9 71.478 L
173.2 71.363 L
173.5 71.248 L
173.8 71.133 L
174.1 71.018 L
174.4 70.895 L
174.7 70.78 L
175 70.665 L
175.3 70.55 L
175.6 70.427 L
175.9 70.312 L
176.2 70.197 L
176.5 70.082 L
176.8 69.959 L
177.1 69.844 L
177.4 69.729 L
177.7 69.606 L
178 69.491 L
178.3 69.376 L
178.6 69.254 L
178.9 69.138 L
179.2 69.023 L
179.5 68.901 L
179.8 68.786 L
180.1 68.67 L
180.4 68.548 L
180.7 68.433 L
181 68.31 L
181.3 68.195 L
181.6 68.073 L
181.9 67.958 L
182.2 67.835 L
182.5 67.72 L
182.8 67.598 L
183.1 67.482 L
183.4 67.36 L
183.7 67.245 L
184 67.122 L
184.3 67 L
184.6 66.885 L
184.9 66.762 L
185.2 66.647 L
185.5 66.525 L
185.8 66.402 L
186.1 66.287 L
186.4 66.165 L
186.7 66.042 L
187 65.92 L
187.3 65.805 L
187.6 65.682 L
187.9 65.56 L
188.2 65.438 L
188.5 65.322 L
188.8 65.2 L
189.1 65.078 L
189.4 64.955 L
189.7 64.833 L
190 64.71 L
190.3 64.588 L
190.6 64.466 L
190.9 64.343 L
191.2 64.228 L
191.5 64.106 L
191.8 63.983 L
192.1 63.861 L
192.4 63.731 L
192.7 63.609 L
193 63.486 L
193.3 63.364 L
193.6 63.242 L
193.9 63.119 L
194.2 62.997 L
194.5 62.874 L
194.8 62.752 L
195.1 62.622 L
195.4 62.5 L
195.7 62.378 L
196 62.255 L
196.3 62.126 L
196.6 62.003 L
196.9 61.881 L
197.2 61.751 L
197.5 61.629 L
197.8 61.506 L
198.1 61.377 L
198.4 61.254 L
198.7 61.125 L
199 61.002 L
199.3 60.873 L
199.6 60.75 L
199.9 60.621 L
200.2 60.498 L
200.5 60.369 L
200.8 60.246 L
201.1 60.117 L
201.4 59.994 L
201.7 59.865 L
202 59.735 L
202.3 59.613 L
202.6 59.483 L
202.9 59.354 L
203.2 59.224 L
203.5 59.102 L
203.8 58.972 L
204.1 58.842 L
204.4 58.713 L
204.7 58.583 L
205 58.454 L
205.3 58.324 L
205.6 58.194 L
205.9 58.065 L
206.2 57.935 L
206.5 57.806 L
206.8 57.676 L
207.1 57.546 L
207.4 57.417 L
207.7 57.287 L
208 57.158 L
208.3 57.028 L
208.6 56.898 L
208.9 56.762 L
209.2 56.632 L
209.5 56.502 L
209.8 56.366 L
210.1 56.236 L
210.4 56.106 L
210.7 55.97 L
211 55.84 L
211.3 55.71 L
211.6 55.574 L
211.9 55.444 L
212.2 55.307 L
212.5 55.178 L
212.8 55.041 L
213.1 54.904 L
213.4 54.774 L
213.7 54.638 L
214 54.508 L
214.3 54.371 L
214.6 54.234 L
214.9 54.098 L
215.2 53.968 L
215.5 53.831 L
215.8 53.694 L
216.1 53.558 L
216.4 53.421 L
216.7 53.284 L
217 53.147 L
217.3 53.01 L
217.6 52.874 L
217.9 52.737 L
218.2 52.6 L
218.5 52.463 L
218.8 52.326 L
219.1 52.19 L
219.4 52.053 L
219.7 51.909 L
220 51.772 L
220.3 51.635 L
220.6 51.498 L
220.9 51.354 L
221.2 51.218 L
221.5 51.074 L
221.8 50.937 L
222.1 50.8 L
222.4 50.656 L
222.7 50.519 L
223 50.375 L
223.3 50.231 L
223.6 50.094 L
223.9 49.95 L
224.2 49.814 L
224.5 49.67 L
224.8 49.526 L
225.1 49.382 L
225.4 49.238 L
225.7 49.101 L
226 48.957 L
226.3 48.813 L
226.6 48.669 L
226.9 48.525 L
227.2 48.381 L
227.5 48.237 L
227.8 48.093 L
228.1 47.949 L
228.4 47.805 L
228.7 47.654 L
229 47.51 L
229.3 47.366 L
229.6 47.222 L
229.9 47.07 L
230.2 46.926 L
230.5 46.782 L
230.8 46.631 L
231.1 46.487 L
231.4 46.336 L
231.7 46.192 L
232 46.041 L
232.3 45.897 L
232.6 45.746 L
232.9 45.602 L
233.2 45.45 L
233.5 45.299 L
233.8 45.148 L
234.1 45.004 L
234.4 44.853 L
234.7 44.702 L
235 44.55 L
235.3 44.399 L
235.6 44.248 L
235.9 44.097 L
236.2 43.946 L
236.5 43.794 L
236.8 43.643 L
237.1 43.492 L
237.4 43.341 L
237.7 43.19 L
238 43.031 L
238.3 42.88 L
238.6 42.729 L
238.9 42.57 L
239.2 42.419 L
239.5 42.268 L
239.8 42.11 L
240.1 41.958 L
240.4 41.8 L
240.7 41.649 L
241 41.49 L
241.3 41.332 L
241.6 41.181 L
241.9 41.022 L
242.2 40.864 L
242.5 40.706 L
242.8 40.547 L
243.1 40.389 L
243.4 40.238 L
243.7 40.079 L
244 39.921 L
244.3 39.755 L
244.6 39.597 L
244.9 39.438 L
245.2 39.28 L
245.5 39.122 L
245.8 38.963 L
246.1 38.798 L
246.4 38.639 L
246.7 38.481 L
247 38.315 L
247.3 38.157 L
247.6 37.991 L
247.9 37.833 L
248.2 37.667 L
248.5 37.509 L
248.8 37.343 L
249.1 37.178 L
249.4 37.012 L
249.7 36.854 L
250 36.688 L
250.3 36.522 L
250.6 36.357 L
250.9 36.191 L
251.2 36.026 L
251.5 35.86 L
251.8 35.694 L
252.1 35.529 L
252.4 35.363 L
S
GR
GS
[0.75 0 0 0.75 0 0] CT
0.345 0.537 0.69 RC
[8 8] 0 setdash
2 LJ
2.667 LW
N
58 169.406 M
58.3 141.693 L
58.6 138.078 L
58.9 135.602 L
59.2 133.672 L
59.5 132.102 L
59.8 130.778 L
60.1 129.633 L
60.4 128.625 L
60.7 127.746 L
61 126.947 L
61.3 126.22 L
61.6 125.572 L
61.9 124.974 L
62.2 124.406 L
62.5 123.858 L
62.8 123.347 L
63.1 122.879 L
63.4 122.447 L
63.7 122.03 L
64 121.641 L
64.3 121.259 L
64.6 120.906 L
64.9 120.561 L
65.2 120.23 L
65.5 119.913 L
65.8 119.603 L
66.1 119.308 L
66.4 119.02 L
66.7 118.739 L
67 118.466 L
67.3 118.199 L
67.6 117.94 L
67.9 117.688 L
68.2 117.443 L
68.5 117.198 L
68.8 116.961 L
69.1 116.723 L
69.4 116.493 L
69.7 116.27 L
70 116.046 L
70.3 115.83 L
70.6 115.614 L
70.9 115.398 L
71.2 115.19 L
71.5 114.981 L
71.8 114.779 L
72.1 114.578 L
72.4 114.376 L
72.7 114.182 L
73 113.98 L
73.3 113.793 L
73.6 113.598 L
73.9 113.411 L
74.2 113.224 L
74.5 113.037 L
74.8 112.85 L
75.1 112.662 L
75.4 112.482 L
75.7 112.302 L
76 112.13 L
76.3 111.95 L
76.6 111.777 L
76.9 111.597 L
77.2 111.424 L
77.5 111.251 L
77.8 111.086 L
78.1 110.913 L
78.4 110.747 L
78.7 110.574 L
79 110.409 L
79.3 110.243 L
79.6 110.078 L
79.9 109.912 L
80.2 109.754 L
80.5 109.588 L
80.8 109.43 L
81.1 109.264 L
81.4 109.106 L
81.7 108.947 L
82 108.789 L
82.3 108.63 L
82.6 108.479 L
82.9 108.321 L
83.2 108.162 L
83.5 108.011 L
83.8 107.86 L
84.1 107.702 L
84.4 107.55 L
84.7 107.399 L
85 107.248 L
85.3 107.097 L
85.6 106.946 L
85.9 106.802 L
86.2 106.65 L
86.5 106.499 L
86.8 106.355 L
87.1 106.204 L
87.4 106.06 L
87.7 105.909 L
88 105.765 L
88.3 105.621 L
88.6 105.477 L
88.9 105.333 L
89.2 105.189 L
89.5 105.045 L
89.8 104.901 L
90.1 104.757 L
90.4 104.613 L
90.7 104.476 L
91 104.332 L
91.3 104.195 L
91.6 104.051 L
91.9 103.914 L
92.2 103.77 L
92.5 103.634 L
92.8 103.497 L
93.1 103.353 L
93.4 103.216 L
93.7 103.079 L
94 102.942 L
94.3 102.806 L
94.6 102.669 L
94.9 102.532 L
95.2 102.395 L
95.5 102.258 L
95.8 102.122 L
96.1 101.992 L
96.4 101.855 L
96.7 101.718 L
97 101.589 L
97.3 101.452 L
97.6 101.315 L
97.9 101.186 L
98.2 101.049 L
98.5 100.919 L
98.8 100.79 L
99.1 100.653 L
99.4 100.523 L
99.7 100.394 L
100 100.257 L
100.3 100.127 L
100.6 99.998 L
100.9 99.868 L
101.2 99.738 L
101.5 99.609 L
101.8 99.479 L
102.1 99.35 L
102.4 99.22 L
102.7 99.09 L
103 98.961 L
103.3 98.831 L
103.6 98.702 L
103.9 98.572 L
104.2 98.442 L
104.5 98.313 L
104.8 98.19 L
105.1 98.061 L
105.4 97.931 L
105.7 97.809 L
106 97.679 L
106.3 97.55 L
106.6 97.427 L
106.9 97.298 L
107.2 97.175 L
107.5 97.046 L
107.8 96.923 L
108.1 96.794 L
108.4 96.671 L
108.7 96.549 L
109 96.419 L
109.3 96.297 L
109.6 96.174 L
109.9 96.045 L
110.2 95.922 L
110.5 95.8 L
110.8 95.678 L
111.1 95.548 L
111.4 95.426 L
111.7 95.303 L
112 95.181 L
112.3 95.058 L
112.6 94.936 L
112.9 94.814 L
113.2 94.691 L
113.5 94.569 L
113.8 94.446 L
114.1 94.324 L
114.4 94.202 L
114.7 94.079 L
115 93.957 L
115.3 93.842 L
115.6 93.719 L
115.9 93.597 L
116.2 93.474 L
116.5 93.359 L
116.8 93.237 L
117.1 93.114 L
117.4 92.992 L
117.7 92.877 L
118 92.754 L
118.3 92.632 L
118.6 92.517 L
118.9 92.394 L
119.2 92.279 L
119.5 92.157 L
119.8 92.042 L
120.1 91.919 L
120.4 91.804 L
120.7 91.682 L
121 91.566 L
121.3 91.444 L
121.6 91.329 L
121.9 91.214 L
122.2 91.091 L
122.5 90.976 L
122.8 90.861 L
123.1 90.738 L
123.4 90.623 L
123.7 90.508 L
124 90.386 L
124.3 90.27 L
124.6 90.155 L
124.9 90.04 L
125.2 89.925 L
125.5 89.802 L
125.8 89.687 L
126.1 89.572 L
126.4 89.457 L
126.7 89.342 L
127 89.226 L
127.3 89.111 L
127.6 88.996 L
127.9 88.881 L
128.2 88.766 L
128.5 88.65 L
128.8 88.535 L
129.1 88.42 L
129.4 88.305 L
129.7 88.19 L
130 88.074 L
130.3 87.959 L
130.6 87.844 L
130.9 87.729 L
131.2 87.614 L
131.5 87.498 L
131.8 87.383 L
132.1 87.275 L
132.4 87.16 L
132.7 87.045 L
133 86.93 L
133.3 86.822 L
133.6 86.706 L
133.9 86.591 L
134.2 86.476 L
134.5 86.368 L
134.8 86.253 L
135.1 86.138 L
135.4 86.022 L
135.7 85.914 L
136 85.799 L
136.3 85.684 L
136.6 85.576 L
136.9 85.461 L
137.2 85.353 L
137.5 85.238 L
137.8 85.122 L
138.1 85.014 L
138.4 84.899 L
138.7 84.791 L
139 84.676 L
139.3 84.568 L
139.6 84.453 L
139.9 84.345 L
140.2 84.23 L
140.5 84.122 L
140.8 84.006 L
141.1 83.898 L
141.4 83.783 L
141.7 83.675 L
142 83.567 L
142.3 83.452 L
142.6 83.344 L
142.9 83.229 L
143.2 83.121 L
143.5 83.013 L
143.8 82.898 L
144.1 82.79 L
144.4 82.682 L
144.7 82.566 L
145 82.458 L
145.3 82.35 L
145.6 82.235 L
145.9 82.127 L
146.2 82.019 L
146.5 81.904 L
146.8 81.796 L
147.1 81.688 L
147.4 81.58 L
147.7 81.465 L
148 81.357 L
148.3 81.249 L
148.6 81.141 L
148.9 81.026 L
149.2 80.918 L
149.5 80.81 L
149.8 80.702 L
150.1 80.586 L
150.4 80.478 L
150.7 80.37 L
151 80.262 L
151.3 80.154 L
151.6 80.046 L
151.9 79.931 L
152.2 79.823 L
152.5 79.715 L
152.8 79.607 L
153.1 79.499 L
153.4 79.391 L
153.7 79.283 L
154 79.168 L
154.3 79.06 L
154.6 78.952 L
154.9 78.844 L
155.2 78.736 L
155.5 78.628 L
155.8 78.52 L
156.1 78.412 L
156.4 78.304 L
156.7 78.196 L
157 78.088 L
157.3 77.98 L
157.6 77.872 L
157.9 77.764 L
158.2 77.649 L
158.5 77.541 L
158.8 77.433 L
159.1 77.325 L
159.4 77.217 L
159.7 77.109 L
160 77.001 L
160.3 76.893 L
160.6 76.785 L
160.9 76.677 L
161.2 76.569 L
161.5 76.461 L
161.8 76.353 L
162.1 76.245 L
162.4 76.137 L
162.7 76.029 L
163 75.921 L
163.3 75.813 L
163.6 75.705 L
163.9 75.597 L
164.2 75.489 L
164.5 75.381 L
164.8 75.273 L
165.1 75.165 L
165.4 75.057 L
165.7 74.949 L
166 74.841 L
166.3 74.733 L
166.6 74.625 L
166.9 74.517 L
167.2 74.409 L
167.5 74.301 L
167.8 74.193 L
168.1 74.085 L
168.4 73.977 L
168.7 73.869 L
169 73.761 L
169.3 73.653 L
169.6 73.545 L
169.9 73.437 L
170.2 73.329 L
170.5 73.221 L
170.8 73.113 L
171.1 73.005 L
171.4 72.897 L
171.7 72.789 L
172 72.681 L
172.3 72.573 L
172.6 72.472 L
172.9 72.357 L
173.2 72.249 L
173.5 72.141 L
173.8 72.033 L
174.1 71.925 L
174.4 71.817 L
174.7 71.709 L
175 71.601 L
175.3 71.493 L
175.6 71.385 L
175.9 71.277 L
176.2 71.169 L
176.5 71.061 L
176.8 70.953 L
177.1 70.845 L
177.4 70.737 L
177.7 70.629 L
178 70.521 L
178.3 70.413 L
178.6 70.305 L
178.9 70.197 L
179.2 70.089 L
179.5 69.974 L
179.8 69.866 L
180.1 69.758 L
180.4 69.65 L
180.7 69.542 L
181 69.434 L
181.3 69.326 L
181.6 69.218 L
181.9 69.11 L
182.2 69.002 L
182.5 68.886 L
182.8 68.778 L
183.1 68.67 L
183.4 68.562 L
183.7 68.454 L
184 68.346 L
184.3 68.231 L
184.6 68.123 L
184.9 68.015 L
185.2 67.907 L
185.5 67.799 L
185.8 67.684 L
186.1 67.576 L
186.4 67.468 L
186.7 67.36 L
187 67.245 L
187.3 67.137 L
187.6 67.029 L
187.9 66.921 L
188.2 66.806 L
188.5 66.698 L
188.8 66.59 L
189.1 66.482 L
189.4 66.366 L
189.7 66.258 L
190 66.15 L
190.3 66.035 L
190.6 65.927 L
190.9 65.819 L
191.2 65.704 L
191.5 65.596 L
191.8 65.481 L
192.1 65.373 L
192.4 65.258 L
192.7 65.15 L
193 65.042 L
193.3 64.926 L
193.6 64.818 L
193.9 64.703 L
194.2 64.595 L
194.5 64.48 L
194.8 64.372 L
195.1 64.257 L
195.4 64.149 L
195.7 64.034 L
196 63.926 L
196.3 63.81 L
196.6 63.702 L
196.9 63.587 L
197.2 63.472 L
197.5 63.364 L
197.8 63.249 L
198.1 63.134 L
198.4 63.026 L
198.7 62.91 L
199 62.795 L
199.3 62.687 L
199.6 62.572 L
199.9 62.457 L
200.2 62.342 L
200.5 62.234 L
200.8 62.118 L
201.1 62.003 L
201.4 61.888 L
201.7 61.78 L
202 61.665 L
202.3 61.55 L
202.6 61.434 L
202.9 61.319 L
203.2 61.204 L
203.5 61.089 L
203.8 60.981 L
204.1 60.866 L
204.4 60.75 L
204.7 60.635 L
205 60.52 L
205.3 60.405 L
205.6 60.29 L
205.9 60.174 L
206.2 60.059 L
206.5 59.944 L
206.8 59.829 L
207.1 59.714 L
207.4 59.598 L
207.7 59.476 L
208 59.361 L
208.3 59.246 L
208.6 59.13 L
208.9 59.015 L
209.2 58.9 L
209.5 58.778 L
209.8 58.662 L
210.1 58.547 L
210.4 58.432 L
210.7 58.31 L
211 58.194 L
211.3 58.079 L
211.6 57.957 L
211.9 57.842 L
212.2 57.726 L
212.5 57.604 L
212.8 57.489 L
213.1 57.366 L
213.4 57.251 L
213.7 57.129 L
214 57.014 L
214.3 56.891 L
214.6 56.776 L
214.9 56.654 L
215.2 56.538 L
215.5 56.416 L
215.8 56.301 L
216.1 56.178 L
216.4 56.056 L
216.7 55.941 L
217 55.818 L
217.3 55.696 L
217.6 55.581 L
217.9 55.458 L
218.2 55.336 L
218.5 55.214 L
218.8 55.091 L
219.1 54.976 L
219.4 54.854 L
219.7 54.731 L
220 54.609 L
220.3 54.486 L
220.6 54.364 L
220.9 54.242 L
221.2 54.119 L
221.5 53.997 L
221.8 53.874 L
222.1 53.752 L
222.4 53.63 L
222.7 53.507 L
223 53.385 L
223.3 53.262 L
223.6 53.14 L
223.9 53.018 L
224.2 52.888 L
224.5 52.766 L
224.8 52.643 L
225.1 52.521 L
225.4 52.391 L
225.7 52.269 L
226 52.146 L
226.3 52.024 L
226.6 51.894 L
226.9 51.772 L
227.2 51.642 L
227.5 51.52 L
227.8 51.39 L
228.1 51.268 L
228.4 51.138 L
228.7 51.016 L
229 50.886 L
229.3 50.764 L
229.6 50.634 L
229.9 50.512 L
230.2 50.382 L
230.5 50.253 L
230.8 50.13 L
231.1 50.001 L
231.4 49.871 L
231.7 49.742 L
232 49.612 L
232.3 49.49 L
232.6 49.36 L
232.9 49.23 L
233.2 49.101 L
233.5 48.971 L
233.8 48.842 L
234.1 48.712 L
234.4 48.582 L
234.7 48.453 L
235 48.323 L
235.3 48.194 L
235.6 48.064 L
235.9 47.934 L
236.2 47.798 L
236.5 47.668 L
236.8 47.538 L
237.1 47.409 L
237.4 47.272 L
237.7 47.142 L
238 47.013 L
238.3 46.876 L
238.6 46.746 L
238.9 46.617 L
239.2 46.48 L
239.5 46.35 L
239.8 46.214 L
240.1 46.084 L
240.4 45.947 L
240.7 45.81 L
241 45.681 L
241.3 45.544 L
241.6 45.407 L
241.9 45.278 L
242.2 45.141 L
242.5 45.004 L
242.8 44.867 L
243.1 44.738 L
243.4 44.601 L
243.7 44.464 L
244 44.327 L
244.3 44.19 L
244.6 44.054 L
244.9 43.917 L
245.2 43.78 L
245.5 43.643 L
245.8 43.506 L
246.1 43.37 L
246.4 43.233 L
246.7 43.089 L
247 42.952 L
247.3 42.815 L
247.6 42.678 L
247.9 42.534 L
248.2 42.398 L
248.5 42.261 L
248.8 42.117 L
249.1 41.98 L
249.4 41.836 L
249.7 41.699 L
250 41.555 L
250.3 41.418 L
250.6 41.274 L
250.9 41.138 L
251.2 40.994 L
251.5 40.85 L
251.8 40.713 L
252.1 40.569 L
252.4 40.425 L
S
GR
GS
[0.75 0 0 0.75 0 0] CT
0.914 0.282 0.286 RC
1 LJ
2.667 LW
N
58 169.406 M
58.3 122.404 L
58.6 118.026 L
58.9 115.434 L
59.2 113.634 L
59.5 112.252 L
59.8 111.114 L
60.1 110.128 L
60.4 109.199 L
60.7 108.386 L
61 107.615 L
61.3 106.895 L
61.6 106.211 L
61.9 105.549 L
62.2 104.915 L
62.5 104.303 L
62.8 103.713 L
63.1 103.137 L
63.4 102.575 L
63.7 102.035 L
64 101.502 L
64.3 100.977 L
64.6 100.466 L
64.9 99.969 L
65.2 99.479 L
65.5 98.997 L
65.8 98.522 L
66.1 98.054 L
66.4 97.593 L
66.7 97.139 L
67 96.693 L
67.3 96.246 L
67.6 95.814 L
67.9 95.382 L
68.2 94.958 L
68.5 94.533 L
68.8 94.115 L
69.1 93.705 L
69.4 93.302 L
69.7 92.898 L
70 92.495 L
70.3 92.106 L
70.6 91.71 L
70.9 91.322 L
71.2 90.94 L
71.5 90.558 L
71.8 90.184 L
72.1 89.81 L
72.4 89.435 L
72.7 89.068 L
73 88.708 L
73.3 88.341 L
73.6 87.988 L
73.9 87.628 L
74.2 87.275 L
74.5 86.922 L
74.8 86.577 L
75.1 86.231 L
75.4 85.886 L
75.7 85.547 L
76 85.209 L
76.3 84.87 L
76.6 84.539 L
76.9 84.201 L
77.2 83.87 L
77.5 83.546 L
77.8 83.214 L
78.1 82.89 L
78.4 82.566 L
78.7 82.25 L
79 81.933 L
79.3 81.616 L
79.6 81.299 L
79.9 80.982 L
80.2 80.673 L
80.5 80.363 L
80.8 80.054 L
81.1 79.744 L
81.4 79.442 L
81.7 79.139 L
82 78.837 L
82.3 78.534 L
82.6 78.239 L
82.9 77.937 L
83.2 77.642 L
83.5 77.346 L
83.8 77.058 L
84.1 76.763 L
84.4 76.475 L
84.7 76.18 L
85 75.892 L
85.3 75.604 L
85.6 75.323 L
85.9 75.035 L
86.2 74.754 L
86.5 74.474 L
86.8 74.193 L
87.1 73.912 L
87.4 73.631 L
87.7 73.358 L
88 73.077 L
88.3 72.803 L
88.6 72.53 L
88.9 72.256 L
89.2 71.982 L
89.5 71.709 L
89.8 71.442 L
90.1 71.169 L
90.4 70.902 L
90.7 70.636 L
91 70.37 L
91.3 70.103 L
91.6 69.837 L
91.9 69.57 L
92.2 69.311 L
92.5 69.045 L
92.8 68.786 L
93.1 68.526 L
93.4 68.267 L
93.7 68.008 L
94 67.749 L
94.3 67.49 L
94.6 67.23 L
94.9 66.978 L
95.2 66.719 L
95.5 66.467 L
95.8 66.208 L
96.1 65.956 L
96.4 65.704 L
96.7 65.452 L
97 65.2 L
97.3 64.948 L
97.6 64.696 L
97.9 64.444 L
98.2 64.192 L
98.5 63.947 L
98.8 63.695 L
99.1 63.45 L
99.4 63.198 L
99.7 62.954 L
100 62.702 L
100.3 62.457 L
100.6 62.212 L
100.9 61.967 L
101.2 61.722 L
101.5 61.478 L
101.8 61.233 L
102.1 60.988 L
102.4 60.743 L
102.7 60.498 L
103 60.261 L
103.3 60.016 L
103.6 59.771 L
103.9 59.534 L
104.2 59.289 L
104.5 59.051 L
104.8 58.806 L
105.1 58.569 L
105.4 58.324 L
105.7 58.086 L
106 57.849 L
106.3 57.604 L
106.6 57.366 L
106.9 57.129 L
107.2 56.891 L
107.5 56.654 L
107.8 56.409 L
108.1 56.171 L
108.4 55.934 L
108.7 55.696 L
109 55.458 L
109.3 55.221 L
109.6 54.983 L
109.9 54.746 L
110.2 54.508 L
110.5 54.27 L
110.8 54.033 L
111.1 53.795 L
111.4 53.558 L
111.7 53.32 L
112 53.082 L
112.3 52.852 L
112.6 52.614 L
112.9 52.377 L
113.2 52.139 L
113.5 51.902 L
113.8 51.664 L
114.1 51.426 L
114.4 51.189 L
114.7 50.951 L
115 50.714 L
115.3 50.476 L
115.6 50.238 L
115.9 50.001 L
116.2 49.763 L
116.5 49.526 L
116.8 49.288 L
117.1 49.05 L
117.4 48.813 L
117.7 48.575 L
118 48.338 L
118.3 48.1 L
118.6 47.862 L
118.9 47.625 L
119.2 47.38 L
119.5 47.142 L
119.8 46.905 L
120.1 46.667 L
120.4 46.422 L
120.7 46.185 L
121 45.947 L
121.3 45.702 L
121.6 45.465 L
121.9 45.22 L
122.2 44.982 L
122.5 44.738 L
122.8 44.493 L
123.1 44.255 L
123.4 44.01 L
123.7 43.766 L
124 43.521 L
124.3 43.276 L
124.6 43.031 L
124.9 42.786 L
125.2 42.542 L
125.5 42.297 L
125.8 42.052 L
126.1 41.807 L
126.4 41.562 L
S
GR
GS
[0.75 0 0 0.75 0 0] CT
0.914 0.282 0.286 RC
[8 8] 0 setdash
2 LJ
2.667 LW
N
58 169.406 M
58.3 122.915 L
58.6 118.386 L
58.9 115.665 L
59.2 113.75 L
59.5 112.266 L
59.8 110.999 L
60.1 109.926 L
60.4 108.962 L
60.7 108.09 L
61 107.277 L
61.3 106.514 L
61.6 105.786 L
61.9 105.095 L
62.2 104.433 L
62.5 103.792 L
62.8 103.173 L
63.1 102.575 L
63.4 101.992 L
63.7 101.43 L
64 100.876 L
64.3 100.336 L
64.6 99.803 L
64.9 99.278 L
65.2 98.759 L
65.5 98.255 L
65.8 97.766 L
66.1 97.283 L
66.4 96.808 L
66.7 96.34 L
67 95.879 L
67.3 95.426 L
67.6 94.972 L
67.9 94.533 L
68.2 94.094 L
68.5 93.662 L
68.8 93.237 L
69.1 92.812 L
69.4 92.402 L
69.7 91.991 L
70 91.581 L
70.3 91.178 L
70.6 90.782 L
70.9 90.386 L
71.2 89.997 L
71.5 89.608 L
71.8 89.226 L
72.1 88.845 L
72.4 88.47 L
72.7 88.103 L
73 87.736 L
73.3 87.369 L
73.6 87.009 L
73.9 86.649 L
74.2 86.296 L
74.5 85.943 L
74.8 85.59 L
75.1 85.245 L
75.4 84.906 L
75.7 84.561 L
76 84.222 L
76.3 83.884 L
76.6 83.553 L
76.9 83.222 L
77.2 82.898 L
77.5 82.566 L
77.8 82.242 L
78.1 81.926 L
78.4 81.602 L
78.7 81.285 L
79 80.968 L
79.3 80.658 L
79.6 80.349 L
79.9 80.039 L
80.2 79.73 L
80.5 79.427 L
80.8 79.125 L
81.1 78.822 L
81.4 78.52 L
81.7 78.225 L
82 77.93 L
82.3 77.634 L
82.6 77.339 L
82.9 77.051 L
83.2 76.756 L
83.5 76.468 L
83.8 76.187 L
84.1 75.899 L
84.4 75.618 L
84.7 75.33 L
85 75.05 L
85.3 74.769 L
85.6 74.495 L
85.9 74.214 L
86.2 73.941 L
86.5 73.667 L
86.8 73.394 L
87.1 73.12 L
87.4 72.846 L
87.7 72.58 L
88 72.306 L
88.3 72.04 L
88.6 71.774 L
88.9 71.507 L
89.2 71.248 L
89.5 70.982 L
89.8 70.715 L
90.1 70.456 L
90.4 70.197 L
90.7 69.938 L
91 69.678 L
91.3 69.419 L
91.6 69.167 L
91.9 68.908 L
92.2 68.656 L
92.5 68.397 L
92.8 68.145 L
93.1 67.893 L
93.4 67.641 L
93.7 67.389 L
94 67.144 L
94.3 66.892 L
94.6 66.647 L
94.9 66.395 L
95.2 66.15 L
95.5 65.906 L
95.8 65.661 L
96.1 65.416 L
96.4 65.171 L
96.7 64.926 L
97 64.689 L
97.3 64.444 L
97.6 64.206 L
97.9 63.962 L
98.2 63.724 L
98.5 63.486 L
98.8 63.249 L
99.1 63.011 L
99.4 62.774 L
99.7 62.536 L
100 62.298 L
100.3 62.068 L
100.6 61.83 L
100.9 61.593 L
101.2 61.362 L
101.5 61.125 L
101.8 60.894 L
102.1 60.664 L
102.4 60.434 L
102.7 60.203 L
103 59.966 L
103.3 59.735 L
103.6 59.512 L
103.9 59.282 L
104.2 59.051 L
104.5 58.821 L
104.8 58.59 L
105.1 58.367 L
105.4 58.137 L
105.7 57.914 L
106 57.683 L
106.3 57.46 L
106.6 57.23 L
106.9 57.006 L
107.2 56.776 L
107.5 56.553 L
107.8 56.33 L
108.1 56.106 L
108.4 55.883 L
108.7 55.66 L
109 55.43 L
109.3 55.206 L
109.6 54.983 L
109.9 54.76 L
110.2 54.544 L
110.5 54.321 L
110.8 54.098 L
111.1 53.874 L
111.4 53.651 L
111.7 53.435 L
112 53.212 L
112.3 52.989 L
112.6 52.766 L
112.9 52.55 L
113.2 52.326 L
113.5 52.103 L
113.8 51.887 L
114.1 51.664 L
114.4 51.448 L
114.7 51.225 L
115 51.009 L
115.3 50.786 L
115.6 50.57 L
115.9 50.346 L
116.2 50.13 L
116.5 49.907 L
116.8 49.691 L
117.1 49.468 L
117.4 49.252 L
117.7 49.029 L
118 48.813 L
118.3 48.597 L
118.6 48.374 L
118.9 48.158 L
119.2 47.934 L
119.5 47.718 L
119.8 47.495 L
120.1 47.279 L
120.4 47.063 L
120.7 46.84 L
121 46.624 L
121.3 46.401 L
121.6 46.185 L
121.9 45.962 L
122.2 45.746 L
122.5 45.522 L
122.8 45.306 L
123.1 45.083 L
123.4 44.86 L
123.7 44.644 L
124 44.421 L
124.3 44.205 L
124.6 43.982 L
124.9 43.758 L
125.2 43.542 L
125.5 43.319 L
125.8 43.096 L
126.1 42.873 L
126.4 42.657 L
S
GR
GS
[0.75 0 0 0.75 0 0] CT
0.443 0.749 0.431 RC
1 LJ
2.667 LW
N
58 169.406 M
58.3 108.184 L
58.6 104.174 L
58.9 101.819 L
59.2 99.998 L
59.5 98.428 L
59.8 97.024 L
60.1 95.742 L
60.4 94.554 L
60.7 93.438 L
61 92.38 L
61.3 91.372 L
61.6 90.407 L
61.9 89.471 L
62.2 88.564 L
62.5 87.693 L
62.8 86.836 L
63.1 86.001 L
63.4 85.194 L
63.7 84.395 L
64 83.618 L
64.3 82.854 L
64.6 82.106 L
64.9 81.371 L
65.2 80.651 L
65.5 79.938 L
65.8 79.24 L
66.1 78.549 L
66.4 77.872 L
66.7 77.202 L
67 76.54 L
67.3 75.885 L
67.6 75.237 L
67.9 74.596 L
68.2 73.962 L
68.5 73.343 L
68.8 72.724 L
69.1 72.112 L
69.4 71.507 L
69.7 70.902 L
70 70.312 L
70.3 69.722 L
70.6 69.138 L
70.9 68.562 L
71.2 67.986 L
71.5 67.418 L
71.8 66.856 L
72.1 66.294 L
72.4 65.74 L
72.7 65.193 L
73 64.646 L
73.3 64.106 L
73.6 63.566 L
73.9 63.033 L
74.2 62.5 L
74.5 61.974 L
74.8 61.449 L
75.1 60.923 L
75.4 60.412 L
75.7 59.894 L
76 59.382 L
76.3 58.878 L
76.6 58.367 L
76.9 57.87 L
77.2 57.366 L
77.5 56.87 L
77.8 56.373 L
78.1 55.883 L
78.4 55.394 L
78.7 54.911 L
79 54.429 L
79.3 53.946 L
79.6 53.471 L
79.9 52.996 L
80.2 52.521 L
80.5 52.046 L
80.8 51.578 L
81.1 51.11 L
81.4 50.642 L
81.7 50.181 L
82 49.72 L
82.3 49.259 L
82.6 48.806 L
82.9 48.352 L
83.2 47.898 L
83.5 47.445 L
83.8 46.998 L
84.1 46.552 L
84.4 46.106 L
84.7 45.659 L
85 45.22 L
85.3 44.781 L
85.6 44.342 L
S
GR
GS
[0.75 0 0 0.75 0 0] CT
0.443 0.749 0.431 RC
[8 8] 0 setdash
2 LJ
2.667 LW
N
58 169.406 M
58.3 108.537 L
58.6 104.238 L
58.9 101.697 L
59.2 99.774 L
59.5 98.147 L
59.8 96.7 L
60.1 95.382 L
60.4 94.122 L
60.7 92.949 L
61 91.847 L
61.3 90.789 L
61.6 89.766 L
61.9 88.787 L
62.2 87.837 L
62.5 86.922 L
62.8 86.03 L
63.1 85.158 L
63.4 84.309 L
63.7 83.481 L
64 82.667 L
64.3 81.875 L
64.6 81.098 L
64.9 80.334 L
65.2 79.586 L
65.5 78.844 L
65.8 78.117 L
66.1 77.404 L
66.4 76.698 L
66.7 76 L
67 75.309 L
67.3 74.632 L
67.6 73.962 L
67.9 73.3 L
68.2 72.645 L
68.5 71.997 L
68.8 71.356 L
69.1 70.722 L
69.4 70.103 L
69.7 69.477 L
70 68.865 L
70.3 68.26 L
70.6 67.655 L
70.9 67.058 L
71.2 66.467 L
71.5 65.884 L
71.8 65.301 L
72.1 64.725 L
72.4 64.156 L
72.7 63.594 L
73 63.033 L
73.3 62.471 L
73.6 61.924 L
73.9 61.377 L
74.2 60.83 L
74.5 60.29 L
74.8 59.757 L
75.1 59.224 L
75.4 58.691 L
75.7 58.173 L
76 57.647 L
76.3 57.129 L
76.6 56.618 L
76.9 56.106 L
77.2 55.602 L
77.5 55.098 L
77.8 54.594 L
78.1 54.098 L
78.4 53.608 L
78.7 53.118 L
79 52.629 L
79.3 52.139 L
79.6 51.657 L
79.9 51.182 L
80.2 50.706 L
80.5 50.231 L
80.8 49.756 L
81.1 49.288 L
81.4 48.82 L
81.7 48.359 L
82 47.898 L
82.3 47.438 L
82.6 46.984 L
82.9 46.53 L
83.2 46.077 L
83.5 45.63 L
83.8 45.184 L
84.1 44.738 L
84.4 44.298 L
84.7 43.852 L
85 43.42 L
85.3 42.981 L
85.6 42.549 L
S
GR
GS
[0.75 0 0 0.75 0 0] CT
1 0.6 0.2 RC
1 LJ
2.667 LW
N
58 169.406 M
58.3 96.801 L
58.6 92.934 L
58.9 90.177 L
59.2 87.916 L
59.5 85.936 L
59.8 84.15 L
60.1 82.509 L
60.4 80.975 L
60.7 79.521 L
61 78.138 L
61.3 76.821 L
61.6 75.546 L
61.9 74.322 L
62.2 73.134 L
62.5 71.982 L
62.8 70.859 L
63.1 69.772 L
63.4 68.699 L
63.7 67.655 L
64 66.633 L
64.3 65.625 L
64.6 64.638 L
64.9 63.666 L
65.2 62.702 L
65.5 61.758 L
65.8 60.822 L
66.1 59.901 L
66.4 58.994 L
66.7 58.094 L
67 57.208 L
67.3 56.322 L
67.6 55.451 L
67.9 54.587 L
68.2 53.73 L
68.5 52.881 L
68.8 52.031 L
69.1 51.196 L
69.4 50.361 L
69.7 49.533 L
70 48.712 L
70.3 47.898 L
70.6 47.085 L
70.9 46.271 L
71.2 45.472 L
71.5 44.673 L
71.8 43.874 L
S
GR
GS
[0.75 0 0 0.75 0 0] CT
1 0.6 0.2 RC
[8 8] 0 setdash
2 LJ
2.667 LW
N
58 169.406 M
58.3 96.966 L
58.6 92.877 L
58.9 90.004 L
59.2 87.65 L
59.5 85.583 L
59.8 83.726 L
60.1 82.012 L
60.4 80.414 L
60.7 78.902 L
61 77.454 L
61.3 76.072 L
61.6 74.74 L
61.9 73.458 L
62.2 72.213 L
62.5 71.003 L
62.8 69.83 L
63.1 68.678 L
63.4 67.554 L
63.7 66.453 L
64 65.373 L
64.3 64.314 L
64.6 63.263 L
64.9 62.241 L
65.2 61.226 L
65.5 60.225 L
65.8 59.238 L
66.1 58.259 L
66.4 57.294 L
66.7 56.337 L
67 55.394 L
67.3 54.45 L
67.6 53.522 L
67.9 52.6 L
68.2 51.686 L
68.5 50.778 L
68.8 49.871 L
69.1 48.978 L
69.4 48.086 L
69.7 47.193 L
70 46.314 L
70.3 45.429 L
70.6 44.558 L
70.9 43.679 L
71.2 42.808 L
71.5 41.944 L
71.8 41.08 L
S
GR
GS
[0.75 0 0 0.75 0 0] CT
0.678 0.443 0.71 RC
1 LJ
2.667 LW
N
58 169.406 M
58.3 87.03 L
58.6 82.581 L
58.9 79.283 L
59.2 76.497 L
59.5 74.063 L
59.8 71.86 L
60.1 69.83 L
60.4 67.929 L
60.7 66.136 L
61 64.437 L
61.3 62.802 L
61.6 61.24 L
61.9 59.721 L
62.2 58.259 L
62.5 56.834 L
62.8 55.437 L
63.1 54.083 L
63.4 52.751 L
63.7 51.441 L
64 50.159 L
64.3 48.892 L
64.6 47.646 L
64.9 46.415 L
65.2 45.198 L
S
GR
GS
[0.75 0 0 0.75 0 0] CT
0.678 0.443 0.71 RC
[8 8] 0 setdash
2 LJ
2.667 LW
N
58 169.406 M
58.3 87.11 L
58.6 82.487 L
58.9 79.038 L
59.2 76.151 L
59.5 73.624 L
59.8 71.334 L
60.1 69.232 L
60.4 67.259 L
60.7 65.394 L
61 63.616 L
61.3 61.902 L
61.6 60.254 L
61.9 58.662 L
62.2 57.114 L
62.5 55.602 L
62.8 54.126 L
63.1 52.679 L
63.4 51.261 L
63.7 49.864 L
64 48.482 L
64.3 47.121 L
64.6 45.774 L
64.9 44.435 L
65.2 43.11 L
S
GR
GS
[0.75 0 0 0.75 133.5 165] CT
0.149 GC
/Times-Roman 14.667 F
GS
[1 0 0 1 0 0] CT
-24.5 14 moveto 
1 -1 scale
(Time / s) t 
GR
GR
GS
[0 -0.75 0.75 0 16.5 84] CT
0.149 GC
/Times-Roman 14.667 F
GS
[1 0 0 1 0 0] CT
-34.5 0 moveto 
1 -1 scale
(Voltage / V) t 
GR
GR
GS
[0.75 0 0 0.75 0 0] CT
1 GC
N
281 120 M
281 83 L
200 83 L
200 120 L
cp
f
GR
GS
[0.75 0 0 0.75 185.25 69.85274] CT
/Times-Roman 13.333 F
GS
[1 0 0 1 0 0] CT
0 5 moveto 
1 -1 scale
(Truth) t 
GR
GR
GS
[0.75 0 0 0.75 0 0] CT
0.345 0.537 0.69 RC
1 LJ
2.667 LW
N
204 93.137 M
244 93.137 L
S
GR
GS
[0.75 0 0 0.75 185.25 82.39726] CT
/Times-Roman 13.333 F
GS
[1 0 0 1 0 0] CT
0 5 moveto 
1 -1 scale
(Iden) t 
GR
GR
GS
[0.75 0 0 0.75 0 0] CT
0.345 0.537 0.69 RC
[8 8] 0 setdash
2 LJ
2.667 LW
N
204 109.863 M
244 109.863 L
S
GR
GS
[0.75 0 0 0.75 0 0] CT
1 GC
10.0 ML
0.667 LW
N
200 120 M
200 83 L
281 83 L
281 120 L
cp
S
GR
%%Trailer
%%Pages: 1
%%EOF
